<?xml version="1.0" encoding="utf-8" ?>
<kml xmlns="http://www.opengis.net/kml/2.2">
<Document id="root_doc">
<Folder><name>ShanwickICAO</name>
  <Placemark>
	<Style><LineStyle><color>ff0000ff</color></LineStyle><PolyStyle><fill>0</fill></PolyStyle></Style>
      <Polygon><outerBoundaryIs><LinearRing><coordinates>-8.0,51.000002 -8.0,45.000002 -13.0,45.000002 -30.0,45.000002 -30.0,61.000002 -10.0,61.000002 -10.0,54.566668 -15.0,54.000002 -15.0,51.000002 -8.0,51.000002</coordinates></LinearRing></outerBoundaryIs></Polygon>
  </Placemark>
</Folder>
</Document></kml>
