{
"type": "FeatureCollection",
"name": "fir_winnipeg",
"crs": { "type": "name", "properties": { "name": "urn:ogc:def:crs:OGC:1.3:CRS84" } },
"features": [
{ "type": "Feature", "properties": { "FIRname": "FIR WINNIPEG", "ICAOCODE": "CZWG", "RESP": "MEXICO", "NOM_COMP": "WINNIPEG", "HISTORIC": null, "REMARKS": null, "REMARKS2": null, "centlong": -93.192039024699994, "centlat": 55.171176377899997, "AREAsqkm": 2286369.98728, "PERIMEkm": 8141.3852393899997, "FIR_NAME": "FIR WINNIPEG", "CODE": "CZWG", "Type": "FIR", "FIR_Upper": "Unlimited", "FIR_Lower": "GND", "UIR_Upper": null, "UIR_Lower": null, "limit": "Unlimited", "FIR_Uppe_1": 66000.0, "FIR_Lowe_1": 0.0, "UIR_Uppe_1": 0.0, "UIR_Lowe_1": 0.0, "Number_lim": 66000.0, "ANP_Region": "NAM", "Country_So": "Canada" }, "geometry": { "type": "MultiPolygon", "coordinates": [ [ [ [ -80.0, 62.750002 ], [ -80.0, 62.75 ], [ -80.0, 53.466669 ], [ -80.648056, 53.178861 ], [ -80.665786, 53.170746 ], [ -80.953265, 53.039169 ], [ -81.519454, 52.780028 ], [ -81.564788, 52.758591 ], [ -81.604029, 52.740586 ], [ -82.035426, 52.536032 ], [ -82.301599, 52.410161 ], [ -82.325793, 52.398349 ], [ -83.141666, 52.000002 ], [ -83.530856, 51.764506 ], [ -83.683381, 51.6709 ], [ -83.897855, 51.539276 ], [ -83.950303, 51.506477 ], [ -84.230961, 51.33096 ], [ -84.41675, 51.214771 ], [ -84.477055, 51.17637 ], [ -84.604525, 51.095198 ], [ -84.778504, 50.984411 ], [ -84.91228, 50.898019 ], [ -85.024287, 50.825685 ], [ -85.10361, 50.774459 ], [ -85.302473, 50.64409 ], [ -85.467624, 50.535821 ], [ -85.509626, 50.508285 ], [ -85.730569, 50.361068 ], [ -85.872781, 50.26631 ], [ -85.896118, 50.250761 ], [ -86.266666, 50.000002 ], [ -87.0, 49.533335 ], [ -86.999468, 47.774591 ], [ -87.715377, 48.052261 ], [ -88.369304, 48.305474 ], [ -88.684804, 48.241657 ], [ -88.965497, 48.126572 ], [ -88.96994, 48.12475 ], [ -89.337418, 47.974083 ], [ -89.447575, 48.003425 ], [ -89.48895, 48.014447 ], [ -89.516684, 48.010222 ], [ -89.564566, 48.002625 ], [ -89.564667, 48.002609 ], [ -89.569641, 47.999279 ], [ -89.570999, 47.998138 ], [ -89.572891, 47.997555 ], [ -89.577225, 47.997276 ], [ -89.580971, 47.996029 ], [ -89.581558, 47.996166 ], [ -89.581863, 47.996723 ], [ -89.582581, 47.996971 ], [ -89.583748, 47.997749 ], [ -89.584587, 47.99889 ], [ -89.585587, 47.999611 ], [ -89.585136, 48.001415 ], [ -89.585503, 48.001835 ], [ -89.588112, 48.002529 ], [ -89.591057, 48.002724 ], [ -89.592194, 48.003193 ], [ -89.592476, 48.003807 ], [ -89.592804, 48.004112 ], [ -89.593941, 48.004333 ], [ -89.594749, 48.004665 ], [ -89.595749, 48.004807 ], [ -89.596107, 48.004749 ], [ -89.596725, 48.004501 ], [ -89.597473, 48.004417 ], [ -89.597725, 48.004555 ], [ -89.597809, 48.004696 ], [ -89.597862, 48.00486 ], [ -89.598221, 48.005196 ], [ -89.601028, 48.005196 ], [ -89.603333, 48.006195 ], [ -89.606636, 48.006332 ], [ -89.60717, 48.006474 ], [ -89.608139, 48.007 ], [ -89.608582, 48.007862 ], [ -89.609276, 48.008499 ], [ -89.609779, 48.009418 ], [ -89.610527, 48.009804 ], [ -89.610474, 48.010166 ], [ -89.609642, 48.01086 ], [ -89.608948, 48.011223 ], [ -89.608528, 48.01189 ], [ -89.608559, 48.012779 ], [ -89.609512, 48.014623 ], [ -89.609779, 48.015141 ], [ -89.609253, 48.016834 ], [ -89.609474, 48.017471 ], [ -89.610695, 48.018002 ], [ -89.61161, 48.017887 ], [ -89.612198, 48.016499 ], [ -89.613206, 48.016072 ], [ -89.61364, 48.015888 ], [ -89.614914, 48.014946 ], [ -89.615501, 48.013668 ], [ -89.616058, 48.012779 ], [ -89.617111, 48.012085 ], [ -89.617722, 48.011333 ], [ -89.618416, 48.010944 ], [ -89.619781, 48.010777 ], [ -89.622833, 48.01186 ], [ -89.625526, 48.011806 ], [ -89.627113, 48.011585 ], [ -89.628166, 48.011276 ], [ -89.629333, 48.010555 ], [ -89.63192, 48.010139 ], [ -89.633026, 48.009804 ], [ -89.637169, 48.009529 ], [ -89.638031, 48.009193 ], [ -89.638306, 48.008999 ], [ -89.638443, 48.00853 ], [ -89.637642, 48.0075 ], [ -89.637527, 48.006584 ], [ -89.636642, 48.004971 ], [ -89.637054, 48.004223 ], [ -89.638748, 48.003639 ], [ -89.639893, 48.003944 ], [ -89.641418, 48.005749 ], [ -89.642914, 48.006416 ], [ -89.645859, 48.006332 ], [ -89.647003, 48.005974 ], [ -89.648331, 48.004139 ], [ -89.649109, 48.00386 ], [ -89.650864, 48.003693 ], [ -89.65303, 48.004333 ], [ -89.654335, 48.006222 ], [ -89.654831, 48.006584 ], [ -89.656113, 48.008194 ], [ -89.656807, 48.009945 ], [ -89.657669, 48.010445 ], [ -89.661942, 48.01086 ], [ -89.662636, 48.010777 ], [ -89.663139, 48.010502 ], [ -89.66378, 48.008778 ], [ -89.664665, 48.008083 ], [ -89.666779, 48.007389 ], [ -89.669029, 48.008194 ], [ -89.671524, 48.010193 ], [ -89.672195, 48.011307 ], [ -89.67292, 48.011639 ], [ -89.673859, 48.011639 ], [ -89.674919, 48.011444 ], [ -89.676109, 48.01136 ], [ -89.680115, 48.010277 ], [ -89.681969, 48.010193 ], [ -89.684082, 48.009888 ], [ -89.685753, 48.009861 ], [ -89.686279, 48.010166 ], [ -89.686386, 48.010807 ], [ -89.687416, 48.011002 ], [ -89.68811, 48.010971 ], [ -89.689667, 48.010277 ], [ -89.692024, 48.009888 ], [ -89.695, 48.008804 ], [ -89.698753, 48.007778 ], [ -89.701027, 48.006611 ], [ -89.702393, 48.006443 ], [ -89.703278, 48.006695 ], [ -89.705582, 48.007915 ], [ -89.707222, 48.009445 ], [ -89.708031, 48.010529 ], [ -89.708611, 48.010612 ], [ -89.712082, 48.01025 ], [ -89.712723, 48.010277 ], [ -89.7145, 48.00964 ], [ -89.715332, 48.009418 ], [ -89.71611, 48.009529 ], [ -89.716583, 48.009777 ], [ -89.716721, 48.010387 ], [ -89.716278, 48.011833 ], [ -89.71611, 48.012749 ], [ -89.71614, 48.012885 ], [ -89.716194, 48.013138 ], [ -89.716721, 48.013721 ], [ -89.716972, 48.013863 ], [ -89.717026, 48.014057 ], [ -89.716614, 48.014389 ], [ -89.71653, 48.015083 ], [ -89.716164, 48.016472 ], [ -89.716248, 48.016945 ], [ -89.717003, 48.017307 ], [ -89.717918, 48.017387 ], [ -89.718529, 48.017334 ], [ -89.719254, 48.016918 ], [ -89.720001, 48.015251 ], [ -89.72069, 48.014684 ], [ -89.720779, 48.01461 ], [ -89.721725, 48.014221 ], [ -89.72258, 48.013638 ], [ -89.723694, 48.013557 ], [ -89.724167, 48.013832 ], [ -89.723915, 48.015278 ], [ -89.724556, 48.016193 ], [ -89.724547, 48.016209 ], [ -89.723946, 48.01725 ], [ -89.722641, 48.017666 ], [ -89.720612, 48.017445 ], [ -89.719803, 48.017944 ], [ -89.719498, 48.018555 ], [ -89.720108, 48.019417 ], [ -89.721085, 48.020084 ], [ -89.723694, 48.020863 ], [ -89.724304, 48.020943 ], [ -89.724251, 48.020363 ], [ -89.723526, 48.019833 ], [ -89.72361, 48.01939 ], [ -89.724388, 48.019222 ], [ -89.726364, 48.019279 ], [ -89.727303, 48.019001 ], [ -89.728615, 48.019279 ], [ -89.729469, 48.019279 ], [ -89.730369, 48.019184 ], [ -89.731056, 48.019112 ], [ -89.73172, 48.01897 ], [ -89.732529, 48.019085 ], [ -89.732971, 48.019417 ], [ -89.732864, 48.019722 ], [ -89.732277, 48.019917 ], [ -89.73197, 48.020089 ], [ -89.731781, 48.020195 ], [ -89.73172, 48.020527 ], [ -89.732529, 48.020779 ], [ -89.732941, 48.021084 ], [ -89.732971, 48.02161 ], [ -89.733139, 48.021862 ], [ -89.733971, 48.022083 ], [ -89.735164, 48.021893 ], [ -89.735191, 48.021889 ], [ -89.736275, 48.021832 ], [ -89.736694, 48.021641 ], [ -89.737198, 48.021168 ], [ -89.737968, 48.020748 ], [ -89.738976, 48.020584 ], [ -89.74086, 48.020473 ], [ -89.741943, 48.020054 ], [ -89.742668, 48.020084 ], [ -89.743111, 48.020306 ], [ -89.743279, 48.020584 ], [ -89.743385, 48.021416 ], [ -89.744247, 48.021667 ], [ -89.744415, 48.022472 ], [ -89.744804, 48.022583 ], [ -89.745941, 48.022141 ], [ -89.746361, 48.022141 ], [ -89.748138, 48.023388 ], [ -89.748917, 48.023613 ], [ -89.750053, 48.02364 ], [ -89.750809, 48.022999 ], [ -89.751442, 48.022583 ], [ -89.752419, 48.022472 ], [ -89.752945, 48.022251 ], [ -89.753365, 48.022278 ], [ -89.753914, 48.022499 ], [ -89.754692, 48.023109 ], [ -89.755669, 48.023304 ], [ -89.7565, 48.023335 ], [ -89.757889, 48.023224 ], [ -89.760139, 48.02264 ], [ -89.762642, 48.023029 ], [ -89.764336, 48.02314 ], [ -89.767586, 48.022778 ], [ -89.768837, 48.022083 ], [ -89.770081, 48.021973 ], [ -89.77108, 48.02161 ], [ -89.772331, 48.020832 ], [ -89.773697, 48.020557 ], [ -89.774361, 48.021111 ], [ -89.773781, 48.021915 ], [ -89.774223, 48.022583 ], [ -89.774582, 48.022778 ], [ -89.77536, 48.022945 ], [ -89.775719, 48.022804 ], [ -89.776306, 48.021641 ], [ -89.777969, 48.02 ], [ -89.778664, 48.01889 ], [ -89.779083, 48.018585 ], [ -89.779663, 48.018833 ], [ -89.781281, 48.018528 ], [ -89.781723, 48.018055 ], [ -89.782303, 48.017944 ], [ -89.784386, 48.018055 ], [ -89.78553, 48.017834 ], [ -89.787781, 48.018055 ], [ -89.78878, 48.018391 ], [ -89.791725, 48.018555 ], [ -89.792419, 48.018444 ], [ -89.793388, 48.018002 ], [ -89.793999, 48.017944 ], [ -89.794586, 48.017834 ], [ -89.794975, 48.017666 ], [ -89.795364, 48.017113 ], [ -89.79583, 48.016834 ], [ -89.796364, 48.016083 ], [ -89.795975, 48.015362 ], [ -89.796364, 48.015083 ], [ -89.796837, 48.014946 ], [ -89.798058, 48.014915 ], [ -89.798805, 48.015026 ], [ -89.799698, 48.014999 ], [ -89.800247, 48.014832 ], [ -89.800919, 48.014446 ], [ -89.801582, 48.014252 ], [ -89.803337, 48.014252 ], [ -89.80542, 48.014137 ], [ -89.806137, 48.014332 ], [ -89.806557, 48.014805 ], [ -89.807419, 48.016693 ], [ -89.807503, 48.017223 ], [ -89.807137, 48.017529 ], [ -89.807358, 48.017666 ], [ -89.808693, 48.017361 ], [ -89.809334, 48.016804 ], [ -89.809944, 48.016693 ], [ -89.811111, 48.016888 ], [ -89.812057, 48.016582 ], [ -89.812973, 48.016613 ], [ -89.813858, 48.016361 ], [ -89.814392, 48.016335 ], [ -89.815193, 48.01614 ], [ -89.816475, 48.016109 ], [ -89.81739, 48.015751 ], [ -89.818192, 48.01553 ], [ -89.818863, 48.015556 ], [ -89.81958, 48.01572 ], [ -89.819946, 48.015583 ], [ -89.820442, 48.015167 ], [ -89.820747, 48.014973 ], [ -89.820969, 48.014473 ], [ -89.82122, 48.013943 ], [ -89.820778, 48.013168 ], [ -89.820969, 48.012859 ], [ -89.821388, 48.012695 ], [ -89.821724, 48.012474 ], [ -89.822197, 48.012249 ], [ -89.822639, 48.012112 ], [ -89.823082, 48.01186 ], [ -89.82386, 48.011528 ], [ -89.823891, 48.011391 ], [ -89.822693, 48.011307 ], [ -89.822197, 48.011166 ], [ -89.821808, 48.010693 ], [ -89.822388, 48.010387 ], [ -89.822365, 48.009724 ], [ -89.822777, 48.009304 ], [ -89.824669, 48.008389 ], [ -89.825584, 48.006779 ], [ -89.828026, 48.005806 ], [ -89.829086, 48.005165 ], [ -89.829002, 48.004807 ], [ -89.828636, 48.004276 ], [ -89.828636, 48.003918 ], [ -89.829025, 48.002724 ], [ -89.829636, 48.00161 ], [ -89.830666, 48.000221 ], [ -89.831306, 47.999695 ], [ -89.832611, 47.9995 ], [ -89.833809, 47.999584 ], [ -89.83622, 48.000916 ], [ -89.838112, 48.002251 ], [ -89.840141, 48.002834 ], [ -89.841858, 48.003113 ], [ -89.843414, 48.003639 ], [ -89.84436, 48.003445 ], [ -89.844803, 48.003139 ], [ -89.844002, 48.002304 ], [ -89.842476, 48.001945 ], [ -89.842087, 48.001751 ], [ -89.842552, 48.000252 ], [ -89.842361, 47.999054 ], [ -89.842583, 47.998585 ], [ -89.842476, 47.997334 ], [ -89.843613, 47.99736 ], [ -89.844025, 47.997196 ], [ -89.844223, 47.996277 ], [ -89.844498, 47.995861 ], [ -89.845726, 47.995029 ], [ -89.845947, 47.994694 ], [ -89.845863, 47.994362 ], [ -89.846001, 47.994194 ], [ -89.845779, 47.993694 ], [ -89.846085, 47.993305 ], [ -89.847191, 47.992695 ], [ -89.850998, 47.992332 ], [ -89.852806, 47.991974 ], [ -89.859192, 47.990971 ], [ -89.862053, 47.990807 ], [ -89.865639, 47.990166 ], [ -89.868195, 47.990276 ], [ -89.868858, 47.989807 ], [ -89.870026, 47.987473 ], [ -89.871361, 47.985943 ], [ -89.871887, 47.985611 ], [ -89.872665, 47.985527 ], [ -89.875778, 47.986221 ], [ -89.877914, 47.986832 ], [ -89.878891, 47.986916 ], [ -89.883804, 47.986473 ], [ -89.885414, 47.986526 ], [ -89.887474, 47.986916 ], [ -89.889557, 47.987778 ], [ -89.890808, 47.988056 ], [ -89.892281, 47.98814 ], [ -89.893471, 47.98764 ], [ -89.8955, 47.987415 ], [ -89.897194, 47.987667 ], [ -89.898804, 47.98814 ], [ -89.900833, 47.989277 ], [ -89.900998, 47.989449 ], [ -89.903, 47.991528 ], [ -89.904335, 47.992249 ], [ -89.91172, 47.993526 ], [ -89.913528, 47.99411 ], [ -89.915031, 47.994778 ], [ -89.915863, 47.995861 ], [ -89.916054, 47.996723 ], [ -89.916779, 47.997112 ], [ -89.917336, 47.997334 ], [ -89.918053, 47.997196 ], [ -89.919945, 47.997471 ], [ -89.921196, 47.997082 ], [ -89.921555, 47.997112 ], [ -89.922142, 47.99725 ], [ -89.922806, 47.998638 ], [ -89.922806, 47.999027 ], [ -89.921753, 47.999527 ], [ -89.921555, 47.999863 ], [ -89.921837, 48.000195 ], [ -89.92289, 48.000721 ], [ -89.925613, 48.001583 ], [ -89.926666, 48.00211 ], [ -89.927559, 48.001999 ], [ -89.928055, 48.002277 ], [ -89.927971, 48.002583 ], [ -89.927719, 48.002834 ], [ -89.926529, 48.00325 ], [ -89.925804, 48.003807 ], [ -89.925667, 48.004112 ], [ -89.925781, 48.005249 ], [ -89.925667, 48.005695 ], [ -89.925858, 48.00639 ], [ -89.926247, 48.006748 ], [ -89.926865, 48.007084 ], [ -89.927635, 48.007252 ], [ -89.928833, 48.007416 ], [ -89.929695, 48.007526 ], [ -89.930641, 48.008141 ], [ -89.931503, 48.008999 ], [ -89.932503, 48.010361 ], [ -89.932808, 48.011196 ], [ -89.932663, 48.012417 ], [ -89.932831, 48.013054 ], [ -89.933197, 48.01339 ], [ -89.933777, 48.013584 ], [ -89.934166, 48.014446 ], [ -89.933807, 48.015221 ], [ -89.934586, 48.015888 ], [ -89.935974, 48.015804 ], [ -89.936363, 48.015888 ], [ -89.939026, 48.015667 ], [ -89.939804, 48.015915 ], [ -89.940582, 48.015751 ], [ -89.940887, 48.015415 ], [ -89.94072, 48.014805 ], [ -89.941086, 48.014637 ], [ -89.944115, 48.014526 ], [ -89.948776, 48.016109 ], [ -89.94989, 48.016361 ], [ -89.950607, 48.016304 ], [ -89.950974, 48.016056 ], [ -89.951111, 48.015278 ], [ -89.950752, 48.014694 ], [ -89.949997, 48.014084 ], [ -89.94989, 48.013611 ], [ -89.950058, 48.012974 ], [ -89.951279, 48.01125 ], [ -89.952278, 48.010807 ], [ -89.95311, 48.010887 ], [ -89.954781, 48.01189 ], [ -89.955833, 48.012333 ], [ -89.959969, 48.013748 ], [ -89.96125, 48.013779 ], [ -89.962364, 48.014278 ], [ -89.963974, 48.015141 ], [ -89.965027, 48.015221 ], [ -89.968246, 48.014751 ], [ -89.968803, 48.015167 ], [ -89.969139, 48.016056 ], [ -89.969498, 48.016529 ], [ -89.971664, 48.018055 ], [ -89.971832, 48.018639 ], [ -89.971779, 48.019554 ], [ -89.972054, 48.019943 ], [ -89.97303, 48.020168 ], [ -89.973503, 48.020473 ], [ -89.973724, 48.020916 ], [ -89.97364, 48.021526 ], [ -89.973747, 48.021973 ], [ -89.974693, 48.023193 ], [ -89.97522, 48.023361 ], [ -89.97628, 48.023445 ], [ -89.977753, 48.02375 ], [ -89.9795, 48.023945 ], [ -89.98111, 48.024307 ], [ -89.982246, 48.024723 ], [ -89.984222, 48.025749 ], [ -89.984833, 48.026222 ], [ -89.985222, 48.02639 ], [ -89.985641, 48.02636 ], [ -89.986694, 48.025585 ], [ -89.987114, 48.025444 ], [ -89.988914, 48.025749 ], [ -89.988861, 48.026165 ], [ -89.98967, 48.026417 ], [ -89.990082, 48.026833 ], [ -89.990082, 48.027279 ], [ -89.989861, 48.027527 ], [ -89.989136, 48.027805 ], [ -89.989082, 48.027943 ], [ -89.989197, 48.028111 ], [ -89.989944, 48.028 ], [ -89.990448, 48.028168 ], [ -89.990471, 48.02861 ], [ -89.990723, 48.028751 ], [ -89.992638, 48.028446 ], [ -89.993195, 48.028111 ], [ -89.993835, 48.028168 ], [ -89.994003, 48.028557 ], [ -89.994469, 48.028751 ], [ -89.99472, 48.028999 ], [ -89.994919, 48.029388 ], [ -89.994751, 48.029778 ], [ -89.994888, 48.030388 ], [ -89.994553, 48.031055 ], [ -89.994553, 48.031277 ], [ -89.99511, 48.03186 ], [ -89.99511, 48.032276 ], [ -89.995613, 48.032639 ], [ -89.996002, 48.033501 ], [ -89.995941, 48.03389 ], [ -89.99633, 48.033916 ], [ -89.996529, 48.034584 ], [ -89.997086, 48.035389 ], [ -89.99675, 48.036835 ], [ -89.996445, 48.039223 ], [ -89.996475, 48.039417 ], [ -89.996475, 48.040333 ], [ -89.996109, 48.042389 ], [ -89.993835, 48.049389 ], [ -89.998108, 48.057999 ], [ -90.004524, 48.064529 ], [ -90.004448, 48.065334 ], [ -90.006447, 48.065582 ], [ -90.007248, 48.067139 ], [ -90.00872, 48.068638 ], [ -90.009865, 48.069054 ], [ -90.010803, 48.068001 ], [ -90.014832, 48.067223 ], [ -90.018776, 48.072029 ], [ -90.023331, 48.084835 ], [ -90.029358, 48.087582 ], [ -90.037971, 48.08939 ], [ -90.039085, 48.090027 ], [ -90.041359, 48.089417 ], [ -90.042389, 48.090057 ], [ -90.042725, 48.090111 ], [ -90.043282, 48.090473 ], [ -90.04422, 48.090694 ], [ -90.04467, 48.090832 ], [ -90.045029, 48.090916 ], [ -90.045197, 48.090946 ], [ -90.045334, 48.091 ], [ -90.045441, 48.09111 ], [ -90.045502, 48.091415 ], [ -90.045753, 48.091583 ], [ -90.046219, 48.091721 ], [ -90.046638, 48.091667 ], [ -90.047417, 48.091751 ], [ -90.04808, 48.091805 ], [ -90.048195, 48.091862 ], [ -90.048332, 48.091946 ], [ -90.048553, 48.091915 ], [ -90.048775, 48.091915 ], [ -90.049393, 48.092304 ], [ -90.050278, 48.092583 ], [ -90.053199, 48.09415 ], [ -90.057472, 48.096443 ], [ -90.066444, 48.098526 ], [ -90.074112, 48.101307 ], [ -90.091614, 48.104668 ], [ -90.115997, 48.104221 ], [ -90.122444, 48.105778 ], [ -90.12339, 48.107029 ], [ -90.123413, 48.107113 ], [ -90.123581, 48.107193 ], [ -90.123642, 48.10725 ], [ -90.123642, 48.107334 ], [ -90.123779, 48.107361 ], [ -90.124001, 48.107388 ], [ -90.124168, 48.107388 ], [ -90.124527, 48.107418 ], [ -90.124664, 48.107471 ], [ -90.124725, 48.107529 ], [ -90.124969, 48.107555 ], [ -90.125168, 48.107582 ], [ -90.125252, 48.107613 ], [ -90.125275, 48.107723 ], [ -90.12542, 48.107807 ], [ -90.125473, 48.107887 ], [ -90.125557, 48.108002 ], [ -90.125748, 48.108112 ], [ -90.125999, 48.108082 ], [ -90.126251, 48.108139 ], [ -90.126358, 48.108082 ], [ -90.126526, 48.108196 ], [ -90.126915, 48.108196 ], [ -90.12722, 48.108082 ], [ -90.127419, 48.108166 ], [ -90.127724, 48.108276 ], [ -90.127892, 48.108418 ], [ -90.128113, 48.108444 ], [ -90.128387, 48.108582 ], [ -90.128441, 48.108696 ], [ -90.128639, 48.108776 ], [ -90.12883, 48.108891 ], [ -90.128891, 48.109055 ], [ -90.129082, 48.109196 ], [ -90.129333, 48.10928 ], [ -90.129417, 48.10928 ], [ -90.129501, 48.109417 ], [ -90.129555, 48.109501 ], [ -90.129585, 48.109612 ], [ -90.129333, 48.109806 ], [ -90.129417, 48.109917 ], [ -90.129753, 48.109974 ], [ -90.129974, 48.110168 ], [ -90.130333, 48.110138 ], [ -90.130417, 48.11039 ], [ -90.131081, 48.110638 ], [ -90.132553, 48.111721 ], [ -90.135635, 48.112221 ], [ -90.13578, 48.112278 ], [ -90.136108, 48.112167 ], [ -90.136414, 48.112167 ], [ -90.136749, 48.112305 ], [ -90.137054, 48.112305 ], [ -90.13736, 48.112221 ], [ -90.137558, 48.112278 ], [ -90.137802, 48.112221 ], [ -90.137947, 48.112251 ], [ -90.138474, 48.112305 ], [ -90.138809, 48.112335 ], [ -90.140831, 48.11261 ], [ -90.142754, 48.112583 ], [ -90.143303, 48.11261 ], [ -90.143524, 48.112556 ], [ -90.144028, 48.112694 ], [ -90.144218, 48.112667 ], [ -90.144363, 48.112305 ], [ -90.14447, 48.112278 ], [ -90.144501, 48.112194 ], [ -90.144554, 48.112057 ], [ -90.144806, 48.111805 ], [ -90.144974, 48.111694 ], [ -90.145363, 48.111637 ], [ -90.145584, 48.111584 ], [ -90.145721, 48.11161 ], [ -90.14592, 48.1115 ], [ -90.146309, 48.111332 ], [ -90.146667, 48.111195 ], [ -90.146942, 48.111168 ], [ -90.147194, 48.111084 ], [ -90.150864, 48.110443 ], [ -90.164276, 48.109779 ], [ -90.176498, 48.112446 ], [ -90.188614, 48.108082 ], [ -90.19503, 48.108387 ], [ -90.210693, 48.106388 ], [ -90.216499, 48.106556 ], [ -90.225166, 48.10825 ], [ -90.233971, 48.10725 ], [ -90.25383, 48.102249 ], [ -90.26075, 48.102749 ], [ -90.264442, 48.103416 ], [ -90.274529, 48.103195 ], [ -90.289253, 48.099083 ], [ -90.292831, 48.098999 ], [ -90.298111, 48.102554 ], [ -90.30011, 48.102943 ], [ -90.303833, 48.103943 ], [ -90.305779, 48.105167 ], [ -90.310059, 48.105556 ], [ -90.313919, 48.105141 ], [ -90.317413, 48.103748 ], [ -90.322441, 48.102917 ], [ -90.325806, 48.10289 ], [ -90.330055, 48.10228 ], [ -90.336945, 48.099583 ], [ -90.337639, 48.09761 ], [ -90.338081, 48.096138 ], [ -90.343025, 48.095501 ], [ -90.343361, 48.094971 ], [ -90.343498, 48.09486 ], [ -90.343582, 48.094582 ], [ -90.343887, 48.094501 ], [ -90.344307, 48.094307 ], [ -90.34597, 48.093971 ], [ -90.351944, 48.094776 ], [ -90.353806, 48.094971 ], [ -90.357391, 48.094418 ], [ -90.358864, 48.09486 ], [ -90.367447, 48.094696 ], [ -90.368614, 48.094307 ], [ -90.368668, 48.094139 ], [ -90.368942, 48.093945 ], [ -90.369858, 48.093971 ], [ -90.370026, 48.094028 ], [ -90.370361, 48.093971 ], [ -90.370499, 48.093887 ], [ -90.370941, 48.09375 ], [ -90.371193, 48.093693 ], [ -90.371529, 48.093639 ], [ -90.371582, 48.093582 ], [ -90.37178, 48.093582 ], [ -90.371864, 48.093666 ], [ -90.372307, 48.093861 ], [ -90.372528, 48.093971 ], [ -90.373024, 48.093971 ], [ -90.373413, 48.094028 ], [ -90.373611, 48.093777 ], [ -90.373642, 48.093498 ], [ -90.373695, 48.093277 ], [ -90.373665, 48.093082 ], [ -90.373528, 48.092861 ], [ -90.373337, 48.092194 ], [ -90.373138, 48.091946 ], [ -90.372665, 48.091557 ], [ -90.372719, 48.091251 ], [ -90.373276, 48.091084 ], [ -90.373581, 48.090973 ], [ -90.373779, 48.091026 ], [ -90.374191, 48.091 ], [ -90.374275, 48.090916 ], [ -90.374779, 48.090946 ], [ -90.375473, 48.091251 ], [ -90.376114, 48.091473 ], [ -90.376251, 48.091583 ], [ -90.376419, 48.091694 ], [ -90.376945, 48.091946 ], [ -90.377609, 48.092278 ], [ -90.378052, 48.092388 ], [ -90.378304, 48.092335 ], [ -90.378471, 48.092304 ], [ -90.378891, 48.092224 ], [ -90.379501, 48.092304 ], [ -90.379837, 48.092335 ], [ -90.380363, 48.092499 ], [ -90.380608, 48.092667 ], [ -90.381111, 48.092834 ], [ -90.381973, 48.092999 ], [ -90.382195, 48.093224 ], [ -90.382774, 48.093472 ], [ -90.382919, 48.093666 ], [ -90.383698, 48.094166 ], [ -90.383942, 48.094444 ], [ -90.38472, 48.094666 ], [ -90.384888, 48.094833 ], [ -90.385109, 48.095196 ], [ -90.385277, 48.095417 ], [ -90.385666, 48.095943 ], [ -90.38575, 48.096249 ], [ -90.385834, 48.096474 ], [ -90.385834, 48.096863 ], [ -90.385959, 48.097098 ], [ -90.386024, 48.097221 ], [ -90.385971, 48.097332 ], [ -90.386108, 48.09761 ], [ -90.386192, 48.098141 ], [ -90.386444, 48.098141 ], [ -90.387306, 48.098415 ], [ -90.387444, 48.098499 ], [ -90.387695, 48.098473 ], [ -90.388107, 48.098557 ], [ -90.388611, 48.098804 ], [ -90.388809, 48.099056 ], [ -90.389053, 48.099224 ], [ -90.389336, 48.099472 ], [ -90.38958, 48.099556 ], [ -90.389893, 48.099888 ], [ -90.390114, 48.100029 ], [ -90.390114, 48.100056 ], [ -90.390503, 48.100029 ], [ -90.390694, 48.100082 ], [ -90.391052, 48.10014 ], [ -90.391441, 48.100193 ], [ -90.39164, 48.100304 ], [ -90.392029, 48.100334 ], [ -90.392365, 48.100304 ], [ -90.392639, 48.100277 ], [ -90.392776, 48.100224 ], [ -90.393082, 48.10025 ], [ -90.39325, 48.100224 ], [ -90.393448, 48.100334 ], [ -90.39389, 48.100555 ], [ -90.394279, 48.100807 ], [ -90.394386, 48.100918 ], [ -90.394585, 48.101002 ], [ -90.395027, 48.101166 ], [ -90.395248, 48.101112 ], [ -90.395691, 48.101166 ], [ -90.395943, 48.101307 ], [ -90.396194, 48.101307 ], [ -90.396309, 48.101418 ], [ -90.396141, 48.101612 ], [ -90.396332, 48.101749 ], [ -90.396332, 48.101833 ], [ -90.396698, 48.102055 ], [ -90.397026, 48.102139 ], [ -90.397194, 48.10228 ], [ -90.397446, 48.102222 ], [ -90.397781, 48.102306 ], [ -90.398003, 48.102306 ], [ -90.398109, 48.102333 ], [ -90.403168, 48.105083 ], [ -90.410667, 48.105057 ], [ -90.438446, 48.098667 ], [ -90.443359, 48.100613 ], [ -90.447441, 48.103443 ], [ -90.452278, 48.105057 ], [ -90.461998, 48.106499 ], [ -90.465309, 48.108555 ], [ -90.467392, 48.108749 ], [ -90.470418, 48.106528 ], [ -90.471252, 48.105915 ], [ -90.477608, 48.105251 ], [ -90.480225, 48.102001 ], [ -90.483582, 48.100082 ], [ -90.486694, 48.099056 ], [ -90.48983, 48.098999 ], [ -90.493578, 48.101337 ], [ -90.493691, 48.101292 ], [ -90.499669, 48.098901 ], [ -90.502357, 48.09914 ], [ -90.502609, 48.099361 ], [ -90.502861, 48.099388 ], [ -90.503471, 48.099556 ], [ -90.503754, 48.099529 ], [ -90.504028, 48.099556 ], [ -90.504196, 48.09964 ], [ -90.504608, 48.099667 ], [ -90.50489, 48.099777 ], [ -90.505142, 48.099751 ], [ -90.505333, 48.099667 ], [ -90.505554, 48.099556 ], [ -90.505753, 48.099472 ], [ -90.506027, 48.099415 ], [ -90.506615, 48.099361 ], [ -90.50692, 48.099415 ], [ -90.507027, 48.099335 ], [ -90.507225, 48.099335 ], [ -90.507446, 48.099194 ], [ -90.507553, 48.09914 ], [ -90.507721, 48.09911 ], [ -90.509583, 48.09761 ], [ -90.510307, 48.097279 ], [ -90.516945, 48.099304 ], [ -90.556694, 48.095917 ], [ -90.562869, 48.098208 ], [ -90.564476, 48.098804 ], [ -90.565498, 48.099777 ], [ -90.567444, 48.101582 ], [ -90.569725, 48.106834 ], [ -90.564067, 48.110844 ], [ -90.555496, 48.116917 ], [ -90.559113, 48.121723 ], [ -90.565414, 48.122471 ], [ -90.571419, 48.121082 ], [ -90.575752, 48.120609 ], [ -90.576973, 48.12114 ], [ -90.579666, 48.123806 ], [ -90.582054, 48.123611 ], [ -90.585861, 48.121971 ], [ -90.586777, 48.120861 ], [ -90.590309, 48.119556 ], [ -90.5905, 48.119362 ], [ -90.5905, 48.119194 ], [ -90.590553, 48.119167 ], [ -90.590637, 48.119083 ], [ -90.591278, 48.117443 ], [ -90.60614, 48.115833 ], [ -90.612694, 48.113277 ], [ -90.613441, 48.11314 ], [ -90.615082, 48.112694 ], [ -90.616081, 48.112167 ], [ -90.617638, 48.112335 ], [ -90.618164, 48.112221 ], [ -90.619225, 48.111694 ], [ -90.620026, 48.111526 ], [ -90.620331, 48.111805 ], [ -90.627052, 48.111778 ], [ -90.641502, 48.103527 ], [ -90.686279, 48.100418 ], [ -90.702271, 48.096198 ], [ -90.703469, 48.096006 ], [ -90.741447, 48.094555 ], [ -90.747769, 48.092322 ], [ -90.755606, 48.094006 ], [ -90.761414, 48.098389 ], [ -90.761276, 48.099972 ], [ -90.767136, 48.110584 ], [ -90.766693, 48.114418 ], [ -90.768753, 48.116585 ], [ -90.769943, 48.116638 ], [ -90.770416, 48.116806 ], [ -90.772636, 48.117611 ], [ -90.774109, 48.118637 ], [ -90.774055, 48.118999 ], [ -90.774246, 48.120083 ], [ -90.775948, 48.122391 ], [ -90.77639, 48.124001 ], [ -90.780167, 48.125305 ], [ -90.78183, 48.125751 ], [ -90.78347, 48.126804 ], [ -90.782753, 48.127693 ], [ -90.783607, 48.127888 ], [ -90.783859, 48.128113 ], [ -90.784111, 48.128139 ], [ -90.784531, 48.127693 ], [ -90.784889, 48.127529 ], [ -90.785194, 48.127556 ], [ -90.785194, 48.127666 ], [ -90.785164, 48.127834 ], [ -90.785385, 48.127888 ], [ -90.785667, 48.127693 ], [ -90.786362, 48.127609 ], [ -90.787025, 48.127693 ], [ -90.787224, 48.128139 ], [ -90.78833, 48.128834 ], [ -90.78978, 48.130138 ], [ -90.787971, 48.132694 ], [ -90.786972, 48.132999 ], [ -90.786499, 48.133083 ], [ -90.784889, 48.133221 ], [ -90.784195, 48.132973 ], [ -90.78347, 48.132637 ], [ -90.782722, 48.133751 ], [ -90.781754, 48.135223 ], [ -90.782219, 48.13586 ], [ -90.782722, 48.136002 ], [ -90.78511, 48.135334 ], [ -90.785889, 48.13525 ], [ -90.786087, 48.135334 ], [ -90.786392, 48.135529 ], [ -90.786972, 48.135639 ], [ -90.787666, 48.135971 ], [ -90.788475, 48.136196 ], [ -90.78878, 48.13636 ], [ -90.789391, 48.136223 ], [ -90.790947, 48.135807 ], [ -90.791275, 48.135807 ], [ -90.791533, 48.135748 ], [ -90.791641, 48.135723 ], [ -90.792526, 48.135693 ], [ -90.79258, 48.135777 ], [ -90.794052, 48.135555 ], [ -90.794304, 48.135277 ], [ -90.794914, 48.135445 ], [ -90.795219, 48.135502 ], [ -90.798225, 48.13689 ], [ -90.796753, 48.139389 ], [ -90.792252, 48.141277 ], [ -90.790967, 48.142413 ], [ -90.78933, 48.14386 ], [ -90.784302, 48.146168 ], [ -90.784164, 48.146362 ], [ -90.783974, 48.146389 ], [ -90.783279, 48.146332 ], [ -90.781754, 48.146 ], [ -90.78083, 48.145863 ], [ -90.779442, 48.146694 ], [ -90.778831, 48.147083 ], [ -90.777832, 48.148277 ], [ -90.778999, 48.150528 ], [ -90.778419, 48.153 ], [ -90.777611, 48.156445 ], [ -90.776611, 48.160084 ], [ -90.77636, 48.160557 ], [ -90.776169, 48.161888 ], [ -90.777946, 48.163834 ], [ -90.778358, 48.164055 ], [ -90.778915, 48.164249 ], [ -90.779358, 48.164391 ], [ -90.781364, 48.164555 ], [ -90.781914, 48.164501 ], [ -90.782387, 48.164223 ], [ -90.783447, 48.163834 ], [ -90.785942, 48.160999 ], [ -90.788422, 48.160406 ], [ -90.790359, 48.159943 ], [ -90.793083, 48.161388 ], [ -90.79364, 48.16111 ], [ -90.793915, 48.160915 ], [ -90.794167, 48.160583 ], [ -90.794502, 48.160057 ], [ -90.79583, 48.159222 ], [ -90.796417, 48.159195 ], [ -90.797607, 48.160641 ], [ -90.797691, 48.160946 ], [ -90.797531, 48.16153 ], [ -90.798584, 48.162056 ], [ -90.798752, 48.162224 ], [ -90.799332, 48.162224 ], [ -90.800751, 48.163166 ], [ -90.80114, 48.164082 ], [ -90.801811, 48.167322 ], [ -90.801888, 48.167694 ], [ -90.801697, 48.170223 ], [ -90.80172, 48.170723 ], [ -90.801941, 48.171165 ], [ -90.802223, 48.171417 ], [ -90.802361, 48.171806 ], [ -90.802971, 48.172554 ], [ -90.804085, 48.177807 ], [ -90.80986, 48.179695 ], [ -90.810974, 48.179695 ], [ -90.812668, 48.179474 ], [ -90.817528, 48.17939 ], [ -90.818779, 48.181168 ], [ -90.819252, 48.18264 ], [ -90.82103, 48.184666 ], [ -90.82428, 48.18364 ], [ -90.825775, 48.183582 ], [ -90.825386, 48.181526 ], [ -90.824387, 48.180111 ], [ -90.823944, 48.179611 ], [ -90.823448, 48.178055 ], [ -90.824692, 48.176834 ], [ -90.826141, 48.177082 ], [ -90.827289, 48.176441 ], [ -90.832558, 48.1735 ], [ -90.836388, 48.177029 ], [ -90.835335, 48.181596 ], [ -90.834198, 48.186527 ], [ -90.834831, 48.201805 ], [ -90.835545, 48.208886 ], [ -90.836418, 48.217556 ], [ -90.836502, 48.217918 ], [ -90.836502, 48.218166 ], [ -90.83625, 48.218807 ], [ -90.836334, 48.219166 ], [ -90.836975, 48.220196 ], [ -90.83725, 48.225056 ], [ -90.837585, 48.226528 ], [ -90.839668, 48.227665 ], [ -90.839806, 48.228279 ], [ -90.839722, 48.228638 ], [ -90.839752, 48.228806 ], [ -90.839363, 48.229168 ], [ -90.839267, 48.229815 ], [ -90.839165, 48.230499 ], [ -90.83847, 48.231609 ], [ -90.837692, 48.234722 ], [ -90.839302, 48.239555 ], [ -90.843109, 48.241196 ], [ -90.843834, 48.243694 ], [ -90.847664, 48.244526 ], [ -90.866943, 48.238224 ], [ -90.875084, 48.237835 ], [ -90.881531, 48.240501 ], [ -90.88575, 48.245945 ], [ -90.90686, 48.237499 ], [ -90.913785, 48.231818 ], [ -90.916582, 48.230957 ], [ -90.917305, 48.231056 ], [ -90.918419, 48.230721 ], [ -90.926414, 48.229805 ], [ -90.976974, 48.219555 ], [ -91.004112, 48.20303 ], [ -91.002808, 48.200722 ], [ -91.012306, 48.198444 ], [ -91.015198, 48.196194 ], [ -91.019753, 48.194111 ], [ -91.020111, 48.193027 ], [ -91.021309, 48.193138 ], [ -91.022087, 48.192833 ], [ -91.022667, 48.19236 ], [ -91.023026, 48.191891 ], [ -91.023416, 48.19105 ], [ -91.026627, 48.190592 ], [ -91.03551, 48.189836 ], [ -91.035659, 48.189824 ], [ -91.035729, 48.189818 ], [ -91.036392, 48.190109 ], [ -91.045609, 48.189445 ], [ -91.046776, 48.189167 ], [ -91.048668, 48.188751 ], [ -91.049889, 48.188778 ], [ -91.051971, 48.188057 ], [ -91.05542, 48.188305 ], [ -91.056053, 48.188084 ], [ -91.057503, 48.187054 ], [ -91.059219, 48.185333 ], [ -91.062805, 48.185528 ], [ -91.065475, 48.181416 ], [ -91.07589, 48.179359 ], [ -91.078857, 48.179527 ], [ -91.079697, 48.17989 ], [ -91.080643, 48.180054 ], [ -91.081337, 48.180862 ], [ -91.082474, 48.181137 ], [ -91.087997, 48.178307 ], [ -91.091972, 48.173668 ], [ -91.097137, 48.171612 ], [ -91.108864, 48.168694 ], [ -91.114723, 48.1665 ], [ -91.118027, 48.162083 ], [ -91.119858, 48.160694 ], [ -91.13253, 48.157276 ], [ -91.13578, 48.156612 ], [ -91.138947, 48.15575 ], [ -91.142609, 48.15461 ], [ -91.140472, 48.152832 ], [ -91.140419, 48.152248 ], [ -91.140137, 48.151695 ], [ -91.138054, 48.151943 ], [ -91.137337, 48.14925 ], [ -91.146624, 48.144965 ], [ -91.14917, 48.144159 ], [ -91.15053, 48.143163 ], [ -91.156303, 48.140499 ], [ -91.17471, 48.126929 ], [ -91.175278, 48.126657 ], [ -91.177525, 48.125135 ], [ -91.181274, 48.123528 ], [ -91.182892, 48.122196 ], [ -91.183334, 48.122166 ], [ -91.184692, 48.122528 ], [ -91.190056, 48.125111 ], [ -91.21492, 48.102859 ], [ -91.228058, 48.099224 ], [ -91.234886, 48.096138 ], [ -91.249695, 48.084084 ], [ -91.266777, 48.078835 ], [ -91.275917, 48.078777 ], [ -91.289719, 48.074165 ], [ -91.306358, 48.072861 ], [ -91.306862, 48.072834 ], [ -91.307831, 48.072887 ], [ -91.308807, 48.072777 ], [ -91.310143, 48.072807 ], [ -91.31086, 48.072834 ], [ -91.311279, 48.073139 ], [ -91.311752, 48.073223 ], [ -91.314751, 48.073555 ], [ -91.315392, 48.073555 ], [ -91.316025, 48.073444 ], [ -91.31736, 48.07325 ], [ -91.31797, 48.073082 ], [ -91.319191, 48.073223 ], [ -91.324471, 48.072945 ], [ -91.326111, 48.072277 ], [ -91.328476, 48.071083 ], [ -91.328636, 48.070915 ], [ -91.328781, 48.070583 ], [ -91.329361, 48.069973 ], [ -91.331276, 48.069611 ], [ -91.332001, 48.07011 ], [ -91.33342, 48.069916 ], [ -91.334641, 48.0695 ], [ -91.336365, 48.069695 ], [ -91.336388, 48.071083 ], [ -91.339973, 48.073555 ], [ -91.348557, 48.072193 ], [ -91.349693, 48.07164 ], [ -91.35022, 48.071945 ], [ -91.350334, 48.071972 ], [ -91.350891, 48.071751 ], [ -91.351997, 48.071415 ], [ -91.352554, 48.071194 ], [ -91.353615, 48.070835 ], [ -91.364975, 48.067112 ], [ -91.370834, 48.069721 ], [ -91.378387, 48.065918 ], [ -91.390892, 48.057167 ], [ -91.413582, 48.053696 ], [ -91.422165, 48.050972 ], [ -91.424393, 48.050724 ], [ -91.426666, 48.049862 ], [ -91.427139, 48.049999 ], [ -91.429581, 48.048668 ], [ -91.437248, 48.049473 ], [ -91.437668, 48.049862 ], [ -91.438583, 48.050335 ], [ -91.438583, 48.050499 ], [ -91.438194, 48.05061 ], [ -91.438004, 48.050861 ], [ -91.43811, 48.051167 ], [ -91.437775, 48.052471 ], [ -91.44664, 48.063026 ], [ -91.44622, 48.067749 ], [ -91.449997, 48.069084 ], [ -91.464722, 48.06686 ], [ -91.488197, 48.06839 ], [ -91.512864, 48.061686 ], [ -91.541664, 48.05386 ], [ -91.567497, 48.043777 ], [ -91.575447, 48.048943 ], [ -91.57308, 48.056282 ], [ -91.572723, 48.057388 ], [ -91.575386, 48.066723 ], [ -91.573169, 48.076784 ], [ -91.572619, 48.079278 ], [ -91.569443, 48.093693 ], [ -91.552834, 48.103249 ], [ -91.559113, 48.108582 ], [ -91.575584, 48.106918 ], [ -91.588806, 48.10247 ], [ -91.614861, 48.10228 ], [ -91.636262, 48.097865 ], [ -91.639915, 48.097111 ], [ -91.641991, 48.099087 ], [ -91.646973, 48.103832 ], [ -91.648026, 48.105835 ], [ -91.648003, 48.106335 ], [ -91.648109, 48.106415 ], [ -91.648476, 48.106415 ], [ -91.648666, 48.106472 ], [ -91.649612, 48.107334 ], [ -91.653084, 48.109806 ], [ -91.651474, 48.112194 ], [ -91.651138, 48.112999 ], [ -91.651802, 48.113945 ], [ -91.653252, 48.114388 ], [ -91.655113, 48.113724 ], [ -91.661858, 48.111916 ], [ -91.662224, 48.111637 ], [ -91.662636, 48.109138 ], [ -91.664642, 48.107334 ], [ -91.665085, 48.10714 ], [ -91.667358, 48.108696 ], [ -91.671059, 48.108665 ], [ -91.676781, 48.107498 ], [ -91.680885, 48.108307 ], [ -91.681808, 48.109806 ], [ -91.687584, 48.111889 ], [ -91.683556, 48.117695 ], [ -91.682114, 48.122501 ], [ -91.690666, 48.120277 ], [ -91.692108, 48.119751 ], [ -91.691193, 48.118111 ], [ -91.692169, 48.11689 ], [ -91.693001, 48.116585 ], [ -91.696724, 48.115891 ], [ -91.703362, 48.113724 ], [ -91.705573, 48.113957 ], [ -91.709946, 48.114418 ], [ -91.710304, 48.114693 ], [ -91.711746, 48.114639 ], [ -91.712585, 48.115528 ], [ -91.711746, 48.1175 ], [ -91.709358, 48.119389 ], [ -91.707832, 48.12339 ], [ -91.704009, 48.124759 ], [ -91.702499, 48.129992 ], [ -91.699521, 48.132915 ], [ -91.699471, 48.137474 ], [ -91.697777, 48.141613 ], [ -91.698112, 48.144085 ], [ -91.699165, 48.145054 ], [ -91.700584, 48.144779 ], [ -91.702309, 48.144806 ], [ -91.703224, 48.145195 ], [ -91.704666, 48.14711 ], [ -91.706886, 48.15036 ], [ -91.707001, 48.151001 ], [ -91.708115, 48.153 ], [ -91.706917, 48.153751 ], [ -91.705086, 48.15797 ], [ -91.704666, 48.160057 ], [ -91.704941, 48.161026 ], [ -91.704965, 48.161382 ], [ -91.705139, 48.164001 ], [ -91.704834, 48.170723 ], [ -91.709389, 48.172916 ], [ -91.715812, 48.172028 ], [ -91.717026, 48.17186 ], [ -91.72303, 48.168972 ], [ -91.724358, 48.170528 ], [ -91.722969, 48.1735 ], [ -91.722336, 48.178501 ], [ -91.722278, 48.178605 ], [ -91.721336, 48.180279 ], [ -91.71225, 48.187527 ], [ -91.710388, 48.192554 ], [ -91.710335, 48.19389 ], [ -91.713142, 48.198029 ], [ -91.715363, 48.199501 ], [ -91.725334, 48.201332 ], [ -91.737167, 48.204193 ], [ -91.737862, 48.20425 ], [ -91.738808, 48.204224 ], [ -91.742081, 48.204613 ], [ -91.741531, 48.199333 ], [ -91.743858, 48.198723 ], [ -91.74839, 48.198696 ], [ -91.753525, 48.200863 ], [ -91.75592, 48.206001 ], [ -91.76075, 48.204807 ], [ -91.762749, 48.201721 ], [ -91.764221, 48.200611 ], [ -91.78067, 48.200748 ], [ -91.78614, 48.196167 ], [ -91.788635, 48.196335 ], [ -91.791084, 48.202499 ], [ -91.797279, 48.202694 ], [ -91.809448, 48.206276 ], [ -91.81411, 48.208389 ], [ -91.815445, 48.211807 ], [ -91.832527, 48.209362 ], [ -91.835892, 48.210304 ], [ -91.84536, 48.208778 ], [ -91.85694, 48.20766 ], [ -91.864365, 48.206944 ], [ -91.866435, 48.214898 ], [ -91.867554, 48.219196 ], [ -91.884331, 48.227417 ], [ -91.893112, 48.237972 ], [ -91.902359, 48.23711 ], [ -91.90583, 48.237221 ], [ -91.907028, 48.238167 ], [ -91.907387, 48.238251 ], [ -91.907639, 48.238335 ], [ -91.909721, 48.238335 ], [ -91.910698, 48.23811 ], [ -91.913193, 48.238415 ], [ -91.913445, 48.238834 ], [ -91.914886, 48.238918 ], [ -91.916809, 48.238583 ], [ -91.921143, 48.236805 ], [ -91.928833, 48.235889 ], [ -91.937584, 48.234196 ], [ -91.941383, 48.23096 ], [ -91.942085, 48.230362 ], [ -91.945114, 48.230389 ], [ -91.951248, 48.233387 ], [ -91.952469, 48.233055 ], [ -91.958359, 48.233139 ], [ -91.959778, 48.236805 ], [ -91.958567, 48.237719 ], [ -91.957054, 48.238861 ], [ -91.958275, 48.243832 ], [ -91.949608, 48.244499 ], [ -91.948029, 48.245945 ], [ -91.954056, 48.249474 ], [ -91.95417, 48.251446 ], [ -91.954109, 48.251667 ], [ -91.954109, 48.25172 ], [ -91.954109, 48.252251 ], [ -91.957031, 48.252304 ], [ -91.95903, 48.253666 ], [ -91.969971, 48.253777 ], [ -91.970413, 48.253361 ], [ -91.970558, 48.253082 ], [ -91.97097, 48.252972 ], [ -91.971443, 48.253029 ], [ -91.971832, 48.252834 ], [ -91.971886, 48.251945 ], [ -91.972191, 48.251751 ], [ -91.972252, 48.251194 ], [ -91.972305, 48.250916 ], [ -91.972473, 48.250584 ], [ -91.972443, 48.250221 ], [ -91.971947, 48.25 ], [ -91.971443, 48.249889 ], [ -91.970833, 48.249363 ], [ -91.970612, 48.249001 ], [ -91.970024, 48.248695 ], [ -91.970413, 48.247807 ], [ -91.973307, 48.246688 ], [ -91.973503, 48.246613 ], [ -91.97361, 48.246307 ], [ -91.973892, 48.245861 ], [ -91.97422, 48.245445 ], [ -91.974335, 48.245335 ], [ -91.974419, 48.245277 ], [ -91.975639, 48.244335 ], [ -91.976555, 48.244946 ], [ -91.977249, 48.245419 ], [ -91.97747, 48.245499 ], [ -91.977501, 48.245667 ], [ -91.977585, 48.245918 ], [ -91.977364, 48.246193 ], [ -91.977196, 48.24625 ], [ -91.977058, 48.246418 ], [ -91.976944, 48.24675 ], [ -91.977386, 48.247166 ], [ -91.977837, 48.24736 ], [ -91.978333, 48.247334 ], [ -91.979027, 48.247417 ], [ -91.980583, 48.247917 ], [ -91.986455, 48.256403 ], [ -91.991488, 48.260972 ], [ -92.006531, 48.265415 ], [ -92.007178, 48.27909 ], [ -92.007233, 48.279161 ], [ -92.008896, 48.28277 ], [ -92.008897, 48.282777 ], [ -92.012032, 48.286999 ], [ -92.01297, 48.297443 ], [ -92.012281, 48.298711 ], [ -92.000114, 48.321083 ], [ -92.011971, 48.322945 ], [ -92.02143, 48.324328 ], [ -92.030777, 48.325695 ], [ -92.037666, 48.333057 ], [ -92.046944, 48.334778 ], [ -92.047836, 48.343582 ], [ -92.045113, 48.345722 ], [ -92.045891, 48.347832 ], [ -92.048859, 48.348583 ], [ -92.051988, 48.353883 ], [ -92.055222, 48.35936 ], [ -92.067001, 48.359444 ], [ -92.078163, 48.358028 ], [ -92.083557, 48.353722 ], [ -92.090889, 48.3545 ], [ -92.13332, 48.355729 ], [ -92.143692, 48.35603 ], [ -92.143832, 48.357159 ], [ -92.14489, 48.365696 ], [ -92.162003, 48.363304 ], [ -92.177414, 48.35714 ], [ -92.179108, 48.354889 ], [ -92.178871, 48.353633 ], [ -92.178528, 48.351807 ], [ -92.192802, 48.348721 ], [ -92.194557, 48.348751 ], [ -92.194705, 48.349227 ], [ -92.195084, 48.350445 ], [ -92.203888, 48.351833 ], [ -92.207726, 48.347889 ], [ -92.206528, 48.347221 ], [ -92.206612, 48.346521 ], [ -92.214298, 48.345125 ], [ -92.216212, 48.344995 ], [ -92.217019, 48.344995 ], [ -92.21814, 48.346222 ], [ -92.218941, 48.346889 ], [ -92.219193, 48.347473 ], [ -92.219719, 48.348083 ], [ -92.221611, 48.348862 ], [ -92.262558, 48.354916 ], [ -92.288834, 48.342804 ], [ -92.295441, 48.32386 ], [ -92.304474, 48.322834 ], [ -92.306168, 48.31625 ], [ -92.297611, 48.30886 ], [ -92.294556, 48.306221 ], [ -92.299197, 48.294153 ], [ -92.301445, 48.288307 ], [ -92.295639, 48.277943 ], [ -92.295525, 48.277637 ], [ -92.295555, 48.2775 ], [ -92.295609, 48.277222 ], [ -92.295303, 48.277279 ], [ -92.295219, 48.277138 ], [ -92.295364, 48.277027 ], [ -92.295418, 48.27689 ], [ -92.295303, 48.276611 ], [ -92.295364, 48.276443 ], [ -92.29525, 48.276249 ], [ -92.295166, 48.276196 ], [ -92.294586, 48.276333 ], [ -92.294281, 48.276554 ], [ -92.293724, 48.276638 ], [ -92.293167, 48.27597 ], [ -92.294556, 48.271221 ], [ -92.290169, 48.265057 ], [ -92.28344, 48.261585 ], [ -92.273636, 48.256527 ], [ -92.269585, 48.248196 ], [ -92.280388, 48.244362 ], [ -92.309362, 48.24112 ], [ -92.316254, 48.239883 ], [ -92.320282, 48.239161 ], [ -92.325183, 48.237012 ], [ -92.326088, 48.236615 ], [ -92.32616, 48.236584 ], [ -92.32875, 48.235448 ], [ -92.329898, 48.234945 ], [ -92.33168, 48.234163 ], [ -92.33177, 48.234137 ], [ -92.332818, 48.233836 ], [ -92.333336, 48.233776 ], [ -92.333862, 48.233891 ], [ -92.334389, 48.234138 ], [ -92.334473, 48.23436 ], [ -92.334419, 48.234554 ], [ -92.334663, 48.234779 ], [ -92.33625, 48.235668 ], [ -92.336555, 48.235668 ], [ -92.337112, 48.235027 ], [ -92.337723, 48.234917 ], [ -92.337997, 48.235085 ], [ -92.338692, 48.235001 ], [ -92.338997, 48.234833 ], [ -92.339195, 48.234695 ], [ -92.340469, 48.234001 ], [ -92.340889, 48.233639 ], [ -92.341415, 48.231888 ], [ -92.341919, 48.231693 ], [ -92.343971, 48.232082 ], [ -92.347, 48.231472 ], [ -92.348419, 48.231388 ], [ -92.349472, 48.231224 ], [ -92.351692, 48.230526 ], [ -92.353554, 48.230083 ], [ -92.353691, 48.229527 ], [ -92.3545, 48.228527 ], [ -92.354599, 48.228481 ], [ -92.35553, 48.228054 ], [ -92.356636, 48.227417 ], [ -92.358612, 48.226444 ], [ -92.360306, 48.225498 ], [ -92.361, 48.224693 ], [ -92.361389, 48.223915 ], [ -92.361664, 48.223194 ], [ -92.362198, 48.222668 ], [ -92.36367, 48.222832 ], [ -92.365028, 48.223526 ], [ -92.366219, 48.223888 ], [ -92.368057, 48.224083 ], [ -92.368721, 48.223667 ], [ -92.367691, 48.223167 ], [ -92.366859, 48.222279 ], [ -92.367279, 48.221668 ], [ -92.36808, 48.221138 ], [ -92.369141, 48.220165 ], [ -92.369919, 48.220276 ], [ -92.370003, 48.221779 ], [ -92.370781, 48.222778 ], [ -92.370804, 48.223804 ], [ -92.371475, 48.22403 ], [ -92.372643, 48.223526 ], [ -92.373497, 48.224945 ], [ -92.374336, 48.225582 ], [ -92.375168, 48.225945 ], [ -92.37561, 48.226612 ], [ -92.375443, 48.227417 ], [ -92.375832, 48.228279 ], [ -92.377441, 48.229252 ], [ -92.378387, 48.230335 ], [ -92.378555, 48.231194 ], [ -92.378418, 48.232029 ], [ -92.378136, 48.232971 ], [ -92.379196, 48.23428 ], [ -92.378525, 48.235222 ], [ -92.378975, 48.235832 ], [ -92.380669, 48.236416 ], [ -92.381691, 48.23764 ], [ -92.383308, 48.239277 ], [ -92.384026, 48.240307 ], [ -92.384392, 48.241333 ], [ -92.384415, 48.242474 ], [ -92.383804, 48.244556 ], [ -92.384697, 48.244862 ], [ -92.386642, 48.24411 ], [ -92.387253, 48.244335 ], [ -92.388168, 48.246445 ], [ -92.387833, 48.247002 ], [ -92.38636, 48.247501 ], [ -92.386864, 48.249195 ], [ -92.384697, 48.249168 ], [ -92.38533, 48.250332 ], [ -92.385887, 48.251335 ], [ -92.386719, 48.251751 ], [ -92.388779, 48.251194 ], [ -92.389778, 48.250721 ], [ -92.390724, 48.250668 ], [ -92.392365, 48.251167 ], [ -92.392693, 48.251804 ], [ -92.39222, 48.253029 ], [ -92.390137, 48.252724 ], [ -92.389191, 48.253693 ], [ -92.392136, 48.256748 ], [ -92.393448, 48.257584 ], [ -92.392723, 48.258915 ], [ -92.393112, 48.260029 ], [ -92.401779, 48.271362 ], [ -92.415642, 48.295082 ], [ -92.420471, 48.298943 ], [ -92.425636, 48.304611 ], [ -92.429001, 48.305916 ], [ -92.431831, 48.305168 ], [ -92.436722, 48.308887 ], [ -92.438614, 48.311165 ], [ -92.440331, 48.314861 ], [ -92.440582, 48.315334 ], [ -92.44136, 48.315807 ], [ -92.441528, 48.316055 ], [ -92.452393, 48.32803 ], [ -92.46978, 48.352085 ], [ -92.476501, 48.371918 ], [ -92.45639, 48.401112 ], [ -92.456408, 48.405468 ], [ -92.456444, 48.414082 ], [ -92.465384, 48.416213 ], [ -92.475441, 48.41861 ], [ -92.478859, 48.423248 ], [ -92.481003, 48.42522 ], [ -92.480751, 48.426304 ], [ -92.481918, 48.427555 ], [ -92.482002, 48.428307 ], [ -92.48378, 48.429138 ], [ -92.489365, 48.430248 ], [ -92.494278, 48.43589 ], [ -92.506208, 48.446816 ], [ -92.507469, 48.447971 ], [ -92.51503, 48.448307 ], [ -92.536942, 48.44775 ], [ -92.555876, 48.444324 ], [ -92.570007, 48.443048 ], [ -92.576111, 48.441378 ], [ -92.58223, 48.441378 ], [ -92.589834, 48.439897 ], [ -92.621557, 48.438261 ], [ -92.656219, 48.436474 ], [ -92.661631, 48.439106 ], [ -92.663528, 48.440029 ], [ -92.686421, 48.443443 ], [ -92.689046, 48.444429 ], [ -92.690826, 48.445825 ], [ -92.690831, 48.445828 ], [ -92.700802, 48.453647 ], [ -92.712692, 48.462971 ], [ -92.708765, 48.469886 ], [ -92.708721, 48.470993 ], [ -92.709251, 48.472862 ], [ -92.708517, 48.473937 ], [ -92.707779, 48.476381 ], [ -92.704727, 48.47999 ], [ -92.703264, 48.481634 ], [ -92.701195, 48.484665 ], [ -92.698692, 48.494835 ], [ -92.685753, 48.497391 ], [ -92.661469, 48.496307 ], [ -92.654114, 48.501694 ], [ -92.647026, 48.499863 ], [ -92.640053, 48.499832 ], [ -92.638641, 48.4995 ], [ -92.637108, 48.499332 ], [ -92.630638, 48.500778 ], [ -92.627029, 48.503277 ], [ -92.629669, 48.505722 ], [ -92.63192, 48.506721 ], [ -92.631248, 48.508167 ], [ -92.63089, 48.50914 ], [ -92.628754, 48.510529 ], [ -92.628113, 48.51075 ], [ -92.625084, 48.512917 ], [ -92.626503, 48.513416 ], [ -92.626915, 48.514168 ], [ -92.625526, 48.517887 ], [ -92.62822, 48.522194 ], [ -92.633487, 48.538281 ], [ -92.634888, 48.542557 ], [ -92.65786, 48.546223 ], [ -92.710919, 48.541085 ], [ -92.728416, 48.539391 ], [ -92.834765, 48.575 ], [ -92.894501, 48.595001 ], [ -92.896893, 48.595215 ], [ -92.910057, 48.59639 ], [ -92.929558, 48.606945 ], [ -92.949997, 48.60836 ], [ -92.949853, 48.622611 ], [ -92.949776, 48.630333 ], [ -92.954781, 48.631554 ], [ -92.978388, 48.625437 ], [ -92.984581, 48.623833 ], [ -93.016389, 48.625019 ], [ -93.090332, 48.627777 ], [ -93.145475, 48.624942 ], [ -93.178391, 48.623249 ], [ -93.183998, 48.628193 ], [ -93.190664, 48.632247 ], [ -93.207527, 48.642502 ], [ -93.254669, 48.642807 ], [ -93.348663, 48.626446 ], [ -93.353363, 48.614944 ], [ -93.353208, 48.614605 ], [ -93.353607, 48.613611 ], [ -93.35542, 48.611519 ], [ -93.362, 48.614029 ], [ -93.366565, 48.608912 ], [ -93.367279, 48.608112 ], [ -93.371445, 48.605862 ], [ -93.38372, 48.605946 ], [ -93.395386, 48.603806 ], [ -93.398636, 48.604416 ], [ -93.40136, 48.607807 ], [ -93.402946, 48.607666 ], [ -93.403411, 48.609592 ], [ -93.40834, 48.608606 ], [ -93.414433, 48.60628 ], [ -93.422548, 48.603182 ], [ -93.42297, 48.603021 ], [ -93.429832, 48.599667 ], [ -93.434776, 48.59536 ], [ -93.439835, 48.593693 ], [ -93.45472, 48.592609 ], [ -93.458496, 48.592649 ], [ -93.462692, 48.592693 ], [ -93.465469, 48.59164 ], [ -93.465637, 48.589973 ], [ -93.467163, 48.58839 ], [ -93.461914, 48.573082 ], [ -93.457527, 48.567139 ], [ -93.457664, 48.559723 ], [ -93.45943, 48.554452 ], [ -93.459694, 48.553665 ], [ -93.462585, 48.549721 ], [ -93.467392, 48.546444 ], [ -93.474448, 48.545186 ], [ -93.485474, 48.543221 ], [ -93.495277, 48.5425 ], [ -93.501083, 48.541332 ], [ -93.512949, 48.536497 ], [ -93.517166, 48.534779 ], [ -93.526917, 48.534 ], [ -93.536613, 48.531887 ], [ -93.542503, 48.529972 ], [ -93.547691, 48.529335 ], [ -93.560249, 48.52964 ], [ -93.576195, 48.527 ], [ -93.581024, 48.527084 ], [ -93.586918, 48.52922 ], [ -93.590141, 48.530388 ], [ -93.596275, 48.52861 ], [ -93.599631, 48.526523 ], [ -93.605164, 48.523083 ], [ -93.612251, 48.522388 ], [ -93.616669, 48.523693 ], [ -93.621083, 48.526295 ], [ -93.621193, 48.52636 ], [ -93.625664, 48.531445 ], [ -93.628441, 48.53186 ], [ -93.631165, 48.53125 ], [ -93.63575, 48.528416 ], [ -93.639526, 48.521778 ], [ -93.643364, 48.518944 ], [ -93.647308, 48.517666 ], [ -93.659302, 48.516418 ], [ -93.677834, 48.516804 ], [ -93.679108, 48.516598 ], [ -93.686607, 48.515388 ], [ -93.693031, 48.515194 ], [ -93.695268, 48.515693 ], [ -93.706108, 48.518112 ], [ -93.710861, 48.518555 ], [ -93.720612, 48.517582 ], [ -93.731026, 48.518417 ], [ -93.739052, 48.518471 ], [ -93.74908, 48.516562 ], [ -93.753502, 48.51572 ], [ -93.761749, 48.516556 ], [ -93.767998, 48.516304 ], [ -93.788002, 48.515862 ], [ -93.793358, 48.516304 ], [ -93.799907, 48.520145 ], [ -93.800396, 48.520432 ], [ -93.803024, 48.521973 ], [ -93.811111, 48.524639 ], [ -93.81617, 48.5285 ], [ -93.818497, 48.531418 ], [ -93.818001, 48.534916 ], [ -93.810974, 48.540916 ], [ -93.810249, 48.544418 ], [ -93.811996, 48.550304 ], [ -93.810687, 48.552481 ], [ -93.808052, 48.556862 ], [ -93.805168, 48.564362 ], [ -93.804169, 48.570221 ], [ -93.806358, 48.579498 ], [ -93.81308, 48.587971 ], [ -93.817528, 48.596973 ], [ -93.821419, 48.609165 ], [ -93.824501, 48.612999 ], [ -93.829308, 48.617611 ], [ -93.833443, 48.62561 ], [ -93.836502, 48.627556 ], [ -93.84436, 48.630222 ], [ -93.848053, 48.630749 ], [ -93.869888, 48.631111 ], [ -93.875725, 48.631832 ], [ -93.884415, 48.631721 ], [ -93.89489, 48.632389 ], [ -93.905724, 48.634583 ], [ -93.913475, 48.63525 ], [ -93.916946, 48.632889 ], [ -93.934035, 48.632637 ], [ -93.934059, 48.632637 ], [ -93.953026, 48.63414 ], [ -93.957168, 48.636038 ], [ -93.959694, 48.637196 ], [ -93.968002, 48.638443 ], [ -93.977776, 48.6385 ], [ -93.984085, 48.64011 ], [ -93.989693, 48.64053 ], [ -94.000748, 48.642834 ], [ -94.006943, 48.643307 ], [ -94.029556, 48.640888 ], [ -94.035614, 48.641056 ], [ -94.043251, 48.643471 ], [ -94.052528, 48.644001 ], [ -94.060303, 48.643112 ], [ -94.064278, 48.643723 ], [ -94.065887, 48.646168 ], [ -94.071442, 48.645889 ], [ -94.076752, 48.644165 ], [ -94.084999, 48.644085 ], [ -94.091278, 48.643665 ], [ -94.099945, 48.645863 ], [ -94.110031, 48.644279 ], [ -94.126083, 48.644333 ], [ -94.139168, 48.646 ], [ -94.152222, 48.6455 ], [ -94.156546, 48.645681 ], [ -94.158311, 48.645911 ], [ -94.195327, 48.650726 ], [ -94.199669, 48.650944 ], [ -94.2145, 48.649334 ], [ -94.224197, 48.649445 ], [ -94.233559, 48.652306 ], [ -94.24453, 48.653473 ], [ -94.246803, 48.654167 ], [ -94.249389, 48.655865 ], [ -94.250946, 48.656887 ], [ -94.254121, 48.660775 ], [ -94.254669, 48.661446 ], [ -94.254837, 48.663971 ], [ -94.253052, 48.66925 ], [ -94.252115, 48.672854 ], [ -94.250748, 48.678112 ], [ -94.251442, 48.683613 ], [ -94.252975, 48.686333 ], [ -94.25808, 48.691723 ], [ -94.261086, 48.696583 ], [ -94.264503, 48.699001 ], [ -94.272248, 48.699662 ], [ -94.277972, 48.702209 ], [ -94.282913, 48.705612 ], [ -94.291191, 48.707806 ], [ -94.308807, 48.710278 ], [ -94.317717, 48.707672 ], [ -94.320847, 48.707499 ], [ -94.334732, 48.704439 ], [ -94.349167, 48.704165 ], [ -94.357224, 48.704714 ], [ -94.369581, 48.706779 ], [ -94.380196, 48.710999 ], [ -94.384087, 48.711834 ], [ -94.388969, 48.711945 ], [ -94.39867, 48.711107 ], [ -94.406113, 48.711107 ], [ -94.409447, 48.710646 ], [ -94.415833, 48.710972 ], [ -94.418915, 48.710251 ], [ -94.421387, 48.708584 ], [ -94.423499, 48.706068 ], [ -94.424164, 48.705276 ], [ -94.438835, 48.694832 ], [ -94.446861, 48.692917 ], [ -94.452393, 48.69239 ], [ -94.456863, 48.693249 ], [ -94.460696, 48.694432 ], [ -94.463165, 48.695194 ], [ -94.470665, 48.696583 ], [ -94.486389, 48.697918 ], [ -94.499611, 48.697971 ], [ -94.509308, 48.7005 ], [ -94.517387, 48.700695 ], [ -94.519074, 48.700892 ], [ -94.52478, 48.701557 ], [ -94.532944, 48.701221 ], [ -94.538528, 48.702694 ], [ -94.541584, 48.706794 ], [ -94.545753, 48.712387 ], [ -94.549026, 48.714748 ], [ -94.555832, 48.716221 ], [ -94.568558, 48.715527 ], [ -94.576509, 48.716383 ], [ -94.587639, 48.717583 ], [ -94.591393, 48.719612 ], [ -94.592505, 48.720776 ], [ -94.596306, 48.724751 ], [ -94.601196, 48.728222 ], [ -94.610641, 48.731804 ], [ -94.619164, 48.737251 ], [ -94.630165, 48.738998 ], [ -94.640282, 48.741022 ], [ -94.643616, 48.743052 ], [ -94.645367, 48.744914 ], [ -94.645386, 48.749054 ], [ -94.652031, 48.756138 ], [ -94.660309, 48.760418 ], [ -94.667198, 48.766167 ], [ -94.676865, 48.771641 ], [ -94.68708, 48.775139 ], [ -94.690887, 48.778 ], [ -94.694389, 48.789444 ], [ -94.695969, 48.799641 ], [ -94.695114, 48.809139 ], [ -94.704277, 48.824223 ], [ -94.702003, 48.831833 ], [ -94.697502, 48.835499 ], [ -94.685585, 48.840057 ], [ -94.693054, 48.853416 ], [ -94.690224, 48.863556 ], [ -94.69239, 48.868999 ], [ -94.684303, 48.87236 ], [ -94.683441, 48.884109 ], [ -94.749641, 49.098751 ], [ -94.772781, 49.120499 ], [ -94.797974, 49.197861 ], [ -94.797333, 49.214333 ], [ -94.80026, 49.22264 ], [ -94.809072, 49.247648 ], [ -94.821093, 49.281765 ], [ -94.825531, 49.294361 ], [ -94.824364, 49.308945 ], [ -94.821901, 49.312735 ], [ -94.816277, 49.321388 ], [ -94.836418, 49.324276 ], [ -94.854057, 49.324333 ], [ -94.878281, 49.333363 ], [ -94.906525, 49.348362 ], [ -94.909111, 49.35014 ], [ -94.95208, 49.368721 ], [ -94.95739, 49.370193 ], [ -94.974304, 49.367695 ], [ -94.988998, 49.368946 ], [ -95.011185, 49.35796 ], [ -95.014191, 49.356472 ], [ -95.04953, 49.353111 ], [ -95.058304, 49.353249 ], [ -95.084721, 49.359919 ], [ -95.089775, 49.361195 ], [ -95.103142, 49.363529 ], [ -95.103195, 49.365112 ], [ -95.109802, 49.36639 ], [ -95.115944, 49.366611 ], [ -95.128723, 49.370445 ], [ -95.132751, 49.373585 ], [ -95.139778, 49.37611 ], [ -95.141914, 49.378307 ], [ -95.145058, 49.378307 ], [ -95.146721, 49.380138 ], [ -95.149803, 49.380638 ], [ -95.150307, 49.382999 ], [ -95.153389, 49.384472 ], [ -95.153389, 49.377556 ], [ -95.153389, 49.3722 ], [ -95.154175, 49.366388 ], [ -95.154449, 49.33333 ], [ -95.15361, 49.233332 ], [ -95.153961, 49.173334 ], [ -95.154175, 48.999437 ], [ -95.266556, 48.999979 ], [ -97.21994, 48.99972 ], [ -97.502792, 48.999437 ], [ -97.569458, 49.000002 ], [ -97.635834, 48.999437 ], [ -97.702499, 49.000002 ], [ -97.76889, 48.999437 ], [ -97.801941, 49.000002 ], [ -97.869446, 48.999437 ], [ -97.969162, 49.000277 ], [ -98.035553, 48.999437 ], [ -98.269165, 49.000277 ], [ -98.502228, 48.999437 ], [ -98.868607, 49.000002 ], [ -98.935272, 48.999437 ], [ -99.035828, 49.000277 ], [ -99.335556, 48.999437 ], [ -99.835556, 49.000002 ], [ -99.969452, 48.999437 ], [ -100.002228, 49.000002 ], [ -100.501953, 48.99972 ], [ -100.535828, 49.000277 ], [ -100.601936, 48.999437 ], [ -100.635834, 49.000002 ], [ -100.868881, 48.999437 ], [ -100.902496, 49.000002 ], [ -100.935822, 48.999437 ], [ -101.069168, 49.000002 ], [ -101.102219, 48.999437 ], [ -101.16861, 49.000002 ], [ -101.202217, 48.999437 ], [ -101.302223, 49.000277 ], [ -101.367233, 48.998789 ], [ -101.435822, 49.000277 ], [ -101.468887, 48.999437 ], [ -102.168877, 49.000002 ], [ -102.335564, 48.999437 ], [ -102.535553, 49.000277 ], [ -102.768341, 48.999437 ], [ -102.801666, 49.000002 ], [ -103.035278, 48.999437 ], [ -103.135834, 49.000002 ], [ -103.168327, 48.999437 ], [ -103.26889, 49.000002 ], [ -103.368881, 48.999437 ], [ -103.435547, 49.000277 ], [ -103.535278, 48.999437 ], [ -103.701683, 49.000002 ], [ -103.735283, 48.999437 ], [ -104.033096, 49.000254 ], [ -104.135277, 48.99972 ], [ -104.302223, 49.000277 ], [ -104.335007, 48.999437 ], [ -104.668327, 49.000002 ], [ -104.835007, 48.999437 ], [ -104.868057, 49.000002 ], [ -105.001404, 48.999437 ], [ -105.135277, 49.000277 ], [ -105.235283, 48.999437 ], [ -105.268341, 49.000002 ], [ -105.702217, 48.999437 ], [ -105.834732, 49.000002 ], [ -105.868057, 48.999437 ], [ -105.901947, 49.000002 ], [ -105.935547, 48.999437 ], [ -106.001404, 49.000002 ], [ -106.034729, 48.999437 ], [ -106.101936, 49.000002 ], [ -106.135277, 48.999437 ], [ -106.235283, 49.000002 ], [ -106.268623, 48.999437 ], [ -106.401672, 49.000002 ], [ -106.468063, 48.999437 ], [ -106.701157, 49.000574 ], [ -106.73555, 48.999437 ], [ -107.335281, 49.000002 ], [ -107.401398, 48.999437 ], [ -107.434998, 49.000002 ], [ -107.634743, 48.999437 ], [ -107.668327, 49.000002 ], [ -107.73555, 48.999437 ], [ -107.768066, 49.000002 ], [ -107.801102, 48.999437 ], [ -107.835007, 49.000002 ], [ -108.168877, 48.999437 ], [ -108.301941, 49.000002 ], [ -108.335007, 48.999437 ], [ -108.501678, 49.000002 ], [ -108.534729, 48.999437 ], [ -108.634743, 49.000002 ], [ -108.66777, 48.999437 ], [ -108.801666, 49.000002 ], [ -108.834732, 48.999437 ], [ -109.067497, 49.000002 ], [ -109.334732, 48.999437 ], [ -109.501678, 49.000002 ], [ -109.634743, 48.999437 ], [ -109.701683, 49.000002 ], [ -109.801941, 48.999437 ], [ -109.967773, 48.99972 ], [ -109.999657, 49.000605 ], [ -110.0, 53.42083 ], [ -109.997563, 53.421156 ], [ -109.946815, 53.427875 ], [ -109.858768, 53.439533 ], [ -109.857402, 53.439714 ], [ -109.853808, 53.440385 ], [ -109.814792, 53.447677 ], [ -109.717941, 53.465779 ], [ -109.582615, 53.498843 ], [ -109.452398, 53.538671 ], [ -109.328236, 53.584979 ], [ -109.211037, 53.637433 ], [ -109.101672, 53.695657 ], [ -109.000962, 53.759231 ], [ -108.909679, 53.827694 ], [ -108.828533, 53.900547 ], [ -108.758173, 53.977258 ], [ -108.699175, 54.057261 ], [ -108.652042, 54.139966 ], [ -108.617198, 54.224758 ], [ -108.594977, 54.311001 ], [ -108.585628, 54.398047 ], [ -108.589303, 54.485237 ], [ -108.606057, 54.571906 ], [ -108.610525, 54.584729 ], [ -108.635843, 54.657389 ], [ -108.678514, 54.741027 ], [ -108.694444, 54.766667 ], [ -108.69444, 54.766667 ], [ -108.416667, 54.766667 ], [ -108.416498, 54.766765 ], [ -108.416497, 54.766765 ], [ -107.706076, 55.17938 ], [ -107.701985, 55.181721 ], [ -107.205088, 55.461166 ], [ -107.017399, 55.566719 ], [ -106.920416, 55.621261 ], [ -106.920416, 55.621261 ], [ -106.918696, 55.62221 ], [ -106.062968, 56.086776 ], [ -106.061236, 56.087697 ], [ -106.027202, 56.105811 ], [ -105.605745, 56.328081 ], [ -105.605745, 56.328081 ], [ -105.577489, 56.342983 ], [ -105.563251, 56.350278 ], [ -104.718591, 56.78304 ], [ -104.718591, 56.78304 ], [ -104.699986, 56.792572 ], [ -104.673015, 56.805959 ], [ -104.1242, 57.078355 ], [ -104.094033, 57.093328 ], [ -104.082702, 57.098679 ], [ -102.373925, 57.9056 ], [ -102.371667, 57.906667 ], [ -102.37044, 57.907188 ], [ -100.484722, 58.708319 ], [ -99.400556, 59.155414 ], [ -98.167253, 59.658601 ], [ -98.164431, 59.659675 ], [ -97.844041, 59.778069 ], [ -97.389238, 59.946132 ], [ -96.803383, 60.162622 ], [ -96.803383, 60.162622 ], [ -96.79965, 60.163961 ], [ -96.347002, 60.321829 ], [ -95.71592, 60.54193 ], [ -95.47215, 60.626949 ], [ -95.460321, 60.630955 ], [ -95.149575, 60.73552 ], [ -95.061986, 60.764755 ], [ -94.948935, 60.802305 ], [ -94.942497, 60.804433 ], [ -94.835618, 60.83976 ], [ -94.722037, 60.877119 ], [ -94.60819, 60.914382 ], [ -94.494078, 60.951547 ], [ -94.379699, 60.988616 ], [ -94.265054, 61.025588 ], [ -94.150142, 61.062461 ], [ -94.034963, 61.099237 ], [ -93.919517, 61.135914 ], [ -93.803803, 61.172492 ], [ -93.687822, 61.208971 ], [ -93.571572, 61.24535 ], [ -93.455053, 61.281628 ], [ -93.338265, 61.317807 ], [ -93.221209, 61.353885 ], [ -93.160392, 61.372533 ], [ -92.392949, 61.603457 ], [ -92.295452, 61.632794 ], [ -92.292327, 61.633718 ], [ -92.051741, 61.70189 ], [ -90.650668, 62.098895 ], [ -90.423288, 62.163325 ], [ -90.423288, 62.163325 ], [ -90.419451, 62.164366 ], [ -90.06668, 62.257599 ], [ -89.507432, 62.405403 ], [ -89.168882, 62.494878 ], [ -89.168882, 62.494878 ], [ -89.166386, 62.495537 ], [ -89.164373, 62.496035 ], [ -88.756225, 62.596909 ], [ -87.777165, 62.838884 ], [ -87.451267, 62.91943 ], [ -87.451267, 62.91943 ], [ -87.449341, 62.919906 ], [ -87.447324, 62.920368 ], [ -87.117297, 62.995958 ], [ -86.203307, 63.205299 ], [ -85.863858, 63.283047 ], [ -85.860389, 63.283814 ], [ -85.67493, 63.323108 ], [ -84.356174, 63.602516 ], [ -84.146237, 63.646996 ], [ -84.146237, 63.646996 ], [ -84.140464, 63.64817 ], [ -84.097719, 63.656569 ], [ -83.405863, 63.792519 ], [ -82.759768, 63.919476 ], [ -82.75485, 63.92041 ], [ -82.725154, 63.92567 ], [ -82.665278, 63.937382 ], [ -82.660242, 63.938332 ], [ -81.438528, 64.162194 ], [ -81.437429, 64.162389 ], [ -80.0, 64.408335 ], [ -80.0, 62.750002 ] ] ] ] } }
]
}
