{
"type": "FeatureCollection",
"name": "fir_vancouver",
"crs": { "type": "name", "properties": { "name": "urn:ogc:def:crs:OGC:1.3:CRS84" } },
"features": [
{ "type": "Feature", "properties": { "FIRname": "FIR VANCOUVER", "ICAOCODE": "CZVR", "RESP": "MEXICO", "NOM_COMP": "VANCOUVER", "HISTORIC": null, "REMARKS": null, "REMARKS2": null, "centlong": -125.749854083, "centlat": 52.234063980999998, "AREAsqkm": 831193.24558700004, "PERIMEkm": 5614.6734152600002, "FIR_NAME": "FIR VANCOUVER", "CODE": "CZVR", "Type": "FIR", "FIR_Upper": "Unlimited", "FIR_Lower": "GND", "UIR_Upper": null, "UIR_Lower": null, "limit": "Unlimited", "FIR_Uppe_1": 66000.0, "FIR_Lowe_1": 0.0, "UIR_Uppe_1": 0.0, "UIR_Lowe_1": 0.0, "Number_lim": 66000.0, "ANP_Region": "NAM", "Country_So": "Canada" }, "geometry": { "type": "MultiPolygon", "coordinates": [ [ [ [ -127.934896, 56.61455 ], [ -127.748853, 56.595028 ], [ -127.745854, 56.594713 ], [ -127.743143, 56.59439 ], [ -127.743143, 56.59439 ], [ -126.959551, 56.500906 ], [ -126.287326, 56.420707 ], [ -126.150651, 56.404402 ], [ -126.148249, 56.404115 ], [ -126.14576, 56.403784 ], [ -126.14576, 56.403784 ], [ -124.673146, 56.20797 ], [ -124.670989, 56.207683 ], [ -124.668729, 56.207353 ], [ -124.63159, 56.201925 ], [ -123.250321, 56.000049 ], [ -123.25, 56.000002 ], [ -122.636667, 55.656668 ], [ -122.268055, 55.440557 ], [ -121.692499, 55.101946 ], [ -120.774721, 54.544443 ], [ -120.170555, 54.163336 ], [ -119.485832, 53.721392 ], [ -119.0, 53.4 ], [ -117.714443, 52.105001 ], [ -117.41361, 51.786943 ], [ -117.220278, 51.574724 ], [ -116.601667, 50.908056 ], [ -116.267778, 50.534445 ], [ -116.087078, 50.329672 ], [ -116.034971, 50.344815 ], [ -115.980971, 50.356969 ], [ -115.925499, 50.36604 ], [ -115.868986, 50.371956 ], [ -115.811873, 50.374672 ], [ -115.754607, 50.374166 ], [ -115.697634, 50.370442 ], [ -115.641401, 50.363529 ], [ -115.586345, 50.353482 ], [ -115.532895, 50.340378 ], [ -115.481466, 50.32432 ], [ -115.432458, 50.305432 ], [ -115.386248, 50.283863 ], [ -115.343191, 50.259779 ], [ -115.303617, 50.233368 ], [ -115.267827, 50.204834 ], [ -115.236089, 50.174397 ], [ -115.208642, 50.142293 ], [ -115.185688, 50.10877 ], [ -115.167393, 50.074084 ], [ -115.153889, 50.038503 ], [ -115.145267, 50.002298 ], [ -115.141583, 49.965747 ], [ -115.142854, 49.929127 ], [ -115.143055, 49.927224 ], [ -115.143056, 49.927222 ], [ -115.143023, 49.924775 ], [ -115.139444, 49.646669 ], [ -115.139375, 49.644998 ], [ -115.136944, 49.586668 ], [ -115.137499, 49.500002 ], [ -115.1375, 49.5 ], [ -115.137521, 49.499971 ], [ -115.5, 49.000002 ], [ -115.501404, 48.999437 ], [ -115.56723, 49.000002 ], [ -115.601387, 48.999437 ], [ -115.701401, 49.000002 ], [ -115.734444, 48.999437 ], [ -116.04834, 48.99972 ], [ -117.001404, 48.99972 ], [ -117.036621, 49.00313 ], [ -117.06723, 48.99972 ], [ -117.200844, 48.999437 ], [ -117.234734, 49.000002 ], [ -117.267776, 48.999437 ], [ -117.300552, 49.000002 ], [ -117.567497, 49.000002 ], [ -117.600563, 48.999437 ], [ -117.834442, 49.000002 ], [ -117.867493, 48.999437 ], [ -117.967773, 49.000002 ], [ -118.000839, 48.999437 ], [ -118.101387, 49.000002 ], [ -118.134171, 48.999437 ], [ -118.301392, 49.000002 ], [ -118.368057, 48.999437 ], [ -118.767776, 48.999437 ], [ -118.800278, 49.000002 ], [ -118.967499, 48.999437 ], [ -119.03389, 49.000002 ], [ -119.134171, 48.999437 ], [ -119.16806, 49.000002 ], [ -119.267227, 48.999437 ], [ -119.301102, 49.000002 ], [ -119.367493, 48.999437 ], [ -119.401108, 49.000002 ], [ -119.467773, 48.999437 ], [ -119.634453, 49.000002 ], [ -119.867493, 48.999437 ], [ -119.901398, 49.000002 ], [ -119.934158, 48.999437 ], [ -120.00029, 49.000002 ], [ -120.034157, 48.999437 ], [ -120.200562, 49.000002 ], [ -120.234444, 48.999437 ], [ -120.334442, 49.000002 ], [ -120.367218, 48.999437 ], [ -120.467216, 49.000002 ], [ -120.534729, 48.999437 ], [ -121.055771, 48.99972 ], [ -121.084976, 48.99972 ], [ -122.100563, 49.000002 ], [ -122.267776, 48.999437 ], [ -122.333893, 49.000002 ], [ -122.367493, 48.999437 ], [ -122.433609, 49.000002 ], [ -122.467216, 48.999437 ], [ -122.566673, 49.000002 ], [ -122.600563, 48.999437 ], [ -122.699997, 49.000002 ], [ -122.7603, 48.999437 ], [ -123.322222, 49.000002 ], [ -123.083128, 48.871244 ], [ -123.00861, 48.831114 ], [ -123.008499, 48.767113 ], [ -123.267674, 48.693357 ], [ -123.219019, 48.549155 ], [ -123.218792, 48.548482 ], [ -123.160609, 48.454708 ], [ -123.160606, 48.454706 ], [ -123.115194, 48.422022 ], [ -123.248444, 48.284027 ], [ -123.536646, 48.225485 ], [ -123.536653, 48.225486 ], [ -123.677341, 48.239926 ], [ -123.680538, 48.240254 ], [ -124.010422, 48.296387 ], [ -124.01366, 48.29728 ], [ -124.725832, 48.493612 ], [ -124.75, 48.500002 ], [ -125.0, 48.500002 ], [ -128.0, 48.333334 ], [ -129.415742, 49.043704 ], [ -129.416788, 49.044203 ], [ -129.43904, 49.054812 ], [ -130.857625, 49.731184 ], [ -130.925343, 49.761783 ], [ -131.464671, 50.005486 ], [ -132.286835, 50.376993 ], [ -132.410632, 50.429705 ], [ -133.75, 51.000002 ], [ -135.0, 52.716665 ], [ -136.0, 54.000002 ], [ -134.848248, 54.237829 ], [ -134.79568, 54.248684 ], [ -134.679022, 54.27233 ], [ -134.120188, 54.385601 ], [ -134.018721, 54.406167 ], [ -133.603238, 54.486912 ], [ -133.212878, 54.562775 ], [ -133.15868, 54.573308 ], [ -132.700914, 54.659237 ], [ -132.700609, 54.659256 ], [ -132.583333, 54.666667 ], [ -130.618259, 54.709791 ], [ -130.621202, 54.714848 ], [ -130.628662, 54.724751 ], [ -130.628199, 54.726873 ], [ -130.625748, 54.73811 ], [ -130.641682, 54.750046 ], [ -130.659088, 54.763084 ], [ -130.628891, 54.782749 ], [ -130.611511, 54.785447 ], [ -130.568222, 54.792168 ], [ -130.48027, 54.836693 ], [ -130.454422, 54.851307 ], [ -130.422745, 54.87339 ], [ -130.389887, 54.892377 ], [ -130.372223, 54.900827 ], [ -130.366394, 54.904993 ], [ -130.359711, 54.908045 ], [ -130.354899, 54.912596 ], [ -130.345978, 54.917751 ], [ -130.273361, 54.973972 ], [ -130.187576, 55.062862 ], [ -130.180923, 55.091278 ], [ -130.152466, 55.124638 ], [ -130.146164, 55.14286 ], [ -130.102859, 55.192612 ], [ -129.974197, 55.281944 ], [ -129.9767, 55.300388 ], [ -130.021133, 55.337944 ], [ -130.041306, 55.451752 ], [ -130.089951, 55.498001 ], [ -130.128021, 55.581085 ], [ -130.111771, 55.682945 ], [ -130.147888, 55.714943 ], [ -130.152557, 55.766335 ], [ -130.124924, 55.805695 ], [ -130.083633, 55.821751 ], [ -130.003922, 55.907471 ], [ -130.003922, 55.911972 ], [ -130.014778, 55.911972 ], [ -130.01512, 55.929671 ], [ -130.015091, 55.929863 ], [ -130.012466, 55.946804 ], [ -130.005356, 55.993027 ], [ -130.004166, 56.000946 ], [ -130.004105, 56.001251 ], [ -130.003632, 56.00811 ], [ -130.011642, 56.017307 ], [ -130.014237, 56.02028 ], [ -130.035034, 56.044109 ], [ -130.036972, 56.04636 ], [ -130.054413, 56.066307 ], [ -130.057663, 56.070026 ], [ -130.058914, 56.071445 ], [ -130.064835, 56.07822 ], [ -130.083023, 56.098999 ], [ -130.098083, 56.116176 ], [ -130.103943, 56.12286 ], [ -130.230133, 56.099472 ], [ -130.244321, 56.096852 ], [ -130.246368, 56.096474 ], [ -130.302627, 56.113879 ], [ -130.35025, 56.128613 ], [ -130.418766, 56.140346 ], [ -130.426163, 56.141613 ], [ -130.439728, 56.174583 ], [ -130.449661, 56.198639 ], [ -130.451508, 56.20314 ], [ -130.456467, 56.215137 ], [ -130.465024, 56.235833 ], [ -130.468033, 56.243111 ], [ -130.540695, 56.247528 ], [ -130.570923, 56.254612 ], [ -130.58255, 56.257362 ], [ -130.615616, 56.26511 ], [ -130.623474, 56.266945 ], [ -130.626923, 56.269112 ], [ -130.64566, 56.280972 ], [ -130.647644, 56.282223 ], [ -130.667831, 56.294971 ], [ -130.686249, 56.306583 ], [ -130.710159, 56.321667 ], [ -130.720383, 56.32811 ], [ -130.731415, 56.33503 ], [ -130.737, 56.338554 ], [ -130.738259, 56.339346 ], [ -130.755859, 56.353052 ], [ -130.774445, 56.366106 ], [ -130.786887, 56.36753 ], [ -130.859802, 56.376945 ], [ -130.879776, 56.379528 ], [ -130.914993, 56.384056 ], [ -130.922882, 56.385082 ], [ -130.942307, 56.387554 ], [ -130.965973, 56.390583 ], [ -131.071526, 56.404046 ], [ -131.087494, 56.406082 ], [ -131.124717, 56.424885 ], [ -131.14447, 56.434717 ], [ -131.16369, 56.444571 ], [ -131.173615, 56.449585 ], [ -131.295395, 56.491806 ], [ -131.297531, 56.492554 ], [ -131.311172, 56.497276 ], [ -131.319885, 56.500278 ], [ -131.472137, 56.552723 ], [ -131.57908, 56.611141 ], [ -131.579823, 56.611547 ], [ -131.581728, 56.612249 ], [ -131.835445, 56.599584 ], [ -131.861687, 56.704253 ], [ -131.900939, 56.753481 ], [ -131.87294, 56.806026 ], [ -132.123611, 56.873665 ], [ -132.066005, 56.99995 ], [ -132.065934, 56.999944 ], [ -130.587346, 56.878959 ], [ -130.572533, 56.877746 ], [ -130.550601, 56.875705 ], [ -130.53171, 56.873947 ], [ -129.426943, 56.771112 ], [ -128.126905, 56.63684 ], [ -128.115505, 56.635594 ], [ -127.934896, 56.61455 ] ] ] ] } }
]
}
