{
"type": "FeatureCollection",
"name": "fir_toronto",
"crs": { "type": "name", "properties": { "name": "urn:ogc:def:crs:OGC:1.3:CRS84" } },
"features": [
{ "type": "Feature", "properties": { "FIRname": "FIR TORONTO", "ICAOCODE": "CZYZ", "RESP": "MEXICO", "NOM_COMP": "TORONTO", "HISTORIC": null, "REMARKS": null, "REMARKS2": null, "centlong": -81.478173825, "centlat": 47.541338537199998, "AREAsqkm": 532452.72432899999, "PERIMEkm": 3852.9288593699998, "FIR_NAME": "FIR TORONTO", "CODE": "CZYZ", "Type": "FIR", "FIR_Upper": "Unlimited", "FIR_Lower": "GND", "UIR_Upper": null, "UIR_Lower": null, "limit": "Unlimited", "FIR_Uppe_1": 66000.0, "FIR_Lowe_1": 0.0, "UIR_Uppe_1": 0.0, "UIR_Lowe_1": 0.0, "Number_lim": 66000.0, "ANP_Region": "NAM", "Country_So": "Canada" }, "geometry": { "type": "MultiPolygon", "coordinates": [ [ [ [ -78.954936, 47.75761 ], [ -78.950745, 47.757604 ], [ -78.946553, 47.757617 ], [ -78.942359, 47.757649 ], [ -78.938163, 47.757701 ], [ -78.933966, 47.757772 ], [ -78.929767, 47.757862 ], [ -78.925566, 47.757972 ], [ -78.921365, 47.7581 ], [ -78.917162, 47.758249 ], [ -78.912958, 47.758416 ], [ -78.908753, 47.758603 ], [ -78.904547, 47.758809 ], [ -78.90034, 47.759034 ], [ -78.896133, 47.759279 ], [ -78.891925, 47.759543 ], [ -78.887717, 47.759826 ], [ -78.883509, 47.760129 ], [ -78.8793, 47.76045 ], [ -78.875091, 47.760791 ], [ -78.8732, 47.760953 ], [ -78.870883, 47.761151 ], [ -78.866674, 47.761531 ], [ -78.862465, 47.76193 ], [ -78.858257, 47.762347 ], [ -78.854049, 47.762784 ], [ -78.849841, 47.763241 ], [ -78.845634, 47.763716 ], [ -78.841428, 47.764211 ], [ -78.837222, 47.764725 ], [ -78.833018, 47.765258 ], [ -78.828814, 47.76581 ], [ -78.824617, 47.76638 ], [ -78.820422, 47.766969 ], [ -78.816228, 47.767578 ], [ -78.812035, 47.768205 ], [ -78.807843, 47.768852 ], [ -78.803653, 47.769517 ], [ -78.799464, 47.770202 ], [ -78.795278, 47.770905 ], [ -78.791092, 47.771628 ], [ -78.786909, 47.772369 ], [ -78.782727, 47.773129 ], [ -78.778548, 47.773909 ], [ -78.77437, 47.774707 ], [ -78.770195, 47.775524 ], [ -78.766021, 47.77636 ], [ -78.76185, 47.777215 ], [ -78.757682, 47.778088 ], [ -78.753516, 47.778981 ], [ -78.749352, 47.779892 ], [ -78.745191, 47.780822 ], [ -78.741033, 47.781771 ], [ -78.736877, 47.782738 ], [ -78.732724, 47.783725 ], [ -78.728574, 47.78473 ], [ -78.724427, 47.785753 ], [ -78.720283, 47.786796 ], [ -78.716142, 47.787857 ], [ -78.712005, 47.788937 ], [ -78.70787, 47.790035 ], [ -78.703739, 47.791152 ], [ -78.699611, 47.792288 ], [ -78.695487, 47.793442 ], [ -78.691366, 47.794615 ], [ -78.68725, 47.795806 ], [ -78.683136, 47.797016 ], [ -78.679027, 47.798244 ], [ -78.674921, 47.79949 ], [ -78.670819, 47.800755 ], [ -78.666721, 47.802039 ], [ -78.662627, 47.803341 ], [ -78.658537, 47.804661 ], [ -78.654451, 47.806 ], [ -78.650369, 47.807357 ], [ -78.646292, 47.808733 ], [ -78.642218, 47.810127 ], [ -78.638149, 47.811539 ], [ -78.634085, 47.812969 ], [ -78.630024, 47.814418 ], [ -78.625968, 47.815885 ], [ -78.621917, 47.81737 ], [ -78.617871, 47.818873 ], [ -78.613829, 47.820395 ], [ -78.609791, 47.821934 ], [ -78.605759, 47.823492 ], [ -78.601731, 47.825068 ], [ -78.597708, 47.826662 ], [ -78.595486, 47.827554 ], [ -78.594595, 47.827962 ], [ -78.592593, 47.828888 ], [ -78.590596, 47.82982 ], [ -78.588602, 47.830759 ], [ -78.586613, 47.831703 ], [ -78.584627, 47.832653 ], [ -78.582646, 47.83361 ], [ -78.580669, 47.834572 ], [ -78.578696, 47.835541 ], [ -78.576727, 47.836516 ], [ -78.574762, 47.837497 ], [ -78.572801, 47.838484 ], [ -78.570845, 47.839477 ], [ -78.568892, 47.840476 ], [ -78.566944, 47.841481 ], [ -78.477692, 47.783735 ], [ -78.109652, 47.548187 ], [ -78.089536, 47.532596 ], [ -78.088145, 47.531696 ], [ -77.582682, 47.139734 ], [ -77.556901, 47.119751 ], [ -77.25, 46.947222 ], [ -77.25, 46.947034 ], [ -77.25, 46.133333 ], [ -76.927778, 45.961111 ], [ -76.266699, 45.8375 ], [ -76.263764, 45.775594 ], [ -76.251192, 45.511254 ], [ -76.24623, 45.405833 ], [ -76.246091, 45.402856 ], [ -76.246047, 45.401935 ], [ -76.243012, 45.337161 ], [ -76.239175, 45.25528 ], [ -76.239052, 45.252642 ], [ -76.238956, 45.250576 ], [ -76.23217, 45.104959 ], [ -76.232148, 45.104495 ], [ -76.232125, 45.104009 ], [ -76.223744, 44.923117 ], [ -76.22361, 44.92022 ], [ -76.223514, 44.918149 ], [ -76.220758, 44.858307 ], [ -76.216947, 44.775597 ], [ -76.216788, 44.772132 ], [ -76.216596, 44.767955 ], [ -76.213374, 44.697659 ], [ -76.210793, 44.641372 ], [ -76.210644, 44.6381 ], [ -76.210396, 44.632694 ], [ -76.205104, 44.516634 ], [ -76.203322, 44.477574 ], [ -76.203277, 44.47658 ], [ -76.198187, 44.364457 ], [ -76.191082, 44.2204 ], [ -76.191082, 44.220394 ], [ -76.191082, 44.220394 ], [ -76.291962, 44.196833 ], [ -76.318344, 44.179369 ], [ -76.363373, 44.150995 ], [ -76.365829, 44.147493 ], [ -76.368683, 44.147364 ], [ -76.410278, 44.121103 ], [ -76.441703, 44.099627 ], [ -76.439264, 44.093638 ], [ -76.795045, 43.633329 ], [ -76.796739, 43.631138 ], [ -76.796887, 43.631138 ], [ -78.690141, 43.631138 ], [ -79.179817, 43.457366 ], [ -79.199307, 43.450449 ], [ -79.200386, 43.450066 ], [ -79.170791, 43.40734 ], [ -79.070389, 43.26239 ], [ -79.060096, 43.256815 ], [ -79.055923, 43.254556 ], [ -79.054701, 43.248699 ], [ -79.055674, 43.240255 ], [ -79.055809, 43.239082 ], [ -79.053055, 43.223473 ], [ -79.054273, 43.218922 ], [ -79.054816, 43.216894 ], [ -79.05658, 43.210304 ], [ -79.053402, 43.206204 ], [ -79.051222, 43.203391 ], [ -79.048721, 43.200165 ], [ -79.051254, 43.189961 ], [ -79.051812, 43.187712 ], [ -79.052719, 43.184055 ], [ -79.053337, 43.173916 ], [ -79.051086, 43.16761 ], [ -79.047781, 43.163702 ], [ -79.046669, 43.162388 ], [ -79.045115, 43.156451 ], [ -79.044975, 43.155918 ], [ -79.04425, 43.15189 ], [ -79.042862, 43.149277 ], [ -79.042336, 43.143665 ], [ -79.043694, 43.138416 ], [ -79.04953, 43.135139 ], [ -79.052582, 43.131638 ], [ -79.054138, 43.12936 ], [ -79.057114, 43.127029 ], [ -79.057512, 43.126934 ], [ -79.059448, 43.126472 ], [ -79.063257, 43.124184 ], [ -79.064723, 43.123303 ], [ -79.069664, 43.120335 ], [ -79.065411, 43.117782 ], [ -79.062584, 43.116085 ], [ -79.061248, 43.114869 ], [ -79.060143, 43.113861 ], [ -79.05867, 43.110916 ], [ -79.057915, 43.107113 ], [ -79.066223, 43.091331 ], [ -79.069809, 43.088554 ], [ -79.075386, 43.081612 ], [ -79.074804, 43.079899 ], [ -79.074748, 43.079734 ], [ -79.074121, 43.077888 ], [ -79.066603, 43.076517 ], [ -79.064759, 43.076187 ], [ -79.007416, 43.065918 ], [ -78.999664, 43.056 ], [ -79.005333, 43.047249 ], [ -79.011864, 43.029167 ], [ -79.023445, 43.016277 ], [ -79.020195, 42.994835 ], [ -79.016534, 42.990718 ], [ -79.011696, 42.985279 ], [ -78.975029, 42.968777 ], [ -78.961777, 42.957863 ], [ -78.932747, 42.956028 ], [ -78.91925, 42.947083 ], [ -78.9095, 42.933693 ], [ -78.906082, 42.923752 ], [ -78.906072, 42.922076 ], [ -78.905991, 42.908158 ], [ -78.905965, 42.903773 ], [ -78.905945, 42.900276 ], [ -78.915497, 42.881279 ], [ -78.916138, 42.878639 ], [ -78.935387, 42.828304 ], [ -79.074646, 42.775408 ], [ -79.107117, 42.763074 ], [ -79.150211, 42.746705 ], [ -79.762429, 42.514159 ], [ -80.080097, 42.39353 ], [ -80.080752, 42.393425 ], [ -80.51942, 42.323436 ], [ -81.180282, 42.217995 ], [ -81.243261, 42.207946 ], [ -81.918317, 41.897462 ], [ -82.398613, 41.676556 ], [ -82.463999, 41.676837 ], [ -82.682267, 41.677776 ], [ -82.682268, 41.677777 ], [ -82.6825, 41.677778 ], [ -82.695355, 41.683983 ], [ -82.728801, 41.700127 ], [ -82.728801, 41.700127 ], [ -83.067588, 41.862849 ], [ -83.068067, 41.863888 ], [ -83.147768, 42.036754 ], [ -83.149242, 42.04 ], [ -83.148419, 42.044853 ], [ -83.121696, 42.125446 ], [ -83.133942, 42.174805 ], [ -83.128698, 42.23117 ], [ -83.128445, 42.23389 ], [ -83.127998, 42.238693 ], [ -83.124031, 42.243895 ], [ -83.115012, 42.25572 ], [ -83.111641, 42.260139 ], [ -83.108871, 42.265699 ], [ -83.101773, 42.279946 ], [ -83.097439, 42.288644 ], [ -83.096779, 42.28997 ], [ -83.08822, 42.299259 ], [ -83.084738, 42.303037 ], [ -83.079498, 42.308723 ], [ -83.064904, 42.316966 ], [ -83.063416, 42.317806 ], [ -83.063125, 42.317882 ], [ -83.0628, 42.317967 ], [ -83.056559, 42.319595 ], [ -83.056285, 42.319667 ], [ -83.019028, 42.329388 ], [ -83.003281, 42.330978 ], [ -82.988777, 42.332443 ], [ -82.959137, 42.339443 ], [ -82.945389, 42.346943 ], [ -82.828194, 42.373417 ], [ -82.667809, 42.53339 ], [ -82.66217, 42.541473 ], [ -82.654358, 42.547028 ], [ -82.641771, 42.554537 ], [ -82.641136, 42.554916 ], [ -82.633003, 42.55711 ], [ -82.626323, 42.557071 ], [ -82.622963, 42.556732 ], [ -82.617252, 42.554676 ], [ -82.616692, 42.554474 ], [ -82.610748, 42.549999 ], [ -82.605553, 42.548557 ], [ -82.591689, 42.549951 ], [ -82.590942, 42.550026 ], [ -82.583862, 42.553944 ], [ -82.58084, 42.562483 ], [ -82.580254, 42.56414 ], [ -82.579311, 42.564953 ], [ -82.568558, 42.574223 ], [ -82.563819, 42.577087 ], [ -82.562968, 42.577601 ], [ -82.560196, 42.579277 ], [ -82.553413, 42.58511 ], [ -82.550755, 42.588988 ], [ -82.549225, 42.591221 ], [ -82.536324, 42.599284 ], [ -82.535608, 42.599732 ], [ -82.523445, 42.607334 ], [ -82.518944, 42.61375 ], [ -82.509666, 42.638168 ], [ -82.509945, 42.647162 ], [ -82.510094, 42.651971 ], [ -82.510105, 42.652341 ], [ -82.510498, 42.665028 ], [ -82.495026, 42.699612 ], [ -82.491832, 42.704906 ], [ -82.487214, 42.712562 ], [ -82.484726, 42.719156 ], [ -82.483732, 42.722385 ], [ -82.483825, 42.727938 ], [ -82.483917, 42.733387 ], [ -82.478831, 42.742305 ], [ -82.476151, 42.747004 ], [ -82.467361, 42.762417 ], [ -82.467834, 42.770279 ], [ -82.470617, 42.781029 ], [ -82.471947, 42.786167 ], [ -82.472719, 42.787598 ], [ -82.480721, 42.802418 ], [ -82.482025, 42.80825 ], [ -82.480838, 42.814664 ], [ -82.478859, 42.825359 ], [ -82.472748, 42.83675 ], [ -82.469965, 42.848444 ], [ -82.468965, 42.852648 ], [ -82.468246, 42.855667 ], [ -82.470337, 42.887417 ], [ -82.462303, 42.905613 ], [ -82.455307, 42.92675 ], [ -82.447777, 42.937668 ], [ -82.43789, 42.945174 ], [ -82.428864, 42.952026 ], [ -82.416779, 42.966778 ], [ -82.413862, 42.975187 ], [ -82.413895, 42.975824 ], [ -82.414679, 42.978887 ], [ -82.421448, 42.985474 ], [ -82.421906, 42.986467 ], [ -82.424583, 42.992279 ], [ -82.424141, 42.997833 ], [ -82.419746, 43.003549 ], [ -82.409595, 43.01965 ], [ -82.196524, 43.444415 ], [ -82.122832, 43.591323 ], [ -82.127416, 43.61156 ], [ -82.196524, 43.916667 ], [ -82.196524, 43.916667 ], [ -82.518608, 45.338638 ], [ -83.597168, 45.821278 ], [ -83.593422, 45.825333 ], [ -83.433777, 45.998165 ], [ -83.449183, 46.010165 ], [ -83.498953, 46.048928 ], [ -83.529691, 46.072868 ], [ -83.56201, 46.09804 ], [ -83.571945, 46.105778 ], [ -83.582991, 46.107894 ], [ -83.654999, 46.121693 ], [ -83.759865, 46.102722 ], [ -83.826332, 46.118862 ], [ -83.903526, 46.060444 ], [ -83.955475, 46.056751 ], [ -83.970549, 46.089754 ], [ -83.976334, 46.102417 ], [ -83.982236, 46.105546 ], [ -84.006302, 46.118305 ], [ -84.006246, 46.123589 ], [ -84.005974, 46.149445 ], [ -84.029778, 46.162117 ], [ -84.077141, 46.187332 ], [ -84.085808, 46.21014 ], [ -84.108253, 46.241444 ], [ -84.105033, 46.24597 ], [ -84.097641, 46.256363 ], [ -84.103903, 46.260472 ], [ -84.115417, 46.268028 ], [ -84.116804, 46.284159 ], [ -84.119446, 46.314888 ], [ -84.105942, 46.321972 ], [ -84.115968, 46.333588 ], [ -84.120087, 46.33836 ], [ -84.139, 46.372444 ], [ -84.139521, 46.375862 ], [ -84.146057, 46.418777 ], [ -84.111137, 46.504223 ], [ -84.118195, 46.517944 ], [ -84.118331, 46.518027 ], [ -84.123337, 46.521084 ], [ -84.128998, 46.530499 ], [ -84.139473, 46.532444 ], [ -84.146835, 46.531029 ], [ -84.153664, 46.528278 ], [ -84.166809, 46.526306 ], [ -84.177696, 46.527084 ], [ -84.193665, 46.540222 ], [ -84.225891, 46.534054 ], [ -84.254807, 46.500805 ], [ -84.265472, 46.494415 ], [ -84.276253, 46.492943 ], [ -84.293747, 46.492889 ], [ -84.325165, 46.499832 ], [ -84.339307, 46.506316 ], [ -84.352234, 46.507776 ], [ -84.352249, 46.507776 ], [ -84.374285, 46.509094 ], [ -84.394956, 46.498966 ], [ -84.39566, 46.498621 ], [ -84.421211, 46.500527 ], [ -84.421254, 46.50053 ], [ -84.445286, 46.489005 ], [ -84.445568, 46.488669 ], [ -84.475453, 46.453083 ], [ -84.475629, 46.452874 ], [ -84.531009, 46.458354 ], [ -84.556973, 46.460923 ], [ -84.685689, 46.569331 ], [ -84.762436, 46.63397 ], [ -84.860138, 46.888916 ], [ -84.881347, 46.897696 ], [ -85.104489, 46.990076 ], [ -85.973353, 47.349783 ], [ -86.00086, 47.361171 ], [ -86.429148, 47.538481 ], [ -86.507397, 47.570875 ], [ -86.999468, 47.774591 ], [ -87.0, 49.533335 ], [ -86.266666, 50.000002 ], [ -85.896118, 50.250761 ], [ -85.872781, 50.26631 ], [ -85.730569, 50.361068 ], [ -85.509626, 50.508285 ], [ -85.467624, 50.535821 ], [ -85.302473, 50.64409 ], [ -85.10361, 50.774459 ], [ -85.024287, 50.825685 ], [ -84.91228, 50.898019 ], [ -84.778504, 50.984411 ], [ -84.604525, 51.095198 ], [ -84.477055, 51.17637 ], [ -84.41675, 51.214771 ], [ -84.230961, 51.33096 ], [ -83.950303, 51.506477 ], [ -83.897855, 51.539276 ], [ -83.683381, 51.6709 ], [ -83.530856, 51.764506 ], [ -83.141666, 52.000002 ], [ -82.325793, 52.398349 ], [ -82.301599, 52.410161 ], [ -82.035426, 52.536032 ], [ -81.604029, 52.740586 ], [ -81.564788, 52.758591 ], [ -81.519454, 52.780028 ], [ -80.953265, 53.039169 ], [ -80.665786, 53.170746 ], [ -80.648056, 53.178861 ], [ -80.0, 53.466669 ], [ -79.987292, 53.414266 ], [ -79.817169, 52.712754 ], [ -79.800255, 52.643008 ], [ -79.706801, 52.243062 ], [ -79.641013, 51.963089 ], [ -79.631186, 51.919463 ], [ -79.617608, 51.861352 ], [ -79.52147, 51.432352 ], [ -79.38684, 50.831584 ], [ -79.373993, 50.774259 ], [ -79.215281, 50.036045 ], [ -79.198638, 49.958635 ], [ -79.197221, 49.952045 ], [ -79.0, 49.000002 ], [ -79.0, 48.999814 ], [ -79.0, 48.5875 ], [ -79.0, 48.587312 ], [ -79.004392, 48.586891 ], [ -79.008786, 48.586451 ], [ -79.012273, 48.586087 ], [ -79.015398, 48.585712 ], [ -79.020493, 48.585081 ], [ -79.02557, 48.584434 ], [ -79.030628, 48.583769 ], [ -79.035667, 48.583086 ], [ -79.040688, 48.582386 ], [ -79.045689, 48.581669 ], [ -79.050672, 48.580935 ], [ -79.055635, 48.580184 ], [ -79.06058, 48.579415 ], [ -79.065505, 48.578629 ], [ -79.070411, 48.577826 ], [ -79.075298, 48.577005 ], [ -79.080166, 48.576168 ], [ -79.085014, 48.575313 ], [ -79.089843, 48.574441 ], [ -79.094652, 48.573552 ], [ -79.099442, 48.572646 ], [ -79.104212, 48.571722 ], [ -79.108962, 48.570781 ], [ -79.111329, 48.570305 ], [ -79.113692, 48.569824 ], [ -79.11605, 48.569338 ], [ -79.118403, 48.568849 ], [ -79.120751, 48.568355 ], [ -79.123093, 48.567857 ], [ -79.125431, 48.567355 ], [ -79.127764, 48.566848 ], [ -79.130092, 48.566337 ], [ -79.132415, 48.565822 ], [ -79.134732, 48.565303 ], [ -79.137045, 48.564779 ], [ -79.139353, 48.564251 ], [ -79.141655, 48.563719 ], [ -79.143953, 48.563182 ], [ -79.146245, 48.562642 ], [ -79.148532, 48.562097 ], [ -79.150814, 48.561547 ], [ -79.153092, 48.560994 ], [ -79.155364, 48.560436 ], [ -79.157631, 48.559874 ], [ -79.159893, 48.559308 ], [ -79.16215, 48.558738 ], [ -79.164402, 48.558163 ], [ -79.166648, 48.557584 ], [ -79.16889, 48.557001 ], [ -79.171126, 48.556413 ], [ -79.173357, 48.555822 ], [ -79.175583, 48.555226 ], [ -79.177804, 48.554626 ], [ -79.180019, 48.554021 ], [ -79.182229, 48.553413 ], [ -79.184434, 48.5528 ], [ -79.186634, 48.552183 ], [ -79.188828, 48.551562 ], [ -79.191018, 48.550937 ], [ -79.193202, 48.550307 ], [ -79.19538, 48.549673 ], [ -79.197554, 48.549035 ], [ -79.199722, 48.548393 ], [ -79.201885, 48.547747 ], [ -79.204042, 48.547096 ], [ -79.20427, 48.547027 ], [ -79.206194, 48.546441 ], [ -79.208341, 48.545783 ], [ -79.210483, 48.545119 ], [ -79.212619, 48.544452 ], [ -79.214749, 48.543781 ], [ -79.216875, 48.543105 ], [ -79.218995, 48.542425 ], [ -79.221109, 48.541741 ], [ -79.223219, 48.541053 ], [ -79.225322, 48.540361 ], [ -79.227421, 48.539665 ], [ -79.229514, 48.538964 ], [ -79.231601, 48.538259 ], [ -79.233683, 48.53755 ], [ -79.23576, 48.536837 ], [ -79.237831, 48.53612 ], [ -79.239897, 48.535399 ], [ -79.241957, 48.534673 ], [ -79.244012, 48.533944 ], [ -79.246061, 48.53321 ], [ -79.248104, 48.532472 ], [ -79.250142, 48.53173 ], [ -79.252175, 48.530984 ], [ -79.254202, 48.530234 ], [ -79.256223, 48.52948 ], [ -79.258239, 48.528721 ], [ -79.26025, 48.527959 ], [ -79.262254, 48.527192 ], [ -79.264254, 48.526421 ], [ -79.266247, 48.525647 ], [ -79.268235, 48.524868 ], [ -79.270217, 48.524085 ], [ -79.272194, 48.523298 ], [ -79.274165, 48.522507 ], [ -79.27613, 48.521711 ], [ -79.27809, 48.520912 ], [ -79.280044, 48.520109 ], [ -79.281992, 48.519302 ], [ -79.283934, 48.51849 ], [ -79.285871, 48.517675 ], [ -79.287802, 48.516855 ], [ -79.289728, 48.516032 ], [ -79.29165, 48.515203 ], [ -79.293568, 48.51437 ], [ -79.295479, 48.513533 ], [ -79.297384, 48.512692 ], [ -79.299284, 48.511846 ], [ -79.301178, 48.510997 ], [ -79.303066, 48.510144 ], [ -79.304948, 48.509287 ], [ -79.306825, 48.508426 ], [ -79.308695, 48.507561 ], [ -79.31056, 48.506691 ], [ -79.312418, 48.505818 ], [ -79.314271, 48.504941 ], [ -79.316118, 48.50406 ], [ -79.317959, 48.503175 ], [ -79.319794, 48.502285 ], [ -79.321624, 48.501392 ], [ -79.323447, 48.500495 ], [ -79.325264, 48.499594 ], [ -79.327075, 48.498689 ], [ -79.328881, 48.49778 ], [ -79.33068, 48.496867 ], [ -79.332474, 48.495951 ], [ -79.334261, 48.49503 ], [ -79.336042, 48.494105 ], [ -79.337818, 48.493177 ], [ -79.339587, 48.492244 ], [ -79.34135, 48.491308 ], [ -79.343107, 48.490367 ], [ -79.344858, 48.489423 ], [ -79.346603, 48.488475 ], [ -79.348342, 48.487523 ], [ -79.350075, 48.486567 ], [ -79.351802, 48.485607 ], [ -79.353522, 48.484644 ], [ -79.355237, 48.483676 ], [ -79.356945, 48.482705 ], [ -79.358647, 48.48173 ], [ -79.360343, 48.48075 ], [ -79.362033, 48.479768 ], [ -79.363716, 48.478781 ], [ -79.365394, 48.47779 ], [ -79.367065, 48.476796 ], [ -79.36873, 48.475798 ], [ -79.370388, 48.474796 ], [ -79.372041, 48.47379 ], [ -79.373687, 48.47278 ], [ -79.375327, 48.471767 ], [ -79.37696, 48.47075 ], [ -79.378587, 48.469729 ], [ -79.380208, 48.468704 ], [ -79.381823, 48.467676 ], [ -79.383431, 48.466644 ], [ -79.385033, 48.465608 ], [ -79.386629, 48.464568 ], [ -79.388218, 48.463525 ], [ -79.389801, 48.462478 ], [ -79.391377, 48.461427 ], [ -79.392947, 48.460372 ], [ -79.394511, 48.459314 ], [ -79.396068, 48.458252 ], [ -79.397619, 48.457187 ], [ -79.399163, 48.456118 ], [ -79.400701, 48.455045 ], [ -79.401166, 48.454718 ], [ -79.402233, 48.453968 ], [ -79.403758, 48.452887 ], [ -79.405277, 48.451803 ], [ -79.406789, 48.450715 ], [ -79.408295, 48.449624 ], [ -79.409795, 48.448529 ], [ -79.411287, 48.44743 ], [ -79.412773, 48.446328 ], [ -79.414253, 48.445222 ], [ -79.415726, 48.444113 ], [ -79.417193, 48.443 ], [ -79.418652, 48.441883 ], [ -79.420106, 48.440763 ], [ -79.421552, 48.43964 ], [ -79.422992, 48.438513 ], [ -79.424425, 48.437382 ], [ -79.425852, 48.436248 ], [ -79.427272, 48.43511 ], [ -79.428685, 48.433969 ], [ -79.430092, 48.432824 ], [ -79.431492, 48.431676 ], [ -79.432885, 48.430524 ], [ -79.434271, 48.429369 ], [ -79.435651, 48.42821 ], [ -79.437024, 48.427048 ], [ -79.43839, 48.425883 ], [ -79.43975, 48.424714 ], [ -79.441102, 48.423542 ], [ -79.442448, 48.422366 ], [ -79.443787, 48.421187 ], [ -79.445119, 48.420004 ], [ -79.446445, 48.418819 ], [ -79.447763, 48.417629 ], [ -79.449075, 48.416437 ], [ -79.45038, 48.415241 ], [ -79.451678, 48.414041 ], [ -79.452969, 48.412839 ], [ -79.454253, 48.411633 ], [ -79.45553, 48.410424 ], [ -79.4568, 48.409211 ], [ -79.458064, 48.407995 ], [ -79.45932, 48.406776 ], [ -79.460569, 48.405554 ], [ -79.461812, 48.404329 ], [ -79.463047, 48.4031 ], [ -79.464276, 48.401868 ], [ -79.465497, 48.400633 ], [ -79.466712, 48.399394 ], [ -79.467919, 48.398153 ], [ -79.46912, 48.396908 ], [ -79.470313, 48.39566 ], [ -79.471499, 48.394409 ], [ -79.472678, 48.393155 ], [ -79.47385, 48.391897 ], [ -79.475015, 48.390637 ], [ -79.476173, 48.389373 ], [ -79.477324, 48.388107 ], [ -79.478468, 48.386837 ], [ -79.479604, 48.385564 ], [ -79.480733, 48.384288 ], [ -79.481856, 48.38301 ], [ -79.48297, 48.381728 ], [ -79.484078, 48.380443 ], [ -79.485179, 48.379155 ], [ -79.486297, 48.377835 ], [ -79.487407, 48.376511 ], [ -79.48851, 48.375185 ], [ -79.489606, 48.373856 ], [ -79.490693, 48.372523 ], [ -79.491773, 48.371188 ], [ -79.492846, 48.369849 ], [ -79.493911, 48.368507 ], [ -79.494968, 48.367163 ], [ -79.496018, 48.365815 ], [ -79.49706, 48.364464 ], [ -79.498094, 48.363111 ], [ -79.49912, 48.361754 ], [ -79.500139, 48.360395 ], [ -79.50115, 48.359033 ], [ -79.502154, 48.357667 ], [ -79.50315, 48.356299 ], [ -79.504138, 48.354928 ], [ -79.505118, 48.353554 ], [ -79.50609, 48.352178 ], [ -79.507055, 48.350798 ], [ -79.508012, 48.349416 ], [ -79.508961, 48.348031 ], [ -79.509902, 48.346643 ], [ -79.510836, 48.345252 ], [ -79.511761, 48.343859 ], [ -79.512679, 48.342463 ], [ -79.513589, 48.341064 ], [ -79.514491, 48.339662 ], [ -79.515385, 48.338258 ], [ -79.516271, 48.336851 ], [ -79.51715, 48.335442 ], [ -79.51802, 48.33403 ], [ -79.518883, 48.332615 ], [ -79.519738, 48.331198 ], [ -79.520584, 48.329778 ], [ -79.521423, 48.328355 ], [ -79.522254, 48.32693 ], [ -79.523077, 48.325503 ], [ -79.523891, 48.324073 ], [ -79.524698, 48.32264 ], [ -79.525497, 48.321206 ], [ -79.526288, 48.319768 ], [ -79.527071, 48.318328 ], [ -79.527845, 48.316886 ], [ -79.528612, 48.315442 ], [ -79.529371, 48.313995 ], [ -79.530121, 48.312545 ], [ -79.530864, 48.311094 ], [ -79.531598, 48.30964 ], [ -79.532325, 48.308184 ], [ -79.533043, 48.306725 ], [ -79.533753, 48.305264 ], [ -79.534455, 48.303801 ], [ -79.535149, 48.302336 ], [ -79.535834, 48.300869 ], [ -79.536512, 48.299399 ], [ -79.537181, 48.297927 ], [ -79.537842, 48.296453 ], [ -79.538495, 48.294977 ], [ -79.53914, 48.293499 ], [ -79.539777, 48.292019 ], [ -79.540405, 48.290537 ], [ -79.541026, 48.289053 ], [ -79.541638, 48.287566 ], [ -79.542242, 48.286077 ], [ -79.542838, 48.284587 ], [ -79.543425, 48.283094 ], [ -79.544004, 48.281599 ], [ -79.544575, 48.280103 ], [ -79.545138, 48.278604 ], [ -79.545692, 48.277104 ], [ -79.546238, 48.275602 ], [ -79.546776, 48.274098 ], [ -79.547306, 48.272592 ], [ -79.547827, 48.271085 ], [ -79.548339, 48.269575 ], [ -79.548844, 48.268064 ], [ -79.54934, 48.266552 ], [ -79.549828, 48.265037 ], [ -79.550307, 48.263521 ], [ -79.550778, 48.262003 ], [ -79.551241, 48.260484 ], [ -79.551658, 48.259088 ], [ -79.551695, 48.258963 ], [ -79.552141, 48.25744 ], [ -79.552579, 48.255916 ], [ -79.553008, 48.254391 ], [ -79.553429, 48.252864 ], [ -79.553841, 48.251335 ], [ -79.554245, 48.249805 ], [ -79.55464, 48.248273 ], [ -79.555027, 48.24674 ], [ -79.555406, 48.245206 ], [ -79.555776, 48.24367 ], [ -79.556138, 48.242133 ], [ -79.556491, 48.240595 ], [ -79.556836, 48.239055 ], [ -79.557173, 48.237514 ], [ -79.5575, 48.235972 ], [ -79.55782, 48.234429 ], [ -79.558131, 48.232884 ], [ -79.558433, 48.231338 ], [ -79.558727, 48.229791 ], [ -79.559013, 48.228243 ], [ -79.55929, 48.226694 ], [ -79.559558, 48.225143 ], [ -79.559818, 48.223592 ], [ -79.56007, 48.22204 ], [ -79.560313, 48.220486 ], [ -79.560547, 48.218932 ], [ -79.560773, 48.217377 ], [ -79.56099, 48.21582 ], [ -79.561199, 48.214263 ], [ -79.561399, 48.212705 ], [ -79.561591, 48.211146 ], [ -79.561775, 48.209587 ], [ -79.561949, 48.208026 ], [ -79.562115, 48.206465 ], [ -79.562273, 48.204903 ], [ -79.562422, 48.20334 ], [ -79.562563, 48.201776 ], [ -79.562695, 48.200212 ], [ -79.562818, 48.198647 ], [ -79.562933, 48.197082 ], [ -79.563039, 48.195516 ], [ -79.563137, 48.193949 ], [ -79.563226, 48.192382 ], [ -79.563306, 48.190815 ], [ -79.563379, 48.189243 ], [ -79.563442, 48.187672 ], [ -79.563497, 48.1861 ], [ -79.563543, 48.184527 ], [ -79.563581, 48.182954 ], [ -79.56361, 48.181381 ], [ -79.563631, 48.179808 ], [ -79.563643, 48.178234 ], [ -79.563646, 48.17666 ], [ -79.563641, 48.175085 ], [ -79.563627, 48.173511 ], [ -79.563604, 48.171936 ], [ -79.563573, 48.170361 ], [ -79.563533, 48.168786 ], [ -79.563485, 48.16721 ], [ -79.563428, 48.165635 ], [ -79.563363, 48.16406 ], [ -79.563288, 48.162484 ], [ -79.563206, 48.160909 ], [ -79.563114, 48.159333 ], [ -79.563014, 48.157758 ], [ -79.562906, 48.156183 ], [ -79.562789, 48.154607 ], [ -79.562663, 48.153032 ], [ -79.562529, 48.151457 ], [ -79.562386, 48.149883 ], [ -79.562234, 48.148308 ], [ -79.562074, 48.146734 ], [ -79.561906, 48.14516 ], [ -79.561728, 48.143586 ], [ -79.561543, 48.142013 ], [ -79.561348, 48.14044 ], [ -79.561145, 48.138867 ], [ -79.560934, 48.137295 ], [ -79.560714, 48.135723 ], [ -79.560485, 48.134151 ], [ -79.560248, 48.13258 ], [ -79.560002, 48.13101 ], [ -79.559748, 48.12944 ], [ -79.559485, 48.127871 ], [ -79.559214, 48.126302 ], [ -79.558934, 48.124734 ], [ -79.558646, 48.123167 ], [ -79.558349, 48.1216 ], [ -79.558043, 48.120034 ], [ -79.55773, 48.118468 ], [ -79.557407, 48.116904 ], [ -79.557076, 48.11534 ], [ -79.556737, 48.113777 ], [ -79.556389, 48.112215 ], [ -79.556033, 48.110654 ], [ -79.555668, 48.109094 ], [ -79.555295, 48.107535 ], [ -79.554913, 48.105976 ], [ -79.554523, 48.104419 ], [ -79.554124, 48.102862 ], [ -79.553717, 48.101307 ], [ -79.553301, 48.099753 ], [ -79.552877, 48.0982 ], [ -79.552445, 48.096648 ], [ -79.552004, 48.095097 ], [ -79.551555, 48.093547 ], [ -79.551097, 48.091999 ], [ -79.550632, 48.090452 ], [ -79.550157, 48.088906 ], [ -79.549675, 48.087361 ], [ -79.549184, 48.085818 ], [ -79.548684, 48.084276 ], [ -79.548176, 48.082735 ], [ -79.54766, 48.081196 ], [ -79.547136, 48.079658 ], [ -79.546603, 48.078122 ], [ -79.546062, 48.076587 ], [ -79.545513, 48.075054 ], [ -79.544955, 48.073522 ], [ -79.54439, 48.071992 ], [ -79.543816, 48.070464 ], [ -79.543233, 48.068937 ], [ -79.542643, 48.067411 ], [ -79.542044, 48.065888 ], [ -79.541437, 48.064366 ], [ -79.540821, 48.062846 ], [ -79.540198, 48.061327 ], [ -79.539566, 48.059811 ], [ -79.538926, 48.058296 ], [ -79.538278, 48.056783 ], [ -79.538068, 48.056299 ], [ -79.537658, 48.055166 ], [ -79.537618, 48.054981 ], [ -79.537571, 48.054789 ], [ -79.537518, 48.054589 ], [ -79.537459, 48.054381 ], [ -79.537393, 48.054165 ], [ -79.537322, 48.053942 ], [ -79.537243, 48.053711 ], [ -79.537159, 48.053472 ], [ -79.537068, 48.053226 ], [ -79.536971, 48.052972 ], [ -79.536868, 48.052711 ], [ -79.536759, 48.052443 ], [ -79.536643, 48.052167 ], [ -79.536522, 48.051884 ], [ -79.536394, 48.051594 ], [ -79.53626, 48.051298 ], [ -79.536119, 48.050991 ], [ -79.535972, 48.050678 ], [ -79.535819, 48.050358 ], [ -79.53566, 48.050032 ], [ -79.535496, 48.049699 ], [ -79.535326, 48.049362 ], [ -79.535151, 48.049019 ], [ -79.534971, 48.048672 ], [ -79.534785, 48.048318 ], [ -79.534595, 48.04796 ], [ -79.5344, 48.047601 ], [ -79.534203, 48.047239 ], [ -79.534003, 48.046877 ], [ -79.533801, 48.046517 ], [ -79.533599, 48.046161 ], [ -79.533398, 48.045813 ], [ -79.533158, 48.045393 ], [ -79.532918, 48.044963 ], [ -79.532812, 48.044771 ], [ -79.532677, 48.044523 ], [ -79.532435, 48.044072 ], [ -79.532192, 48.043609 ], [ -79.531946, 48.043132 ], [ -79.531697, 48.042637 ], [ -79.531442, 48.042123 ], [ -79.531231, 48.041692 ], [ -79.531014, 48.041242 ], [ -79.530549, 48.040261 ], [ -79.530111, 48.039324 ], [ -79.529759, 48.038562 ], [ -79.529092, 48.037122 ], [ -79.528581, 48.036032 ], [ -79.528326, 48.035498 ], [ -79.528084, 48.034998 ], [ -79.527851, 48.034523 ], [ -79.527624, 48.034071 ], [ -79.527388, 48.033607 ], [ -79.527155, 48.033161 ], [ -79.526926, 48.03273 ], [ -79.526699, 48.032313 ], [ -79.526472, 48.031908 ], [ -79.526247, 48.031514 ], [ -79.526022, 48.03113 ], [ -79.525796, 48.030756 ], [ -79.525226, 48.029819 ], [ -79.524864, 48.029219 ], [ -79.524629, 48.028829 ], [ -79.523997, 48.027774 ], [ -79.523315, 48.02663 ], [ -79.522071, 48.024526 ], [ -79.518874, 48.019099 ], [ -79.51712, 48.016143 ], [ -79.516278, 48.014736 ], [ -79.515466, 48.013389 ], [ -79.514676, 48.012085 ], [ -79.5139, 48.010815 ], [ -79.512893, 48.009183 ], [ -79.511898, 48.007586 ], [ -79.510909, 48.006016 ], [ -79.509923, 48.004467 ], [ -79.508935, 48.002933 ], [ -79.507945, 48.001414 ], [ -79.506951, 47.999905 ], [ -79.505951, 47.998404 ], [ -79.504829, 47.996741 ], [ -79.503697, 47.995084 ], [ -79.502554, 47.993432 ], [ -79.501399, 47.991782 ], [ -79.500392, 47.990362 ], [ -79.500202, 47.990097 ], [ -79.49927, 47.988813 ], [ -79.498332, 47.987532 ], [ -79.497386, 47.986252 ], [ -79.496434, 47.984974 ], [ -79.495475, 47.983698 ], [ -79.494508, 47.982424 ], [ -79.493535, 47.981152 ], [ -79.492556, 47.979883 ], [ -79.491569, 47.978615 ], [ -79.490576, 47.977349 ], [ -79.489575, 47.976086 ], [ -79.488568, 47.974824 ], [ -79.487554, 47.973565 ], [ -79.486534, 47.972308 ], [ -79.485506, 47.971053 ], [ -79.484472, 47.9698 ], [ -79.483432, 47.96855 ], [ -79.482384, 47.967302 ], [ -79.48133, 47.966056 ], [ -79.480269, 47.964812 ], [ -79.479202, 47.96357 ], [ -79.478127, 47.962331 ], [ -79.477047, 47.961094 ], [ -79.475959, 47.95986 ], [ -79.474865, 47.958627 ], [ -79.473765, 47.957398 ], [ -79.472658, 47.95617 ], [ -79.471544, 47.954945 ], [ -79.470424, 47.953722 ], [ -79.469297, 47.952502 ], [ -79.468164, 47.951284 ], [ -79.467024, 47.950069 ], [ -79.465878, 47.948856 ], [ -79.464725, 47.947646 ], [ -79.463566, 47.946438 ], [ -79.4624, 47.945233 ], [ -79.461228, 47.94403 ], [ -79.46005, 47.94283 ], [ -79.458865, 47.941632 ], [ -79.457674, 47.940437 ], [ -79.456477, 47.939245 ], [ -79.455811, 47.938587 ], [ -79.45519, 47.937986 ], [ -79.454355, 47.937182 ], [ -79.453516, 47.936379 ], [ -79.452673, 47.935577 ], [ -79.451826, 47.934776 ], [ -79.450976, 47.933976 ], [ -79.450123, 47.933177 ], [ -79.449266, 47.93238 ], [ -79.448405, 47.931583 ], [ -79.44754, 47.930787 ], [ -79.446672, 47.929993 ], [ -79.445801, 47.9292 ], [ -79.444926, 47.928407 ], [ -79.444047, 47.927616 ], [ -79.443165, 47.926826 ], [ -79.442279, 47.926037 ], [ -79.441389, 47.925249 ], [ -79.440496, 47.924462 ], [ -79.439599, 47.923677 ], [ -79.438699, 47.922892 ], [ -79.436888, 47.921326 ], [ -79.435062, 47.919765 ], [ -79.433222, 47.918207 ], [ -79.431368, 47.916655 ], [ -79.4295, 47.915107 ], [ -79.427617, 47.913563 ], [ -79.42572, 47.912023 ], [ -79.423809, 47.910489 ], [ -79.421884, 47.908958 ], [ -79.419944, 47.907433 ], [ -79.41799, 47.905911 ], [ -79.416022, 47.904395 ], [ -79.41404, 47.902882 ], [ -79.412044, 47.901375 ], [ -79.410034, 47.899872 ], [ -79.40801, 47.898373 ], [ -79.405971, 47.896879 ], [ -79.403919, 47.89539 ], [ -79.401852, 47.893906 ], [ -79.399771, 47.892426 ], [ -79.397677, 47.89095 ], [ -79.395568, 47.889479 ], [ -79.393446, 47.888013 ], [ -79.391309, 47.886552 ], [ -79.389159, 47.885095 ], [ -79.386994, 47.883644 ], [ -79.384816, 47.882196 ], [ -79.382624, 47.880754 ], [ -79.380418, 47.879316 ], [ -79.378198, 47.877883 ], [ -79.375964, 47.876455 ], [ -79.373716, 47.875031 ], [ -79.371455, 47.873613 ], [ -79.36918, 47.872199 ], [ -79.367025, 47.870872 ], [ -79.364857, 47.869549 ], [ -79.362678, 47.86823 ], [ -79.360486, 47.866916 ], [ -79.358282, 47.865606 ], [ -79.356066, 47.8643 ], [ -79.353838, 47.862999 ], [ -79.351598, 47.861702 ], [ -79.349346, 47.860409 ], [ -79.347081, 47.859121 ], [ -79.344805, 47.857837 ], [ -79.342516, 47.856557 ], [ -79.340215, 47.855282 ], [ -79.337902, 47.85401 ], [ -79.335577, 47.852744 ], [ -79.33324, 47.851481 ], [ -79.330891, 47.850223 ], [ -79.32853, 47.84897 ], [ -79.326157, 47.84772 ], [ -79.323772, 47.846475 ], [ -79.321375, 47.845235 ], [ -79.318965, 47.843998 ], [ -79.316543, 47.842766 ], [ -79.314109, 47.841538 ], [ -79.311663, 47.840314 ], [ -79.309205, 47.839095 ], [ -79.306734, 47.83788 ], [ -79.30425, 47.836668 ], [ -79.301755, 47.835461 ], [ -79.299246, 47.834259 ], [ -79.296725, 47.83306 ], [ -79.294191, 47.831865 ], [ -79.29165, 47.830676 ], [ -79.289096, 47.829492 ], [ -79.286528, 47.828311 ], [ -79.283947, 47.827134 ], [ -79.281353, 47.82596 ], [ -79.278744, 47.82479 ], [ -79.276121, 47.823622 ], [ -79.273483, 47.822458 ], [ -79.270831, 47.821297 ], [ -79.268163, 47.820139 ], [ -79.265479, 47.818983 ], [ -79.262777, 47.817829 ], [ -79.260058, 47.816677 ], [ -79.257319, 47.815525 ], [ -79.25456, 47.814374 ], [ -79.251778, 47.813223 ], [ -79.249447, 47.812266 ], [ -79.247097, 47.811307 ], [ -79.244727, 47.810345 ], [ -79.242335, 47.809381 ], [ -79.239919, 47.808413 ], [ -79.237474, 47.80744 ], [ -79.234995, 47.806459 ], [ -79.232476, 47.805468 ], [ -79.227337, 47.803463 ], [ -79.221873, 47.801353 ], [ -79.216609, 47.799337 ], [ -79.209536, 47.796641 ], [ -79.209097, 47.7965 ], [ -79.207173, 47.795891 ], [ -79.205245, 47.795286 ], [ -79.203314, 47.794686 ], [ -79.201381, 47.79409 ], [ -79.199444, 47.793499 ], [ -79.197505, 47.792913 ], [ -79.195563, 47.792331 ], [ -79.193618, 47.791754 ], [ -79.19167, 47.791181 ], [ -79.18972, 47.790614 ], [ -79.187767, 47.790051 ], [ -79.185811, 47.789492 ], [ -79.183852, 47.788938 ], [ -79.181891, 47.788389 ], [ -79.179927, 47.787845 ], [ -79.177961, 47.787305 ], [ -79.175992, 47.78677 ], [ -79.17402, 47.78624 ], [ -79.172046, 47.785715 ], [ -79.17007, 47.785194 ], [ -79.16809, 47.784678 ], [ -79.166109, 47.784166 ], [ -79.164125, 47.78366 ], [ -79.162138, 47.783158 ], [ -79.160149, 47.782661 ], [ -79.158158, 47.782169 ], [ -79.156164, 47.781681 ], [ -79.154168, 47.781198 ], [ -79.15217, 47.78072 ], [ -79.150169, 47.780247 ], [ -79.148166, 47.779778 ], [ -79.146161, 47.779315 ], [ -79.144153, 47.778856 ], [ -79.142144, 47.778402 ], [ -79.140132, 47.777953 ], [ -79.138118, 47.777508 ], [ -79.136101, 47.777068 ], [ -79.134083, 47.776634 ], [ -79.133593, 47.776529 ], [ -79.132062, 47.776203 ], [ -79.13004, 47.775778 ], [ -79.128015, 47.775358 ], [ -79.125988, 47.774942 ], [ -79.12396, 47.774532 ], [ -79.121929, 47.774126 ], [ -79.119896, 47.773725 ], [ -79.117861, 47.773329 ], [ -79.115824, 47.772937 ], [ -79.113786, 47.772551 ], [ -79.111745, 47.772169 ], [ -79.109703, 47.771793 ], [ -79.107658, 47.771421 ], [ -79.105612, 47.771054 ], [ -79.103564, 47.770692 ], [ -79.101514, 47.770335 ], [ -79.099463, 47.769982 ], [ -79.097409, 47.769635 ], [ -79.095354, 47.769292 ], [ -79.093331, 47.76896 ], [ -79.091307, 47.768633 ], [ -79.089281, 47.76831 ], [ -79.087253, 47.767992 ], [ -79.085224, 47.767679 ], [ -79.083193, 47.767371 ], [ -79.081161, 47.767067 ], [ -79.079127, 47.766768 ], [ -79.077091, 47.766474 ], [ -79.075054, 47.766185 ], [ -79.073016, 47.7659 ], [ -79.070976, 47.76562 ], [ -79.068935, 47.765345 ], [ -79.066892, 47.765075 ], [ -79.064848, 47.764809 ], [ -79.062802, 47.764549 ], [ -79.060755, 47.764293 ], [ -79.058707, 47.764042 ], [ -79.056657, 47.763795 ], [ -79.054606, 47.763553 ], [ -79.052553, 47.763317 ], [ -79.0505, 47.763085 ], [ -79.048445, 47.762857 ], [ -79.046389, 47.762635 ], [ -79.044331, 47.762417 ], [ -79.042273, 47.762204 ], [ -79.040213, 47.761996 ], [ -79.038152, 47.761793 ], [ -79.03609, 47.761594 ], [ -79.034026, 47.761401 ], [ -79.031962, 47.761212 ], [ -79.029896, 47.761028 ], [ -79.02783, 47.760848 ], [ -79.025762, 47.760674 ], [ -79.023693, 47.760504 ], [ -79.021623, 47.760339 ], [ -79.019553, 47.760179 ], [ -79.017481, 47.760024 ], [ -79.015408, 47.759874 ], [ -79.013334, 47.759728 ], [ -79.011259, 47.759587 ], [ -79.009184, 47.759452 ], [ -79.007107, 47.75932 ], [ -79.005029, 47.759194 ], [ -79.002951, 47.759073 ], [ -79.000871, 47.758956 ], [ -78.998791, 47.758844 ], [ -78.99671, 47.758737 ], [ -78.994628, 47.758635 ], [ -78.992545, 47.758537 ], [ -78.990462, 47.758445 ], [ -78.988377, 47.758357 ], [ -78.986292, 47.758274 ], [ -78.984206, 47.758196 ], [ -78.98212, 47.758123 ], [ -78.980033, 47.758055 ], [ -78.977945, 47.757991 ], [ -78.975856, 47.757932 ], [ -78.971676, 47.757829 ], [ -78.967494, 47.757746 ], [ -78.96331, 47.757681 ], [ -78.959124, 47.757636 ], [ -78.954936, 47.75761 ] ] ] ] } }
]
}
