{
"type": "FeatureCollection",
"name": "gander_chunk_handbook",
"features": [
{ "type": "Feature", "properties": { }, "geometry": { "type": "Polygon", "coordinates": [ [ [ -56.95066739130435, 63.515105498721226 ], [ -39.0, 63.5 ], [ -43.0, 58.5 ], [ -50.0, 58.5 ], [ -56.95066739130435, 63.515105498721226 ] ] ] } }
]
}
