{
"type": "FeatureCollection",
"name": "oldvsnew",
"crs": { "type": "name", "properties": { "name": "urn:ogc:def:crs:OGC:1.3:CRS84" } },
"features": [
{ "type": "Feature", "properties": { }, "geometry": { "type": "MultiPolygon", "coordinates": [ [ [ [ -39.257728631749544, 63.5 ], [ -39.0, 63.5 ], [ -30.0, 61.0 ], [ -29.0, 61.0 ], [ -28.0, 61.0 ], [ -27.0, 61.0 ], [ -27.0, 45.0 ], [ -28.0, 45.0 ], [ -29.0, 45.0 ], [ -30.0, 45.0 ], [ -30.041582495265907, 45.0 ], [ -30.004636, 60.943313 ], [ -38.97896, 63.477346 ], [ -39.257728631749544, 63.5 ] ] ], [ [ [ -39.963176289492971, 45.0 ], [ -40.0, 45.0 ], [ -41.0, 45.0 ], [ -42.0, 45.0 ], [ -43.0, 45.0 ], [ -44.0, 45.0 ], [ -45.0, 45.0 ], [ -46.0, 45.0 ], [ -47.0, 45.0 ], [ -47.666667, 45.0 ], [ -47.666667, 45.096650222157606 ], [ -39.963176289492971, 45.0 ] ] ] ] } },
{ "type": "Feature", "properties": { }, "geometry": { "type": "MultiPolygon", "coordinates": [ [ [ [ -47.666667, 45.096650222157606 ], [ -47.666667, 45.0 ], [ -48.0, 45.0 ], [ -49.0, 45.0 ], [ -50.0, 45.0 ], [ -52.554429198870807, 45.0 ], [ -51.094698, 45.023229 ], [ -47.700713, 45.069173 ], [ -47.700868435172232, 45.097079323253688 ], [ -47.666667, 45.096650222157606 ] ] ], [ [ [ -53.04286639081473, 44.992227399441454 ], [ -56.005249142448569, 44.455083558023041 ], [ -53.812973, 44.862285 ], [ -53.814659423155931, 44.867149793551484 ], [ -53.1205, 44.990992 ], [ -53.04286639081473, 44.992227399441454 ] ] ], [ [ [ -59.473351536445861, 66.784059513573737 ], [ -57.752899087136605, 65.003001212391879 ], [ -57.762699800768225, 65.003797662714206 ], [ -58.361013236402442, 65.606990971726077 ], [ -59.473351536445861, 66.784059513573737 ] ] ], [ [ [ -56.278382012497509, 63.816829461774418 ], [ -51.538369, 60.054157 ], [ -51.538867011547417, 60.049353456337151 ], [ -56.279359282939403, 63.806760101603551 ], [ -56.278382012497509, 63.816829461774418 ] ] ], [ [ [ -56.058820895947278, 44.445132943293665 ], [ -59.813773, 43.639934 ], [ -59.81511693246032, 43.642597603801036 ], [ -56.124271, 44.432976 ], [ -56.058820895947278, 44.445132943293665 ] ] ] ] } },
{ "type": "Feature", "properties": { }, "geometry": { "type": "MultiPolygon", "coordinates": [ [ [ [ -56.058820887980858, 44.445132944773377 ], [ -60.0, 43.6 ], [ -67.0, 41.866667 ], [ -67.0, 42.762478673117691 ], [ -66.992257, 41.887837 ], [ -61.162815, 43.353994 ], [ -56.124271, 44.432976 ], [ -56.058820887980858, 44.445132944773377 ] ] ], [ [ [ -53.851380505390459, 44.855151048544293 ], [ -53.848326, 44.84618 ], [ -56.005250153064267, 44.455083370307563 ], [ -53.851380505390459, 44.855151048544293 ] ] ], [ [ [ -68.536132537530818, 47.28764215928171 ], [ -68.539584, 47.285185 ], [ -68.550298, 47.282413 ], [ -68.571111, 47.286194 ], [ -68.567748324442988, 47.28794891930054 ], [ -68.536132537530818, 47.28764215928171 ] ] ], [ [ [ -68.417955703551769, 47.286495519221226 ], [ -68.428874, 47.281951 ], [ -68.441385, 47.283973 ], [ -68.448838, 47.282539 ], [ -68.458478, 47.284857 ], [ -68.460073540536669, 47.28690417798726 ], [ -68.417955703551769, 47.286495519221226 ] ] ], [ [ [ -67.754323527864315, 45.920612448125361 ], [ -67.757433, 45.923055 ], [ -67.757935, 45.926215 ], [ -67.765935, 45.928305 ], [ -67.765579, 45.930471 ], [ -67.771642, 45.931883 ], [ -67.773562, 45.934818 ], [ -67.777655, 45.934206 ], [ -67.781096, 45.943025 ], [ -67.781683, 46.103408 ], [ -67.782318, 46.276975 ], [ -67.782934014700075, 46.316540776879393 ], [ -67.767854172247553, 46.315834033728869 ], [ -67.765719452535407, 46.315733986361693 ], [ -67.754323527864315, 45.920612448125361 ] ] ], [ [ [ -67.786750343564918, 46.53210751192502 ], [ -67.786933, 46.541504 ], [ -67.787711, 46.590014 ], [ -67.78885, 46.660954 ], [ -67.789386, 46.79113 ], [ -67.789888, 46.912828 ], [ -67.790441242877023, 47.0473206496819 ], [ -67.788349840778309, 47.045903566988194 ], [ -67.786747372083695, 47.044817773560069 ], [ -67.77601372125001, 46.672658712254915 ], [ -67.786750343564918, 46.53210751192502 ] ] ], [ [ [ -67.86975166557076, 47.101059444100798 ], [ -67.88131, 47.103908 ], [ -67.888669, 47.111692 ], [ -67.888815, 47.112397 ], [ -67.889194177254879, 47.114233212476911 ], [ -67.881184747868488, 47.10880621984986 ], [ -67.86975166557076, 47.101059444100798 ] ] ], [ [ [ -67.718282241336254, 45.667542469195659 ], [ -67.721091, 45.662025 ], [ -67.723758, 45.663841 ], [ -67.733311, 45.664146 ], [ -67.745027, 45.673199 ], [ -67.754526, 45.667973 ], [ -67.76866, 45.677581 ], [ -67.803326, 45.677888 ], [ -67.817717, 45.693512 ], [ -67.803158, 45.696132 ], [ -67.80984, 45.72927 ], [ -67.804124, 45.729788 ], [ -67.782248, 45.73177 ], [ -67.792881, 45.750056 ], [ -67.794409, 45.750664 ], [ -67.806341, 45.755408 ], [ -67.809073, 45.767499 ], [ -67.805456, 45.769755 ], [ -67.804347, 45.776992 ], [ -67.803637, 45.781624 ], [ -67.805065, 45.787936 ], [ -67.806602, 45.794726 ], [ -67.801998, 45.803551 ], [ -67.780451, 45.816204 ], [ -67.780034, 45.818206 ], [ -67.767127, 45.818744 ], [ -67.765545, 45.81881 ], [ -67.755078, 45.823685 ], [ -67.760017, 45.826838 ], [ -67.76334, 45.82896 ], [ -67.769147, 45.839303 ], [ -67.789559, 45.851626 ], [ -67.796642, 45.860413 ], [ -67.796273, 45.86557 ], [ -67.803677, 45.869378 ], [ -67.803934, 45.8829 ], [ -67.799038, 45.884188 ], [ -67.796644, 45.88782 ], [ -67.785353, 45.89567 ], [ -67.780101, 45.894507 ], [ -67.778283, 45.897679 ], [ -67.777037, 45.896705 ], [ -67.776357, 45.896174 ], [ -67.768741, 45.897952 ], [ -67.766911, 45.903771 ], [ -67.766723, 45.904367 ], [ -67.765021, 45.909778 ], [ -67.758435, 45.911154 ], [ -67.75527, 45.911815 ], [ -67.754112354759414, 45.913290616466234 ], [ -67.747826, 45.695329 ], [ -67.730205055689439, 45.678756128637907 ], [ -67.729752, 45.678023 ], [ -67.73062, 45.677153 ], [ -67.72941, 45.67747 ], [ -67.72761, 45.674556 ], [ -67.720631249881123, 45.669751761487639 ], [ -67.718282241336254, 45.667542469195659 ] ] ], [ [ [ -67.203828067897575, 45.183687422166237 ], [ -67.205244, 45.183989 ], [ -67.206543, 45.183039 ], [ -67.20723, 45.183878 ], [ -67.215286, 45.184435 ], [ -67.223328, 45.186937 ], [ -67.236115, 45.19388 ], [ -67.253067, 45.199434 ], [ -67.261124, 45.201105 ], [ -67.267776, 45.200548 ], [ -67.275009, 45.198877 ], [ -67.286193, 45.194551 ], [ -67.287216, 45.194271 ], [ -67.289074, 45.187879 ], [ -67.290242, 45.183863 ], [ -67.291045, 45.181099 ], [ -67.293733, 45.17797 ], [ -67.29247, 45.176195 ], [ -67.291017, 45.174152 ], [ -67.291557, 45.170994 ], [ -67.29417, 45.170349 ], [ -67.29898, 45.169162 ], [ -67.302458, 45.161942 ], [ -67.301906, 45.158643 ], [ -67.301636, 45.157034 ], [ -67.301395, 45.156936 ], [ -67.295829, 45.154664 ], [ -67.294321, 45.15228 ], [ -67.296589, 45.147562 ], [ -67.319905, 45.142447 ], [ -67.317921, 45.137755 ], [ -67.321021, 45.131809 ], [ -67.330253, 45.131485 ], [ -67.339856, 45.125594 ], [ -67.353441, 45.129483 ], [ -67.370573, 45.142093 ], [ -67.380424, 45.151936 ], [ -67.390585, 45.154108 ], [ -67.404614, 45.159913 ], [ -67.404878, 45.166654 ], [ -67.399046, 45.169367 ], [ -67.400182, 45.177034 ], [ -67.40863, 45.180259 ], [ -67.418, 45.190068 ], [ -67.428882, 45.193222 ], [ -67.428263, 45.202706 ], [ -67.439436, 45.226161 ], [ -67.453287, 45.240616 ], [ -67.46263, 45.243223 ], [ -67.472507, 45.257202 ], [ -67.471814, 45.261457 ], [ -67.475402, 45.264292 ], [ -67.476572, 45.275372 ], [ -67.482111, 45.276073 ], [ -67.48407, 45.279701 ], [ -67.489339, 45.281321 ], [ -67.4861, 45.291138 ], [ -67.482324, 45.291406 ], [ -67.476992, 45.288831 ], [ -67.474343, 45.291887 ], [ -67.466145, 45.294014 ], [ -67.465747, 45.297109 ], [ -67.468524, 45.298204 ], [ -67.466765, 45.299778 ], [ -67.460673, 45.300332 ], [ -67.458439, 45.308882 ], [ -67.456378, 45.311622 ], [ -67.452209, 45.317162 ], [ -67.453959, 45.320485 ], [ -67.45668, 45.325652 ], [ -67.452021, 45.327694 ], [ -67.451988, 45.327708 ], [ -67.443773, 45.331308 ], [ -67.441146, 45.335762 ], [ -67.430805, 45.342015 ], [ -67.42883, 45.345897 ], [ -67.431175, 45.350834 ], [ -67.430822, 45.351273 ], [ -67.427383, 45.355551 ], [ -67.425919, 45.35737 ], [ -67.433452, 45.361031 ], [ -67.434295, 45.365433 ], [ -67.430102, 45.371618 ], [ -67.427009, 45.373542 ], [ -67.421625, 45.373723 ], [ -67.421717, 45.372731 ], [ -67.421301, 45.374034 ], [ -67.419059, 45.376778 ], [ -67.420053, 45.377949 ], [ -67.421118, 45.379205 ], [ -67.425767, 45.384684 ], [ -67.427672, 45.391353 ], [ -67.45525, 45.412326 ], [ -67.460886, 45.41928 ], [ -67.460843, 45.42187 ], [ -67.471265, 45.423482 ], [ -67.473376, 45.425373 ], [ -67.479735, 45.440488 ], [ -67.478187662165226, 45.441728431922314 ], [ -67.203828067897575, 45.183687422166237 ] ] ], [ [ [ -67.019462119951854, 44.960900622891145 ], [ -67.023596, 44.964987 ], [ -67.080577846652389, 45.067767978460751 ], [ -67.019903, 45.010702 ], [ -67.019462119951854, 44.960900622891145 ] ] ], [ [ [ -67.015381351791433, 44.499941060521095 ], [ -67.062944, 44.5 ], [ -67.116667, 44.5 ], [ -67.116615, 44.500067 ], [ -67.117014, 44.500067 ], [ -67.016534509739216, 44.630200649416928 ], [ -67.015381351791433, 44.499941060521095 ] ] ] ] } },
{ "type": "Feature", "properties": { }, "geometry": { "type": "MultiPolygon", "coordinates": [ [ [ [ -56.278380579096186, 63.816828323925293 ], [ -56.279357852223896, 63.806758967590532 ], [ -56.279359282939403, 63.806760101603551 ], [ -56.278382012497509, 63.816829461774425 ], [ -56.278380579096186, 63.816828323925293 ] ] ], [ [ [ -58.361013236402421, 65.606990971726049 ], [ -59.722334, 67.047531 ], [ -59.787108796152481, 67.044717835975632 ], [ -60.375213102260879, 67.637618749306498 ], [ -57.40640288027803, 64.974843363279106 ], [ -57.762699800768218, 65.003797662714192 ], [ -58.361013236402421, 65.606990971726049 ] ] ], [ [ [ -62.503155682303813, 67.290537386460684 ], [ -60.422666526027456, 67.643766077631412 ], [ -62.503113419064029, 67.290510201018165 ], [ -62.503155682303813, 67.290537386460684 ] ] ], [ [ [ -69.402351624928627, 47.296046864953034 ], [ -69.389790826402816, 47.295924990688036 ], [ -69.997, 46.695 ], [ -70.056, 46.416 ], [ -70.095, 46.41 ], [ -70.14, 46.362 ], [ -70.191, 46.35 ], [ -70.209, 46.329 ], [ -70.206, 46.3 ], [ -70.231, 46.291 ], [ -70.253, 46.26 ], [ -70.251, 46.249 ], [ -70.272, 46.21 ], [ -70.293, 46.192 ], [ -70.237, 46.146 ], [ -70.255, 46.113 ], [ -70.253, 46.1 ], [ -70.285, 46.1 ], [ -70.302, 46.082 ], [ -70.311, 46.064 ], [ -70.284, 46.063 ], [ -70.28, 46.052 ], [ -70.318, 46.019 ], [ -70.302, 45.999 ], [ -70.284, 45.995 ], [ -70.307, 45.983 ], [ -70.316, 45.963 ], [ -70.277, 45.967 ], [ -70.239, 45.944 ], [ -70.263, 45.924 ], [ -70.253, 45.907 ], [ -70.266, 45.894 ], [ -70.259, 45.891 ], [ -70.308, 45.859 ], [ -70.342, 45.852 ], [ -70.359, 45.835 ], [ -70.371, 45.835 ], [ -70.397, 45.808 ], [ -70.396, 45.799 ], [ -70.417, 45.796 ], [ -70.407, 45.763 ], [ -70.388, 45.75 ], [ -70.394, 45.74 ], [ -70.384, 45.735 ], [ -70.4, 45.72 ], [ -70.439, 45.704 ], [ -70.465, 45.706 ], [ -70.52, 45.669 ], [ -70.558, 45.667 ], [ -70.592, 45.63 ], [ -70.619, 45.612 ], [ -70.644659691519436, 45.607065443938566 ], [ -70.022524, 46.687765 ], [ -69.402351624928627, 47.296046864953034 ] ] ], [ [ [ -70.713607777087574, 45.487297093592353 ], [ -70.692, 45.474 ], [ -70.681, 45.452 ], [ -70.651, 45.445 ], [ -70.63, 45.427 ], [ -70.635, 45.411 ], [ -70.621, 45.403 ], [ -70.636, 45.395 ], [ -70.635, 45.383 ], [ -70.661, 45.378 ], [ -70.662, 45.386 ], [ -70.683, 45.395 ], [ -70.712, 45.39 ], [ -70.73, 45.399 ], [ -70.750649234993332, 45.422953112592261 ], [ -70.713607777087574, 45.487297093592353 ] ] ], [ [ [ -70.808, 45.32333023750671 ], [ -70.808, 45.312 ], [ -70.816, 45.298 ], [ -70.823489808847313, 45.296423198137404 ], [ -70.808, 45.32333023750671 ] ] ], [ [ [ -70.83239190777249, 45.280959538862447 ], [ -70.832, 45.279 ], [ -70.835317378928011, 45.275877761008928 ], [ -70.83239190777249, 45.280959538862447 ] ] ], [ [ [ -70.849, 45.252109951639007 ], [ -70.849, 45.245 ], [ -70.838, 45.235 ], [ -70.858, 45.229 ], [ -70.895, 45.24 ], [ -70.89664576033374, 45.249874562002496 ], [ -70.851229, 45.248238 ], [ -70.849, 45.252109951639007 ] ] ], [ [ [ -71.124201253520894, 45.258074369097322 ], [ -71.132, 45.245 ], [ -71.147, 45.24 ], [ -71.162, 45.25 ], [ -71.181, 45.24 ], [ -71.198, 45.254 ], [ -71.231, 45.25 ], [ -71.239840988080871, 45.262241368111972 ], [ -71.124201253520894, 45.258074369097322 ] ] ], [ [ [ -71.429222218412988, 45.124444436825968 ], [ -71.429, 45.124 ], [ -71.429700122551566, 45.123594665891204 ], [ -71.429222218412988, 45.124444436825968 ] ] ], [ [ [ -73.959387630287367, 44.997407251392943 ], [ -73.979, 44.997 ], [ -74.42533565334405, 44.995697678750446 ], [ -73.959387630287367, 44.997407251392943 ] ] ], [ [ [ -74.940146510881533, 44.993808827388158 ], [ -74.966393089799197, 44.993623992325361 ], [ -74.96624309967774, 44.993713078480425 ], [ -74.940146510881533, 44.993808827388158 ] ] ], [ [ [ -67.76504294601186, 46.292278031191238 ], [ -67.783, 46.293 ], [ -67.783243151123585, 46.316555265097726 ], [ -67.765719452535407, 46.315733986361693 ], [ -67.76504294601186, 46.292278031191238 ] ] ], [ [ [ -67.785620837870752, 46.546893668729041 ], [ -67.790788967840783, 47.047556259576638 ], [ -67.786747372083695, 47.044817773560077 ], [ -67.77601372125001, 46.672658712254922 ], [ -67.785620837870752, 46.546893668729041 ] ] ], [ [ [ -67.864135974636412, 47.097254389854562 ], [ -67.881, 47.104 ], [ -67.883934541484308, 47.110669412464347 ], [ -67.864135974636412, 47.097254389854562 ] ] ], [ [ [ -68.402202607446171, 47.286342670896701 ], [ -68.449, 47.283 ], [ -68.455431902232775, 47.286859141339669 ], [ -68.402202607446171, 47.286342670896701 ] ] ], [ [ [ -68.537082566461294, 47.287651377173177 ], [ -68.55, 47.282 ], [ -68.577499405747147, 47.287689532223546 ], [ -68.576619652265407, 47.288034995560395 ], [ -68.537082566461294, 47.287651377173177 ] ] ], [ [ [ -68.580773491291325, 47.286403857837804 ], [ -68.599, 47.27 ], [ -68.594, 47.259 ], [ -68.613, 47.246 ], [ -68.66, 47.237 ], [ -68.688, 47.244 ], [ -68.689017966218927, 47.243898203378109 ], [ -68.580773491291325, 47.286403857837804 ] ] ], [ [ [ -68.883411408911257, 47.183987182975031 ], [ -68.902, 47.179 ], [ -68.925, 47.198 ], [ -68.961, 47.206 ], [ -69.05, 47.256 ], [ -69.051211234319609, 47.292639838168107 ], [ -69.028796206232528, 47.292422350795192 ], [ -68.883411408911257, 47.183987182975031 ] ] ], [ [ [ -76.787253824294396, 43.643030227529216 ], [ -76.787254, 43.64303 ], [ -76.804414737888195, 43.642902649102822 ], [ -76.804230141315642, 43.643108702574025 ], [ -76.787253824294396, 43.643030227529216 ] ] ], [ [ [ -88.354323855795229, 48.299322942840547 ], [ -88.354324, 48.299323 ], [ -88.354167786992647, 48.299851324681171 ], [ -88.354323855795229, 48.299322942840547 ] ] ] ] } },
{ "type": "Feature", "properties": { }, "geometry": { "type": "MultiPolygon", "coordinates": [ [ [ [ -84.46304678133761, 46.467941523327987 ], [ -84.475, 46.453 ], [ -84.476, 46.453 ], [ -84.491654197849911, 46.454423108895448 ], [ -84.488487873058602, 46.45691253485677 ], [ -84.478814871405859, 46.464517636362558 ], [ -84.46304678133761, 46.467941523327987 ] ] ], [ [ [ -84.518031341555897, 46.456821092556076 ], [ -84.531, 46.458 ], [ -84.557, 46.461 ], [ -84.686, 46.569 ], [ -84.758, 46.63 ], [ -84.75869468249897, 46.630694682498969 ], [ -84.540615160813005, 46.485352293096106 ], [ -84.518031341555897, 46.456821092556076 ] ] ], [ [ [ -84.241840818907221, 46.515974240553845 ], [ -84.255, 46.501 ], [ -84.265, 46.494 ], [ -84.276, 46.493 ], [ -84.294, 46.493 ], [ -84.320297482649522, 46.498938141243443 ], [ -84.241840818907221, 46.515974240553845 ] ] ], [ [ [ -84.176605468694859, 46.526873224426808 ], [ -84.178, 46.527 ], [ -84.180754993039855, 46.529238431844888 ], [ -84.18008, 46.529385 ], [ -84.176605468694859, 46.526873224426808 ] ] ], [ [ [ -83.602396646993085, 46.111771570248656 ], [ -83.655, 46.122 ], [ -83.76, 46.103 ], [ -83.826, 46.119 ], [ -83.904, 46.06 ], [ -83.955, 46.057 ], [ -83.971, 46.09 ], [ -83.976, 46.102 ], [ -83.982, 46.106 ], [ -84.006, 46.118 ], [ -84.006, 46.124 ], [ -84.006, 46.149 ], [ -84.03, 46.162 ], [ -84.077, 46.187 ], [ -84.086, 46.21 ], [ -84.108, 46.241 ], [ -84.105, 46.246 ], [ -84.098, 46.256 ], [ -84.104, 46.26 ], [ -84.115, 46.268 ], [ -84.117, 46.284 ], [ -84.119, 46.315 ], [ -84.106, 46.322 ], [ -84.116, 46.334 ], [ -84.12, 46.338 ], [ -84.139, 46.372 ], [ -84.14, 46.376 ], [ -84.146, 46.419 ], [ -84.119, 46.485 ], [ -84.118925879252615, 46.485176036775052 ], [ -83.602396646993085, 46.111771570248656 ] ] ], [ [ [ -83.027530687121512, 45.566637040247606 ], [ -83.597, 45.821 ], [ -83.593, 45.825 ], [ -83.554993876539299, 45.866625754266479 ], [ -83.591647, 45.823895 ], [ -83.027530687121512, 45.566637040247606 ] ] ], [ [ [ -82.519905393448454, 42.612415561465212 ], [ -82.519, 42.614 ], [ -82.51, 42.638 ], [ -82.51, 42.647 ], [ -82.51, 42.652 ], [ -82.51, 42.665 ], [ -82.495, 42.7 ], [ -82.492, 42.705 ], [ -82.487, 42.713 ], [ -82.485, 42.719 ], [ -82.484, 42.722 ], [ -82.484, 42.728 ], [ -82.484, 42.733 ], [ -82.479, 42.742 ], [ -82.476, 42.747 ], [ -82.467, 42.762 ], [ -82.468, 42.77 ], [ -82.471, 42.781 ], [ -82.472, 42.786 ], [ -82.473, 42.788 ], [ -82.481, 42.802 ], [ -82.482, 42.808 ], [ -82.481, 42.815 ], [ -82.479, 42.825 ], [ -82.473, 42.837 ], [ -82.47, 42.848 ], [ -82.469, 42.853 ], [ -82.468, 42.856 ], [ -82.47, 42.887 ], [ -82.462, 42.906 ], [ -82.455, 42.927 ], [ -82.448, 42.938 ], [ -82.438, 42.945 ], [ -82.429, 42.952 ], [ -82.417, 42.967 ], [ -82.414, 42.975 ], [ -82.414, 42.976 ], [ -82.415, 42.979 ], [ -82.421, 42.985 ], [ -82.422, 42.986 ], [ -82.425, 42.992 ], [ -82.424, 42.998 ], [ -82.42, 43.004 ], [ -82.41, 43.02 ], [ -82.197, 43.444 ], [ -82.123, 43.591 ], [ -82.127, 43.612 ], [ -82.197, 43.917 ], [ -82.276, 44.273 ], [ -82.289254273171125, 44.331815837196892 ], [ -82.117559, 43.59625 ], [ -82.508194, 42.622075 ], [ -82.519905393448454, 42.612415561465212 ] ] ], [ [ [ -82.536, 42.599140893219236 ], [ -82.536, 42.6 ], [ -82.534, 42.601 ], [ -82.533249908420373, 42.60140914086162 ], [ -82.536, 42.599140893219236 ] ] ], [ [ [ -82.552898345295432, 42.585203309409124 ], [ -82.551, 42.589 ], [ -82.549, 42.591 ], [ -82.536672825654875, 42.598585953443155 ], [ -82.552898345295432, 42.585203309409124 ] ] ], [ [ [ -82.580978429707372, 42.56204314058526 ], [ -82.58, 42.564 ], [ -82.579, 42.565 ], [ -82.569, 42.574 ], [ -82.564, 42.577 ], [ -82.563, 42.578 ], [ -82.560703900791722, 42.578765366402763 ], [ -82.580978429707372, 42.56204314058526 ] ] ], [ [ [ -82.903948285991177, 41.783975503890559 ], [ -82.904, 41.784 ], [ -83.068, 41.863 ], [ -83.068, 41.864 ], [ -83.148, 42.037 ], [ -83.149, 42.04 ], [ -83.148, 42.045 ], [ -83.122, 42.125 ], [ -83.134, 42.175 ], [ -83.129, 42.231 ], [ -83.128, 42.234 ], [ -83.128, 42.239 ], [ -83.124, 42.244 ], [ -83.115, 42.256 ], [ -83.112, 42.26 ], [ -83.109, 42.266 ], [ -83.102, 42.28 ], [ -83.097, 42.289 ], [ -83.097, 42.29 ], [ -83.088, 42.299 ], [ -83.085, 42.303 ], [ -83.079, 42.309 ], [ -83.065, 42.317 ], [ -83.063, 42.318 ], [ -83.057, 42.32 ], [ -83.056, 42.32 ], [ -83.019, 42.329 ], [ -83.003, 42.331 ], [ -82.989, 42.332 ], [ -82.959, 42.339 ], [ -82.945, 42.347 ], [ -82.828, 42.373 ], [ -82.668, 42.533 ], [ -82.662, 42.541 ], [ -82.654, 42.547 ], [ -82.642, 42.555 ], [ -82.641, 42.555 ], [ -82.633, 42.557 ], [ -82.626, 42.557 ], [ -82.623, 42.557 ], [ -82.617, 42.555 ], [ -82.617, 42.554 ], [ -82.611, 42.55 ], [ -82.606, 42.549 ], [ -82.595919316332143, 42.549720048833414 ], [ -83.113022, 42.123219 ], [ -82.903948285991177, 41.783975503890559 ] ] ], [ [ [ -82.419734325983242, 41.677 ], [ -82.464, 41.677 ], [ -82.682, 41.678 ], [ -82.683, 41.678 ], [ -82.695, 41.684 ], [ -82.729, 41.7 ], [ -82.846384840606589, 41.756702846733688 ], [ -82.419734325983242, 41.677 ] ] ], [ [ [ -79.002470958896282, 42.98077326809841 ], [ -78.975, 42.969 ], [ -78.962, 42.958 ], [ -78.933, 42.956 ], [ -78.919, 42.947 ], [ -78.909, 42.934 ], [ -78.906, 42.924 ], [ -78.906, 42.922 ], [ -78.906, 42.908 ], [ -78.906, 42.904 ], [ -78.906, 42.9 ], [ -78.915, 42.881 ], [ -78.916, 42.879 ], [ -78.935, 42.828 ], [ -79.075, 42.775 ], [ -79.107, 42.763 ], [ -79.15, 42.747 ], [ -79.762, 42.514 ], [ -80.08, 42.394 ], [ -80.081, 42.393 ], [ -80.519, 42.323 ], [ -81.18, 42.218 ], [ -81.243, 42.208 ], [ -81.918, 41.897 ], [ -82.399, 41.677 ], [ -82.404427130283651, 41.677 ], [ -81.246038, 42.208358 ], [ -78.93787, 42.827653 ], [ -79.002470958896282, 42.98077326809841 ] ] ], [ [ [ -79.040893273764851, 43.071843667890491 ], [ -79.007, 43.066 ], [ -79.0, 43.056 ], [ -79.005, 43.047 ], [ -79.012, 43.029 ], [ -79.019, 43.021 ], [ -79.019289707204763, 43.020637865994054 ], [ -79.040893273764851, 43.071843667890491 ] ] ], [ [ [ -79.198168185387928, 43.447252278081912 ], [ -79.198, 43.447 ], [ -79.171, 43.407 ], [ -79.07, 43.262 ], [ -79.06, 43.257 ], [ -79.056, 43.255 ], [ -79.055, 43.249 ], [ -79.056, 43.24 ], [ -79.056, 43.239 ], [ -79.053, 43.223 ], [ -79.054, 43.219 ], [ -79.055, 43.217 ], [ -79.057, 43.21 ], [ -79.053, 43.206 ], [ -79.051, 43.203 ], [ -79.049, 43.2 ], [ -79.051, 43.19 ], [ -79.052, 43.188 ], [ -79.053, 43.184 ], [ -79.053, 43.174 ], [ -79.051, 43.168 ], [ -79.048, 43.164 ], [ -79.047, 43.162 ], [ -79.045, 43.156 ], [ -79.044, 43.152 ], [ -79.043, 43.149 ], [ -79.042, 43.144 ], [ -79.044, 43.138 ], [ -79.05, 43.135 ], [ -79.053, 43.132 ], [ -79.054, 43.129 ], [ -79.057, 43.127 ], [ -79.058, 43.127 ], [ -79.059, 43.126 ], [ -79.06291565786826, 43.124042171065874 ], [ -79.199133, 43.446911 ], [ -79.198168185387928, 43.447252278081912 ] ] ], [ [ [ -76.78725431278896, 43.643030229787342 ], [ -76.795, 43.633 ], [ -76.797, 43.631 ], [ -77.555, 43.631 ], [ -77.585450243816808, 43.631 ], [ -76.81192, 43.634525 ], [ -76.804230141315642, 43.643108702574025 ], [ -76.78725431278896, 43.643030229787342 ] ] ], [ [ [ -75.771489703143189, 44.515439422293369 ], [ -75.772, 44.515 ], [ -75.927447336347257, 44.422691605494506 ], [ -75.925494963114573, 44.42396848849301 ], [ -75.771489703143189, 44.515439422293369 ] ] ], [ [ [ -76.192309664461021, 44.24946745037311 ], [ -76.191, 44.22 ], [ -76.262134143930766, 44.203801135540523 ], [ -76.192309664461021, 44.24946745037311 ] ] ], [ [ [ -75.023619144332699, 44.959634759445507 ], [ -75.024, 44.959 ], [ -75.069, 44.932 ], [ -75.072110091889741, 44.930833715541354 ], [ -75.023619144332699, 44.959634759445507 ] ] ] ] } },
{ "type": "Feature", "properties": { }, "geometry": { "type": "MultiPolygon", "coordinates": [ [ [ [ -89.119073153079114, 48.063577292906132 ], [ -89.337, 47.974 ], [ -89.489, 48.014 ], [ -89.582, 47.996 ], [ -89.607, 48.006 ], [ -89.611, 48.018 ], [ -89.637, 48.01 ], [ -89.637, 48.004 ], [ -89.673, 48.012 ], [ -89.702, 48.006 ], [ -89.724, 48.015 ], [ -89.721, 48.02 ], [ -89.749, 48.024 ], [ -89.821, 48.015 ], [ -89.831, 48.0 ], [ -89.845, 48.003 ], [ -89.846, 47.993 ], [ -89.895, 47.987 ], [ -89.922, 47.997 ], [ -89.935, 48.016 ], [ -89.953, 48.011 ], [ -89.994, 48.028 ], [ -89.998, 48.058 ], [ -90.015, 48.067 ], [ -90.023, 48.085 ], [ -90.141, 48.113 ], [ -90.289, 48.099 ], [ -90.31, 48.106 ], [ -90.376, 48.091 ], [ -90.403, 48.105 ], [ -90.438, 48.099 ], [ -90.465, 48.109 ], [ -90.487, 48.099 ], [ -90.557, 48.096 ], [ -90.57, 48.107 ], [ -90.555, 48.117 ], [ -90.559, 48.122 ], [ -90.582, 48.124 ], [ -90.642, 48.104 ], [ -90.748, 48.092 ], [ -90.79, 48.13 ], [ -90.782, 48.136 ], [ -90.798, 48.137 ], [ -90.778, 48.148 ], [ -90.778, 48.164 ], [ -90.796, 48.159 ], [ -90.804, 48.178 ], [ -90.821, 48.185 ], [ -90.823, 48.178 ], [ -90.836, 48.177 ], [ -90.838, 48.235 ], [ -90.848, 48.245 ], [ -90.875, 48.238 ], [ -90.886, 48.246 ], [ -90.917, 48.231 ], [ -90.977, 48.22 ], [ -91.023, 48.191 ], [ -91.082, 48.181 ], [ -91.143, 48.155 ], [ -91.137, 48.149 ], [ -91.267, 48.079 ], [ -91.371, 48.07 ], [ -91.391, 48.057 ], [ -91.43, 48.049 ], [ -91.439, 48.05 ], [ -91.446, 48.068 ], [ -91.488, 48.068 ], [ -91.567, 48.044 ], [ -91.575, 48.049 ], [ -91.575, 48.067 ], [ -91.569, 48.094 ], [ -91.553, 48.103 ], [ -91.559, 48.109 ], [ -91.64, 48.097 ], [ -91.652, 48.114 ], [ -91.665, 48.107 ], [ -91.688, 48.112 ], [ -91.682, 48.123 ], [ -91.712, 48.115 ], [ -91.698, 48.144 ], [ -91.708, 48.153 ], [ -91.705, 48.171 ], [ -91.724, 48.171 ], [ -91.71, 48.193 ], [ -91.715, 48.2 ], [ -91.742, 48.205 ], [ -91.748, 48.199 ], [ -91.756, 48.206 ], [ -91.789, 48.196 ], [ -91.815, 48.212 ], [ -91.864, 48.207 ], [ -91.868, 48.219 ], [ -91.893, 48.238 ], [ -91.958, 48.233 ], [ -91.958, 48.244 ], [ -91.948, 48.246 ], [ -91.959, 48.254 ], [ -91.972, 48.253 ], [ -91.976, 48.244 ], [ -91.991, 48.261 ], [ -92.007, 48.265 ], [ -92.013, 48.297 ], [ -92.0, 48.321 ], [ -92.047, 48.335 ], [ -92.045, 48.346 ], [ -92.055, 48.359 ], [ -92.144, 48.356 ], [ -92.145, 48.366 ], [ -92.214, 48.345 ], [ -92.263, 48.355 ], [ -92.289, 48.343 ], [ -92.295, 48.324 ], [ -92.306, 48.316 ], [ -92.295, 48.306 ], [ -92.301, 48.288 ], [ -92.295, 48.271 ], [ -92.27, 48.248 ], [ -92.337, 48.236 ], [ -92.37, 48.22 ], [ -92.416, 48.295 ], [ -92.439, 48.311 ], [ -92.47, 48.352 ], [ -92.477, 48.372 ], [ -92.456, 48.401 ], [ -92.456, 48.414 ], [ -92.475, 48.419 ], [ -92.507, 48.448 ], [ -92.656, 48.436 ], [ -92.689, 48.444 ], [ -92.713, 48.463 ], [ -92.699, 48.495 ], [ -92.627, 48.503 ], [ -92.635, 48.543 ], [ -92.728, 48.539 ], [ -92.95, 48.608 ], [ -92.955, 48.632 ], [ -92.985, 48.624 ], [ -93.178, 48.623 ], [ -93.208, 48.643 ], [ -93.255, 48.643 ], [ -93.349, 48.626 ], [ -93.355, 48.612 ], [ -93.371, 48.606 ], [ -93.399, 48.604 ], [ -93.403, 48.61 ], [ -93.435, 48.595 ], [ -93.463, 48.593 ], [ -93.458, 48.56 ], [ -93.467, 48.546 ], [ -93.612, 48.522 ], [ -93.628, 48.532 ], [ -93.659, 48.516 ], [ -93.793, 48.516 ], [ -93.818, 48.531 ], [ -93.806, 48.579 ], [ -93.833, 48.626 ], [ -93.844, 48.63 ], [ -93.953, 48.634 ], [ -94.001, 48.643 ], [ -94.224, 48.649 ], [ -94.251, 48.657 ], [ -94.251, 48.684 ], [ -94.261, 48.697 ], [ -94.291, 48.708 ], [ -94.349, 48.704 ], [ -94.416, 48.711 ], [ -94.452, 48.692 ], [ -94.533, 48.701 ], [ -94.549, 48.715 ], [ -94.588, 48.718 ], [ -94.644, 48.743 ], [ -94.652, 48.756 ], [ -94.691, 48.778 ], [ -94.704, 48.824 ], [ -94.686, 48.84 ], [ -94.692, 48.869 ], [ -94.684, 48.872 ], [ -94.683, 48.884 ], [ -94.717479313450781, 48.994642573013671 ], [ -94.678093, 48.994641 ], [ -89.340713, 47.989901 ], [ -89.119073153079114, 48.063577292906132 ] ] ], [ [ [ -103.691498255870059, 49.0 ], [ -113.26, 49.0 ], [ -113.260150321548366, 49.00899043116452 ], [ -112.047413, 49.012167 ], [ -112.051888800123592, 49.017378150446511 ], [ -110.587652, 49.01391 ], [ -108.922801, 49.006452 ], [ -107.009590365943566, 49.005996146582262 ], [ -103.691498255870059, 49.0 ] ] ], [ [ [ -84.534934686406473, 46.478175882737425 ], [ -84.557, 46.461 ], [ -84.75578688421939, 46.628756736438795 ], [ -84.540615160813019, 46.485352293096113 ], [ -84.534934686406473, 46.478175882737425 ] ] ] ] } },
{ "type": "Feature", "properties": { }, "geometry": { "type": "MultiPolygon", "coordinates": [ [ [ [ -58.361013236402414, 65.606990971726049 ], [ -59.587949421227108, 66.905326186790901 ], [ -58.914, 66.245 ], [ -58.126, 65.416 ], [ -57.752697853543708, 65.002984859239859 ], [ -57.762699800768218, 65.003797662714206 ], [ -58.361013236402414, 65.606990971726049 ] ] ], [ [ [ -106.439930921958734, 49.004966711167334 ], [ -106.44, 49.0 ], [ -116.665499659359426, 49.0 ], [ -116.407880540580152, 49.002505326941922 ], [ -115.977032, 49.001874 ], [ -112.047413, 49.012167 ], [ -112.051888800123592, 49.017378150446511 ], [ -110.587652, 49.01391 ], [ -108.922801, 49.006452 ], [ -107.009590365943922, 49.005996146582262 ], [ -106.439930921958734, 49.004966711167334 ] ] ], [ [ [ -117.978187974998988, 49.0 ], [ -117.98, 49.0 ], [ -117.98, 49.001905195170728 ], [ -117.978187974998988, 49.0 ] ] ], [ [ [ -133.835785084883895, 58.72613372075562 ], [ -133.836945682473612, 58.726251114226251 ], [ -133.839149411069826, 58.728234469962842 ], [ -133.835785084883895, 58.72613372075562 ] ] ], [ [ [ -133.840705805962671, 58.729206312512162 ], [ -133.97, 58.767 ], [ -134.22, 58.849 ], [ -134.24, 58.856 ], [ -134.26, 58.861 ], [ -134.31, 58.901 ], [ -134.34, 58.923 ], [ -134.33, 58.931 ], [ -134.32, 58.957 ], [ -134.31, 58.962 ], [ -134.41, 58.979 ], [ -134.38, 59.039 ], [ -134.45, 59.089 ], [ -134.475541872298066, 59.125610016960586 ], [ -133.840705805962671, 58.729206312512162 ] ] ], [ [ [ -134.485646182458936, 59.131919340250583 ], [ -134.55, 59.131 ], [ -134.57, 59.131 ], [ -134.58, 59.137 ], [ -134.68, 59.192 ], [ -134.7, 59.244 ], [ -134.71, 59.246 ], [ -134.74, 59.25 ], [ -134.95, 59.28 ], [ -134.96, 59.281 ], [ -135.03, 59.346 ], [ -135.0, 59.382 ], [ -134.99, 59.388 ], [ -135.1, 59.428 ], [ -135.08, 59.452 ], [ -135.032928564502527, 59.473652860328841 ], [ -134.485646182458936, 59.131919340250583 ] ] ], [ [ [ -136.256046670877737, 59.624790665824456 ], [ -136.27, 59.622 ], [ -136.27, 59.62 ], [ -136.29, 59.616 ], [ -136.34, 59.603 ], [ -136.35, 59.6 ], [ -136.24, 59.559 ], [ -136.24, 59.528 ], [ -136.27, 59.496 ], [ -136.29, 59.471 ], [ -136.3, 59.469 ], [ -136.3, 59.465 ], [ -136.36, 59.451 ], [ -136.36, 59.45 ], [ -136.37, 59.449 ], [ -136.37, 59.45 ], [ -136.4, 59.453 ], [ -136.43, 59.458 ], [ -136.46, 59.464 ], [ -136.48, 59.466 ], [ -136.48, 59.376 ], [ -136.47, 59.322 ], [ -136.47, 59.284 ], [ -136.5, 59.275 ], [ -136.49, 59.266 ], [ -136.49, 59.26 ], [ -136.55, 59.202 ], [ -136.58, 59.17 ], [ -136.58, 59.166 ], [ -136.74, 59.162 ], [ -136.83, 59.16 ], [ -136.85, 59.147 ], [ -136.88, 59.136 ], [ -136.97, 59.101 ], [ -137.04, 59.079 ], [ -137.06, 59.07 ], [ -137.08, 59.063 ], [ -137.18, 59.032 ], [ -137.21, 59.023 ], [ -137.23, 59.015 ], [ -137.25, 59.008 ], [ -137.45, 58.911 ], [ -137.45, 58.908 ], [ -137.53, 58.906 ], [ -137.5, 58.985 ], [ -137.54, 59.106 ], [ -137.61, 59.244 ], [ -137.95, 59.421 ], [ -138.09, 59.496 ], [ -138.63, 59.769 ], [ -138.67, 59.81 ], [ -138.68, 59.845 ], [ -138.71, 59.906 ], [ -138.8, 59.925 ], [ -139.05, 59.995 ], [ -139.06, 60.0 ], [ -139.2, 60.088 ], [ -139.07, 60.319 ], [ -139.07, 60.352 ], [ -139.11, 60.352 ], [ -139.69, 60.335 ], [ -139.7, 60.328 ], [ -139.77, 60.292 ], [ -139.79, 60.28 ], [ -139.81, 60.272 ], [ -139.98, 60.182 ], [ -140.45, 60.307 ], [ -140.46, 60.297 ], [ -140.47, 60.284 ], [ -140.49, 60.258 ], [ -140.5, 60.245 ], [ -140.51, 60.238 ], [ -140.52, 60.222 ], [ -140.79, 60.27 ], [ -140.95, 60.298 ], [ -140.99, 60.306 ], [ -141.0, 60.307 ], [ -141.0, 90.0 ], [ -60.001, 90.0 ], [ -60.781043221904753, 82.222510228655722 ], [ -87.376402, 89.994008 ], [ -140.671921, 82.587893 ], [ -140.960528, 69.036021 ], [ -140.946859, 66.009241 ], [ -140.949399, 63.350712 ], [ -140.972912, 60.319646 ], [ -139.061952, 60.359764 ], [ -138.511214, 59.753561 ], [ -136.256046670877737, 59.624790665824456 ] ] ], [ [ [ -73.862016302760452, 78.310169408201247 ], [ -75.0, 78.0 ], [ -75.169897850460231, 77.660204299079538 ], [ -75.000344, 78.007024 ], [ -73.862016302760452, 78.310169408201247 ] ] ], [ [ [ -75.984048893408911, 75.994871306327653 ], [ -74.899, 75.646 ], [ -72.85, 74.925 ], [ -70.986, 74.187 ], [ -69.286, 73.435 ], [ -67.731, 72.67 ], [ -66.304, 71.893 ], [ -64.992, 71.108 ], [ -63.781, 70.313 ], [ -62.661, 69.512 ], [ -61.622, 68.703 ], [ -60.656, 67.889 ], [ -60.392221840776543, 67.648935526566888 ], [ -62.503113419064022, 67.290510201018165 ], [ -75.996275, 75.969863 ], [ -75.984048893408911, 75.994871306327653 ] ] ], [ [ [ -60.332759126924358, 67.594818517289653 ], [ -59.755, 67.069 ], [ -59.732631620090544, 67.047083775213579 ], [ -59.787108796152481, 67.044717835975632 ], [ -60.265487168336051, 67.52699788534683 ], [ -60.332759126924358, 67.594818517289653 ] ] ], [ [ [ -129.980209057251727, 55.300198604389145 ], [ -130.02, 55.338 ], [ -130.034893176752462, 55.422891107489036 ], [ -129.980209057251727, 55.300198604389145 ] ] ], [ [ [ -130.053334950478728, 55.464268154440433 ], [ -130.09, 55.498 ], [ -130.13, 55.581 ], [ -130.122472639951241, 55.619389536248732 ], [ -130.06093936159499, 55.481329857965576 ], [ -130.053334950478728, 55.464268154440433 ] ] ], [ [ [ -131.839931400332745, 56.602979420099821 ], [ -131.84, 56.603 ], [ -131.840019650118393, 56.603099233097836 ], [ -131.839931400332745, 56.602979420099821 ] ] ], [ [ [ -132.019400423478857, 56.846636915186252 ], [ -132.12, 56.874 ], [ -132.091834362170431, 56.94497740733047 ], [ -132.019400423478857, 56.846636915186252 ] ] ], [ [ [ -132.179185554687166, 57.063570423486276 ], [ -132.37, 57.091 ], [ -132.272060387480394, 57.188939612519583 ], [ -132.27015, 57.187069 ], [ -132.179185554687166, 57.063570423486276 ] ] ] ] } },
{ "type": "Feature", "properties": { }, "geometry": { "type": "MultiPolygon", "coordinates": [ [ [ [ -112.050119520889425, 49.01215991070724 ], [ -112.05, 49.012 ], [ -112.05, 49.0 ], [ -116.665499659359426, 49.0 ], [ -116.407880540579967, 49.002505326941922 ], [ -115.977032, 49.001874 ], [ -112.050119520889425, 49.01215991070724 ] ] ], [ [ [ -117.978187974998988, 49.0 ], [ -122.936024417646081, 49.0 ], [ -122.935614, 49.001239 ], [ -119.547606, 49.007106 ], [ -117.982765625490828, 49.00481302278137 ], [ -117.978187974998988, 49.0 ] ] ], [ [ [ -132.179441882561377, 57.063918428989737 ], [ -132.18, 57.064 ], [ -132.25505398599887, 57.166573780865107 ], [ -132.251127972935763, 57.161243599133115 ], [ -132.179441882561377, 57.063918428989737 ] ] ], [ [ [ -132.017767122735592, 56.84441945191125 ], [ -132.02, 56.845 ], [ -132.12, 56.874 ], [ -132.090409924741834, 56.943043508935759 ], [ -132.041653691500642, 56.876849235109873 ], [ -132.017767122735592, 56.84441945191125 ] ] ], [ [ [ -131.834294320612344, 56.6 ], [ -131.84, 56.6 ], [ -131.840799656744991, 56.60415821507398 ], [ -131.838922, 56.601609 ], [ -131.834294320612344, 56.6 ] ] ], [ [ [ -129.983715092688499, 55.308064951468033 ], [ -130.02, 55.338 ], [ -130.13, 55.581 ], [ -130.122472639951241, 55.619389536248732 ], [ -130.051133532421204, 55.459328923557422 ], [ -129.983715092688499, 55.308064951468033 ] ] ], [ [ [ -129.974479714472523, 55.287343914341761 ], [ -129.98, 55.289 ], [ -129.98, 55.299729551257442 ], [ -129.974479714472523, 55.287343914341761 ] ] ], [ [ [ -130.127860623971543, 55.168091292832244 ], [ -130.12, 55.177 ], [ -130.1, 55.193 ], [ -130.049679659168277, 55.228224238582193 ], [ -130.127860623971543, 55.168091292832244 ] ] ], [ [ [ -130.649117742966894, 54.755470645780129 ], [ -130.65, 54.756 ], [ -130.66, 54.763 ], [ -130.63, 54.783 ], [ -130.628311931547017, 54.783168806845296 ], [ -130.654447, 54.763067 ], [ -130.649117742966894, 54.755470645780129 ] ] ], [ [ [ -132.080631194475558, 54.545930869176487 ], [ -132.08, 54.546 ], [ -130.62, 54.707 ], [ -130.63, 54.726 ], [ -130.63, 54.728220102869891 ], [ -130.615456, 54.707489 ], [ -131.800704, 54.492056 ], [ -132.080631194475558, 54.545930869176487 ] ] ], [ [ [ -135.925566661549055, 53.902853593736033 ], [ -135.96, 53.945 ], [ -136.0, 53.997 ], [ -135.713101245743729, 54.054379750851247 ], [ -135.996481, 53.997498 ], [ -135.925566661549055, 53.902853593736033 ] ] ], [ [ [ -127.997883869885399, 48.333141075340976 ], [ -128.0, 48.333 ], [ -128.012937470948145, 48.340115609021481 ], [ -127.997883869885399, 48.333141075340976 ] ] ], [ [ [ -123.543766379500838, 48.226376637950082 ], [ -123.68, 48.24 ], [ -124.05, 48.307 ], [ -124.77, 48.5 ], [ -124.770706837158869, 48.5 ], [ -124.7509, 48.501029 ], [ -123.543766379500838, 48.226376637950082 ] ] ], [ [ [ -123.53879413544135, 48.225245331065381 ], [ -123.54, 48.225 ], [ -123.54, 48.225519694684891 ], [ -123.539214502685411, 48.225340974873617 ], [ -123.53879413544135, 48.225245331065381 ] ] ], [ [ [ -123.125879617709671, 48.426850684610478 ], [ -123.12, 48.422 ], [ -123.13, 48.403 ], [ -123.135629295792114, 48.397417615006148 ], [ -123.133124771145546, 48.404978464464456 ], [ -123.125879617709671, 48.426850684610478 ] ] ], [ [ [ -123.01, 48.776676886556238 ], [ -123.01, 48.767 ], [ -123.01353912364624, 48.76599271096223 ], [ -123.010240611676466, 48.775950509730137 ], [ -123.01, 48.776676886556238 ] ] ] ] } },
{ "type": "Feature", "properties": { }, "geometry": { "type": "MultiPolygon", "coordinates": [ [ [ [ -39.963176289492971, 45.0 ], [ -40.0, 45.0 ], [ -41.0, 45.0 ], [ -42.0, 45.0 ], [ -43.0, 45.0 ], [ -44.0, 45.0 ], [ -45.0, 45.0 ], [ -46.0, 45.0 ], [ -47.0, 45.0 ], [ -47.666667, 45.0 ], [ -47.666667, 45.096650222157606 ], [ -39.963176289492971, 45.0 ] ] ], [ [ [ -39.015732556572537, 63.480334304284327 ], [ -39.0, 63.5 ], [ -30.0, 61.0 ], [ -27.0, 61.0 ], [ -27.0, 45.0 ], [ -28.0, 45.0 ], [ -29.0, 45.0 ], [ -30.0, 45.0 ], [ -30.041582495265907, 45.0 ], [ -30.004636, 60.943313 ], [ -38.97896, 63.477346 ], [ -39.015732556572537, 63.480334304284327 ] ] ] ] } },
{ "type": "Feature", "properties": { }, "geometry": { "type": "MultiPolygon", "coordinates": [ [ [ [ -47.666667, 45.096650222157606 ], [ -47.666667, 45.0 ], [ -51.0, 45.0 ], [ -52.554429198870807, 45.0 ], [ -51.094698, 45.023229 ], [ -47.700713, 45.069173 ], [ -47.700868435172232, 45.097079323253688 ], [ -47.666667, 45.096650222157606 ] ] ], [ [ [ -53.042867185927243, 44.99222738678867 ], [ -56.003165568338822, 44.455470568749256 ], [ -53.812973, 44.862285 ], [ -53.814659423155931, 44.867149793551484 ], [ -53.1205, 44.990992 ], [ -53.042867185927243, 44.99222738678867 ] ] ], [ [ [ -55.645987229736612, 63.304737057289756 ], [ -55.643908555100111, 63.313177720823155 ], [ -51.538369, 60.054157 ], [ -51.538867011547417, 60.049353456337151 ], [ -52.158789184849788, 60.54071586348023 ], [ -55.645987229736612, 63.304737057289756 ] ] ], [ [ [ -56.059171347649155, 44.445067849104305 ], [ -57.778011, 44.076481 ], [ -58.827129, 43.85151 ], [ -60.0, 43.6 ], [ -67.0, 41.866667 ], [ -67.0, 42.762478673117691 ], [ -66.992257, 41.887837 ], [ -61.162815, 43.353994 ], [ -56.124271, 44.432976 ], [ -56.059171347649155, 44.445067849104305 ] ] ], [ [ [ -67.015381873568984, 44.5 ], [ -67.062945, 44.5 ], [ -67.116667, 44.5 ], [ -67.116615, 44.500067 ], [ -67.016521723001929, 44.628756272134346 ], [ -67.015381873568984, 44.5 ] ] ], [ [ [ -67.016524282358716, 44.629045374562665 ], [ -67.117014, 44.500067 ], [ -67.016534509739216, 44.630200649416928 ], [ -67.016524282358716, 44.629045374562665 ] ] ], [ [ [ -67.019462119951854, 44.960900622891145 ], [ -67.023596, 44.964987 ], [ -67.080577846652389, 45.067767978460751 ], [ -67.019903, 45.010702 ], [ -67.019462119951854, 44.960900622891145 ] ] ], [ [ [ -67.203828067897575, 45.183687422166237 ], [ -67.205244, 45.183989 ], [ -67.206543, 45.183039 ], [ -67.20723, 45.183878 ], [ -67.215286, 45.184435 ], [ -67.223328, 45.186937 ], [ -67.236115, 45.19388 ], [ -67.253067, 45.199434 ], [ -67.255796, 45.2 ], [ -67.270148, 45.2 ], [ -67.275009, 45.198877 ], [ -67.286193, 45.194551 ], [ -67.287216, 45.194271 ], [ -67.289074, 45.187879 ], [ -67.290242, 45.183863 ], [ -67.291045, 45.181099 ], [ -67.293733, 45.17797 ], [ -67.29247, 45.176195 ], [ -67.291017, 45.174152 ], [ -67.291557, 45.170994 ], [ -67.29417, 45.170349 ], [ -67.29898, 45.169162 ], [ -67.302458, 45.161942 ], [ -67.301906, 45.158643 ], [ -67.301636, 45.157034 ], [ -67.301395, 45.156936 ], [ -67.295829, 45.154664 ], [ -67.294321, 45.15228 ], [ -67.296589, 45.147562 ], [ -67.319905, 45.142447 ], [ -67.317921, 45.137755 ], [ -67.321021, 45.131809 ], [ -67.330253, 45.131485 ], [ -67.339856, 45.125594 ], [ -67.353441, 45.129483 ], [ -67.370573, 45.142093 ], [ -67.380424, 45.151936 ], [ -67.390585, 45.154108 ], [ -67.404614, 45.159913 ], [ -67.404878, 45.166654 ], [ -67.399046, 45.169367 ], [ -67.400182, 45.177034 ], [ -67.40863, 45.180259 ], [ -67.418, 45.190068 ], [ -67.428882, 45.193222 ], [ -67.428263, 45.202706 ], [ -67.439436, 45.226161 ], [ -67.453287, 45.240616 ], [ -67.46263, 45.243223 ], [ -67.472507, 45.257202 ], [ -67.471814, 45.261457 ], [ -67.475402, 45.264292 ], [ -67.476572, 45.275372 ], [ -67.482111, 45.276073 ], [ -67.48407, 45.279701 ], [ -67.489339, 45.281321 ], [ -67.4861, 45.291138 ], [ -67.482324, 45.291406 ], [ -67.476992, 45.288831 ], [ -67.474343, 45.291887 ], [ -67.466145, 45.294014 ], [ -67.465747, 45.297109 ], [ -67.468524, 45.298204 ], [ -67.466765, 45.299778 ], [ -67.460673, 45.300332 ], [ -67.458439, 45.308882 ], [ -67.456378, 45.311622 ], [ -67.452209, 45.317162 ], [ -67.453959, 45.320485 ], [ -67.45668, 45.325652 ], [ -67.452021, 45.327694 ], [ -67.451988, 45.327708 ], [ -67.443773, 45.331308 ], [ -67.441146, 45.335762 ], [ -67.430805, 45.342015 ], [ -67.42883, 45.345897 ], [ -67.431175, 45.350834 ], [ -67.430822, 45.351273 ], [ -67.427383, 45.355551 ], [ -67.425919, 45.35737 ], [ -67.433452, 45.361031 ], [ -67.434295, 45.365433 ], [ -67.430102, 45.371618 ], [ -67.427009, 45.373542 ], [ -67.421625, 45.373723 ], [ -67.421717, 45.372731 ], [ -67.421301, 45.374034 ], [ -67.419059, 45.376778 ], [ -67.420053, 45.377949 ], [ -67.421118, 45.379205 ], [ -67.425767, 45.384684 ], [ -67.427672, 45.391353 ], [ -67.45525, 45.412326 ], [ -67.460886, 45.41928 ], [ -67.460843, 45.42187 ], [ -67.471265, 45.423482 ], [ -67.473376, 45.425373 ], [ -67.479735, 45.440488 ], [ -67.478187662165226, 45.441728431922314 ], [ -67.203828067897575, 45.183687422166237 ] ] ], [ [ [ -67.730205055689439, 45.678756128637907 ], [ -67.729752, 45.678023 ], [ -67.73062, 45.677153 ], [ -67.72941, 45.67747 ], [ -67.72761, 45.674556 ], [ -67.720631249881123, 45.669751761487639 ], [ -67.718282241336254, 45.667542469195659 ], [ -67.721091, 45.662025 ], [ -67.723758, 45.663841 ], [ -67.733311, 45.664146 ], [ -67.745027, 45.673199 ], [ -67.754526, 45.667973 ], [ -67.76866, 45.677581 ], [ -67.803326, 45.677888 ], [ -67.817717, 45.693512 ], [ -67.803158, 45.696132 ], [ -67.80984, 45.72927 ], [ -67.804124, 45.729788 ], [ -67.782248, 45.73177 ], [ -67.792881, 45.750056 ], [ -67.794409, 45.750664 ], [ -67.806341, 45.755408 ], [ -67.809073, 45.767499 ], [ -67.805456, 45.769755 ], [ -67.804347, 45.776992 ], [ -67.803637, 45.781624 ], [ -67.805065, 45.787936 ], [ -67.806602, 45.794726 ], [ -67.801998, 45.803551 ], [ -67.780451, 45.816204 ], [ -67.780034, 45.818206 ], [ -67.767127, 45.818744 ], [ -67.765545, 45.81881 ], [ -67.755078, 45.823685 ], [ -67.760017, 45.826838 ], [ -67.76334, 45.82896 ], [ -67.769147, 45.839303 ], [ -67.789559, 45.851626 ], [ -67.796642, 45.860413 ], [ -67.796273, 45.86557 ], [ -67.803677, 45.869378 ], [ -67.803934, 45.8829 ], [ -67.799038, 45.884188 ], [ -67.796644, 45.88782 ], [ -67.785353, 45.89567 ], [ -67.780101, 45.894507 ], [ -67.778283, 45.897679 ], [ -67.777037, 45.896705 ], [ -67.776357, 45.896174 ], [ -67.768741, 45.897952 ], [ -67.766911, 45.903771 ], [ -67.766723, 45.904367 ], [ -67.765021, 45.909778 ], [ -67.758435, 45.911154 ], [ -67.75527, 45.911815 ], [ -67.754112354759414, 45.913290616466234 ], [ -67.747826, 45.695329 ], [ -67.730205055689439, 45.678756128637907 ] ] ], [ [ [ -67.754323527864315, 45.920612448125361 ], [ -67.757433, 45.923055 ], [ -67.757935, 45.926215 ], [ -67.765935, 45.928305 ], [ -67.765579, 45.930471 ], [ -67.771642, 45.931883 ], [ -67.773562, 45.934818 ], [ -67.777655, 45.934206 ], [ -67.781096, 45.943025 ], [ -67.781683, 46.103408 ], [ -67.782318, 46.276975 ], [ -67.782934014700075, 46.316540776879393 ], [ -67.765719452535421, 46.315733986361693 ], [ -67.754323527864315, 45.920612448125361 ] ] ] ] } }
]
}
