{
"type": "FeatureCollection",
"name": "Curacaosvol04052019",
"crs": { "type": "name", "properties": { "name": "urn:ogc:def:crs:OGC:1.3:CRS84" } },
"features": [
{ "type": "Feature", "properties": { }, "geometry": { "type": "MultiPolygon", "coordinates": [ [ [ [ -71.659293127981186, 17.836651948590667 ], [ -71.497744642604502, 17.813833039132803 ], [ -71.344825727497735, 17.750310897389976 ], [ -71.208307786980725, 17.649326182389373 ], [ -71.095056112765107, 17.51601426676152 ], [ -71.010669383576598, 17.357123656129968 ], [ -70.959205346405952, 17.180652290801724 ], [ -70.943005117090806, 16.995425742227912 ], [ -70.944324323567827, 16.85572275713093 ], [ -68.0, 16.836581913195751 ], [ -68.0, 16.000001907000069 ], [ -67.066665649999948, 15.68333244300004 ], [ -66.382468278186863, 15.457106707448276 ], [ -66.943580402565615, 12.89095723449414 ], [ -66.94590516026895, 12.880252457247066 ], [ -67.314945481210074, 11.18895837821726 ], [ -67.368069659394195, 11.01788212251398 ], [ -67.44954042270156, 10.86522351808709 ], [ -67.555366469825486, 10.738192769174134 ], [ -67.680476066991815, 10.642760084472748 ], [ -67.818957966024399, 10.583393080459455 ], [ -67.964326977849879, 10.562863430616371 ], [ -68.109804936967009, 10.582128261348876 ], [ -68.109806325799511, 10.582128639602693 ], [ -68.188999080901695, 10.610133513620848 ], [ -68.529233644570553, 10.757703447214499 ], [ -68.542620774982439, 10.763653848602575 ], [ -70.612250669027318, 11.663748206687746 ], [ -71.411979475313018, 11.662943751015126 ], [ -71.598062964561777, 11.693247813303447 ], [ -71.770588927394385, 11.785050500213091 ], [ -74.338628038388762, 13.602082354333502 ], [ -74.458856452134953, 13.703646049885561 ], [ -74.559009434114245, 13.833276806837704 ], [ -74.634587442179651, 13.985288540824534 ], [ -74.682110088415158, 14.152978951502863 ], [ -74.699287695645751, 14.328910858625743 ], [ -74.705225249801956, 14.995541495280431 ], [ -74.714323728728971, 15.995484355974307 ], [ -74.699728367341734, 16.172859316264248 ], [ -74.653196531941319, 16.342568548792318 ], [ -74.5766578123458, 16.496841826331085 ], [ -74.473471140543097, 16.628571874696952 ], [ -73.471397923783641, 17.636795219347697 ], [ -73.331974395100644, 17.744436479516885 ], [ -73.174443658351194, 17.812290529558176 ], [ -73.007372903018776, 17.836651948590696 ], [ -71.659293127981186, 17.836651948590667 ] ] ] ] } }
]
}
