{
  "type": "FeatureCollection",
  "name": "Curacaosvol04052019",
  "crs": {
    "type": "name",
    "properties": {
      "name": "urn:ogc:def:crs:OGC:1.3:CRS84"
    }
  },
  "features": [
    {
      "type": "Feature",
      "properties": {
      },
      "geometry": {
        "type": "Polygon",
        "coordinates": [
          [
            [
              -71.659293,
              17.836652
            ],
            [
              -73.007373,
              17.836652
            ],
            [
              -73.174444,
              17.812291
            ],
            [
              -73.331974,
              17.744436
            ],
            [
              -73.471398,
              17.636795
            ],
            [
              -74.473471,
              16.628572
            ],
            [
              -74.576658,
              16.496842
            ],
            [
              -74.653197,
              16.342569
            ],
            [
              -74.699728,
              16.172859
            ],
            [
              -74.714324,
              15.995484
            ],
            [
              -74.705225,
              14.995541
            ],
            [
              -74.699288,
              14.328911
            ],
            [
              -74.682110,
              14.152979
            ],
            [
              -74.634587,
              13.985289
            ],
            [
              -74.559009,
              13.833277
            ],
            [
              -74.458856,
              13.703646
            ],
            [
              -74.338628,
              13.602082
            ],
            [
              -71.770589,
              11.785051
            ],
            [
              -71.598063,
              11.693248
            ],
            [
              -71.411979,
              11.662944
            ],
            [
              -70.612251,
              11.663748
            ],
            [
              -68.542621,
              10.763654
            ],
            [
              -68.529234,
              10.757703
            ],
            [
              -68.188999,
              10.610134
            ],
            [
              -68.109806,
              10.582129
            ],
            [
              -67.964327,
              10.562863
            ],
            [
              -67.818958,
              10.583393
            ],
            [
              -67.680476,
              10.642760
            ],
            [
              -67.555366,
              10.738193
            ],
            [
              -67.449540,
              10.865224
            ],
            [
              -67.368070,
              11.017882
            ],
            [
              -67.314945,
              11.188958
            ],
            [
              -66.945905,
              12.880252
            ],
            [
              -66.943580,
              12.890957
            ],
            [
              -66.382468,
              15.457107
            ],
            [
              -67.066666,
              15.683332
            ],
            [
              -68.000000,
              16.000002
            ],
            [
              -68.000000,
              16.836582
            ],
            [
              -70.944324,
              16.855723
            ],
            [
              -70.943005,
              16.995426
            ],
            [
              -70.959205,
              17.180652
            ],
            [
              -71.010669,
              17.357124
            ],
            [
              -71.095056,
              17.516014
            ],
            [
              -71.208308,
              17.649326
            ],
            [
              -71.344826,
              17.750311
            ],
            [
              -71.497745,
              17.813833
            ],
            [
              -71.659293,
              17.836652
            ]
          ]
        ]
      }
    }
  ]
}