43.6399338,-59.8137734
45,-60.5
49.5,-69.9
51,-71.5
53.75,-71.5
57.416111,-68.266667
60,-70
67,-70
67,-59.681944
65,-57.75
63.5,-55.5979
63.5,-55
63.5,-54
63.5,-53
63.5,-52
63.5,-51
63.5,-50.529444
54.25,-52.258333
51.83,-47.666667
45,-47.666667
45,-48
45,-49
45,-50
45,-53
44.446667,-56.051667
43.6399338,-59.8137734
