65,-57.75
63.5,-55.5979
63.5,-55
63.5,-54
63.5,-53
63.5,-52
63.5,-51
63.5,-50.529444
54.25,-52.258333
51.83,-47.666667
45,-47.666667
45,-48
45,-49
45,-50
45,-53
44.8461802,-53.8483262
51.4765966,-56.1058839
54.6726766,-61.1932771
53.7018908,-64.918097
54.417,-65.333
55.083,-65.083
55.356,-64
57.55,-64
57.742,-63.285
57.931,-62.563
58.115,-61.833
58.295,-61.096
58.471,-60.351
58.613,-60.488
58.71,-60.583
58.815,-60.685
58.944,-60.813
58.949,-60.818
58.989,-60.858
59.025,-60.893
59.029,-60.897
59.047,-60.915
59.069,-60.937
59.108,-60.977
59.148,-61.016
59.188,-61.056
59.227,-61.096
59.267,-61.137
59.307,-61.177
59.346,-61.217
59.386,-61.257
59.426,-61.298
59.465,-61.339
59.505,-61.379
59.545,-61.42
59.584,-61.461
59.624,-61.502
59.663,-61.543
59.697,-61.578
59.703,-61.584
59.706,-61.588
59.742,-61.626
59.782,-61.667
59.821,-61.708
59.861,-61.75
59.9,-61.792
59.94,-61.833
59.979,-61.875
60.019,-61.917
60.058,-61.959
60.098,-62.001
60.137,-62.044
60.149,-62.056
60.176,-62.086
60.216,-62.129
60.255,-62.171
60.256,-62.172
60.294,-62.214
60.334,-62.257
60.373,-62.3
60.412,-62.343
60.452,-62.386
60.491,-62.429
60.53,-62.472
60.569,-62.516
60.583,-62.531
60.609,-62.559
60.641,-62.595
60.648,-62.603
60.687,-62.646
60.726,-62.69
60.765,-62.734
60.804,-62.778
60.844,-62.822
60.883,-62.867
60.922,-62.911
60.961,-62.955
61,-63
64,-63
64.254,-62.276
64.504,-61.539
64.75,-60.788
64.992,-60.024
65,-60
65.004,-59.25
65.004,-58.5
65,-57.75
