44.499922,-67
44.5,-67.0629455
44.5,-67.116667
44.5000665,-67.1166153
44.500067,-67.117014
44.777136,-66.903082
44.802134,-66.901022
44.819143,-66.914907
44.841333,-66.963364
44.85755,-66.977985
44.921373,-66.979475
44.964987,-67.023596
45.09141,-67.093685
45.174944,-67.162777
45.183989,-67.205244
45.183039,-67.206543
45.183878,-67.20723
45.184435,-67.215286
45.186937,-67.223328
45.19388,-67.236115
45.199434,-67.253067
45.201105,-67.261124
45.200548,-67.267776
45.198877,-67.275009
45.194551,-67.286193
45.194271,-67.287216
45.187879,-67.289074
45.183863,-67.290242
45.181099,-67.291045
45.17797,-67.293733
45.176195,-67.29247
45.174152,-67.291017
45.170994,-67.291557
45.170349,-67.29417
45.169162,-67.29898
45.161942,-67.302458
45.158643,-67.301906
45.157034,-67.301636
45.156936,-67.301395
45.154664,-67.295829
45.15228,-67.294321
45.147562,-67.296589
45.142447,-67.319905
45.137755,-67.317921
45.131809,-67.321021
45.131485,-67.330253
45.125594,-67.339856
45.129483,-67.353441
45.142093,-67.370573
45.151936,-67.380424
45.154108,-67.390585
45.159913,-67.404614
45.166654,-67.404878
45.169367,-67.399046
45.177034,-67.400182
45.180259,-67.40863
45.190068,-67.418
45.193222,-67.428882
45.202706,-67.428263
45.226161,-67.439436
45.240616,-67.453287
45.243223,-67.46263
45.257202,-67.472507
45.261457,-67.471814
45.264292,-67.475402
45.275372,-67.476572
45.276073,-67.482111
45.279701,-67.48407
45.281321,-67.489339
45.291138,-67.4861
45.291406,-67.482324
45.288831,-67.476992
45.291887,-67.474343
45.294014,-67.466145
45.297109,-67.465747
45.298204,-67.468524
45.299778,-67.466765
45.300332,-67.460673
45.308882,-67.458439
45.311622,-67.456378
45.317162,-67.452209
45.320485,-67.453959
45.325652,-67.45668
45.327694,-67.452021
45.327708,-67.451988
45.331308,-67.443773
45.335762,-67.441146
45.342015,-67.430805
45.345897,-67.42883
45.350834,-67.431175
45.351273,-67.430822
45.355551,-67.427383
45.35737,-67.425919
45.361031,-67.433452
45.365433,-67.434295
45.371618,-67.430102
45.373542,-67.427009
45.373723,-67.421625
45.372731,-67.421717
45.374034,-67.421301
45.376778,-67.419059
45.377949,-67.420053
45.379205,-67.421118
45.384684,-67.425767
45.391353,-67.427672
45.412326,-67.45525
45.41928,-67.460886
45.42187,-67.460843
45.423482,-67.471265
45.425373,-67.473376
45.440488,-67.479735
45.443006,-67.476594
45.446257,-67.477252
45.451689,-67.484205
45.456118,-67.484826
45.457827,-67.482121
45.460166,-67.482484
45.466913,-67.486826
45.478829,-67.50065
45.488531,-67.503776
45.491037,-67.498844
45.489109,-67.494657
45.489644,-67.489494
45.493652,-67.488696
45.495454,-67.485118
45.495418,-67.484856
45.494674,-67.485175
45.495376,-67.484541
45.49484,-67.480566
45.497212,-67.476924
45.49573,-67.466916
45.496892,-67.46386
45.498086,-67.463548
45.500066,-67.470739
45.504304,-67.47091
45.508695,-67.462868
45.499486,-67.452243
45.499502,-67.449638
45.50223,-67.449186
45.509058,-67.453117
45.510651,-67.449361
45.505831,-67.44133
45.503881,-67.431259
45.501361,-67.42886
45.505919,-67.424278
45.502142,-67.416459
45.510906,-67.420364
45.518141,-67.427275
45.519715,-67.432075
45.521971,-67.431991
45.522727,-67.431963
45.524294,-67.431905
45.529987,-67.435291
45.541036,-67.432214
45.540263,-67.42521
45.547406,-67.423747
45.550568,-67.420878
45.568417,-67.428769
45.572086,-67.423636
45.577273,-67.424699
45.583774,-67.429716
45.604666,-67.455402
45.601897,-67.49276
45.600037,-67.49374
45.596045,-67.488202
45.592254,-67.489657
45.588509,-67.495141
45.587182,-67.502994
45.587926,-67.51857
45.595432,-67.534927
45.598064,-67.546108
45.595877,-67.564179
45.602496,-67.583344
45.607101,-67.588779
45.606531,-67.606166
45.624769,-67.639744
45.623226,-67.644201
45.616146,-67.640195
45.61356,-67.645833
45.625067,-67.663109
45.624453,-67.666461
45.630961,-67.675415
45.639131,-67.680639
45.650358,-67.692628
45.654052,-67.691415
45.659739,-67.697969
45.669426,-67.701327
45.678975,-67.709469
45.681234,-67.715003
45.685427,-67.725275
45.687752,-67.726758
45.688723,-67.727377
45.688775,-67.734011
45.684198,-67.733568
45.678023,-67.729752
45.677153,-67.73062
45.67747,-67.72941
45.674556,-67.72761
45.667981,-67.718059
45.662025,-67.721091
45.663841,-67.723758
45.664146,-67.733311
45.673199,-67.745027
45.667973,-67.754526
45.677581,-67.76866
45.677888,-67.803326
45.693512,-67.817717
45.696132,-67.803158
45.72927,-67.80984
45.729788,-67.804124
45.73177,-67.782248
45.750056,-67.792881
45.750664,-67.794409
45.755408,-67.806341
45.767499,-67.809073
45.769755,-67.805456
45.776992,-67.804347
45.781624,-67.803637
45.787936,-67.805065
45.794726,-67.806602
45.803551,-67.801998
45.816204,-67.780451
45.818206,-67.780034
45.818744,-67.767127
45.81881,-67.765545
45.823685,-67.755078
45.826838,-67.760017
45.82896,-67.76334
45.839303,-67.769147
45.851626,-67.789559
45.860413,-67.796642
45.86557,-67.796273
45.869378,-67.803677
45.8829,-67.803934
45.884188,-67.799038
45.88782,-67.796644
45.89567,-67.785353
45.894507,-67.780101
45.897679,-67.778283
45.896705,-67.777037
45.896174,-67.776357
45.897952,-67.768741
45.903771,-67.766911
45.904367,-67.766723
45.909778,-67.765021
45.911154,-67.758435
45.911815,-67.75527
45.917718,-67.750639
45.918151,-67.75119
45.923055,-67.757433
45.926215,-67.757935
45.928305,-67.765935
45.930471,-67.765579
45.931883,-67.771642
45.934818,-67.773562
45.934206,-67.777655
45.943025,-67.781096
46.103408,-67.781683
46.276975,-67.782318
46.346085,-67.783394
46.413101,-67.784437
46.541504,-67.786933
46.590014,-67.787711
46.660954,-67.78885
46.79113,-67.789386
46.912828,-67.789888
47.067925,-67.790526
47.069734,-67.794994
47.076097,-67.810717
47.082397,-67.819296
47.084012,-67.823066
47.087038,-67.836892
47.100558,-67.867717
47.103908,-67.88131
47.111692,-67.888669
47.112397,-67.888815
47.128644,-67.89217
47.132772,-67.897882
47.135146,-67.901168
47.146724,-67.909355
47.148154,-67.910366
47.149638,-67.914131
47.149996,-67.914719
47.154694,-67.926264
47.16483,-67.935804
47.171451,-67.939163
47.183913,-67.951192
47.194334,-67.951669
47.197821,-67.955234
47.200348,-67.958455
47.205442,-67.973528
47.211066,-67.990171
47.22009,-68.000063
47.238034,-68.019735
47.256457,-68.06184
47.257079,-68.064153
47.25971,-68.073918
47.266103,-68.078605
47.271933,-68.082878
47.278164,-68.097822
47.287283,-68.119691
47.292263,-68.125601
47.293855,-68.12749
47.295984,-68.136828
47.309873,-68.152297
47.321512,-68.152467
47.325414,-68.155152
47.327753,-68.161325
47.32924,-68.17606
47.339412,-68.202351
47.339445,-68.202934
47.340189,-68.216052
47.345207,-68.223501
47.345921,-68.223695
47.351475,-68.22521
47.354323,-68.231027
47.353258,-68.251503
47.352549,-68.265136
47.35921,-68.280852
47.360142,-68.285447
47.359479,-68.292666
47.355547,-68.305016
47.359896,-68.323178
47.3598,-68.336188
47.356409,-68.356508
47.355538,-68.361727
47.350956,-68.370396
47.340251,-68.380327
47.340107,-68.380368
47.325881,-68.384414
47.323422,-68.384284
47.309159,-68.3813
47.307934,-68.382038
47.30311,-68.384945
47.302248,-68.384127
47.293843,-68.376157
47.290021,-68.375842
47.287562,-68.378668
47.286654,-68.389764
47.28846,-68.413236
47.281951,-68.428874
47.283973,-68.441385
47.282539,-68.448838
47.284857,-68.458478
47.294879,-68.466289
47.297506,-68.473848
47.294142,-68.491053
47.296927,-68.508147
47.296029,-68.518329
47.292574,-68.529205
47.285185,-68.539584
47.282413,-68.550298
47.286194,-68.571111
47.289533,-68.564713
47.326667,-68.532222
47.360497,-68.486378
47.397778,-68.426667
47.4111887,-68.4006984
47.5,-69.2
47.3162481,-71.4843532
52.0003549,-71.446741
54.6726766,-61.1932771
51.4765966,-56.1058839
44.8461802,-53.8483262
44.446667,-56.051667
43.6,-60
41.866667,-67
44.499922,-67
