{
  "fileVersion": 1,
  "checksum": "d2b12960558bcc6f2aef2b76ce87b556",
  "fileFormatVersion": 1,
  "fileName": "sba.geojson",
  "fileGeneratedBy": "SVDD",
  "type": "FeatureCollection",
  "customerCollection": [
    {
      "type": "customer",
      "properties": {
        "customerID": "CUS-1000008",
        "customerName": "SBA",
        "customerRegion": "USA",
        "customerRecordVersion": 1,
        "customerEffectiveDate": "1999-12-31T23:59:59.999Z",
        "customerEndDate": "2099-12-31T23:59:59.999Z",
        "anspTargetReportBundleTimeMsecs": 50,
        "cat023StatusReportEnabled": false,
        "servicePredictionReportLookAheadHours": 24,
        "rateServicePredictionReportMins": 30,
        "rateServicePredictionDefinitionMins": 30,
        "rateVersionNumberReportMins": 2,
        "DDID": "0x0009",
        "anspTargetReportVersion": "2.4",
        "servicePredictionReportTimeIncrementMins": 1,
        "anspTargetReportTOA": true,
        "anspTargetReportFineTOMR": true,
        "trackNumberFieldEnabled": true,
        "anspTargetReportPosType": true,
        "anspTargetReportTOMRv": true,
        "anspTargetReportAGV": true,
        "anspTargetReportFTC0": true,
        "invalidMode3ACode": "0000",
        "duplicateType2SameSVol": false,
        "anspTargetReportValidation": false,
        "anspTargetReportFailedState": true,
        "sdpCollection": [
          {
            "sdpId": "0x001300",
            "sdpName": "SBA Early Data SDP",
            "sdpLocation": "Ashburn, VA USA",
            "anspAssetIPAddress": "127.0.0.1",
            "anspAssetNetmask": "255.255.255.0",
            "anspInterfaceDuplexMode": "auto",
            "anspInterfaceDuplexSpeed": 100,
            "anspAssetDuplexType": "full",
            "serviceVolumeDelivery": [
              {
                "serviceVolumeId": "0xaa2001",
                "singleOrDualStream": "single",
                "unicastOrMulticastStream1": "multicast",
                "unicastOrMulticastStream2": "multicast"
              },
              {
                "serviceVolumeId": "0xb01201",
                "singleOrDualStream": "single",
                "unicastOrMulticastStream1": "multicast",
                "unicastOrMulticastStream2": "multicast"
              },
              {
                "serviceVolumeId": "0xaa2101",
                "singleOrDualStream": "single",
                "unicastOrMulticastStream1": "multicast",
                "unicastOrMulticastStream2": "multicast"
              },
              {
                "serviceVolumeId": "0xb01601",
                "singleOrDualStream": "single",
                "unicastOrMulticastStream1": "multicast",
                "unicastOrMulticastStream2": "multicast"
              }
            ]
          }
        ]
      }
    }
  ],
  "totalFeatures": 4,
  "features": [
    {
      "id": "aa-20-01-00",
      "type": "Feature",
      "bbox": [
        -77.000000,
        18.000000,
        -40.000000,
        45.000000
      ],
      "properties": {
        "featureVersion": 1,
        "featureEffectiveDate": "1999-12-31T23:59:59.999Z",
        "featureBirthDate": "1999-12-31T23:59:59.999Z",
        "featureEndDate": "2099-12-31T23:59:59.999Z",
        "customerID": "CUS-1000008",
        "volumeName": "KZWY",
        "icaoID": "New York Oceanic",
        "sac": "0xaa",
        "sic": "0x20",
        "sid": "0x01",
        "featureID": "0x00",
        "featureType": "service",
        "serviceFeatureProperties": {
          "serviceType": "primary",
          "serviceDefaultMode": "active",
          "contractUpdateIntervalMsecs": 15000,
          "contractLatencyMsecs": 2000,
          "anspTargetReportUpdateMode": "update",
          "anspTargetReportMinWaitTimeMsecs": 700,
          "anspTargetReportPeriodicRateMsecs": 0,
          "anspTestTargetReportRateSecs": 5,
          "anspTestTargetReportICAO": "0xfaafaa",
          "anspTestTargetReportPosition": [
            -55.000000,
            30.000000
          ],
          "anspTestTargetReportAltFeet": 0,
          "anspTestTargetReportMode3AEnabled": false,
          "anspTestTargetReportTargetIDEnabled": true,
          "anspTestTargetReportTargetID": "FAAFAA",
          "offlineStatusThresholdPercent": 0,
          "degradedStatusThresholdPercent": 85,
          "networkServicesAddress": "233.170.32.1",
          "portTargetReportsCAT021": 59980,
          "portVersionNumberCAT247": 59981,
          "portAPDKeepAlive": 65535,
          "portEquipmentStatusCAT023": 59982,
          "portServiceVolumeStatusCAT023": 59983,
          "portServiceVolumeStatisticsCAT023": 59984,
          "portServiceDefinitionReportCAT238": 59988,
          "portServicePredictionReportCAT238": 59990,
          "portServiceSystemStatusReportCAT025": 59992,
          "portServiceStatisticsReportCAT025": 59993,
          "portConstellationTLEReportCAT253": 59994,
          "portCat033": 59681,
          "portCat033BelowMinLV": 59682,
          "portCat033DupType1": 59683,
          "portCat033DupType1BelowMinLV": 59684,
          "portCat033InvMode3A": 59685,
          "portCat033InvMode3ABelowMinLV": 59686,
          "latencyTPM": true,
          "updateIntervalTPM": true,
          "probabilityUpdateTPM": true,
          "probabilityLongGapTPM": true,
          "serviceDesignator": "1090ADSB",
          "serviceMode": "operational",
          "expectedTargetLoad": 2000,
          "sendSurfaceTargets": true,
          "minLinkVersion": 0,
          "anspTargetReportRxID1": 0,
          "gracefulDegradation": false,
          "gracefulDegradationLoad": 1000,
          "gracefulDegradationRate": 0.005,
          "serviceVolumeId": "0xaa2001",
          "rateTLESecs": 5,
          "rateEquipmentStatusSecs": 5,
          "rateServiceVolumeStatusSecs": 5,
          "rateServiceVolumeStatisticsSecs": 5,
          "anspTestTargetReportTargetsNIC": 11,
          "anspTestTargetReportNoTargetsNIC": 10,
          "anspTestTargetReportTargetsNACp": 11,
          "anspTestTargetReportNoTargetsNACp": 10
        },
        "geometryType": "polygon",
        "centerPoint": [
          -55.358095,
          31.796727
        ],
        "floorFeet": 0,
        "ceilingFeet": 66000
      },
      "geometry": {
        "type": "Polygon",
        "coordinates": [
          [
            [
              -40.000000,
              22.300000
            ],
            [
              -40.000000,
              27.000000
            ],
            [
              -40.000000,
              27.002800
            ],
            [
              -40.000000,
              30.000000
            ],
            [
              -40.000000,
              45.000000
            ],
            [
              -41.054900,
              45.000000
            ],
            [
              -42.124400,
              45.000000
            ],
            [
              -43.312700,
              45.000000
            ],
            [
              -44.144500,
              45.000000
            ],
            [
              -44.976300,
              45.000000
            ],
            [
              -46.045800,
              45.000000
            ],
            [
              -47.352900,
              45.000000
            ],
            [
              -48.541200,
              45.000000
            ],
            [
              -49.848300,
              45.000000
            ],
            [
              -51.000000,
              45.000000
            ],
            [
              -53.000000,
              45.000000
            ],
            [
              -54.883300,
              44.666700
            ],
            [
              -55.483300,
              44.555000
            ],
            [
              -58.838300,
              43.866700
            ],
            [
              -60.000000,
              43.600000
            ],
            [
              -64.235000,
              42.623300
            ],
            [
              -65.753300,
              42.213300
            ],
            [
              -67.000000,
              41.866700
            ],
            [
              -67.000000,
              40.116700
            ],
            [
              -67.000000,
              39.116700
            ],
            [
              -67.000000,
              39.000000
            ],
            [
              -68.883300,
              38.583300
            ],
            [
              -69.950000,
              38.333300
            ],
            [
              -71.683300,
              37.516700
            ],
            [
              -72.666700,
              37.227500
            ],
            [
              -72.666700,
              36.938300
            ],
            [
              -72.666700,
              35.093100
            ],
            [
              -73.573100,
              34.488100
            ],
            [
              -73.680600,
              34.552800
            ],
            [
              -73.850000,
              34.433300
            ],
            [
              -74.040800,
              34.313100
            ],
            [
              -73.950000,
              34.233300
            ],
            [
              -76.816700,
              32.200000
            ],
            [
              -77.000000,
              32.250000
            ],
            [
              -77.000000,
              31.966700
            ],
            [
              -77.000000,
              30.383300
            ],
            [
              -77.000000,
              30.000000
            ],
            [
              -77.000000,
              28.472800
            ],
            [
              -77.000000,
              28.133300
            ],
            [
              -76.529200,
              27.825000
            ],
            [
              -74.829200,
              27.825000
            ],
            [
              -74.290800,
              26.909700
            ],
            [
              -73.229200,
              25.008100
            ],
            [
              -73.205300,
              25.008100
            ],
            [
              -73.195800,
              24.991700
            ],
            [
              -68.492200,
              25.000000
            ],
            [
              -68.027500,
              22.950000
            ],
            [
              -67.258300,
              23.500000
            ],
            [
              -65.800000,
              23.500000
            ],
            [
              -62.547100,
              23.500000
            ],
            [
              -60.000000,
              23.500000
            ],
            [
              -60.000000,
              20.000000
            ],
            [
              -61.500000,
              18.000000
            ],
            [
              -60.186500,
              18.000000
            ],
            [
              -57.691100,
              18.000000
            ],
            [
              -55.314500,
              18.000000
            ],
            [
              -52.462600,
              18.000000
            ],
            [
              -49.848300,
              18.000000
            ],
            [
              -47.234100,
              18.000000
            ],
            [
              -45.000000,
              18.000000
            ],
            [
              -40.000000,
              22.300000
            ]
          ]
        ]
      }
    },
    {
      "id": "b0-12-01-00",
      "type": "Feature",
      "bbox": [
        -74.650800,
        37.227500,
        -67.000000,
        41.616700
      ],
      "properties": {
        "featureVersion": 1,
        "featureEffectiveDate": "1999-12-31T23:59:59.999Z",
        "featureBirthDate": "1999-12-31T23:59:59.999Z",
        "featureEndDate": "2099-12-31T23:59:59.999Z",
        "customerID": "CUS-1000008",
        "volumeName": "KZNY2",
        "icaoID": "New York Outfield ",
        "sac": "0xb0",
        "sic": "0x12",
        "sid": "0x01",
        "featureID": "0x00",
        "featureType": "service",
        "serviceFeatureProperties": {
          "serviceType": "primary",
          "serviceDefaultMode": "active",
          "contractUpdateIntervalMsecs": 15000,
          "contractLatencyMsecs": 2000,
          "anspTargetReportUpdateMode": "update",
          "anspTargetReportMinWaitTimeMsecs": 700,
          "anspTargetReportPeriodicRateMsecs": 0,
          "anspTestTargetReportRateSecs": 5,
          "anspTestTargetReportICAO": "0xfaafaa",
          "anspTestTargetReportPosition": [
            -70.500000,
            39.500000
          ],
          "anspTestTargetReportAltFeet": 0,
          "anspTestTargetReportMode3AEnabled": false,
          "anspTestTargetReportTargetIDEnabled": true,
          "anspTestTargetReportTargetID": "FAAFAA",
          "offlineStatusThresholdPercent": 0,
          "degradedStatusThresholdPercent": 85,
          "networkServicesAddress": "233.176.18.1",
          "portTargetReportsCAT021": 59980,
          "portVersionNumberCAT247": 59981,
          "portAPDKeepAlive": 65535,
          "portEquipmentStatusCAT023": 59982,
          "portServiceVolumeStatusCAT023": 59983,
          "portServiceVolumeStatisticsCAT023": 59984,
          "portServiceDefinitionReportCAT238": 59988,
          "portServicePredictionReportCAT238": 59990,
          "portServiceSystemStatusReportCAT025": 59992,
          "portServiceStatisticsReportCAT025": 59993,
          "portConstellationTLEReportCAT253": 59994,
          "portCat033": 59681,
          "portCat033BelowMinLV": 59682,
          "portCat033DupType1": 59683,
          "portCat033DupType1BelowMinLV": 59684,
          "portCat033InvMode3A": 59685,
          "portCat033InvMode3ABelowMinLV": 59686,
          "latencyTPM": true,
          "updateIntervalTPM": true,
          "probabilityUpdateTPM": true,
          "probabilityLongGapTPM": true,
          "serviceDesignator": "1090ADSB",
          "serviceMode": "operational",
          "expectedTargetLoad": 2000,
          "sendSurfaceTargets": true,
          "minLinkVersion": 0,
          "anspTargetReportRxID1": 0,
          "gracefulDegradation": false,
          "gracefulDegradationLoad": 1000,
          "gracefulDegradationRate": 0.005,
          "serviceVolumeId": "0xb01201",
          "rateTLESecs": 5,
          "rateEquipmentStatusSecs": 5,
          "rateServiceVolumeStatusSecs": 5,
          "rateServiceVolumeStatisticsSecs": 5,
          "anspTestTargetReportTargetsNIC": 11,
          "anspTestTargetReportNoTargetsNIC": 10,
          "anspTestTargetReportTargetsNACp": 11,
          "anspTestTargetReportNoTargetsNACp": 10
        },
        "geometryType": "polygon",
        "centerPoint": [
          -70.632845,
          39.321070
        ],
        "floorFeet": 0,
        "ceilingFeet": 66000
      },
      "geometry": {
        "type": "Polygon",
        "coordinates": [
          [
            [
              -72.500000,
              40.072200
            ],
            [
              -74.600000,
              39.500000
            ],
            [
              -74.650000,
              39.450000
            ],
            [
              -73.983300,
              38.541700
            ],
            [
              -74.500000,
              38.000000
            ],
            [
              -74.650800,
              37.842200
            ],
            [
              -72.666700,
              37.227500
            ],
            [
              -71.683300,
              37.516700
            ],
            [
              -69.950000,
              38.333300
            ],
            [
              -67.000000,
              39.000000
            ],
            [
              -67.000000,
              39.116700
            ],
            [
              -67.000000,
              40.116700
            ],
            [
              -67.000000,
              41.000000
            ],
            [
              -67.000000,
              41.116700
            ],
            [
              -67.000000,
              41.616700
            ],
            [
              -69.000000,
              41.000000
            ],
            [
              -69.341700,
              40.925000
            ],
            [
              -70.879400,
              40.576700
            ],
            [
              -72.500000,
              40.072200
            ]
          ]
        ]
      }
    },
    {
      "id": "aa-21-01-00",
      "type": "Feature",
      "bbox": [
        -79.000000,
        19.100000,
        -66.900000,
        28.600000
      ],
      "properties": {
        "featureVersion": 1,
        "featureEffectiveDate": "1999-12-31T23:59:59.999Z",
        "featureBirthDate": "1999-12-31T23:59:59.999Z",
        "featureEndDate": "2099-12-31T23:59:59.999Z",
        "customerID": "CUS-1000008",
        "volumeName": "KZMA",
        "icaoID": "Miami Oceanic FIR",
        "sac": "0xaa",
        "sic": "0x21",
        "sid": "0x01",
        "featureID": "0x00",
        "featureType": "service",
        "serviceFeatureProperties": {
          "serviceType": "primary",
          "serviceDefaultMode": "active",
          "contractUpdateIntervalMsecs": 15000,
          "contractLatencyMsecs": 2000,
          "anspTargetReportUpdateMode": "update",
          "anspTargetReportMinWaitTimeMsecs": 700,
          "anspTargetReportPeriodicRateMsecs": 0,
          "anspTestTargetReportRateSecs": 5,
          "anspTestTargetReportICAO": "0xfaafaa",
          "anspTestTargetReportPosition": [
            -73.000000,
            22.000000
          ],
          "anspTestTargetReportAltFeet": 0,
          "anspTestTargetReportMode3AEnabled": false,
          "anspTestTargetReportTargetIDEnabled": true,
          "anspTestTargetReportTargetID": "FAAFAA",
          "offlineStatusThresholdPercent": 0,
          "degradedStatusThresholdPercent": 85,
          "networkServicesAddress": "233.170.33.1",
          "portTargetReportsCAT021": 59980,
          "portVersionNumberCAT247": 59981,
          "portAPDKeepAlive": 65535,
          "portEquipmentStatusCAT023": 59982,
          "portServiceVolumeStatusCAT023": 59983,
          "portServiceVolumeStatisticsCAT023": 59984,
          "portServiceDefinitionReportCAT238": 59988,
          "portServicePredictionReportCAT238": 59990,
          "portServiceSystemStatusReportCAT025": 59992,
          "portServiceStatisticsReportCAT025": 59993,
          "portConstellationTLEReportCAT253": 59994,
          "portCat033": 59681,
          "portCat033BelowMinLV": 59682,
          "portCat033DupType1": 59683,
          "portCat033DupType1BelowMinLV": 59684,
          "portCat033InvMode3A": 59685,
          "portCat033InvMode3ABelowMinLV": 59686,
          "latencyTPM": true,
          "updateIntervalTPM": true,
          "probabilityUpdateTPM": true,
          "probabilityLongGapTPM": true,
          "serviceDesignator": "1090ADSB",
          "serviceMode": "operational",
          "expectedTargetLoad": 2000,
          "sendSurfaceTargets": true,
          "minLinkVersion": 0,
          "anspTargetReportRxID1": 0,
          "gracefulDegradation": false,
          "gracefulDegradationLoad": 1000,
          "gracefulDegradationRate": 0.005,
          "serviceVolumeId": "0xaa2101",
          "rateTLESecs": 5,
          "rateEquipmentStatusSecs": 5,
          "rateServiceVolumeStatusSecs": 5,
          "rateServiceVolumeStatisticsSecs": 5,
          "anspTestTargetReportTargetsNIC": 11,
          "anspTestTargetReportNoTargetsNIC": 10,
          "anspTestTargetReportTargetsNACp": 11,
          "anspTestTargetReportNoTargetsNACp": 10
        },
        "geometryType": "polygon",
        "centerPoint": [
          -73.069524,
          23.789825
        ],
        "floorFeet": 0,
        "ceilingFeet": 66000
      },
      "geometry": {
        "type": "Polygon",
        "coordinates": [
          [
            [
              -76.800000,
              28.600000
            ],
            [
              -77.800000,
              27.500000
            ],
            [
              -78.900000,
              27.300000
            ],
            [
              -79.000000,
              25.900000
            ],
            [
              -79.000000,
              23.500000
            ],
            [
              -75.400000,
              21.600000
            ],
            [
              -73.500000,
              19.700000
            ],
            [
              -72.800000,
              20.200000
            ],
            [
              -70.500000,
              20.200000
            ],
            [
              -68.600000,
              19.100000
            ],
            [
              -66.900000,
              20.800000
            ],
            [
              -67.200000,
              23.200000
            ],
            [
              -68.000000,
              25.600000
            ],
            [
              -72.800000,
              25.700000
            ],
            [
              -74.300000,
              28.400000
            ],
            [
              -76.800000,
              28.600000
            ]
          ]
        ]
      }
    },
    {
      "id": "b0-16-01-00",
      "type": "Feature",
      "bbox": [
        -69.150000,
        15.000000,
        -60.000000,
        23.500000
      ],
      "properties": {
        "featureVersion": 1,
        "featureEffectiveDate": "1999-12-31T23:59:59.999Z",
        "featureBirthDate": "1999-12-31T23:59:59.999Z",
        "featureEndDate": "2099-12-31T23:59:59.999Z",
        "customerID": "CUS-1000008",
        "volumeName": "TJZS",
        "icaoID": "San Juan FIR",
        "sac": "0xb0",
        "sic": "0x16",
        "sid": "0x01",
        "featureID": "0x00",
        "featureType": "service",
        "serviceFeatureProperties": {
          "serviceType": "primary",
          "serviceDefaultMode": "active",
          "contractUpdateIntervalMsecs": 15000,
          "contractLatencyMsecs": 2000,
          "anspTargetReportUpdateMode": "update",
          "anspTargetReportMinWaitTimeMsecs": 700,
          "anspTargetReportPeriodicRateMsecs": 0,
          "anspTestTargetReportRateSecs": 5,
          "anspTestTargetReportICAO": "0xfaafaa",
          "anspTestTargetReportPosition": [
            -64.575000,
            19.250000
          ],
          "anspTestTargetReportAltFeet": 0,
          "anspTestTargetReportMode3AEnabled": false,
          "anspTestTargetReportTargetIDEnabled": true,
          "anspTestTargetReportTargetID": "FAAFAA",
          "offlineStatusThresholdPercent": 0,
          "degradedStatusThresholdPercent": 85,
          "networkServicesAddress": "233.176.22.1",
          "portTargetReportsCAT021": 59980,
          "portVersionNumberCAT247": 59981,
          "portAPDKeepAlive": 65535,
          "portEquipmentStatusCAT023": 59982,
          "portServiceVolumeStatusCAT023": 59983,
          "portServiceVolumeStatisticsCAT023": 59984,
          "portServiceDefinitionReportCAT238": 59988,
          "portServicePredictionReportCAT238": 59990,
          "portServiceSystemStatusReportCAT025": 59992,
          "portServiceStatisticsReportCAT025": 59993,
          "portConstellationTLEReportCAT253": 59994,
          "portCat033": 59681,
          "portCat033BelowMinLV": 59682,
          "portCat033DupType1": 59683,
          "portCat033DupType1BelowMinLV": 59684,
          "portCat033InvMode3A": 59685,
          "portCat033InvMode3ABelowMinLV": 59686,
          "latencyTPM": true,
          "updateIntervalTPM": true,
          "probabilityUpdateTPM": true,
          "probabilityLongGapTPM": true,
          "serviceDesignator": "1090ADSB",
          "serviceMode": "operational",
          "expectedTargetLoad": 2000,
          "sendSurfaceTargets": true,
          "minLinkVersion": 0,
          "anspTargetReportRxID1": 0,
          "gracefulDegradation": false,
          "gracefulDegradationLoad": 1000,
          "gracefulDegradationRate": 0.005,
          "serviceVolumeId": "0xb01601",
          "rateTLESecs": 5,
          "rateEquipmentStatusSecs": 5,
          "rateServiceVolumeStatusSecs": 5,
          "rateServiceVolumeStatisticsSecs": 5,
          "anspTestTargetReportTargetsNIC": 11,
          "anspTestTargetReportNoTargetsNIC": 10,
          "anspTestTargetReportTargetsNACp": 11,
          "anspTestTargetReportNoTargetsNACp": 10
        },
        "geometryType": "polygon",
        "centerPoint": [
          -64.518950,
          19.837966
        ],
        "floorFeet": 0,
        "ceilingFeet": 66000
      },
      "geometry": {
        "type": "Polygon",
        "coordinates": [
          [
            [
              -68.466700,
              22.750000
            ],
            [
              -67.750000,
              21.133300
            ],
            [
              -69.150000,
              19.650000
            ],
            [
              -68.000000,
              19.000000
            ],
            [
              -68.000000,
              16.000000
            ],
            [
              -67.066700,
              15.683300
            ],
            [
              -65.000000,
              15.000000
            ],
            [
              -63.250000,
              15.000000
            ],
            [
              -63.000000,
              15.333300
            ],
            [
              -63.000000,
              17.366700
            ],
            [
              -62.000000,
              18.000000
            ],
            [
              -61.500000,
              18.000000
            ],
            [
              -60.000000,
              20.000000
            ],
            [
              -60.000000,
              23.500000
            ],
            [
              -68.683300,
              23.500000
            ],
            [
              -68.466700,
              22.750000
            ]
          ]
        ]
      }
    }
  ]
}
