{  
   "type":"FeatureCollection",
   "name":"edmonton_SVol",
   "crs":{  
      "type":"name",
      "properties":{  
         "name":"urn:ogc:def:crs:OGC:1.3:CRS84"
      }
   },
   "features":[  
      {  
         "type":"Feature",
         "properties":{  

         },
         "geometry":{  
            "type":"MultiPolygon",
            "coordinates":[  
               [  
                  [  
                     [  
                        -60.017240645892613,
                        81.99714002696463
                     ],
                     [  
                        -60.817254,
                        81.864325
                     ],
                     [  
                        -60.822938,
                        81.863381
                     ],
                     [  
                        -60.827227,
                        81.862636
                     ],
                     [  
                        -60.827228,
                        81.862636
                     ],
                     [  
                        -61.090637,
                        81.816885
                     ],
                     [  
                        -61.355951,
                        81.770802
                     ],
                     [  
                        -61.610646,
                        81.726564
                     ],
                     [  
                        -61.618726,
                        81.72516
                     ],
                     [  
                        -61.625762,
                        81.723883
                     ],
                     [  
                        -62.38031,
                        81.586886
                     ],
                     [  
                        -62.388408,
                        81.585415
                     ],
                     [  
                        -62.393032,
                        81.584524
                     ],
                     [  
                        -63.674517,
                        81.337618
                     ],
                     [  
                        -63.675565,
                        81.337416
                     ],
                     [  
                        -63.676534,
                        81.337217
                     ],
                     [  
                        -63.779201,
                        81.316034
                     ],
                     [  
                        -63.851653,
                        81.302001
                     ],
                     [  
                        -63.855317,
                        81.301258
                     ],
                     [  
                        -64.029189,
                        81.264456
                     ],
                     [  
                        -64.718862,
                        81.122161
                     ],
                     [  
                        -64.721612,
                        81.121593
                     ],
                     [  
                        -64.724859,
                        81.120881
                     ],
                     [  
                        -65.201342,
                        81.016354
                     ],
                     [  
                        -65.391046,
                        80.976201
                     ],
                     [  
                        -65.391549,
                        80.976089
                     ],
                     [  
                        -65.52216,
                        80.945976
                     ],
                     [  
                        -65.713615,
                        80.903976
                     ],
                     [  
                        -65.718099,
                        80.902993
                     ],
                     [  
                        -65.722049,
                        80.902068
                     ],
                     [  
                        -66.35544,
                        80.753859
                     ],
                     [  
                        -66.664936,
                        80.682503
                     ],
                     [  
                        -66.67042,
                        80.68119
                     ],
                     [  
                        -66.733828,
                        80.665319
                     ],
                     [  
                        -66.820249,
                        80.645097
                     ],
                     [  
                        -66.821915,
                        80.644707
                     ],
                     [  
                        -66.823292,
                        80.644363
                     ],
                     [  
                        -67.863504,
                        80.383961
                     ],
                     [  
                        -67.866587,
                        80.383189
                     ],
                     [  
                        -67.869894,
                        80.382305
                     ],
                     [  
                        -67.949163,
                        80.361118
                     ],
                     [  
                        -68.008483,
                        80.34627
                     ],
                     [  
                        -68.013925,
                        80.344849
                     ],
                     [  
                        -68.225517,
                        80.287254
                     ],
                     [  
                        -68.853773,
                        80.119333
                     ],
                     [  
                        -68.856162,
                        80.118694
                     ],
                     [  
                        -68.857986,
                        80.118173
                     ],
                     [  
                        -69.079432,
                        80.054818
                     ],
                     [  
                        -69.26188,
                        80.005156
                     ],
                     [  
                        -69.266603,
                        80.003816
                     ],
                     [  
                        -69.514092,
                        79.930465
                     ],
                     [  
                        -69.92171,
                        79.813848
                     ],
                     [  
                        -69.924443,
                        79.813066
                     ],
                     [  
                        -69.926903,
                        79.812308
                     ],
                     [  
                        -70.279925,
                        79.703488
                     ],
                     [  
                        -70.558231,
                        79.621003
                     ],
                     [  
                        -70.562511,
                        79.619678
                     ],
                     [  
                        -70.7853,
                        79.547704
                     ],
                     [  
                        -71.050554,
                        79.465939
                     ],
                     [  
                        -71.052508,
                        79.465336
                     ],
                     [  
                        -71.054584,
                        79.464646
                     ],
                     [  
                        -71.462401,
                        79.328961
                     ],
                     [  
                        -71.762374,
                        79.232052
                     ],
                     [  
                        -71.766286,
                        79.230735
                     ],
                     [  
                        -71.923932,
                        79.175405
                     ],
                     [  
                        -72.107661,
                        79.114277
                     ],
                     [  
                        -72.108918,
                        79.113859
                     ],
                     [  
                        -72.110321,
                        79.113356
                     ],
                     [  
                        -72.578543,
                        78.945655
                     ],
                     [  
                        -72.883178,
                        78.838736
                     ],
                     [  
                        -72.886592,
                        78.83749
                     ],
                     [  
                        -72.985325,
                        78.799959
                     ],
                     [  
                        -73.099328,
                        78.759128
                     ],
                     [  
                        -73.09973,
                        78.758983
                     ],
                     [  
                        -73.100202,
                        78.758802
                     ],
                     [  
                        -73.657722,
                        78.544368
                     ],
                     [  
                        -73.928359,
                        78.441494
                     ],
                     [  
                        -73.931053,
                        78.44043
                     ],
                     [  
                        -73.974518,
                        78.422522
                     ],
                     [  
                        -74.029839,
                        78.401244
                     ],
                     [  
                        -74.030418,
                        78.401021
                     ],
                     [  
                        -74.030866,
                        78.400836
                     ],
                     [  
                        -74.951699408331308,
                        78.019978960970178
                     ],
                     [  
                        -75.000346,
                        78.007024
                     ],
                     [  
                        -75.028419063253935,
                        77.949600996186035
                     ],
                     [  
                        -75.22248,
                        77.605436
                     ],
                     [  
                        -75.228646,
                        77.594072
                     ],
                     [  
                        -75.229546,
                        77.592412
                     ],
                     [  
                        -75.432321,
                        77.209052
                     ],
                     [  
                        -75.440321,
                        77.193415
                     ],
                     [  
                        -75.457291,
                        77.158829
                     ],
                     [  
                        -75.480759,
                        77.114156
                     ],
                     [  
                        -75.48209,
                        77.111623
                     ],
                     [  
                        -75.484454,
                        77.106793
                     ],
                     [  
                        -75.686849,
                        76.693366
                     ],
                     [  
                        -75.690712,
                        76.685475
                     ],
                     [  
                        -75.693067,
                        76.680255
                     ],
                     [  
                        -75.703997,
                        76.656031
                     ],
                     [  
                        -75.720147,
                        76.623118
                     ],
                     [  
                        -75.720693,
                        76.621945
                     ],
                     [  
                        -75.999977,
                        76.000054
                     ],
                     [  
                        -76.0,
                        76.000002
                     ],
                     [  
                        -75.999999,
                        76.000002
                     ],
                     [  
                        -76.0,
                        76.0
                     ],
                     [  
                        -75.985744279920851,
                        75.991407511185173
                     ],
                     [  
                        -75.996277,
                        75.969863
                     ],
                     [  
                        -58.224858925664449,
                        64.538560834072683
                     ],
                     [  
                        -59.739244657818297,
                        63.066955767411038
                     ],
                     [  
                        -76.203012,
                        61.805732
                     ],
                     [  
                        -77.255596,
                        52.413458
                     ],
                     [  
                        -84.774961422131881,
                        48.44336801157538
                     ],
                     [  
                        -85.88480803277227,
                        48.467885555544044
                     ],
                     [  
                        -95.416065,
                        50.711354
                     ],
                     [  
                        -101.855309,
                        50.833356
                     ],
                     [  
                        -106.4799,
                        52.753176
                     ],
                     [  
                        -106.433539,
                        49.718734
                     ],
                     [  
                        -106.438185,
                        49.00586
                     ],
                     [  
                        -108.922803,
                        49.006452
                     ],
                     [  
                        -110.587654,
                        49.01391
                     ],
                     [  
                        -112.077157,
                        49.017438
                     ],
                     [  
                        -114.515254,
                        49.020911
                     ],
                     [  
                        -115.491725624396736,
                        49.011414885425069
                     ],
                     [  
                        -115.137521,
                        49.499971
                     ],
                     [  
                        -115.1375,
                        49.5
                     ],
                     [  
                        -115.137499,
                        49.500002
                     ],
                     [  
                        -115.136944,
                        49.586668
                     ],
                     [  
                        -115.139375,
                        49.644998
                     ],
                     [  
                        -115.139444,
                        49.646669
                     ],
                     [  
                        -115.143023,
                        49.924775
                     ],
                     [  
                        -115.143056,
                        49.927222
                     ],
                     [  
                        -115.143055,
                        49.927224
                     ],
                     [  
                        -115.142854,
                        49.929127
                     ],
                     [  
                        -115.141583,
                        49.965747
                     ],
                     [  
                        -115.145267,
                        50.002298
                     ],
                     [  
                        -115.153889,
                        50.038503
                     ],
                     [  
                        -115.167393,
                        50.074084
                     ],
                     [  
                        -115.185688,
                        50.10877
                     ],
                     [  
                        -115.208642,
                        50.142293
                     ],
                     [  
                        -115.236089,
                        50.174397
                     ],
                     [  
                        -115.267827,
                        50.204834
                     ],
                     [  
                        -115.303617,
                        50.233368
                     ],
                     [  
                        -115.343191,
                        50.259779
                     ],
                     [  
                        -115.386248,
                        50.283863
                     ],
                     [  
                        -115.432458,
                        50.305432
                     ],
                     [  
                        -115.481466,
                        50.32432
                     ],
                     [  
                        -115.532895,
                        50.340378
                     ],
                     [  
                        -115.586345,
                        50.353482
                     ],
                     [  
                        -115.641401,
                        50.363529
                     ],
                     [  
                        -115.697634,
                        50.370442
                     ],
                     [  
                        -115.754607,
                        50.374166
                     ],
                     [  
                        -115.811873,
                        50.374672
                     ],
                     [  
                        -115.868986,
                        50.371956
                     ],
                     [  
                        -115.925499,
                        50.36604
                     ],
                     [  
                        -115.980971,
                        50.356969
                     ],
                     [  
                        -116.034971,
                        50.344815
                     ],
                     [  
                        -116.087078,
                        50.329672
                     ],
                     [  
                        -116.267778,
                        50.534445
                     ],
                     [  
                        -116.601667,
                        50.908056
                     ],
                     [  
                        -117.220278,
                        51.574724
                     ],
                     [  
                        -117.41361,
                        51.786943
                     ],
                     [  
                        -117.714443,
                        52.105001
                     ],
                     [  
                        -119.0,
                        53.4
                     ],
                     [  
                        -119.485832,
                        53.721392
                     ],
                     [  
                        -120.170555,
                        54.163336
                     ],
                     [  
                        -120.774721,
                        54.544443
                     ],
                     [  
                        -121.692499,
                        55.101946
                     ],
                     [  
                        -122.268055,
                        55.440557
                     ],
                     [  
                        -122.636667,
                        55.656668
                     ],
                     [  
                        -123.25,
                        56.000002
                     ],
                     [  
                        -123.250321,
                        56.000049
                     ],
                     [  
                        -124.63159,
                        56.201925
                     ],
                     [  
                        -124.668729,
                        56.207353
                     ],
                     [  
                        -124.670989,
                        56.207683
                     ],
                     [  
                        -124.673146,
                        56.20797
                     ],
                     [  
                        -126.14576,
                        56.403784
                     ],
                     [  
                        -126.148249,
                        56.404115
                     ],
                     [  
                        -126.150651,
                        56.404402
                     ],
                     [  
                        -126.287326,
                        56.420707
                     ],
                     [  
                        -126.959551,
                        56.500906
                     ],
                     [  
                        -127.743143,
                        56.59439
                     ],
                     [  
                        -127.745854,
                        56.594713
                     ],
                     [  
                        -127.748853,
                        56.595028
                     ],
                     [  
                        -127.934896,
                        56.61455
                     ],
                     [  
                        -128.115505,
                        56.635594
                     ],
                     [  
                        -128.126905,
                        56.63684
                     ],
                     [  
                        -129.426943,
                        56.771112
                     ],
                     [  
                        -130.53171,
                        56.873947
                     ],
                     [  
                        -130.550601,
                        56.875705
                     ],
                     [  
                        -130.572533,
                        56.877746
                     ],
                     [  
                        -130.587346,
                        56.878959
                     ],
                     [  
                        -132.065934,
                        56.999944
                     ],
                     [  
                        -132.066005,
                        56.99995
                     ],
                     [  
                        -132.045303,
                        57.045113
                     ],
                     [  
                        -132.177319834929079,
                        57.064051799996783
                     ],
                     [  
                        -132.265475,
                        57.184941
                     ],
                     [  
                        -132.27205759165102,
                        57.187048252144706
                     ],
                     [  
                        -132.248642,
                        57.210729
                     ],
                     [  
                        -132.254844,
                        57.219012
                     ],
                     [  
                        -132.369919,
                        57.349804
                     ],
                     [  
                        -132.553802,
                        57.496582
                     ],
                     [  
                        -132.660965,
                        57.616779
                     ],
                     [  
                        -132.751144,
                        57.69603
                     ],
                     [  
                        -132.869446,
                        57.839779
                     ],
                     [  
                        -133.07016,
                        58.000389
                     ],
                     [  
                        -133.172363,
                        58.153694
                     ],
                     [  
                        -133.200104,
                        58.17461
                     ],
                     [  
                        -133.209366,
                        58.181557
                     ],
                     [  
                        -133.220917,
                        58.19025
                     ],
                     [  
                        -133.270035,
                        58.227112
                     ],
                     [  
                        -133.345474,
                        58.276333
                     ],
                     [  
                        -133.345765,
                        58.276612
                     ],
                     [  
                        -133.361115,
                        58.28055
                     ],
                     [  
                        -133.41836,
                        58.346286
                     ],
                     [  
                        -133.461533,
                        58.387722
                     ],
                     [  
                        -133.395964,
                        58.42108
                     ],
                     [  
                        -133.377335,
                        58.430557
                     ],
                     [  
                        -133.427362,
                        58.456218
                     ],
                     [  
                        -133.429993,
                        58.459162
                     ],
                     [  
                        -133.558899,
                        58.528048
                     ],
                     [  
                        -133.578888,
                        58.539721
                     ],
                     [  
                        -133.601654,
                        58.550547
                     ],
                     [  
                        -133.627463,
                        58.564768
                     ],
                     [  
                        -133.683319,
                        58.595545
                     ],
                     [  
                        -133.690779,
                        58.602533
                     ],
                     [  
                        -133.707138,
                        58.612278
                     ],
                     [  
                        -133.84053,
                        58.729443
                     ],
                     [  
                        -133.972382,
                        58.767307
                     ],
                     [  
                        -134.221657,
                        58.849068
                     ],
                     [  
                        -134.243393,
                        58.856197
                     ],
                     [  
                        -134.258118,
                        58.861027
                     ],
                     [  
                        -134.308334,
                        58.901222
                     ],
                     [  
                        -134.336502,
                        58.923416
                     ],
                     [  
                        -134.332214,
                        58.930652
                     ],
                     [  
                        -134.31658,
                        58.957036
                     ],
                     [  
                        -134.313522,
                        58.962196
                     ],
                     [  
                        -134.407166,
                        58.979221
                     ],
                     [  
                        -134.381912,
                        59.038776
                     ],
                     [  
                        -134.447144,
                        59.089222
                     ],
                     [  
                        -134.483414,
                        59.131611
                     ],
                     [  
                        -134.55278,
                        59.131212
                     ],
                     [  
                        -134.566406,
                        59.130548
                     ],
                     [  
                        -134.575553,
                        59.136506
                     ],
                     [  
                        -134.679138,
                        59.192276
                     ],
                     [  
                        -134.699013,
                        59.244492
                     ],
                     [  
                        -134.714172,
                        59.246103
                     ],
                     [  
                        -134.738892,
                        59.250277
                     ],
                     [  
                        -134.948405,
                        59.279501
                     ],
                     [  
                        -134.959915,
                        59.280918
                     ],
                     [  
                        -135.030533,
                        59.346359
                     ],
                     [  
                        -134.995175,
                        59.38171
                     ],
                     [  
                        -134.990927,
                        59.387567
                     ],
                     [  
                        -135.101028,
                        59.427528
                     ],
                     [  
                        -135.077271,
                        59.451778
                     ],
                     [  
                        -135.027557,
                        59.474751
                     ],
                     [  
                        -135.028534,
                        59.539249
                     ],
                     [  
                        -135.02861,
                        59.544109
                     ],
                     [  
                        -135.028885,
                        59.563667
                     ],
                     [  
                        -135.11264,
                        59.61961
                     ],
                     [  
                        -135.117828,
                        59.623085
                     ],
                     [  
                        -135.138611,
                        59.624443
                     ],
                     [  
                        -135.157578,
                        59.625721
                     ],
                     [  
                        -135.16232,
                        59.628533
                     ],
                     [  
                        -135.164139,
                        59.629612
                     ],
                     [  
                        -135.219833,
                        59.662777
                     ],
                     [  
                        -135.233673,
                        59.69614
                     ],
                     [  
                        -135.252747,
                        59.698277
                     ],
                     [  
                        -135.346798,
                        59.732734
                     ],
                     [  
                        -135.3575,
                        59.738889
                     ],
                     [  
                        -135.483056,
                        59.8
                     ],
                     [  
                        -135.938889,
                        59.666944
                     ],
                     [  
                        -136.172222,
                        59.641944
                     ],
                     [  
                        -136.226043,
                        59.631776
                     ],
                     [  
                        -136.238754,
                        59.628613
                     ],
                     [  
                        -136.249725,
                        59.625862
                     ],
                     [  
                        -136.265335,
                        59.621971
                     ],
                     [  
                        -136.27356,
                        59.619915
                     ],
                     [  
                        -136.290802,
                        59.615612
                     ],
                     [  
                        -136.339302,
                        59.603487
                     ],
                     [  
                        -136.353912,
                        59.599834
                     ],
                     [  
                        -136.239807,
                        59.559418
                     ],
                     [  
                        -136.238626,
                        59.528191
                     ],
                     [  
                        -136.269682,
                        59.496278
                     ],
                     [  
                        -136.294444,
                        59.470833
                     ],
                     [  
                        -136.299725,
                        59.469252
                     ],
                     [  
                        -136.304977,
                        59.464527
                     ],
                     [  
                        -136.360687,
                        59.450806
                     ],
                     [  
                        -136.361313,
                        59.450668
                     ],
                     [  
                        -136.362473,
                        59.45039
                     ],
                     [  
                        -136.368195,
                        59.448971
                     ],
                     [  
                        -136.372421,
                        59.449612
                     ],
                     [  
                        -136.373749,
                        59.449833
                     ],
                     [  
                        -136.395512,
                        59.453202
                     ],
                     [  
                        -136.400833,
                        59.452778
                     ],
                     [  
                        -136.427389,
                        59.458136
                     ],
                     [  
                        -136.464106,
                        59.463819
                     ],
                     [  
                        -136.477112,
                        59.465832
                     ],
                     [  
                        -136.477341,
                        59.376251
                     ],
                     [  
                        -136.472672,
                        59.322029
                     ],
                     [  
                        -136.472275,
                        59.318027
                     ],
                     [  
                        -136.469223,
                        59.284084
                     ],
                     [  
                        -136.495728,
                        59.275139
                     ],
                     [  
                        -136.492195,
                        59.266197
                     ],
                     [  
                        -136.48967,
                        59.259804
                     ],
                     [  
                        -136.548303,
                        59.201664
                     ],
                     [  
                        -136.575833,
                        59.17
                     ],
                     [  
                        -136.580461,
                        59.169777
                     ],
                     [  
                        -136.584412,
                        59.165859
                     ],
                     [  
                        -136.738618,
                        59.162144
                     ],
                     [  
                        -136.82872,
                        59.159973
                     ],
                     [  
                        -136.854659,
                        59.147109
                     ],
                     [  
                        -136.876724,
                        59.136166
                     ],
                     [  
                        -136.969666,
                        59.10125
                     ],
                     [  
                        -137.036972,
                        59.078751
                     ],
                     [  
                        -137.063117,
                        59.069985
                     ],
                     [  
                        -137.08461,
                        59.062778
                     ],
                     [  
                        -137.175644,
                        59.032166
                     ],
                     [  
                        -137.207449,
                        59.022632
                     ],
                     [  
                        -137.23145,
                        59.015438
                     ],
                     [  
                        -137.254167,
                        59.0075
                     ],
                     [  
                        -137.445833,
                        58.910556
                     ],
                     [  
                        -137.447436,
                        58.910686
                     ],
                     [  
                        -137.451721,
                        58.90836
                     ],
                     [  
                        -137.526108,
                        58.906361
                     ],
                     [  
                        -137.500031,
                        58.98539
                     ],
                     [  
                        -137.54216,
                        59.106415
                     ],
                     [  
                        -137.607391,
                        59.243805
                     ],
                     [  
                        -137.946567,
                        59.421119
                     ],
                     [  
                        -138.09141,
                        59.49576
                     ],
                     [  
                        -138.626328,
                        59.768555
                     ],
                     [  
                        -138.668777,
                        59.809639
                     ],
                     [  
                        -138.679581,
                        59.845333
                     ],
                     [  
                        -138.707504,
                        59.906307
                     ],
                     [  
                        -138.79866,
                        59.924641
                     ],
                     [  
                        -139.053833,
                        59.994804
                     ],
                     [  
                        -139.06131,
                        59.999641
                     ],
                     [  
                        -139.199005,
                        60.088276
                     ],
                     [  
                        -139.07222,
                        60.319416
                     ],
                     [  
                        -139.074861,
                        60.352104
                     ],
                     [  
                        -139.108567,
                        60.351529
                     ],
                     [  
                        -139.686045,
                        60.335391
                     ],
                     [  
                        -139.698883,
                        60.328333
                     ],
                     [  
                        -139.771667,
                        60.292498
                     ],
                     [  
                        -139.793884,
                        60.280275
                     ],
                     [  
                        -139.812494,
                        60.2717
                     ],
                     [  
                        -139.981247,
                        60.181946
                     ],
                     [  
                        -140.45302,
                        60.306671
                     ],
                     [  
                        -140.459991,
                        60.296946
                     ],
                     [  
                        -140.471924,
                        60.283884
                     ],
                     [  
                        -140.493042,
                        60.257776
                     ],
                     [  
                        -140.501953,
                        60.244715
                     ],
                     [  
                        -140.507781,
                        60.237969
                     ],
                     [  
                        -140.521393,
                        60.222216
                     ],
                     [  
                        -140.786957,
                        60.269991
                     ],
                     [  
                        -140.946381,
                        60.297777
                     ],
                     [  
                        -140.965495360762702,
                        60.301446510073077
                     ],
                     [  
                        -140.972914,
                        60.319646
                     ],
                     [  
                        -140.949399,
                        63.350712
                     ],
                     [  
                        -140.946859,
                        66.009241
                     ],
                     [  
                        -140.960528,
                        69.036021
                     ],
                     [  
                        -140.947169752835578,
                        69.66327278431848
                     ],
                     [  
                        -74.731370031942916,
                        86.298970615431628
                     ],
                     [  
                        -60.013343,
                        81.998178
                     ],
                     [  
                        -60.017240645892613,
                        81.99714002696463
                     ]
                  ]
               ]
            ]
         }
      }
   ]
}