"shapeid","x","y"
"0","55.5","-19.005353"
"0","55.5","-10.005353"
"0","45.0","-10.005353"
"0","44.0","-10.338653"
"0","41.5","-11.007406"
"0","43.0","-15.005353"
"0","40.0","-20.005353"
"0","40.0","-30.005353"
"0","57.0","-30.005353"
"0","57.0","-22.338653"
"0","55.5","-19.005353"
