{
"type": "FeatureCollection",
"name": "Khartoum",
"crs": { "type": "name", "properties": { "name": "urn:ogc:def:crs:OGC:1.3:CRS84" } },
"features": [
{ "type": "Feature", "properties": { }, "geometry": { "type": "MultiPolygon", "coordinates": [ [ [ [ 38.500000782000029, 19.999998749000042 ], [ 36.441301345000056, 14.223123551000072 ], [ 36.000001908000058, 13.000001908000058 ], [ 33.000001907000069, 8.000001908000058 ], [ 36.000001908000058, 4.000001908000058 ], [ 34.092733383000052, 4.000001908000058 ], [ 30.750001907000069, 4.000001908000058 ], [ 30.195554733000051, 4.00777626100006 ], [ 30.190000534000035, 4.015832901000067 ], [ 30.179723739000053, 4.025835037000036 ], [ 30.174165726000069, 4.033609390000038 ], [ 30.166666031000034, 4.039724350000029 ], [ 30.160276413000076, 4.046945571000037 ], [ 30.156110764000061, 4.056390762000035 ], [ 30.15472221300007, 4.061944962000041 ], [ 30.15444374100008, 4.082223893000048 ], [ 30.152223587000037, 4.093610764000061 ], [ 30.14388847400005, 4.105554581000035 ], [ 30.136110306000035, 4.111665726000069 ], [ 30.121946335000075, 4.117498398000066 ], [ 30.116388321000045, 4.118890762000035 ], [ 30.10361290000003, 4.119165421000048 ], [ 30.085279464000052, 4.121110916000021 ], [ 30.074167251000063, 4.123613358000057 ], [ 30.065279007000072, 4.128057480000052 ], [ 30.05833244300004, 4.134721756000033 ], [ 30.055833817000064, 4.138891220000062 ], [ 30.047224045000064, 4.157499313000073 ], [ 30.045831680000049, 4.163057327000047 ], [ 30.039445877000048, 4.177221298000063 ], [ 30.036664963000078, 4.187780381000039 ], [ 30.026666641000077, 4.205278397000029 ], [ 30.014444351000066, 4.213335037000036 ], [ 29.99583244300004, 4.22861290000003 ], [ 29.987779618000047, 4.233888626000066 ], [ 29.977499008000052, 4.23694419900005 ], [ 29.957777024000052, 4.236112595000066 ], [ 29.948888778000025, 4.240556717000061 ], [ 29.945276260000071, 4.243890762000035 ], [ 29.943334580000055, 4.248613358000057 ], [ 29.942499161000057, 4.25472068800002 ], [ 29.94444465600003, 4.266389847000028 ], [ 29.946390152000049, 4.27111244200006 ], [ 29.951665879000075, 4.279165268000042 ], [ 29.954999924000049, 4.282777786000054 ], [ 29.959444046000044, 4.291387558000054 ], [ 29.958887100000027, 4.297502518000044 ], [ 29.953889847000028, 4.306390762000035 ], [ 29.936666489000061, 4.323057174000041 ], [ 29.920831681000038, 4.334169388000021 ], [ 29.917501450000032, 4.337499618000038 ], [ 29.912778854000067, 4.339445114000057 ], [ 29.90444374100008, 4.344720841000026 ], [ 29.898332595000056, 4.346666336000055 ], [ 29.894166947000031, 4.349447250000026 ], [ 29.889444351000066, 4.351388931000031 ], [ 29.882501602000048, 4.351110458000051 ], [ 29.877222061000055, 4.349721908000049 ], [ 29.858888626000066, 4.347501755000053 ], [ 29.848054886000057, 4.34444618200007 ], [ 29.84194374100008, 4.344999313000073 ], [ 29.836668015000043, 4.346391678000032 ], [ 29.828332901000067, 4.351667404000068 ], [ 29.817220688000077, 4.360834121000039 ], [ 29.80833244300004, 4.365556717000061 ], [ 29.800279617000058, 4.371389389000058 ], [ 29.794721604000074, 4.379446030000054 ], [ 29.793333054000072, 4.38500022900007 ], [ 29.79389, 4.391111374000047 ], [ 29.797498703000031, 4.407499314000063 ], [ 29.797498703000031, 4.414167405000057 ], [ 29.796667099000047, 4.420278550000035 ], [ 29.792501450000032, 4.429723740000043 ], [ 29.792501450000032, 4.436388015000034 ], [ 29.800001145000067, 4.468889236000052 ], [ 29.805833817000064, 4.483331680000049 ], [ 29.806390762000035, 4.496110916000021 ], [ 29.804998398000066, 4.50139045700007 ], [ 29.796388627000056, 4.520833969000023 ], [ 29.796945572000027, 4.526945114000057 ], [ 29.815000534000035, 4.54972267200003 ], [ 29.816389084000036, 4.554998398000066 ], [ 29.814722061000055, 4.560277939000059 ], [ 29.806665421000048, 4.565832138000076 ], [ 29.801111221000042, 4.566946030000054 ], [ 29.794443130000047, 4.566946030000054 ], [ 29.789720535000072, 4.568887711000059 ], [ 29.784166336000055, 4.570001602000048 ], [ 29.776666642000066, 4.576112747000025 ], [ 29.77111244200006, 4.584169388000021 ], [ 29.767499924000049, 4.587499619000027 ], [ 29.761388779000072, 4.586668015000043 ], [ 29.753332138000076, 4.58111 ], [ 29.750001907000069, 4.577779770000063 ], [ 29.744722366000076, 4.575555802000054 ], [ 29.734445572000027, 4.578889847000028 ], [ 29.730276108000055, 4.581388473000061 ], [ 29.719999314000063, 4.591390610000076 ], [ 29.706945419000078, 4.61222267100004 ], [ 29.698610306000035, 4.617498398000066 ], [ 29.659723282000073, 4.632501602000048 ], [ 29.655553817000055, 4.63500022900007 ], [ 29.652223587000037, 4.638334274000044 ], [ 29.643331528000033, 4.64361000100007 ], [ 29.632501602000048, 4.64611244200006 ], [ 29.624166489000061, 4.65138816800004 ], [ 29.614721298000063, 4.656110764000061 ], [ 29.607778550000035, 4.655832290000035 ], [ 29.60305595400007, 4.653890610000076 ], [ 29.599164963000078, 4.651113510000073 ], [ 29.59250068700004, 4.644166947000031 ], [ 29.586942672000077, 4.644166947000031 ], [ 29.582223892000059, 4.64611244200006 ], [ 29.575277329000073, 4.652776718000041 ], [ 29.569723129000067, 4.660554886000057 ], [ 29.566389083000047, 4.66388893200002 ], [ 29.560277939000059, 4.663335800000027 ], [ 29.554166794000025, 4.66388893200002 ], [ 29.54944419900005, 4.66583442700005 ], [ 29.543889999000044, 4.664445877000048 ], [ 29.539167404000068, 4.662221909000039 ], [ 29.532499313000073, 4.655279160000021 ], [ 29.528612136000049, 4.652776718000041 ], [ 29.523889542000063, 4.65472221400006 ], [ 29.520277024000052, 4.657777787000043 ], [ 29.516111374000047, 4.667222977000051 ], [ 29.510557174000041, 4.675279617000058 ], [ 29.507223129000067, 4.678609848000065 ], [ 29.498334885000077, 4.68333244300004 ], [ 29.492776871000046, 4.684446335000075 ], [ 29.487501144000078, 4.68305397000006 ], [ 29.480001450000032, 4.67694664000004 ], [ 29.477499008000052, 4.672777176000068 ], [ 29.474164963000078, 4.669443130000047 ], [ 29.466112137000039, 4.66388893200002 ], [ 29.462778092000065, 4.660280227000044 ], [ 29.462221146000047, 4.654443741000023 ], [ 29.466390610000076, 4.638055802000054 ], [ 29.466665268000042, 4.631387711000059 ], [ 29.464445115000046, 4.626668930000051 ], [ 29.460000991000072, 4.611112594000076 ], [ 29.464445115000046, 4.594999313000073 ], [ 29.46388816800004, 4.58888816800004 ], [ 29.453889847000028, 4.578611374000047 ], [ 29.445001602000048, 4.573610305000045 ], [ 29.441667557000073, 4.57027626100006 ], [ 29.439165115000037, 4.566110611000056 ], [ 29.434446335000075, 4.550558090000038 ], [ 29.434720993000042, 4.530279160000021 ], [ 29.432779312000036, 4.525556564000055 ], [ 29.426111221000042, 4.51861 ], [ 29.422224044000075, 4.515832901000067 ], [ 29.41611290000003, 4.508333206000032 ], [ 29.411664963000078, 4.499444962000041 ], [ 29.398889541000074, 4.485002518000044 ], [ 29.386945724000043, 4.476667404000068 ], [ 29.372777939000059, 4.470556259000034 ], [ 29.36194419800006, 4.46750068700004 ], [ 29.354444503000025, 4.461389542000063 ], [ 29.351945877000048, 4.457223892000059 ], [ 29.343610764000061, 4.425279617000058 ], [ 29.340833664000058, 4.421388626000066 ], [ 29.333055496000043, 4.402223587000037 ], [ 29.328332901000067, 4.393331527000043 ], [ 29.321664810000073, 4.386667251000063 ], [ 29.312223434000032, 4.382223129000067 ], [ 29.307500840000046, 4.381666184000039 ], [ 29.301942825000026, 4.382776260000071 ], [ 29.29389, 4.388055801000064 ], [ 29.283609390000038, 4.391389847000028 ], [ 29.270833969000023, 4.391942978000031 ], [ 29.259164810000073, 4.389722824000046 ], [ 29.254446030000054, 4.38750267000006 ], [ 29.247777939000059, 4.380556106000029 ], [ 29.247220993000042, 4.374723435000021 ], [ 29.254167556000027, 4.361112595000066 ], [ 29.254999160000068, 4.355001450000032 ], [ 29.252222061000055, 4.351110458000051 ], [ 29.243612289000055, 4.346109390000038 ], [ 29.215276718000041, 4.340276718000041 ], [ 29.209722519000024, 4.341665268000042 ], [ 29.200834274000044, 4.346109390000038 ], [ 29.194723129000067, 4.35361290000003 ], [ 29.190553665000039, 4.356111527000053 ], [ 29.187776565000036, 4.360277176000068 ], [ 29.183610916000077, 4.362779618000047 ], [ 29.180833817000064, 4.366945267000062 ], [ 29.173887253000032, 4.373613357000067 ], [ 29.171110154000075, 4.377500534000035 ], [ 29.159444809000036, 4.386110306000035 ], [ 29.142499923000059, 4.402776718000041 ], [ 29.138334274000044, 4.405553818000044 ], [ 29.13138771000007, 4.412221908000049 ], [ 29.123609543000043, 4.423612595000066 ], [ 29.121667862000038, 4.428335190000041 ], [ 29.118890763000024, 4.432222367000065 ], [ 29.114721298000063, 4.434999466000022 ], [ 29.105276108000055, 4.43889045700007 ], [ 29.093610763000072, 4.438055038000073 ], [ 29.077501297000026, 4.433610916000021 ], [ 29.070554733000051, 4.433610916000021 ], [ 29.068056107000075, 4.437501908000058 ], [ 29.067777633000048, 4.443056106000029 ], [ 29.073057174000041, 4.451112748000071 ], [ 29.071664810000073, 4.456666946000041 ], [ 29.068334580000055, 4.460000992000062 ], [ 29.062776565000036, 4.461111068000037 ], [ 29.050001144000078, 4.460279464000052 ], [ 29.043889999000044, 4.460832596000046 ], [ 29.03833198600006, 4.462224961000061 ], [ 29.034166336000055, 4.464723587000037 ], [ 29.030832291000024, 4.468053817000055 ], [ 29.026666641000077, 4.477499008000052 ], [ 29.025278092000065, 4.483057022000025 ], [ 29.020277023000062, 4.491666794000025 ], [ 29.017499924000049, 4.49583244300004 ], [ 29.013334275000034, 4.498334885000077 ], [ 29.008054734000041, 4.499723434000032 ], [ 29.002500534000035, 4.498334885000077 ], [ 28.997777939000059, 4.496110916000021 ], [ 28.981111526000063, 4.485002518000044 ], [ 28.976388932000077, 4.483057022000025 ], [ 28.970277786000054, 4.482221603000028 ], [ 28.958055496000043, 4.483331680000049 ], [ 28.948610306000035, 4.48722267200003 ], [ 28.943056107000075, 4.488611221000042 ], [ 28.936944962000041, 4.487779617000058 ], [ 28.932222366000076, 4.485834122000028 ], [ 28.928335190000041, 4.483057022000025 ], [ 28.922777176000068, 4.481668472000024 ], [ 28.916666031000034, 4.482221603000028 ], [ 28.911943436000058, 4.484167099000047 ], [ 28.905832290000035, 4.485277176000068 ], [ 28.901109696000049, 4.483331680000049 ], [ 28.893056869000077, 4.477777481000032 ], [ 28.887498856000036, 4.477777481000032 ], [ 28.878610611000056, 4.482221603000028 ], [ 28.871946335000075, 4.488889695000069 ], [ 28.866945267000062, 4.490835190000041 ], [ 28.86222267200003, 4.490278244000024 ], [ 28.85361290000003, 4.485277176000068 ], [ 28.844167709000033, 4.481111527000053 ], [ 28.83138847400005, 4.481668472000024 ], [ 28.825834274000044, 4.482778549000045 ], [ 28.821111679000069, 4.484724045000064 ], [ 28.803888321000045, 4.494722366000076 ], [ 28.801942825000026, 4.499444962000041 ], [ 28.801668167000059, 4.506109238000022 ], [ 28.805833817000064, 4.515832901000067 ], [ 28.805555344000027, 4.522500992000062 ], [ 28.801389695000069, 4.53194618200007 ], [ 28.790277481000032, 4.548055649000048 ], [ 28.78833198500007, 4.552778244000024 ], [ 28.776666641000077, 4.561944962000041 ], [ 28.76861, 4.556390762000035 ], [ 28.765832901000067, 4.552499771000043 ], [ 28.758333206000032, 4.546113968000043 ], [ 28.746389389000058, 4.537778855000056 ], [ 28.735555649000048, 4.535001754000064 ], [ 28.717779159000031, 4.537500381000029 ], [ 28.712499619000027, 4.537500381000029 ], [ 28.710554123000065, 4.532777786000054 ], [ 28.710554123000065, 4.525835038000025 ], [ 28.70861244200006, 4.52111244200006 ], [ 28.704721451000069, 4.518331528000033 ], [ 28.695276260000071, 4.514165878000028 ], [ 28.692499161000057, 4.510278702000051 ], [ 28.690553665000039, 4.505277634000038 ], [ 28.68889045700007, 4.48694419800006 ], [ 28.686666489000061, 4.482221603000028 ], [ 28.679998398000066, 4.475557327000047 ], [ 28.677499771000043, 4.471391678000032 ], [ 28.672777176000068, 4.455831528000033 ], [ 28.66555595400007, 4.449724197000023 ], [ 28.659444809000036, 4.44222068800002 ], [ 28.658334732000071, 4.436666489000061 ], [ 28.656389237000042, 4.431943893000039 ], [ 28.654165268000042, 4.427221298000063 ], [ 28.650835037000036, 4.423612595000066 ], [ 28.636110306000035, 4.417501449000042 ], [ 28.630834580000055, 4.41611290000003 ], [ 28.604166031000034, 4.416387558000054 ], [ 28.594167709000033, 4.412778854000067 ], [ 28.589998245000061, 4.410001755000053 ], [ 28.584722519000024, 4.401945114000057 ], [ 28.580831528000033, 4.385557175000031 ], [ 28.578889847000028, 4.380834580000055 ], [ 28.576387405000048, 4.376668930000051 ], [ 28.571664810000073, 4.374723435000021 ], [ 28.565553665000039, 4.373888016000024 ], [ 28.559446335000075, 4.374444961000052 ], [ 28.554445267000062, 4.37639045700007 ], [ 28.543611526000063, 4.378889083000047 ], [ 28.527498245000061, 4.374723435000021 ], [ 28.515832901000067, 4.376668930000051 ], [ 28.505834579000066, 4.373056412000039 ], [ 28.503053665000039, 4.368890763000024 ], [ 28.499166488000071, 4.359445572000027 ], [ 28.488332749000051, 4.350000382000076 ], [ 28.483888626000066, 4.341112136000049 ], [ 28.477777481000032, 4.33361244200006 ], [ 28.476667404000068, 4.32805442800003 ], [ 28.476667404000068, 4.321390152000049 ], [ 28.474721909000039, 4.316667557000073 ], [ 28.461942673000067, 4.308889389000058 ], [ 28.449720383000056, 4.293889999000044 ], [ 28.442499161000057, 4.287778854000067 ], [ 28.436944962000041, 4.287500382000076 ], [ 28.425554276000071, 4.289445877000048 ], [ 28.419443130000047, 4.288610458000051 ], [ 28.411390305000054, 4.283334732000071 ], [ 28.408056259000034, 4.27972221400006 ], [ 28.403333664000058, 4.27777671900003 ], [ 28.392221451000069, 4.280279159000031 ], [ 28.387498855000047, 4.282220841000026 ], [ 28.374723434000032, 4.281389237000042 ], [ 28.369165421000048, 4.282777786000054 ], [ 28.365835190000041, 4.286111831000028 ], [ 28.363054276000071, 4.289999008000052 ], [ 28.361665726000069, 4.295557022000025 ], [ 28.359998703000031, 4.307500839000056 ], [ 28.359998703000031, 4.321111679000069 ], [ 28.358610153000029, 4.326391220000062 ], [ 28.35305595400007, 4.334444046000044 ], [ 28.348890304000065, 4.337224961000061 ], [ 28.348054886000057, 4.343332291000024 ], [ 28.344720840000036, 4.346666336000055 ], [ 28.335832596000046, 4.351110458000051 ], [ 28.329721451000069, 4.350557327000047 ], [ 28.323610306000035, 4.351110458000051 ], [ 28.313333512000042, 4.354444504000071 ], [ 28.301111221000042, 4.355554580000046 ], [ 28.287500382000076, 4.355276108000055 ], [ 28.276109695000059, 4.35333442700005 ], [ 28.260278702000051, 4.357778549000045 ], [ 28.25694465600003, 4.354444504000071 ], [ 28.254446030000054, 4.350278854000067 ], [ 28.250276565000036, 4.347501755000053 ], [ 28.236665725000023, 4.347223282000073 ], [ 28.218610763000072, 4.344999313000073 ], [ 28.211668014000054, 4.344999313000073 ], [ 28.205556870000066, 4.345556260000023 ], [ 28.200834274000044, 4.347501755000053 ], [ 28.192499161000057, 4.352777481000032 ], [ 28.189165115000037, 4.356111527000053 ], [ 28.180276871000046, 4.367498398000066 ], [ 28.178056717000061, 4.372224808000055 ], [ 28.169721603000028, 4.384447098000066 ], [ 28.166387558000054, 4.387777329000073 ], [ 28.15694618200007, 4.391668319000075 ], [ 28.150835037000036, 4.392221451000069 ], [ 28.140001297000026, 4.394723892000059 ], [ 28.133054733000051, 4.401388169000029 ], [ 28.130834580000055, 4.406110763000072 ], [ 28.130277633000048, 4.412221908000049 ], [ 28.131387711000059, 4.417776108000055 ], [ 28.136667252000052, 4.425832748000062 ], [ 28.138055801000064, 4.429998398000066 ], [ 28.135831833000054, 4.434724808000055 ], [ 28.127779007000072, 4.440000534000035 ], [ 28.118890762000035, 4.444444657000076 ], [ 28.115556717000061, 4.447778702000051 ], [ 28.109445572000027, 4.448610306000035 ], [ 28.104722976000062, 4.446390152000049 ], [ 28.095834732000071, 4.434724808000055 ], [ 28.084444046000044, 4.432779312000036 ], [ 28.077222824000046, 4.419721603000028 ], [ 28.073057175000031, 4.419721603000028 ], [ 28.068887711000059, 4.422224045000064 ], [ 28.064165115000037, 4.431112289000055 ], [ 28.061944962000041, 4.442499161000057 ], [ 28.057779312000036, 4.451944352000055 ], [ 28.054998398000066, 4.455831528000033 ], [ 28.050832749000051, 4.45861244200006 ], [ 28.041387558000054, 4.462499619000027 ], [ 28.034444809000036, 4.469167710000022 ], [ 28.031667709000033, 4.473333359000037 ], [ 28.028333664000058, 4.483331680000049 ], [ 28.027498245000061, 4.48944664000004 ], [ 28.028055191000078, 4.502222061000055 ], [ 28.035554886000057, 4.541666031000034 ], [ 28.037500381000029, 4.546388626000066 ], [ 28.03833198500007, 4.552499771000043 ], [ 28.036664963000078, 4.557779312000036 ], [ 28.032777787000043, 4.560556412000039 ], [ 28.025835037000036, 4.560277939000059 ], [ 28.015832901000067, 4.556943893000039 ], [ 28.008890152000049, 4.556943893000039 ], [ 27.998056412000039, 4.559446335000075 ], [ 27.988611221000042, 4.563333511000053 ], [ 27.983057022000025, 4.563333511000053 ], [ 27.976945877000048, 4.562501907000069 ], [ 27.973054886000057, 4.559724808000055 ], [ 27.96750068700004, 4.55833244400003 ], [ 27.962778091000075, 4.560277939000059 ], [ 27.952501297000026, 4.57027626100006 ], [ 27.944444657000076, 4.575555802000054 ], [ 27.938333511000053, 4.57500267000006 ], [ 27.936388016000024, 4.57027626100006 ], [ 27.936944962000041, 4.56389045700007 ], [ 27.934999466000079, 4.552499771000043 ], [ 27.929723739000053, 4.551111221000042 ], [ 27.924165726000069, 4.552499771000043 ], [ 27.910001754000064, 4.55833244400003 ], [ 27.898332596000046, 4.560277939000059 ], [ 27.891668320000065, 4.559999466000022 ], [ 27.880834579000066, 4.557222366000076 ], [ 27.868055344000027, 4.556390762000035 ], [ 27.862501144000078, 4.557779312000036 ], [ 27.858331680000049, 4.560277939000059 ], [ 27.846109390000038, 4.57500267000006 ], [ 27.837778091000075, 4.587224960000071 ], [ 27.83361244200006, 4.589723587000037 ], [ 27.822778702000051, 4.592500686000051 ], [ 27.81944465600003, 4.595834732000071 ], [ 27.817220688000077, 4.600557327000047 ], [ 27.813055038000073, 4.60305595400007 ], [ 27.806943893000039, 4.603612899000041 ], [ 27.791387558000054, 4.598890305000054 ], [ 27.787500382000076, 4.601388931000031 ], [ 27.786111832000074, 4.606943130000047 ], [ 27.786390304000065, 4.633333206000032 ], [ 27.785554885000067, 4.639444351000066 ], [ 27.784166336000055, 4.644723892000059 ], [ 27.778612137000039, 4.652776718000041 ], [ 27.776666641000077, 4.657499313000073 ], [ 27.773054123000065, 4.660833359000037 ], [ 27.771665573000064, 4.66611290000003 ], [ 27.773054123000065, 4.671667099000047 ], [ 27.777776718000041, 4.680276871000046 ], [ 27.773611068000037, 4.689722061000055 ], [ 27.774168014000054, 4.695833206000032 ], [ 27.776666641000077, 4.70000267100005 ], [ 27.787500382000076, 4.709444046000044 ], [ 27.788888931000031, 4.715002060000074 ], [ 27.786664963000078, 4.719720841000026 ], [ 27.783887863000075, 4.730554580000046 ], [ 27.782220841000026, 4.742776871000046 ], [ 27.783609390000038, 4.75472068800002 ], [ 27.782220841000026, 4.760278702000051 ], [ 27.777498245000061, 4.762224197000023 ], [ 27.773889542000063, 4.76555442800003 ], [ 27.772500992000062, 4.777776718000041 ], [ 27.76888847400005, 4.787778854000067 ], [ 27.76555442800003, 4.79111290000003 ], [ 27.756666184000039, 4.795831680000049 ], [ 27.745000839000056, 4.797502517000055 ], [ 27.738889694000079, 4.796945572000027 ], [ 27.728887558000054, 4.793333054000072 ], [ 27.712778092000065, 4.789167404000068 ], [ 27.707223892000059, 4.790277481000032 ], [ 27.703889847000028, 4.793611527000053 ], [ 27.698888778000025, 4.802499771000043 ], [ 27.698331833000054, 4.808610916000021 ], [ 27.699445724000043, 4.81389045700007 ], [ 27.701387405000048, 4.818609238000022 ], [ 27.704721451000069, 4.821947098000066 ], [ 27.70277595500005, 4.83361244200006 ], [ 27.697221756000033, 4.841665268000042 ], [ 27.695001602000048, 4.846391677000042 ], [ 27.688055039000062, 4.866388321000045 ], [ 27.678335189000052, 4.877222061000055 ], [ 27.673055649000048, 4.885278702000051 ], [ 27.666666031000034, 4.892499924000049 ], [ 27.658609390000038, 4.897779464000052 ], [ 27.648889542000063, 4.901945114000057 ], [ 27.623888016000024, 4.899446487000034 ], [ 27.617223739000053, 4.899446487000034 ], [ 27.594167709000033, 4.903333664000058 ], [ 27.588609696000049, 4.901945114000057 ], [ 27.581945419000078, 4.894998550000025 ], [ 27.57805442800003, 4.894998550000025 ], [ 27.568887711000059, 4.906389236000052 ], [ 27.562223434000032, 4.913057327000047 ], [ 27.548612594000076, 4.919443131000037 ], [ 27.542501450000032, 4.920278550000035 ], [ 27.537778855000056, 4.922224045000064 ], [ 27.533609391000027, 4.925558091000028 ], [ 27.530832290000035, 4.929445266000073 ], [ 27.524442673000067, 4.943609238000022 ], [ 27.521665573000064, 4.954442977000042 ], [ 27.520277023000062, 4.96639060900003 ], [ 27.51527595500005, 4.975278855000056 ], [ 27.494165421000048, 4.987779617000058 ], [ 27.483888626000066, 4.997777939000059 ], [ 27.479722977000051, 5.000555038000073 ], [ 27.470277786000054, 5.004446030000054 ], [ 27.462511063000079, 5.009531021000043 ], [ 27.462221145000058, 5.009721756000033 ], [ 27.455278397000029, 5.016389850000053 ], [ 27.458055498000078, 5.019166953000024 ], [ 27.458612444000039, 5.025278097000069 ], [ 27.458562853000046, 5.025827414000048 ], [ 27.457777025000041, 5.035001760000057 ], [ 27.460279467000078, 5.064443595000057 ], [ 27.460279467000078, 5.073888785000065 ], [ 27.458055498000078, 5.083612448000054 ], [ 27.449720385000035, 5.093053824000037 ], [ 27.430833819000043, 5.10055733300004 ], [ 27.422224047000043, 5.106390005000037 ], [ 27.415277483000068, 5.115835196000035 ], [ 27.415834429000029, 5.125555045000056 ], [ 27.414167406000047, 5.13444710400006 ], [ 27.40805626100007, 5.143888479000054 ], [ 27.398332598000025, 5.154165274000036 ], [ 27.388887407000027, 5.159444815000029 ], [ 27.370000841000035, 5.167501456000025 ], [ 27.360834123000075, 5.173612601000059 ], [ 27.347501756000042, 5.192220694000071 ], [ 27.338888170000075, 5.198335654000061 ], [ 27.330278398000075, 5.202222830000039 ], [ 27.32027626200005, 5.208333975000073 ], [ 27.300001146000056, 5.226110464000044 ], [ 27.295557024000061, 5.235834127000032 ], [ 27.293333055000062, 5.254720694000071 ], [ 27.289167406000047, 5.26583290700006 ], [ 27.280000689000076, 5.273332602000039 ], [ 27.274999620000074, 5.282499320000056 ], [ 27.273611070000072, 5.291666037000027 ], [ 27.265001299000062, 5.311944967000045 ], [ 27.258890154000028, 5.321390158000042 ], [ 27.254720690000056, 5.331388480000044 ], [ 27.253053667000074, 5.341665274000036 ], [ 27.253053667000074, 5.352777487000026 ], [ 27.255834582000034, 5.361391074000039 ], [ 27.255834582000034, 5.372499472000072 ], [ 27.253610613000035, 5.381666189000043 ], [ 27.240835191000031, 5.400278097000069 ], [ 27.235834123000075, 5.419168478000074 ], [ 27.235834123000075, 5.428609854000058 ], [ 27.237779619000037, 5.438890463000064 ], [ 27.243890764000071, 5.461111075000076 ], [ 27.254167559000052, 5.490835196000035 ], [ 27.254720690000056, 5.502500540000028 ], [ 27.257501604000026, 5.511945730000036 ], [ 27.262777331000052, 5.521112448000054 ], [ 27.277776720000077, 5.540277487000026 ], [ 27.281946184000049, 5.54889107300005 ], [ 27.27749824700004, 5.558053976000053 ], [ 27.276945116000036, 5.569166189000043 ], [ 27.281667711000068, 5.578611380000041 ], [ 27.276109697000038, 5.58916664700007 ], [ 27.266942980000067, 5.596666342000049 ], [ 27.257501604000026, 5.601388938000071 ], [ 27.244443895000074, 5.582223898000052 ], [ 27.233888628000045, 5.588335043000029 ], [ 27.230276110000034, 5.59805489200005 ], [ 27.230833055000062, 5.606943136000041 ], [ 27.234724047000043, 5.626111990000027 ], [ 27.239168169000038, 5.638891226000055 ], [ 27.240835191000031, 5.647779471000035 ], [ 27.213056566000034, 5.664445883000042 ], [ 27.212778093000054, 5.685277944000063 ], [ 27.210000993000051, 5.694444662000024 ], [ 27.205831529000079, 5.703611380000041 ], [ 27.198057176000077, 5.713613516000066 ], [ 27.188333513000032, 5.723054891000061 ], [ 27.179723742000078, 5.729722983000045 ], [ 27.170831682000028, 5.731668478000074 ], [ 27.158887865000054, 5.729722983000045 ], [ 27.148889543000053, 5.73444557800002 ], [ 27.145277025000041, 5.743612295000048 ], [ 27.145833971000059, 5.752500540000028 ], [ 27.149999620000074, 5.762502676000054 ], [ 27.142778399000065, 5.771944052000038 ], [ 27.134164812000051, 5.775278097000069 ], [ 27.12444496300003, 5.775835043000029 ], [ 27.114442827000062, 5.781946188000063 ], [ 27.110277178000047, 5.791112906000023 ], [ 27.101388933000067, 5.795831686000042 ], [ 27.081945421000057, 5.792776114000048 ], [ 27.060834886000066, 5.786668784000028 ], [ 27.049165728000048, 5.789999014000045 ], [ 27.046388628000045, 5.799722678000023 ], [ 27.038888933000067, 5.811944968000034 ], [ 27.028612139000074, 5.815279013000065 ], [ 27.019723894000037, 5.825555807000057 ], [ 27.01888847500004, 5.834444052000038 ], [ 27.016111376000026, 5.844446188000063 ], [ 27.011667253000041, 5.853612906000023 ], [ 27.001111986000069, 5.862501150000071 ], [ 26.992223741000032, 5.861665732000063 ], [ 26.98166847400006, 5.859445577000031 ], [ 26.971109392000074, 5.855276114000048 ], [ 26.958887102000062, 5.847780234000027 ], [ 26.949720385000035, 5.846944815000029 ], [ 26.942220690000056, 5.85694313700003 ], [ 26.923887255000068, 5.865556723000054 ], [ 26.921667101000025, 5.874723440000025 ], [ 26.922224047000043, 5.88444710400006 ], [ 26.919443132000026, 5.893610006000074 ], [ 26.910276415000055, 5.899446493000028 ], [ 26.900556566000034, 5.899446493000028 ], [ 26.881109240000058, 5.888334280000038 ], [ 26.871110918000056, 5.885278708000044 ], [ 26.861112596000055, 5.887502676000054 ], [ 26.850278856000045, 5.892221457000062 ], [ 26.839445116000036, 5.898332602000039 ], [ 26.829442980000067, 5.905000693000034 ], [ 26.827222826000025, 5.923891074000039 ], [ 26.825834276000023, 5.95555687500007 ], [ 26.822221758000069, 5.965276724000034 ], [ 26.817220690000056, 5.97527886000006 ], [ 26.808610918000056, 5.980001456000025 ], [ 26.799444200000039, 5.976945883000042 ], [ 26.788331988000039, 5.979722983000045 ], [ 26.782777788000033, 5.990556723000054 ], [ 26.773889544000042, 5.991666800000075 ], [ 26.763055803000043, 5.99500084500005 ], [ 26.756006242000069, 6.000001913000062 ], [ 26.745832445000076, 6.007223135000061 ], [ 26.735555650000038, 6.009164816000066 ], [ 26.716112139000074, 6.006944662000024 ], [ 26.697500231000049, 6.017499930000042 ], [ 26.688055040000052, 6.013891226000055 ], [ 26.676111223000078, 6.010557181000024 ], [ 26.66694450500006, 6.004999167000051 ], [ 26.656389238000031, 6.002779013000065 ], [ 26.647779467000078, 6.00944710400006 ], [ 26.639444353000044, 6.017499930000042 ], [ 26.621110918000056, 6.013891226000055 ], [ 26.612222673000076, 6.014444357000059 ], [ 26.603612902000066, 6.023889548000056 ], [ 26.594446184000049, 6.030553824000037 ], [ 26.585279467000078, 6.029722220000053 ], [ 26.574720385000035, 6.02694512000005 ], [ 26.565279009000051, 6.028333670000052 ], [ 26.554445269000041, 6.033609396000031 ], [ 26.546945573000073, 6.04638863200006 ], [ 26.538610460000029, 6.054445273000056 ], [ 26.531667711000068, 6.070001608000041 ], [ 26.53111076600004, 6.079721457000062 ], [ 26.521112444000039, 6.099721915000032 ], [ 26.514165880000064, 6.109724051000057 ], [ 26.504999163000036, 6.10944557800002 ], [ 26.496110918000056, 6.107221609000021 ], [ 26.485277178000047, 6.101110464000044 ], [ 26.475278856000045, 6.094167715000026 ], [ 26.466390612000055, 6.084169393000025 ], [ 26.456666948000077, 6.07527733400002 ], [ 26.447500231000049, 6.072221762000027 ], [ 26.437498095000024, 6.077779776000057 ], [ 26.43666649100004, 6.087499624000031 ], [ 26.44000053600007, 6.096944815000029 ], [ 26.44555473500003, 6.107500083000048 ], [ 26.456945421000057, 6.124723441000071 ], [ 26.46499824700004, 6.133054739000045 ], [ 26.475278856000045, 6.141389853000021 ], [ 26.495279314000072, 6.154165274000036 ], [ 26.504720690000056, 6.158891684000025 ], [ 26.513887407000027, 6.165277487000026 ], [ 26.523611070000072, 6.173612601000059 ], [ 26.528333666000037, 6.183053977000043 ], [ 26.528612139000074, 6.201665884000022 ], [ 26.527223589000073, 6.211389548000056 ], [ 26.523611070000072, 6.221109396000031 ], [ 26.514722826000025, 6.224447256000076 ], [ 26.496667864000074, 6.221391684000025 ], [ 26.486112596000055, 6.221391684000025 ], [ 26.476110460000029, 6.224721914000042 ], [ 26.475278856000045, 6.23444557800002 ], [ 26.473054888000036, 6.243333823000057 ], [ 26.475000383000065, 6.262502676000054 ], [ 26.467779161000067, 6.283609396000031 ], [ 26.459444048000023, 6.29444313700003 ], [ 26.450277330000063, 6.301111227000035 ], [ 26.441389085000026, 6.304445273000056 ], [ 26.432500841000035, 6.30555535000002 ], [ 26.413610460000029, 6.303888327000038 ], [ 26.404165270000078, 6.304723746000036 ], [ 26.395277025000041, 6.30777931800003 ], [ 26.386667253000041, 6.316667562000021 ], [ 26.378332140000055, 6.336389547000067 ], [ 26.372499468000058, 6.346391684000025 ], [ 26.364168169000038, 6.356390006000026 ], [ 26.354166032000023, 6.363889700000072 ], [ 26.34555626100007, 6.368612295000048 ], [ 26.307779314000072, 6.383054739000045 ], [ 26.301389696000058, 6.392499930000042 ], [ 26.30055427700006, 6.401388174000033 ], [ 26.301668169000038, 6.411111838000068 ], [ 26.308610918000056, 6.420278555000039 ], [ 26.31194496300003, 6.43027687700004 ], [ 26.304723742000078, 6.439722067000048 ], [ 26.306112291000034, 6.449445730000036 ], [ 26.313611986000069, 6.457777029000056 ], [ 26.307222368000055, 6.467222220000053 ], [ 26.298055651000027, 6.465555197000072 ], [ 26.289167406000047, 6.468889243000035 ], [ 26.292501451000078, 6.478887564000047 ], [ 26.302221300000042, 6.488889700000072 ], [ 26.313611986000069, 6.496389395000051 ], [ 26.322778704000029, 6.49861336400005 ], [ 26.328332903000046, 6.50722313600005 ], [ 26.323331834000044, 6.517778403000023 ], [ 26.334165575000043, 6.536390311000048 ], [ 26.34333229300006, 6.540555960000063 ], [ 26.356390001000022, 6.551668173000053 ], [ 26.359167101000025, 6.563055045000056 ], [ 26.366109850000043, 6.583333975000073 ], [ 26.374998095000024, 6.582777030000045 ], [ 26.385000231000049, 6.58916664700007 ], [ 26.383611681000048, 6.60027886000006 ], [ 26.389722826000025, 6.60888863200006 ], [ 26.394998552000061, 6.618890768000028 ], [ 26.40249824700004, 6.627222067000048 ], [ 26.406286242000078, 6.635248190000027 ], [ 26.407220842000072, 6.637224203000073 ], [ 26.405000689000076, 6.64638710600002 ], [ 26.396665575000043, 6.655279165000024 ], [ 26.378053667000074, 6.667222983000045 ], [ 26.369443895000074, 6.676111227000035 ], [ 26.360834123000075, 6.683332449000034 ], [ 26.351945879000027, 6.683332449000034 ], [ 26.341665270000078, 6.68583489100007 ], [ 26.323057176000077, 6.698610312000028 ], [ 26.313611986000069, 6.701944358000048 ], [ 26.303888323000024, 6.701391226000055 ], [ 26.274721148000026, 6.703611380000041 ], [ 26.266111376000026, 6.708333975000073 ], [ 26.258333208000067, 6.718332297000075 ], [ 26.251943590000053, 6.728334433000043 ], [ 26.243612291000034, 6.736391074000039 ], [ 26.234167101000025, 6.74249840400006 ], [ 26.225278856000045, 6.743612295000048 ], [ 26.216390612000055, 6.747777945000053 ], [ 26.209444048000023, 6.75694466300007 ], [ 26.209165575000043, 6.76583290700006 ], [ 26.202775957000028, 6.775278097000069 ], [ 26.185277941000038, 6.781946188000063 ], [ 26.179723741000032, 6.792501455000036 ], [ 26.174722673000076, 6.813333517000046 ], [ 26.165834429000029, 6.818609244000072 ], [ 26.137498857000026, 6.817499166000061 ], [ 26.128053667000074, 6.820276267000054 ], [ 26.119165422000037, 6.826112753000075 ], [ 26.100831987000049, 6.841112143000032 ], [ 26.094446184000049, 6.85027886000006 ], [ 26.08999824700004, 6.860277182000061 ], [ 26.090555193000057, 6.880834585000059 ], [ 26.09250068800003, 6.900835043000029 ], [ 26.083612444000039, 6.903890616000069 ], [ 26.073610307000024, 6.899724966000065 ], [ 26.064165117000073, 6.903055197000072 ], [ 26.063333513000032, 6.91277886000006 ], [ 26.059167864000074, 6.92194557800002 ], [ 26.052221300000042, 6.93277931800003 ], [ 26.055555345000073, 6.941946035000058 ], [ 26.052499773000079, 6.95333290700006 ], [ 26.047777178000047, 6.963888174000033 ], [ 26.048612596000055, 6.979722982000055 ], [ 26.050001146000056, 6.989168173000053 ], [ 26.048334124000064, 6.99833489100007 ], [ 26.039720537000051, 7.002779013000065 ], [ 26.029165270000078, 7.003610617000049 ], [ 26.019445421000057, 7.001390463000064 ], [ 26.010557177000067, 7.001668936000044 ], [ 26.001665117000073, 7.003610617000049 ], [ 25.992498400000045, 7.003610617000049 ], [ 25.982500078000044, 7.008890158000042 ], [ 25.984445574000063, 7.018331533000037 ], [ 25.97944450600005, 7.027776724000034 ], [ 25.969999315000052, 7.033891684000025 ], [ 25.948057176000077, 7.037221914000042 ], [ 25.939165117000073, 7.037500388000069 ], [ 25.930276872000036, 7.040277487000026 ], [ 25.925279619000037, 7.049444205000043 ], [ 25.916387560000032, 7.054166800000075 ], [ 25.907499315000052, 7.05527687700004 ], [ 25.898889544000042, 7.060556418000033 ], [ 25.89722252100006, 7.070276266000064 ], [ 25.899999620000074, 7.081666952000035 ], [ 25.896387102000062, 7.091112143000032 ], [ 25.887498857000026, 7.092779165000024 ], [ 25.878610613000035, 7.092779165000024 ], [ 25.868333818000053, 7.098890310000058 ], [ 25.859724047000043, 7.105554587000029 ], [ 25.850278856000045, 7.10944557800002 ], [ 25.83999824700004, 7.108057028000076 ], [ 25.819723131000046, 7.108331686000042 ], [ 25.814722063000033, 7.11777687600005 ], [ 25.816667559000052, 7.127779013000065 ], [ 25.816667559000052, 7.136945731000026 ], [ 25.813890459000049, 7.147222525000075 ], [ 25.804998400000045, 7.149999625000021 ], [ 25.774999620000074, 7.146669394000071 ], [ 25.764722826000025, 7.152223593000031 ], [ 25.756387713000038, 7.162221914000042 ], [ 25.747777940000049, 7.169721609000021 ], [ 25.738889696000058, 7.170278556000028 ], [ 25.729722978000041, 7.168054587000029 ], [ 25.719999315000052, 7.168611533000046 ], [ 25.711389543000053, 7.174444204000054 ], [ 25.702775957000028, 7.183889395000051 ], [ 25.693609239000068, 7.190557486000046 ], [ 25.652776720000077, 7.204721457000062 ], [ 25.633611681000048, 7.207777029000056 ], [ 25.62388801700007, 7.211111075000076 ], [ 25.611665728000048, 7.212499625000021 ], [ 25.602499010000031, 7.212499625000021 ], [ 25.593889238000031, 7.216390615000023 ], [ 25.582498552000061, 7.237501150000071 ], [ 25.573331834000044, 7.247224814000049 ], [ 25.554998400000045, 7.254999166000061 ], [ 25.549444200000039, 7.265001303000076 ], [ 25.531389238000031, 7.277776724000034 ], [ 25.52250099400004, 7.277502066000068 ], [ 25.501111986000069, 7.269166953000024 ], [ 25.482778551000024, 7.276388174000033 ], [ 25.473890306000044, 7.278890616000069 ], [ 25.46499824700004, 7.280000692000044 ], [ 25.454999926000028, 7.288888937000024 ], [ 25.454999926000028, 7.297777182000061 ], [ 25.451387407000027, 7.306943900000022 ], [ 25.42805671900004, 7.312501913000062 ], [ 25.410001757000032, 7.32527733400002 ], [ 25.401109697000038, 7.327779776000057 ], [ 25.37416649000005, 7.33944512000005 ], [ 25.36555671900004, 7.34833336500003 ], [ 25.357221605000063, 7.358331686000042 ], [ 25.352220537000051, 7.36749840400006 ], [ 25.349164965000057, 7.376668936000044 ], [ 25.349721910000028, 7.385557181000024 ], [ 25.348890306000044, 7.396112448000054 ], [ 25.344720843000061, 7.406667715000026 ], [ 25.338888170000075, 7.415834433000043 ], [ 25.331110003000049, 7.425279623000051 ], [ 25.322221758000069, 7.426389700000072 ], [ 25.312498094000034, 7.429166799000029 ], [ 25.303888323000024, 7.434999472000072 ], [ 25.291112901000076, 7.454999930000042 ], [ 25.281946184000049, 7.46444512000005 ], [ 25.272779467000078, 7.472501761000046 ], [ 25.262777330000063, 7.478055960000063 ], [ 25.253610613000035, 7.479166037000027 ], [ 25.244722368000055, 7.481668479000064 ], [ 25.235555650000038, 7.491109854000058 ], [ 25.226945879000027, 7.49500084500005 ], [ 25.216390611000065, 7.493612295000048 ], [ 25.206945421000057, 7.497499472000072 ], [ 25.200277330000063, 7.516389853000021 ], [ 25.200277330000063, 7.525556571000038 ], [ 25.195001604000026, 7.54444313700003 ], [ 25.181390764000071, 7.572500235000064 ], [ 25.183889391000037, 7.583333975000073 ], [ 25.19000053600007, 7.592779165000024 ], [ 25.199445726000079, 7.599168784000028 ], [ 25.209165575000043, 7.598611838000068 ], [ 25.218332292000071, 7.599447257000065 ], [ 25.227777483000068, 7.606390005000037 ], [ 25.234445574000063, 7.61777687600005 ], [ 25.243890764000071, 7.62333489100007 ], [ 25.253053667000074, 7.625001914000052 ], [ 25.262777330000063, 7.624444968000034 ], [ 25.271665575000043, 7.625280386000043 ], [ 25.28333473400005, 7.632223135000061 ], [ 25.291387560000032, 7.64083290700006 ], [ 25.296110155000065, 7.649999625000021 ], [ 25.295831682000028, 7.668611533000046 ], [ 25.299722673000076, 7.678056723000054 ], [ 25.298887255000068, 7.687780386000043 ], [ 25.291112901000076, 7.697221762000027 ], [ 25.285554888000036, 7.706388480000044 ], [ 25.28305626100007, 7.715555197000072 ], [ 25.287778856000045, 7.73444557800002 ], [ 25.289445879000027, 7.754446036000047 ], [ 25.288057329000026, 7.774446494000074 ], [ 25.286390307000033, 7.783334738000065 ], [ 25.278055193000057, 7.795000082000058 ], [ 25.267778398000075, 7.799722677000034 ], [ 25.265001299000062, 7.809999472000072 ], [ 25.262498858000072, 7.829442984000025 ], [ 25.258333208000067, 7.840833670000052 ], [ 25.253332140000055, 7.85055733400003 ], [ 25.244722368000055, 7.856668478000074 ], [ 25.225557329000026, 7.872777945000053 ], [ 25.206666948000077, 7.873334890000024 ], [ 25.198331835000033, 7.881387717000052 ], [ 25.186109545000079, 7.90194512000005 ], [ 25.176942827000062, 7.900278098000058 ], [ 25.157777788000033, 7.891111380000041 ], [ 25.148889543000053, 7.89305687500007 ], [ 25.139444353000044, 7.897779471000035 ], [ 25.119722368000055, 7.893888479000054 ], [ 25.108331682000028, 7.888334281000027 ], [ 25.099164964000067, 7.888891226000055 ], [ 25.089166643000056, 7.892221457000062 ], [ 25.080278398000075, 7.897500997000066 ], [ 25.053888323000024, 7.921113974000036 ], [ 25.035554888000036, 7.940557486000046 ], [ 25.017778398000075, 7.955278403000023 ], [ 25.000024797000037, 7.975862509000024 ], [ 24.992776872000036, 7.982221609000021 ], [ 24.982500078000044, 7.986112601000059 ], [ 24.973333360000026, 7.992776874000072 ], [ 24.970277786000054, 8.003332138000076 ], [ 24.970834732000071, 8.013055801000064 ], [ 24.969999313000073, 8.023332596000046 ], [ 24.952501297000026, 8.03194618200007 ], [ 24.943887711000059, 8.041387558000054 ], [ 24.948610306000035, 8.060834885000077 ], [ 24.946390152000049, 8.073331833000054 ], [ 24.942777633000048, 8.083887101000073 ], [ 24.934446335000075, 8.093332291000024 ], [ 24.908609391000027, 8.117498398000066 ], [ 24.889722824000046, 8.139165878000028 ], [ 24.881109238000079, 8.147222519000024 ], [ 24.874723434000032, 8.156667709000033 ], [ 24.865556717000061, 8.165277481000032 ], [ 24.854646683000055, 8.168458938000072 ], [ 24.843889236000052, 8.175554276000071 ], [ 24.831388473000061, 8.177499771000043 ], [ 24.823331833000054, 8.182779312000036 ], [ 24.804445267000062, 8.192777634000038 ], [ 24.794721604000074, 8.193334579000066 ], [ 24.786664962000032, 8.187498092000055 ], [ 24.762498855000047, 8.186109543000043 ], [ 24.752222061000055, 8.190832138000076 ], [ 24.746389389000058, 8.198610305000045 ], [ 24.739168167000059, 8.20527839600004 ], [ 24.72833442700005, 8.20861244200006 ], [ 24.714998245000061, 8.210832596000046 ], [ 24.691389084000036, 8.207777023000062 ], [ 24.679723740000043, 8.210000992000062 ], [ 24.660001755000053, 8.218610764000061 ], [ 24.633611679000069, 8.220556259000034 ], [ 24.621667862000038, 8.219999313000073 ], [ 24.611112595000066, 8.216943741000023 ], [ 24.600000382000076, 8.214998245000061 ], [ 24.588056565000045, 8.214166641000077 ], [ 24.576944351000066, 8.211942673000067 ], [ 24.567499161000057, 8.207777023000062 ], [ 24.556943894000028, 8.204999924000049 ], [ 24.545831681000038, 8.204721451000069 ], [ 24.535001755000053, 8.208055496000043 ], [ 24.526945115000046, 8.214166641000077 ], [ 24.513887405000048, 8.216112137000039 ], [ 24.500001907000069, 8.230001450000032 ], [ 24.488332749000051, 8.232778549000045 ], [ 24.479722977000051, 8.238054275000025 ], [ 24.471666336000055, 8.25694465600003 ], [ 24.469999313000073, 8.268056869000077 ], [ 24.460000992000062, 8.271387100000027 ], [ 24.448610306000035, 8.269166947000031 ], [ 24.436109543000043, 8.269998551000072 ], [ 24.423055648000059, 8.271944046000044 ], [ 24.39611244200006, 8.272779465000042 ], [ 24.385278701000061, 8.269998551000072 ], [ 24.376665115000037, 8.265001297000026 ], [ 24.361112594000076, 8.247220993000042 ], [ 24.35083198500007, 8.249166488000071 ], [ 24.34444618200007, 8.256387711000059 ], [ 24.336942673000067, 8.262777328000027 ], [ 24.327501297000026, 8.267499924000049 ], [ 24.315279007000072, 8.270277023000062 ], [ 24.295831680000049, 8.269998551000072 ], [ 24.288888931000031, 8.270833970000069 ], [ 24.277223587000037, 8.273611069000026 ], [ 24.264165878000028, 8.274999618000038 ], [ 24.253053665000039, 8.278333664000058 ], [ 24.230554581000035, 8.284444809000036 ], [ 24.210000992000062, 8.293054581000035 ], [ 24.192499161000057, 8.303609848000065 ], [ 24.177221298000063, 8.316110611000056 ], [ 24.162778854000067, 8.330556869000077 ], [ 24.153333664000058, 8.349164963000021 ], [ 24.145277024000052, 8.367498398000066 ], [ 24.14027595500005, 8.375833511000053 ], [ 24.14361000100007, 8.387498856000036 ], [ 24.151666641000077, 8.407499313000073 ], [ 24.158609390000038, 8.429998398000066 ], [ 24.161390304000065, 8.468332291000024 ], [ 24.16583442700005, 8.477777481000032 ], [ 24.181943893000039, 8.489168167000059 ], [ 24.187776565000036, 8.497220993000042 ], [ 24.196664811000062, 8.517499924000049 ], [ 24.201944351000066, 8.526109695000059 ], [ 24.215833664000058, 8.538888931000031 ], [ 24.22861290000003, 8.554998398000066 ], [ 24.236665726000069, 8.56055641100005 ], [ 24.24583244300004, 8.564165116000027 ], [ 24.254446030000054, 8.56916618300005 ], [ 24.269166946000041, 8.583055497000032 ], [ 24.267499924000049, 8.591943741000023 ], [ 24.250001908000058, 8.60333442700005 ], [ 24.242776870000057, 8.610555649000048 ], [ 24.235555649000048, 8.616388321000045 ], [ 24.230276108000055, 8.624998092000055 ], [ 24.229444504000071, 8.636110305000045 ], [ 24.234167099000047, 8.645277023000062 ], [ 24.251111984000033, 8.671388626000066 ], [ 24.255556106000029, 8.679998398000066 ], [ 24.253332138000076, 8.691110611000056 ], [ 24.243890763000024, 8.695833206000032 ], [ 24.230833053000026, 8.697221756000033 ], [ 24.212221146000047, 8.689165115000037 ], [ 24.201112747000025, 8.686944962000041 ], [ 24.174463272000025, 8.695890426000062 ], [ 24.168333054000072, 8.697778702000051 ], [ 24.149721146000047, 8.688333511000053 ], [ 24.138887405000048, 8.685556412000039 ], [ 24.12639045800006, 8.684720993000042 ], [ 24.100278854000067, 8.688333511000053 ], [ 24.086942673000067, 8.688333511000053 ], [ 24.06083488400003, 8.691667557000073 ], [ 24.048334122000028, 8.693887711000059 ], [ 24.037500381000029, 8.697778702000051 ], [ 24.01555442800003, 8.703889846000038 ], [ 23.996110916000077, 8.695833206000032 ], [ 23.989168167000059, 8.696111679000069 ], [ 23.979166031000034, 8.700277328000027 ], [ 23.961668015000043, 8.710832596000046 ], [ 23.937498092000055, 8.714723587000037 ], [ 23.925832749000051, 8.718053818000044 ], [ 23.91583442700005, 8.714445114000057 ], [ 23.893331528000033, 8.710279465000042 ], [ 23.88277626100006, 8.707498551000072 ], [ 23.875833512000042, 8.707777023000062 ], [ 23.863332748000062, 8.710554123000065 ], [ 23.843610764000061, 8.718889237000042 ], [ 23.835554123000065, 8.725000381000029 ], [ 23.823888779000072, 8.727777481000032 ], [ 23.812776566000025, 8.725557328000036 ], [ 23.787500382000076, 8.724721909000039 ], [ 23.776388169000029, 8.721944809000036 ], [ 23.767778397000029, 8.717500686000051 ], [ 23.759721756000033, 8.711668014000054 ], [ 23.739168167000059, 8.705278397000029 ], [ 23.72833442700005, 8.706388473000061 ], [ 23.710554123000065, 8.716943741000023 ], [ 23.698888778000025, 8.719720841000026 ], [ 23.679166794000025, 8.713335037000036 ], [ 23.666666031000034, 8.715276718000041 ], [ 23.642778397000029, 8.733610153000029 ], [ 23.633054733000051, 8.73694419900005 ], [ 23.62055397000006, 8.73694419900005 ], [ 23.608610153000029, 8.735555648000059 ], [ 23.596666336000055, 8.733888626000066 ], [ 23.586942673000067, 8.731111526000063 ], [ 23.578332901000067, 8.726110458000051 ], [ 23.565553665000039, 8.710832596000046 ], [ 23.557500839000056, 8.704442978000031 ], [ 23.537500381000029, 8.705556869000077 ], [ 23.525835037000036, 8.708055496000043 ], [ 23.517778397000029, 8.714166641000077 ], [ 23.51555442800003, 8.723890305000054 ], [ 23.515832901000067, 8.730554581000035 ], [ 23.513055802000054, 8.741109848000065 ], [ 23.507776260000071, 8.749723435000021 ], [ 23.501111985000023, 8.756109237000032 ], [ 23.496946335000075, 8.76527595500005 ], [ 23.49833488400003, 8.778333664000058 ], [ 23.504167557000073, 8.801389694000022 ], [ 23.508333206000032, 8.811388016000024 ], [ 23.51555442800003, 8.818056107000075 ], [ 23.526109696000049, 8.821664810000073 ], [ 23.533609391000027, 8.827501297000026 ], [ 23.540277481000032, 8.834722519000024 ], [ 23.546110153000029, 8.84250068700004 ], [ 23.562776566000025, 8.868612289000055 ], [ 23.581666947000031, 8.906110763000072 ], [ 23.58361244200006, 8.918333053000026 ], [ 23.580556869000077, 8.941110611000056 ], [ 23.582498551000072, 8.961668015000043 ], [ 23.583055496000043, 8.988611221000042 ], [ 23.580278397000029, 8.998888015000034 ], [ 23.572221756000033, 9.004999160000068 ], [ 23.565279007000072, 9.005277634000038 ], [ 23.556665420000058, 9.000276566000025 ], [ 23.550554275000025, 8.991666794000025 ], [ 23.535833359000037, 8.964723587000037 ], [ 23.528612137000039, 8.957498550000025 ], [ 23.516111374000047, 8.956945419000022 ], [ 23.503610611000056, 8.959722519000024 ], [ 23.493333817000064, 8.963609695000059 ], [ 23.485277176000068, 8.968889236000052 ], [ 23.469999313000073, 8.981943131000037 ], [ 23.460554123000065, 8.986665726000069 ], [ 23.45527839600004, 8.995000839000056 ], [ 23.453889847000028, 9.006944657000076 ], [ 23.448057175000031, 9.014165878000028 ], [ 23.448610306000035, 9.024999619000027 ], [ 23.452501297000026, 9.035276413000076 ], [ 23.458055496000043, 9.044443130000047 ], [ 23.461389541000074, 9.055276871000046 ], [ 23.461389541000074, 9.068334579000066 ], [ 23.463335038000025, 9.081388473000061 ], [ 23.46750068700004, 9.091390610000076 ], [ 23.469167709000033, 9.111387253000032 ], [ 23.473054886000057, 9.129720688000077 ], [ 23.478612899000041, 9.145277023000062 ], [ 23.485277176000068, 9.153055191000021 ], [ 23.489999771000043, 9.162500381000029 ], [ 23.492776871000046, 9.174165726000069 ], [ 23.500555038000073, 9.179166794000025 ], [ 23.512498856000036, 9.181390762000035 ], [ 23.532777787000043, 9.179445267000062 ], [ 23.545278549000045, 9.179445267000062 ], [ 23.556390762000035, 9.181665420000058 ], [ 23.57250022900007, 9.192777633000048 ], [ 23.578332901000067, 9.200555801000064 ], [ 23.591665268000042, 9.214998245000061 ], [ 23.606389999000044, 9.22805595400007 ], [ 23.611112595000066, 9.237501144000021 ], [ 23.621667862000038, 9.254720688000077 ], [ 23.628889084000036, 9.261110306000035 ], [ 23.646387100000027, 9.271944046000044 ], [ 23.652223587000037, 9.28000068700004 ], [ 23.650835037000036, 9.291666031000034 ], [ 23.646387100000027, 9.300832748000062 ], [ 23.639722824000046, 9.320554733000051 ], [ 23.638334275000034, 9.332223892000059 ], [ 23.64055442800003, 9.345277786000054 ], [ 23.645277024000052, 9.354722977000051 ], [ 23.657220841000026, 9.385557175000031 ], [ 23.660001755000053, 9.397222519000024 ], [ 23.660276413000076, 9.40389060900003 ], [ 23.663610458000051, 9.41555595400007 ], [ 23.664999008000052, 9.428609848000065 ], [ 23.664445877000048, 9.440832138000076 ], [ 23.65472221400006, 9.44416618300005 ], [ 23.64611244200006, 9.438611984000033 ], [ 23.635831833000054, 9.440279007000072 ], [ 23.631387711000059, 9.449445725000032 ], [ 23.634164810000073, 9.47611045900004 ], [ 23.636945724000043, 9.488332749000051 ], [ 23.637220382000066, 9.508333206000032 ], [ 23.634443283000053, 9.51888847400005 ], [ 23.627779007000072, 9.525278091000075 ], [ 23.62333488400003, 9.535276413000076 ], [ 23.626111984000033, 9.546110153000029 ], [ 23.631387711000059, 9.554723739000053 ], [ 23.649442673000067, 9.579168320000065 ], [ 23.660276413000076, 9.597776413000076 ], [ 23.668333054000072, 9.618055343000037 ], [ 23.673612595000066, 9.627500534000035 ], [ 23.681665420000058, 9.646944046000044 ], [ 23.693056106000029, 9.664445877000048 ], [ 23.694723129000067, 9.671667099000047 ], [ 23.677778244000024, 9.797224045000064 ], [ 23.66916847300007, 9.866945266000073 ], [ 23.641942978000031, 9.910276413000076 ], [ 23.607500077000054, 9.967779160000021 ], [ 23.571390152000049, 10.025278092000065 ], [ 23.563055039000062, 10.040277481000032 ], [ 23.545000076000065, 10.068609237000032 ], [ 23.536664963000078, 10.08361244200006 ], [ 23.518056869000077, 10.11194419900005 ], [ 23.509721756000033, 10.126943588000074 ], [ 23.465276718000041, 10.198610306000035 ], [ 23.457223892000059, 10.213335037000036 ], [ 23.438333511000053, 10.241945266000073 ], [ 23.403612137000039, 10.300001144000021 ], [ 23.358610154000075, 10.371667862000038 ], [ 23.350278855000056, 10.386667251000063 ], [ 23.332223892000059, 10.414999008000052 ], [ 23.323888779000072, 10.429998398000066 ], [ 23.315000534000035, 10.44416618300005 ], [ 23.303888321000045, 10.459165573000064 ], [ 23.276666641000077, 10.475000381000029 ], [ 23.251665115000037, 10.492776871000046 ], [ 23.23694419900005, 10.518888473000061 ], [ 23.229722976000062, 10.525278092000065 ], [ 23.211389542000063, 10.535276413000076 ], [ 23.203332901000067, 10.541944504000071 ], [ 23.190000534000035, 10.556390762000035 ], [ 23.181943894000028, 10.562223435000021 ], [ 23.167222976000062, 10.575277328000027 ], [ 23.150556564000055, 10.599443435000069 ], [ 23.135831833000054, 10.613332748000062 ], [ 23.095277787000043, 10.642778397000029 ], [ 23.060277939000059, 10.664445877000048 ], [ 23.009443283000053, 10.698610306000035 ], [ 23.00666618300005, 10.709165573000064 ], [ 22.996110916000077, 10.726110458000051 ], [ 22.991945267000062, 10.735277176000068 ], [ 22.961111069000026, 10.774721146000047 ], [ 22.94416618300005, 10.798055649000048 ], [ 22.923334122000028, 10.832223893000048 ], [ 22.913888931000031, 10.849721909000039 ], [ 22.901388169000029, 10.865556716000071 ], [ 22.890275956000039, 10.881944657000076 ], [ 22.879999161000057, 10.899721145000058 ], [ 22.87639045700007, 10.909444809000036 ], [ 22.866506576000063, 10.922449112000038 ], [ 22.871946335000075, 10.919721604000074 ], [ 22.877779007000072, 10.920557022000025 ], [ 22.880834580000055, 10.92472267100004 ], [ 22.881944657000076, 10.930833817000064 ], [ 22.885557175000031, 10.941667557000073 ], [ 22.888055801000064, 10.946111679000069 ], [ 22.89361000100007, 10.976945877000048 ], [ 22.895555496000043, 10.982221603000028 ], [ 22.900556565000045, 11.006109237000032 ], [ 22.909723282000073, 11.033056259000034 ], [ 22.912500381000029, 11.044721603000028 ], [ 22.919721603000028, 11.066389084000036 ], [ 22.92444419800006, 11.075555801000064 ], [ 22.931943893000039, 11.081945420000068 ], [ 22.936388015000034, 11.084444046000044 ], [ 22.942499161000057, 11.09250068700004 ], [ 22.94388771000007, 11.098611832000074 ], [ 22.943609238000079, 11.117776871000046 ], [ 22.945833206000032, 11.136388779000072 ], [ 22.958333969000023, 11.174165725000023 ], [ 22.965555191000078, 11.189443588000074 ], [ 22.968889236000052, 11.193609238000022 ], [ 22.971109390000038, 11.198331832000065 ], [ 22.974721909000039, 11.209165573000064 ], [ 22.975278855000056, 11.215833664000058 ], [ 22.973054886000057, 11.233331680000049 ], [ 22.972314835000077, 11.250001908000058 ], [ 22.971387863000075, 11.270833969000023 ], [ 22.971944809000036, 11.27749824600005 ], [ 22.970834732000071, 11.283056259000034 ], [ 22.96750068700004, 11.293054581000035 ], [ 22.960000992000062, 11.29972267200003 ], [ 22.953611373000058, 11.307222366000076 ], [ 22.948610306000035, 11.315832138000076 ], [ 22.941667557000073, 11.348611832000074 ], [ 22.938055038000073, 11.378053665000039 ], [ 22.936666489000061, 11.39611244200006 ], [ 22.93555641100005, 11.401666641000077 ], [ 22.930833817000064, 11.41583442700005 ], [ 22.81944465600003, 11.403890610000076 ], [ 22.79111290000003, 11.401666641000077 ], [ 22.790277481000032, 11.410001755000053 ], [ 22.79083442700005, 11.416944504000071 ], [ 22.790277481000032, 11.429445267000062 ], [ 22.787221908000049, 11.446111679000069 ], [ 22.784444809000036, 11.449167252000052 ], [ 22.782220841000026, 11.454999924000049 ], [ 22.775556564000055, 11.462221146000047 ], [ 22.770833969000023, 11.464723587000037 ], [ 22.754999161000057, 11.470556259000034 ], [ 22.733057022000025, 11.477499008000052 ], [ 22.721109390000038, 11.480276108000055 ], [ 22.68889045700007, 11.491388321000045 ], [ 22.65472221400006, 11.507501602000048 ], [ 22.646665574000053, 11.513612747000025 ], [ 22.641942978000031, 11.516111374000047 ], [ 22.625555038000073, 11.534444809000036 ], [ 22.619722366000076, 11.543054580000046 ], [ 22.613332749000051, 11.550554276000071 ], [ 22.608331680000049, 11.559167862000038 ], [ 22.599164963000078, 11.570554733000051 ], [ 22.596666336000055, 11.574998856000036 ], [ 22.58111, 11.593889236000052 ], [ 22.572778701000061, 11.606389999000044 ], [ 22.569444657000076, 11.609998703000031 ], [ 22.564443589000064, 11.618612289000055 ], [ 22.561666489000061, 11.621667862000038 ], [ 22.556390762000035, 11.636388779000072 ], [ 22.553335190000041, 11.653333664000058 ], [ 22.552778244000024, 11.66555595400007 ], [ 22.553335190000041, 11.672498703000031 ], [ 22.565832138000076, 11.740278244000024 ], [ 22.566667556000027, 11.753889084000036 ], [ 22.571664810000073, 11.785276413000076 ], [ 22.572778701000061, 11.799165726000069 ], [ 22.579999924000049, 11.835279465000042 ], [ 22.581945419000078, 11.840555191000021 ], [ 22.597776413000076, 11.926668167000059 ], [ 22.599443436000058, 11.931943894000028 ], [ 22.611387253000032, 11.992776871000046 ], [ 22.618055343000037, 12.01527595500005 ], [ 22.62055397000006, 12.019723892000059 ], [ 22.623888016000024, 12.030553818000044 ], [ 22.62639045700007, 12.035276413000076 ], [ 22.629999161000057, 12.046110153000029 ], [ 22.63500022900007, 12.055555344000027 ], [ 22.640832901000067, 12.071111679000069 ], [ 22.638334274000044, 12.075277329000073 ], [ 22.630277634000038, 12.08138847400005 ], [ 22.625555038000073, 12.08361244200006 ], [ 22.620000839000056, 12.075277329000073 ], [ 22.616388321000045, 12.064443588000074 ], [ 22.610834122000028, 12.066110611000056 ], [ 22.597223282000073, 12.073888779000072 ], [ 22.586942673000067, 12.07805442800003 ], [ 22.580556870000066, 12.077775956000039 ], [ 22.563611984000033, 12.074720383000056 ], [ 22.548334122000028, 12.06944465600003 ], [ 22.54389, 12.066946030000054 ], [ 22.528612137000039, 12.061944961000052 ], [ 22.51555442800003, 12.054445266000073 ], [ 22.500833512000042, 12.048612595000066 ], [ 22.500001908000058, 12.048143387000039 ], [ 22.496389389000058, 12.046110153000029 ], [ 22.488889695000069, 12.039445877000048 ], [ 22.480833053000026, 12.035276413000076 ], [ 22.476667404000068, 12.034166336000055 ], [ 22.484167099000047, 12.062776565000036 ], [ 22.486665726000069, 12.067499161000057 ], [ 22.490278244000024, 12.078332901000067 ], [ 22.498888015000034, 12.12055397000006 ], [ 22.499166489000061, 12.127222061000055 ], [ 22.500001908000058, 12.131525039000053 ], [ 22.502779007000072, 12.145833969000023 ], [ 22.503332138000076, 12.16583442700005 ], [ 22.50139045700007, 12.176942825000026 ], [ 22.500001908000058, 12.180788040000039 ], [ 22.497777939000059, 12.186944962000041 ], [ 22.495279312000036, 12.191110611000056 ], [ 22.492498398000066, 12.201665878000028 ], [ 22.472776413000076, 12.256109238000022 ], [ 22.471666336000055, 12.261945724000043 ], [ 22.468332291000024, 12.271665573000064 ], [ 22.463888169000029, 12.281110764000061 ], [ 22.444444657000076, 12.335554123000065 ], [ 22.441667557000073, 12.339723587000037 ], [ 22.436388015000034, 12.354722976000062 ], [ 22.437223434000032, 12.387777328000027 ], [ 22.436388015000034, 12.393331528000033 ], [ 22.432779312000036, 12.403333664000058 ], [ 22.427778244000024, 12.411943435000069 ], [ 22.42444419900005, 12.41555595400007 ], [ 22.421945572000027, 12.420000077000054 ], [ 22.386667251000063, 12.454721451000069 ], [ 22.383890152000049, 12.465276718000041 ], [ 22.390001297000026, 12.473054885000067 ], [ 22.394445420000068, 12.475557327000047 ], [ 22.398332596000046, 12.478887558000054 ], [ 22.406389236000052, 12.483057022000025 ], [ 22.408887863000075, 12.48722267200003 ], [ 22.461668015000043, 12.608057022000025 ], [ 22.466943741000023, 12.621667862000038 ], [ 22.335000992000062, 12.670278549000045 ], [ 22.331666946000041, 12.673334122000028 ], [ 22.223333359000037, 12.747220993000042 ], [ 22.216112137000039, 12.735277176000068 ], [ 22.199720383000056, 12.715555191000021 ], [ 22.16583442700005, 12.672224045000064 ], [ 22.158056259000034, 12.665277481000032 ], [ 22.149999619000027, 12.659444809000036 ], [ 22.140554429000076, 12.655279160000077 ], [ 22.125276566000025, 12.649999619000027 ], [ 22.114442825000026, 12.647222519000024 ], [ 22.074445724000043, 12.640001297000026 ], [ 22.068056107000075, 12.640001297000026 ], [ 22.050001144000078, 12.637498855000047 ], [ 22.004720688000077, 12.636388779000072 ], [ 21.998334885000077, 12.637498855000047 ], [ 21.977220535000072, 12.638612747000025 ], [ 21.952775956000039, 12.64388847400005 ], [ 21.931943893000039, 12.651945114000057 ], [ 21.919168472000024, 12.660276413000076 ], [ 21.90694618200007, 12.669443130000047 ], [ 21.893888473000061, 12.684720993000042 ], [ 21.883054733000051, 12.701387406000038 ], [ 21.878610611000056, 12.710554123000065 ], [ 21.873334885000077, 12.725557328000036 ], [ 21.87055397000006, 12.729722977000051 ], [ 21.868890762000035, 12.734724044000075 ], [ 21.859445572000027, 12.752779007000072 ], [ 21.841943741000023, 12.777223587000037 ], [ 21.831945420000068, 12.78833198500007 ], [ 21.830278397000029, 12.793333054000072 ], [ 21.82777595500005, 12.797498703000031 ], [ 21.828348159000029, 12.801492691000021 ], [ 21.834722519000024, 12.807500839000056 ], [ 21.839166641000077, 12.809999466000022 ], [ 21.841665268000042, 12.814722061000055 ], [ 21.843889237000042, 12.826944351000066 ], [ 21.85083198600006, 12.848611831000028 ], [ 21.851945877000048, 12.854722976000062 ], [ 21.854444504000071, 12.859445572000027 ], [ 21.861665725000023, 12.881109238000022 ], [ 21.868333816000074, 12.895833969000023 ], [ 21.870000839000056, 12.901388169000029 ], [ 21.872499466000022, 12.905832291000024 ], [ 21.876111984000033, 12.916666031000034 ], [ 21.888612747000025, 12.946943283000053 ], [ 21.89361000100007, 12.95638847400005 ], [ 21.895277024000052, 12.961942672000077 ], [ 21.910001755000053, 12.989999771000043 ], [ 21.922498703000031, 13.005834580000055 ], [ 21.936666489000061, 13.019445419000022 ], [ 21.939165116000027, 13.024168015000043 ], [ 21.941389083000047, 13.036390304000065 ], [ 21.940832138000076, 13.048887253000032 ], [ 21.943334580000055, 13.053609848000065 ], [ 21.950834274000044, 13.059999466000022 ], [ 21.956945419000078, 13.067777634000038 ], [ 21.960832596000046, 13.071111679000069 ], [ 21.972501755000053, 13.087499619000027 ], [ 21.981389999000044, 13.09250068700004 ], [ 21.989442825000026, 13.098333358000048 ], [ 22.000276565000036, 13.108610153000029 ], [ 22.003332138000076, 13.112501145000067 ], [ 22.010557175000031, 13.126665115000037 ], [ 22.020555497000032, 13.137777328000027 ], [ 22.029443741000023, 13.14277839600004 ], [ 22.059446335000075, 13.146387100000027 ], [ 22.075555802000054, 13.150835038000025 ], [ 22.079999924000049, 13.153333664000058 ], [ 22.087499619000027, 13.159723282000073 ], [ 22.103887558000054, 13.171110153000029 ], [ 22.108888626000066, 13.172777176000068 ], [ 22.131944657000076, 13.176942825000026 ], [ 22.136945724000043, 13.178609848000065 ], [ 22.146387100000027, 13.182779312000036 ], [ 22.159723282000073, 13.190279007000072 ], [ 22.169168472000024, 13.202222824000046 ], [ 22.178056717000061, 13.221666336000055 ], [ 22.18305397000006, 13.231111526000063 ], [ 22.186109543000043, 13.234998703000031 ], [ 22.195554734000041, 13.246667862000038 ], [ 22.210554123000065, 13.259721756000033 ], [ 22.214998245000061, 13.262220382000066 ], [ 22.222501755000053, 13.26861000100007 ], [ 22.228887558000054, 13.27638816800004 ], [ 22.231111526000063, 13.281110763000072 ], [ 22.234445572000027, 13.285001755000053 ], [ 22.241109848000065, 13.292222976000062 ], [ 22.245000839000056, 13.295278549000045 ], [ 22.251111984000033, 13.303335190000041 ], [ 22.258890152000049, 13.310556412000039 ], [ 22.261945724000043, 13.314443588000074 ], [ 22.269445419000078, 13.320833206000032 ], [ 22.285001755000053, 13.340555191000021 ], [ 22.29416847300007, 13.358610153000029 ], [ 22.295557022000025, 13.371667862000038 ], [ 22.295278549000045, 13.377779007000072 ], [ 22.293611526000063, 13.382776260000071 ], [ 22.288610458000051, 13.391389847000028 ], [ 22.26527595500005, 13.417222977000051 ], [ 22.247220993000042, 13.441110611000056 ], [ 22.239442825000026, 13.454168320000065 ], [ 22.230554581000035, 13.478887558000054 ], [ 22.227499008000052, 13.49555397000006 ], [ 22.227499008000052, 13.508890152000049 ], [ 22.229444504000071, 13.536390305000054 ], [ 22.22861290000003, 13.554998398000066 ], [ 22.226667404000068, 13.566946030000054 ], [ 22.224721909000039, 13.571943283000053 ], [ 22.21722221400006, 13.584722519000024 ], [ 22.209722519000024, 13.591390610000076 ], [ 22.19750022900007, 13.600557327000047 ], [ 22.179723739000053, 13.611387253000032 ], [ 22.163610458000051, 13.623609543000043 ], [ 22.153612137000039, 13.634443283000053 ], [ 22.148332596000046, 13.649442673000067 ], [ 22.143056869000077, 13.658056259000034 ], [ 22.138334274000044, 13.660276413000076 ], [ 22.133890152000049, 13.669721603000028 ], [ 22.132501602000048, 13.687776566000025 ], [ 22.140001297000026, 13.716112137000039 ], [ 22.140554429000076, 13.723054886000057 ], [ 22.138612747000025, 13.72805595400007 ], [ 22.133611679000069, 13.736665726000069 ], [ 22.126943589000064, 13.743890762000035 ], [ 22.115556716000071, 13.753610611000056 ], [ 22.11222267200003, 13.757501602000048 ], [ 22.086942673000067, 13.774999618000038 ], [ 22.084444046000044, 13.779165268000042 ], [ 22.103887558000054, 13.802778244000024 ], [ 22.198331833000054, 13.922498703000031 ], [ 22.230276108000055, 13.962778091000075 ], [ 22.238332749000051, 13.968332291000024 ], [ 22.275835037000036, 13.986112594000076 ], [ 22.281667709000033, 13.98694419800006 ], [ 22.286111831000028, 13.989442825000026 ], [ 22.291944504000071, 13.990556717000061 ], [ 22.305276871000046, 13.998056412000039 ], [ 22.314443588000074, 14.009721756000033 ], [ 22.319723129000067, 14.011667251000063 ], [ 22.325555801000064, 14.012498856000036 ], [ 22.344720841000026, 14.013334274000044 ], [ 22.350557327000047, 14.014444351000066 ], [ 22.355001450000032, 14.016942978000031 ], [ 22.362501144000078, 14.023332596000046 ], [ 22.37083244300004, 14.028890610000076 ], [ 22.389722824000046, 14.045000076000065 ], [ 22.396665573000064, 14.052221298000063 ], [ 22.407499314000063, 14.054998398000066 ], [ 22.434446335000075, 14.051668167000059 ], [ 22.444444657000076, 14.062776566000025 ], [ 22.450555801000064, 14.070833206000032 ], [ 22.45305442800003, 14.075555802000054 ], [ 22.462499619000027, 14.087221145000058 ], [ 22.473890304000065, 14.096944809000036 ], [ 22.476945877000048, 14.10083198500007 ], [ 22.485277176000068, 14.106389999000044 ], [ 22.499723434000032, 14.112501145000067 ], [ 22.500001908000058, 14.112546921000046 ], [ 22.522779465000042, 14.116388321000045 ], [ 22.529443741000023, 14.116666794000025 ], [ 22.552499771000043, 14.12083244300004 ], [ 22.554998398000066, 14.125555039000062 ], [ 22.558610916000077, 14.136388779000072 ], [ 22.559720993000042, 14.142499924000049 ], [ 22.566946030000054, 14.164163590000044 ], [ 22.566667556000027, 14.170278549000045 ], [ 22.560277939000059, 14.203889847000028 ], [ 22.559167862000038, 14.215833664000058 ], [ 22.555276871000046, 14.231943131000037 ], [ 22.550279617000058, 14.234167099000047 ], [ 22.543333053000026, 14.234724045000064 ], [ 22.511667251000063, 14.240278244000024 ], [ 22.500001908000058, 14.241426467000053 ], [ 22.484651566000025, 14.242933273000062 ], [ 22.472776413000076, 14.246389389000058 ], [ 22.46639060900003, 14.247220993000042 ], [ 22.456666946000041, 14.252222061000055 ], [ 22.454168320000065, 14.254999161000057 ], [ 22.451665878000028, 14.259443283000053 ], [ 22.448331832000065, 14.263055801000064 ], [ 22.44388771000007, 14.272222519000024 ], [ 22.433889389000058, 14.302778244000024 ], [ 22.434446335000075, 14.309720993000042 ], [ 22.438611984000033, 14.319723129000067 ], [ 22.441667557000073, 14.323610306000035 ], [ 22.449445725000032, 14.329999923000059 ], [ 22.454442978000031, 14.331666946000041 ], [ 22.463335037000036, 14.336668015000043 ], [ 22.46722221300007, 14.339998245000061 ], [ 22.469720840000036, 14.344720840000036 ], [ 22.46944618200007, 14.35083198600006 ], [ 22.464166641000077, 14.359445572000027 ], [ 22.454168320000065, 14.37055397000006 ], [ 22.449167251000063, 14.379167557000073 ], [ 22.447500228000024, 14.384164810000073 ], [ 22.445554733000051, 14.421388626000066 ], [ 22.446664810000073, 14.435277939000059 ], [ 22.446664810000073, 14.467779160000077 ], [ 22.445554733000051, 14.479722977000051 ], [ 22.441946030000054, 14.489442825000026 ], [ 22.434446335000075, 14.496110916000077 ], [ 22.399999618000038, 14.513055802000054 ], [ 22.389444351000066, 14.516942978000031 ], [ 22.384721756000033, 14.519445419000022 ], [ 22.38138771000007, 14.523054123000065 ], [ 22.380277634000038, 14.528612137000039 ], [ 22.380834580000055, 14.535554886000057 ], [ 22.384164811000062, 14.554166794000025 ], [ 22.388887405000048, 14.571111679000069 ], [ 22.39388847400005, 14.580278397000029 ], [ 22.403333664000058, 14.59222221400006 ], [ 22.412221908000049, 14.597223282000073 ], [ 22.41611290000003, 14.600278854000067 ], [ 22.444166184000039, 14.613611221000042 ], [ 22.46639060900003, 14.626111984000033 ], [ 22.469999314000063, 14.629446029000064 ], [ 22.500001908000058, 14.637437820000059 ], [ 22.702501297000026, 14.691389084000036 ], [ 22.701665879000075, 14.701944351000066 ], [ 22.699998856000036, 14.706945420000068 ], [ 22.695554734000041, 14.716112137000039 ], [ 22.686666488000071, 14.740835190000041 ], [ 22.682222366000076, 14.750276565000036 ], [ 22.681112290000044, 14.755834580000055 ], [ 22.677499771000043, 14.765832901000067 ], [ 22.670278549000045, 14.804998398000066 ], [ 22.668889999000044, 14.823057175000031 ], [ 22.667776108000055, 14.848054886000057 ], [ 22.670557022000025, 14.859445571000037 ], [ 22.676942825000026, 14.867223739000053 ], [ 22.680833816000074, 14.87055397000006 ], [ 22.689722061000055, 14.875555038000073 ], [ 22.71388816800004, 14.885557175000031 ], [ 22.727499008000052, 14.893056870000066 ], [ 22.738889694000022, 14.902776718000041 ], [ 22.741945267000062, 14.906667709000033 ], [ 22.743055344000027, 14.912778855000056 ], [ 22.743612290000044, 14.919721604000074 ], [ 22.741945267000062, 14.937776566000025 ], [ 22.744165420000058, 14.957498551000072 ], [ 22.74583244300004, 14.963056564000055 ], [ 22.753332138000076, 14.976945877000048 ], [ 22.767221451000069, 14.991388321000045 ], [ 22.786111832000074, 15.015001297000026 ], [ 22.815279007000072, 15.041944504000071 ], [ 22.832223892000059, 15.060277939000059 ], [ 22.836111068000037, 15.063333511000053 ], [ 22.84222221400006, 15.071390152000049 ], [ 22.846109390000038, 15.074445724000043 ], [ 22.849164963000078, 15.078332901000067 ], [ 22.868333817000064, 15.09444618200007 ], [ 22.877222061000055, 15.099443435000069 ], [ 22.892778397000029, 15.104722976000062 ], [ 22.916666031000034, 15.107778549000045 ], [ 22.926668167000059, 15.111387253000032 ], [ 22.935834885000077, 15.116109848000065 ], [ 22.938333512000042, 15.12083244300004 ], [ 22.941110611000056, 15.132501602000048 ], [ 22.941389084000036, 15.145555496000043 ], [ 22.943056106000029, 15.158609390000038 ], [ 22.948610306000035, 15.167222976000062 ], [ 22.958055497000032, 15.178888321000045 ], [ 22.961942673000067, 15.182222367000065 ], [ 22.974443436000058, 15.198057175000031 ], [ 22.976945877000048, 15.202501297000026 ], [ 22.980554581000035, 15.213335037000036 ], [ 22.984724045000064, 15.231111527000053 ], [ 22.986665726000069, 15.258611679000069 ], [ 22.991388321000045, 15.283334732000071 ], [ 22.992467880000049, 15.293565750000027 ], [ 22.994085312000038, 15.30885124200006 ], [ 22.997220993000042, 15.335832596000046 ], [ 22.998334885000077, 15.35639 ], [ 22.998056412000039, 15.368890762000035 ], [ 22.996110916000077, 15.379999160000068 ], [ 22.989442825000026, 15.400835038000025 ], [ 22.986112594000076, 15.410554886000057 ], [ 22.980833053000026, 15.41889 ], [ 22.974443436000058, 15.426668167000059 ], [ 22.938055038000073, 15.460554123000065 ], [ 22.932779312000036, 15.468889237000042 ], [ 22.923055649000048, 15.48722267100004 ], [ 22.919443131000037, 15.509164810000073 ], [ 22.919721603000028, 15.522222519000024 ], [ 22.921388626000066, 15.534723282000073 ], [ 22.925279617000058, 15.545557022000025 ], [ 22.937223434000032, 15.561944961000052 ], [ 22.94527626100006, 15.568609237000032 ], [ 22.962778091000075, 15.578611374000047 ], [ 22.972223282000073, 15.583055496000043 ], [ 22.988889695000069, 15.593610763000072 ], [ 23.00777626100006, 15.602777481000032 ], [ 23.015832901000067, 15.608888626000066 ], [ 23.034166336000055, 15.625555039000062 ], [ 23.050554275000025, 15.651388169000029 ], [ 23.064443589000064, 15.66555595400007 ], [ 23.079721450000022, 15.678335190000041 ], [ 23.108610153000029, 15.70638847400005 ], [ 23.118158341000026, 15.710294723000061 ], [ 23.14361000100007, 15.711111068000037 ], [ 23.170278549000045, 15.710554123000065 ], [ 23.21722221400006, 15.704442978000031 ], [ 23.230001450000032, 15.701944352000055 ], [ 23.244443893000039, 15.701112748000071 ], [ 23.305555344000027, 15.686944961000052 ], [ 23.329721451000069, 15.683610916000077 ], [ 23.356943131000037, 15.681665421000048 ], [ 23.38138771000007, 15.684999466000022 ], [ 23.403612137000039, 15.689165116000027 ], [ 23.414445877000048, 15.692499161000057 ], [ 23.433889389000058, 15.700834274000044 ], [ 23.451387406000038, 15.712221146000047 ], [ 23.468889236000052, 15.721387863000075 ], [ 23.479166031000034, 15.72583198500007 ], [ 23.489999771000043, 15.72833442700005 ], [ 23.521665573000064, 15.737779617000058 ], [ 23.531667709000033, 15.741666794000025 ], [ 23.554166794000025, 15.74583244300004 ], [ 23.564165115000037, 15.749723434000032 ], [ 23.597223282000073, 15.75666618300005 ], [ 23.608888626000066, 15.758333206000032 ], [ 23.66333198600006, 15.757501602000048 ], [ 23.698331833000054, 15.753889084000036 ], [ 23.755277634000038, 15.750276566000025 ], [ 23.793889999000044, 15.749166489000061 ], [ 23.806943893000039, 15.746667862000038 ], [ 23.864999771000043, 15.730554581000035 ], [ 23.936666488000071, 15.712778091000075 ], [ 23.945833206000032, 15.707777023000062 ], [ 23.956388473000061, 15.703332901000067 ], [ 23.96722221400006, 15.699445725000032 ], [ 23.979166031000034, 15.696390152000049 ], [ 23.991388321000045, 15.69527626100006 ], [ 23.997980118000044, 15.698659897000027 ], [ 23.999605179000071, 15.698709488000077 ], [ 24.0, 19.499999999000067 ], [ 24.000001907000069, 20.000001907000069 ], [ 25.000001907000069, 20.000001907000069 ], [ 25.000001907000069, 22.000001908000058 ], [ 37.99999893100005, 22.000001908000058 ], [ 38.0, 22.0 ], [ 38.5, 20.0 ], [ 38.500000782000029, 19.999998749000042 ] ] ] ] } }
]
}
