"",0,66.000003,36.650013
"",0,66.333337,35.083346
"",0,66.400004,29.606678
"",0,66.327203,29.630778
"",0,66.227222,29.753289
"",0,66.179439,29.816667
"",0,66.143917,29.888861
"",0,66.126956,29.907486
"",0,65.995578,29.965825
"",0,65.808333,30.099461
"",0,65.719178,30.131386
"",0,65.713908,30.130583
"",0,65.664978,30.121136
"",0,65.691103,30.021667
"",0,65.661133,29.871669
"",0,65.638042,29.719206
"",0,65.566078,29.856953
"",0,65.547228,29.823894
"",0,65.514453,29.743397
"",0,65.475833,29.732800
"",0,65.435267,29.741167
"",0,65.341933,29.744789
"",0,65.271108,29.610894
"",0,65.248878,29.593650
"",0,65.239425,29.600353
"",0,65.223325,29.649517
"",0,65.225850,29.722281
"",0,65.225561,29.797572
"",0,65.203333,29.867303
"",0,65.187464,29.867592
"",0,65.148900,29.820614
"",0,65.125811,29.871725
"",0,65.120825,29.871208
"",0,65.097503,29.793686
"",0,65.090283,29.712328
"",0,65.068336,29.634522
"",0,65.051092,29.618136
"",0,65.007203,29.603703
"",0,64.948017,29.628689
"",0,64.933292,29.632586
"",0,64.869692,29.692583
"",0,64.822481,29.752347
"",0,64.792744,29.827639
"",0,64.795567,30.048086
"",0,64.782494,30.123750
"",0,64.770003,30.142083
"",0,64.735278,30.116247
"",0,64.667789,30.207928
"",0,64.650256,30.196528
"",0,64.622478,30.150300
"",0,64.596122,30.020525
"",0,64.581094,29.972333
"",0,64.565281,29.991814
"",0,64.553036,29.986950
"",0,64.530806,29.996689
"",0,64.511667,30.011358
"",0,64.483061,30.084586
"",0,64.472747,30.086247
"",0,64.405536,30.049011
"",0,64.369153,30.116283
"",0,64.348872,30.194322
"",0,64.323050,30.346939
"",0,64.254969,30.489064
"",0,64.240017,30.564067
"",0,64.215839,30.574614
"",0,64.184736,30.546386
"",0,64.170000,30.547972
"",0,64.111100,30.602411
"",0,64.086647,30.614453
"",0,64.064975,30.606311
"",0,64.014956,30.547986
"",0,63.898889,30.331928
"",0,63.839164,30.282150
"",0,63.810514,30.235225
"",0,63.787764,30.161028
"",0,63.752756,30.002147
"",0,63.743617,29.993308
"",0,63.729467,30.003336
"",0,63.608917,30.214414
"",0,63.579667,30.286067
"",0,63.556375,30.368597
"",0,63.516358,30.437450
"",0,63.473614,30.504436
"",0,63.418842,30.739986
"",0,63.360519,30.889419
"",0,63.303872,30.986131
"",0,63.255861,31.135272
"",0,63.226639,31.211933
"",0,63.201142,31.245853
"",0,63.186933,31.252786
"",0,63.166364,31.254733
"",0,63.101658,31.292236
"",0,63.076908,31.365008
"",0,62.995142,31.505581
"",0,62.973033,31.523900
"",0,62.953322,31.527797
"",0,62.912472,31.584181
"",0,62.806356,31.465069
"",0,62.741378,31.416144
"",0,62.634692,31.360633
"",0,62.592464,31.305917
"",0,62.507719,31.257278
"",0,62.483597,31.186461
"",0,62.333878,30.961186
"",0,62.271364,30.832044
"",0,62.151094,30.608711
"",0,61.989114,30.338167
"",0,61.808281,30.079833
"",0,61.648017,29.825108
"",0,61.614383,29.812903
"",0,61.507692,29.625378
"",0,61.491592,29.548717
"",0,61.433258,29.447622
"",0,60.550000,27.816667
"",0,60.216667,27.466667
"",0,60.199722,27.293333
"",0,60.133346,26.550143
"",0,60.133333,26.550000
"",0,59.883333,25.866667
"",0,59.883291,25.866945
"",0,59.866667,25.975000
"",0,59.611667,27.636667
"",0,59.610566,27.639865
"",0,59.478601,28.015833
"",0,59.474993,28.026388
"",0,59.472216,28.031942
"",0,59.463884,28.042498
"",0,59.461939,28.051943
"",0,59.453325,28.076109
"",0,59.436106,28.109442
"",0,59.423052,28.123888
"",0,59.418055,28.127775
"",0,59.406939,28.147776
"",0,59.404993,28.157221
"",0,59.397776,28.170275
"",0,59.389437,28.180830
"",0,59.375826,28.193888
"",0,59.369440,28.195276
"",0,59.363329,28.193609
"",0,59.358049,28.190832
"",0,59.352839,28.189268
"",0,59.343527,28.183012
"",0,59.328238,28.179323
"",0,59.312535,28.171696
"",0,59.309782,28.170359
"",0,59.297655,28.158232
"",0,59.290804,28.143995
"",0,59.288694,28.121851
"",0,59.283949,28.095491
"",0,59.282892,28.074926
"",0,59.279203,28.055418
"",0,59.277094,28.030111
"",0,59.279563,28.012332
"",0,59.279730,28.011129
"",0,59.284475,27.995840
"",0,59.287111,27.971060
"",0,59.285532,27.951551
"",0,59.279203,27.932043
"",0,59.275511,27.920446
"",0,59.271822,27.912539
"",0,59.262857,27.908319
"",0,59.253897,27.905684
"",0,59.245459,27.896719
"",0,59.235968,27.886175
"",0,59.228060,27.879847
"",0,59.218569,27.879847
"",0,59.205915,27.879320
"",0,59.198008,27.877211
"",0,59.184828,27.867193
"",0,59.170065,27.856123
"",0,59.160021,27.844538
"",0,59.156008,27.841344
"",0,59.150000,27.833333
"",0,59.115166,27.813981
"",0,59.114325,27.813514
"",0,59.051634,27.778686
"",0,59.050547,27.777224
"",0,59.045832,27.773054
"",0,59.041666,27.767500
"",0,59.036943,27.763613
"",0,59.020548,27.741663
"",0,59.015833,27.737497
"",0,59.010279,27.734720
"",0,58.998049,27.731939
"",0,58.991182,27.728006
"",0,58.987772,27.724997
"",0,58.985826,27.704996
"",0,58.979715,27.689997
"",0,58.979433,27.689440
"",0,58.969439,27.669718
"",0,58.964159,27.653608
"",0,58.947214,27.619997
"",0,58.938883,27.609163
"",0,58.935549,27.602499
"",0,58.931383,27.596945
"",0,58.907770,27.550001
"",0,58.902216,27.533888
"",0,58.881937,27.493608
"",0,58.877214,27.489439
"",0,58.852495,27.457220
"",0,58.838327,27.444998
"",0,58.834162,27.439440
"",0,58.829439,27.435553
"",0,58.823885,27.432775
"",0,58.819162,27.428610
"",0,58.818065,27.428116
"",0,58.813608,27.426107
"",0,58.801386,27.423052
"",0,58.794443,27.423052
"",0,58.788332,27.421663
"",0,58.781382,27.421663
"",0,58.776102,27.424166
"",0,58.769716,27.425554
"",0,58.764162,27.429441
"",0,58.736940,27.442495
"",0,58.718325,27.446108
"",0,58.711382,27.446108
"",0,58.686937,27.451109
"",0,58.653879,27.466665
"",0,58.647776,27.467775
"",0,58.642221,27.470274
"",0,58.635271,27.470274
"",0,58.623049,27.472773
"",0,58.611940,27.478052
"",0,58.599718,27.480276
"",0,58.594156,27.483053
"",0,58.588045,27.484163
"",0,58.582499,27.486662
"",0,58.576387,27.488050
"",0,58.570833,27.490553
"",0,58.566103,27.494440
"",0,58.559992,27.495829
"",0,58.548883,27.500834
"",0,58.536661,27.503332
"",0,58.531107,27.505835
"",0,58.526384,27.509722
"",0,58.520830,27.512499
"",0,58.509722,27.517500
"",0,58.503611,27.518610
"",0,58.498331,27.521387
"",0,58.485826,27.523890
"",0,58.468599,27.530001
"",0,58.456385,27.532499
"",0,58.454485,27.533449
"",0,58.450830,27.535276
"",0,58.413881,27.542498
"",0,58.401434,27.542251
"",0,58.399996,27.542223
"",0,58.393885,27.543612
"",0,58.373323,27.543333
"",0,58.367231,27.541949
"",0,58.361663,27.539165
"",0,58.356943,27.534998
"",0,58.352777,27.529722
"",0,58.348047,27.525831
"",0,58.339991,27.515001
"",0,58.328882,27.496664
"",0,58.320833,27.485830
"",0,58.307215,27.472773
"",0,58.303049,27.467218
"",0,58.297777,27.464720
"",0,58.283884,27.464441
"",0,58.271662,27.466940
"",0,58.266108,27.469442
"",0,58.253885,27.471941
"",0,58.226381,27.471663
"",0,58.213884,27.474165
"",0,58.208605,27.476664
"",0,58.203608,27.480551
"",0,58.183054,27.506388
"",0,58.178331,27.510279
"",0,58.174166,27.515554
"",0,58.154993,27.530832
"",0,58.150827,27.536112
"",0,58.146105,27.539999
"",0,58.141939,27.545000
"",0,58.136942,27.548887
"",0,58.132769,27.554167
"",0,58.129435,27.560556
"",0,58.125269,27.565832
"",0,58.122492,27.573610
"",0,58.119158,27.580000
"",0,58.115701,27.589694
"",0,58.113611,27.595552
"",0,58.109995,27.601942
"",0,58.107218,27.609720
"",0,58.105272,27.618887
"",0,58.101664,27.625277
"",0,58.096102,27.641108
"",0,58.094156,27.650000
"",0,58.087214,27.663054
"",0,58.078882,27.673330
"",0,58.074167,27.677221
"",0,58.067774,27.678331
"",0,58.062494,27.680830
"",0,58.056383,27.679441
"",0,58.050829,27.676664
"",0,58.038607,27.660830
"",0,58.032495,27.646387
"",0,58.027773,27.642496
"",0,58.023967,27.642346
"",0,58.020830,27.642221
"",0,58.012499,27.652498
"",0,58.010523,27.663782
"",0,58.010504,27.665371
"",0,58.010439,27.670675
"",0,58.005831,27.689718
"",0,58.000834,27.697218
"",0,57.996943,27.698332
"",0,57.988886,27.698053
"",0,57.975824,27.694162
"",0,57.971659,27.692495
"",0,57.965273,27.686663
"",0,57.957844,27.683333
"",0,57.949160,27.679441
"",0,57.940271,27.677496
"",0,57.936106,27.677496
"",0,57.929438,27.681108
"",0,57.926386,27.683886
"",0,57.921663,27.692495
"",0,57.919992,27.698053
"",0,57.913607,27.731939
"",0,57.907213,27.746107
"",0,57.904161,27.758333
"",0,57.902216,27.773333
"",0,57.898882,27.784723
"",0,57.891108,27.805277
"",0,57.888887,27.809999
"",0,57.887636,27.811875
"",0,57.883883,27.817499
"",0,57.881105,27.820276
"",0,57.873880,27.823053
"",0,57.869715,27.822775
"",0,57.865831,27.821112
"",0,57.860567,27.814264
"",0,57.860277,27.813887
"",0,57.848330,27.785276
"",0,57.839159,27.753054
"",0,57.835550,27.734995
"",0,57.833333,27.716283
"",0,57.831667,27.702219
"",0,57.831257,27.693771
"",0,57.830278,27.673609
"",0,57.830553,27.642496
"",0,57.828608,27.629999
"",0,57.825556,27.619165
"",0,57.824167,27.605833
"",0,57.822771,27.577223
"",0,57.819445,27.551390
"",0,57.817774,27.545832
"",0,57.815271,27.543612
"",0,57.811380,27.553888
"",0,57.808603,27.566942
"",0,57.806101,27.570833
"",0,57.802774,27.572775
"",0,57.799997,27.569445
"",0,57.796389,27.551390
"",0,57.793329,27.540556
"",0,57.788332,27.532499
"",0,57.786386,27.527777
"",0,57.782597,27.523628
"",0,57.780550,27.521387
"",0,57.773325,27.516390
"",0,57.764444,27.514166
"",0,57.749437,27.517778
"",0,57.742769,27.521666
"",0,57.739992,27.524443
"",0,57.730272,27.530832
"",0,57.722765,27.526667
"",0,57.716387,27.513056
"",0,57.711939,27.488886
"",0,57.709436,27.469442
"",0,57.702494,27.441385
"",0,57.693048,27.417219
"",0,57.690546,27.413054
"",0,57.687494,27.409998
"",0,57.684992,27.405832
"",0,57.678049,27.400831
"",0,57.663324,27.391665
"",0,57.658884,27.390833
"",0,57.656786,27.392381
"",0,57.652491,27.395552
"",0,57.644999,27.406664
"",0,57.636385,27.414999
"",0,57.632769,27.414164
"",0,57.628046,27.405554
"",0,57.624712,27.403051
"",0,57.620829,27.403887
"",0,57.617495,27.405832
"",0,57.613611,27.405832
"",0,57.609995,27.403330
"",0,57.607500,27.399443
"",0,57.604441,27.388330
"",0,57.603926,27.384657
"",0,57.600000,27.356665
"",0,57.598604,27.351389
"",0,57.595545,27.348055
"",0,57.591105,27.346945
"",0,57.586939,27.346945
"",0,57.583055,27.348055
"",0,57.576105,27.351664
"",0,57.568605,27.353331
"",0,57.558329,27.358053
"",0,57.555038,27.359150
"",0,57.547495,27.361666
"",0,57.544161,27.363333
"",0,57.535639,27.372061
"",0,57.532735,27.413607
"",0,57.533333,27.416667
"",0,57.533333,27.550000
"",0,57.517738,27.543762
"",0,57.509439,27.542223
"",0,57.497217,27.541945
"",0,57.493608,27.542776
"",0,57.480272,27.550276
"",0,57.472940,27.545259
"",0,57.469156,27.543333
"",0,57.456659,27.531389
"",0,57.449434,27.526388
"",0,57.446694,27.525757
"",0,57.445826,27.525557
"",0,57.441660,27.525557
"",0,57.438601,27.527224
"",0,57.430826,27.538332
"",0,57.420549,27.562498
"",0,57.419443,27.569166
"",0,57.415827,27.580278
"",0,57.413324,27.593332
"",0,57.411379,27.598886
"",0,57.410547,27.606386
"",0,57.403048,27.644720
"",0,57.397493,27.660555
"",0,57.394999,27.664164
"",0,57.390551,27.673609
"",0,57.379992,27.687220
"",0,57.365274,27.710276
"",0,57.349436,27.740831
"",0,57.343607,27.755835
"",0,57.334719,27.783609
"",0,57.333605,27.789999
"",0,57.327801,27.811065
"",0,57.303244,27.860178
"",0,57.302217,27.861109
"",0,57.293596,27.864837
"",0,57.183333,27.833333
"",0,57.140022,27.781359
"",0,57.100000,27.733333
"",0,57.083333,27.750000
"",0,57.082998,27.749832
"",0,57.016667,27.716667
"",0,57.004316,27.741368
"",0,57.000000,27.750000
"",0,56.933333,27.733333
"",0,56.924871,27.707947
"",0,56.916667,27.683333
"",0,56.904167,27.680833
"",0,56.845523,27.669105
"",0,56.833333,27.666667
"",0,56.866667,27.833333
"",0,56.854668,27.881828
"",0,56.826617,27.995206
"",0,56.751667,27.901667
"",0,56.722849,27.943135
"",0,56.683333,28.000000
"",0,56.655234,28.009366
"",0,56.596508,28.028942
"",0,56.590548,28.036386
"",0,56.581385,28.053610
"",0,56.579493,28.060214
"",0,56.566667,28.150000
"",0,56.555771,28.149072
"",0,56.540858,28.147802
"",0,56.540834,28.147776
"",0,56.523607,28.120554
"",0,56.517496,28.114164
"",0,56.513613,28.112219
"",0,56.505556,28.113054
"",0,56.498880,28.116388
"",0,56.496386,28.119997
"",0,56.484995,28.131666
"",0,56.479990,28.138887
"",0,56.471376,28.147776
"",0,56.469087,28.151090
"",0,56.466387,28.154997
"",0,56.463327,28.157499
"",0,56.448603,28.179998
"",0,56.440546,28.189718
"",0,56.436655,28.190554
"",0,56.432215,28.189440
"",0,56.424166,28.185831
"",0,56.409628,28.183333
"",0,56.366667,28.183333
"",0,56.330174,28.207662
"",0,56.322687,28.212653
"",0,56.310039,28.221085
"",0,56.308306,28.222240
"",0,56.301231,28.226957
"",0,56.289438,28.233053
"",0,56.282213,28.235552
"",0,56.271105,28.237776
"",0,56.262774,28.237497
"",0,56.255274,28.233332
"",0,56.252779,28.229441
"",0,56.250002,28.226542
"",0,56.246660,28.223051
"",0,56.238886,28.212217
"",0,56.229715,28.202776
"",0,56.218050,28.201662
"",0,56.210550,28.203329
"",0,56.204252,28.203189
"",0,56.200000,28.200000
"",0,56.173333,28.144722
"",0,56.151554,28.165206
"",0,56.150000,28.166667
"",0,56.149379,28.168311
"",0,56.148607,28.168608
"",0,56.135271,28.185274
"",0,56.132769,28.188887
"",0,56.128603,28.197775
"",0,56.120829,28.208330
"",0,56.114717,28.222773
"",0,56.111383,28.233332
"",0,56.111940,28.231108
"",0,56.107500,28.239996
"",0,56.100275,28.251665
"",0,56.097490,28.254168
"",0,56.090548,28.257502
"",0,56.086657,28.255835
"",0,56.082499,28.255835
"",0,56.078051,28.273611
"",0,56.074442,28.284445
"",0,56.071939,28.287779
"",0,56.066103,28.293055
"",0,56.062769,28.294722
"",0,56.052729,28.307302
"",0,56.049997,28.312498
"",0,56.051104,28.339998
"",0,56.054712,28.349722
"",0,56.056940,28.353609
"",0,56.061548,28.358500
"",0,56.066668,28.362497
"",0,56.067214,28.362739
"",0,56.078608,28.367777
"",0,56.092218,28.378332
"",0,56.094713,28.382219
"",0,56.096102,28.387499
"",0,56.096659,28.415831
"",0,56.098604,28.442495
"",0,56.098330,28.449999
"",0,56.102221,28.481386
"",0,56.105272,28.520834
"",0,56.104998,28.535555
"",0,56.102777,28.568056
"",0,56.102299,28.571159
"",0,56.101664,28.575277
"",0,56.100275,28.613886
"",0,56.098330,28.628054
"",0,56.093607,28.646109
"",0,56.088884,28.653887
"",0,56.073610,28.656107
"",0,56.066942,28.659441
"",0,56.063883,28.661943
"",0,56.060823,28.664721
"",0,56.055826,28.671663
"",0,56.043886,28.691107
"",0,56.038332,28.697218
"",0,56.032213,28.702219
"",0,56.025553,28.705553
"",0,56.018053,28.707220
"",0,56.005274,28.705553
"",0,55.997774,28.707220
"",0,55.994158,28.708052
"",0,55.987261,28.712469
"",0,55.981661,28.716387
"",0,55.974710,28.719717
"",0,55.962412,28.731272
"",0,55.958330,28.738050
"",0,55.953882,28.754168
"",0,55.951149,28.779221
"",0,55.950548,28.784723
"",0,55.951105,28.784723
"",0,55.949160,28.791666
"",0,55.948796,28.793821
"",0,55.952939,28.826972
"",0,55.961867,28.847135
"",0,55.969080,28.850519
"",0,55.973047,28.857500
"",0,55.976099,28.860830
"",0,55.980547,28.869444
"",0,55.986940,28.889719
"",0,56.000551,28.943331
"",0,56.006945,28.963884
"",0,56.023882,29.006109
"",0,56.028330,29.021944
"",0,56.030550,29.033335
"",0,56.032770,29.059443
"",0,56.028451,29.091223
"",0,56.021936,29.139166
"",0,56.015551,29.172220
"",0,56.006945,29.199720
"",0,55.990831,29.228609
"",0,55.985826,29.245550
"",0,55.984720,29.275557
"",0,55.982492,29.298887
"",0,55.977213,29.324167
"",0,55.970843,29.349648
"",0,55.969713,29.354166
"",0,55.964159,29.389166
"",0,55.961382,29.401388
"",0,55.957773,29.412218
"",0,55.951105,29.425276
"",0,55.933054,29.449442
"",0,55.924166,29.456942
"",0,55.920832,29.458609
"",0,55.914713,29.463610
"",0,55.911104,29.464441
"",0,55.908327,29.461943
"",0,55.906656,29.442495
"",0,55.902773,29.419443
"",0,55.898882,29.410276
"",0,55.895830,29.406942
"",0,55.893620,29.405286
"",0,55.892496,29.404444
"",0,55.887615,29.403354
"",0,55.884165,29.403887
"",0,55.871660,29.403051
"",0,55.863054,29.401663
"",0,55.854441,29.398886
"",0,55.846941,29.394442
"",0,55.838045,29.384722
"",0,55.824316,29.375163
"",0,55.819433,29.372989
"",0,55.784371,29.364488
"",0,55.783884,29.365000
"",0,55.770548,29.371386
"",0,55.761667,29.379164
"",0,55.756388,29.385832
"",0,55.751390,29.392775
"",0,55.747217,29.402498
"",0,55.742220,29.419165
"",0,55.735552,29.432219
"",0,55.727770,29.442495
"",0,55.713773,29.455687
"",0,55.733486,29.528828
"",0,55.756978,29.600447
"",0,55.790781,29.712175
"",0,55.806247,29.756867
"",0,55.833747,29.854269
"",0,55.838144,29.887132
"",0,55.842768,29.897219
"",0,55.846102,29.906942
"",0,55.851664,29.928331
"",0,55.854441,29.946386
"",0,55.856371,29.972517
"",0,55.855829,30.000002
"",0,55.854441,30.014723
"",0,55.852221,30.028887
"",0,55.841433,30.076277
"",0,55.839991,30.082220
"",0,55.837770,30.086386
"",0,55.831823,30.113752
"",0,55.833169,30.125275
"",0,55.841155,30.176606
"",0,55.842218,30.179163
"",0,55.846941,30.186941
"",0,55.848879,30.191664
"",0,55.859720,30.206106
"",0,55.864443,30.214163
"",0,55.865831,30.219442
"",0,55.866106,30.226107
"",0,55.864161,30.240274
"",0,55.861940,30.244440
"",0,55.857775,30.244162
"",0,55.854441,30.245829
"",0,55.852221,30.250002
"",0,55.839159,30.286943
"",0,55.828882,30.330000
"",0,55.826365,30.350584
"",0,55.824717,30.366667
"",0,55.822222,30.379999
"",0,55.819696,30.387812
"",0,55.812494,30.424997
"",0,55.805552,30.466665
"",0,55.799997,30.489717
"",0,55.798052,30.493330
"",0,55.795549,30.496664
"",0,55.791941,30.497217
"",0,55.787775,30.495275
"",0,55.784477,30.492823
"",0,55.779308,30.518317
"",0,55.755814,30.563006
"",0,55.716853,30.625453
"",0,55.673881,30.663269
"",0,55.662223,30.672012
"",0,55.664995,30.691942
"",0,55.664713,30.699163
"",0,55.662210,30.712217
"",0,55.658602,30.722773
"",0,55.656382,30.726942
"",0,55.653605,30.730276
"",0,55.650270,30.731939
"",0,55.646662,30.732496
"",0,55.638330,30.731665
"",0,55.630274,30.731939
"",0,55.623323,30.733885
"",0,55.616388,30.736940
"",0,55.609995,30.740831
"",0,55.609133,30.741529
"",0,55.604166,30.745550
"",0,55.598879,30.752222
"",0,55.596659,30.756666
"",0,55.593607,30.768888
"",0,55.593882,30.782778
"",0,55.595545,30.794722
"",0,55.610281,30.830939
"",0,55.612497,30.836386
"",0,55.615549,30.846388
"",0,55.618601,30.863611
"",0,55.619158,30.876944
"",0,55.617769,30.893053
"",0,55.613054,30.910276
"",0,55.609339,30.917050
"",0,55.608332,30.918886
"",0,55.602571,30.926249
"",0,55.621667,30.931667
"",0,56.915917,31.166531
"",0,57.350000,32.550000
"",0,58.162955,34.478776
"",0,58.200000,34.566667
"",0,58.583335,35.816677
"",0,59.366669,35.983344
"",0,60.850002,35.616677
"",0,61.250002,36.650011
"",0,61.333334,37.300000
"",0,61.333336,37.300011
"",0,63.833336,36.433345
"",0,63.834507,36.432651
"",0,64.544778,36.003172
"",0,64.550000,36.000000
"",0,65.066670,35.166679
"",0,66.000003,36.650013