<?xml version="1.0" encoding="UTF-8"?>
<kml xmlns="http://www.opengis.net/kml/2.2" xmlns:gx="http://www.google.com/kml/ext/2.2" xmlns:kml="http://www.opengis.net/kml/2.2" xmlns:atom="http://www.w3.org/2005/Atom">
<Document>
	<name>SS-64.kml</name>
	<Style id="style05">
		<LineStyle>
			<color>ff000000</color>
			<width>2</width>
		</LineStyle>
		<PolyStyle>
			<color>afff00ff</color>
		</PolyStyle>
	</Style>
	<Style id="style02">
		<LineStyle>
			<color>ff000000</color>
			<width>2</width>
		</LineStyle>
		<PolyStyle>
			<color>afff00ff</color>
		</PolyStyle>
	</Style>
	<StyleMap id="stylemap_id139">
		<Pair>
			<key>normal</key>
			<styleUrl>#style211</styleUrl>
		</Pair>
		<Pair>
			<key>highlight</key>
			<styleUrl>#style012</styleUrl>
		</Pair>
	</StyleMap>
	<Style id="style09">
		<LineStyle>
			<color>ff000000</color>
			<width>2</width>
		</LineStyle>
		<PolyStyle>
			<color>afff00ff</color>
		</PolyStyle>
	</Style>
	<Style id="style002">
		<LineStyle>
			<color>ff000000</color>
			<width>2</width>
		</LineStyle>
		<PolyStyle>
			<color>afff00ff</color>
		</PolyStyle>
	</Style>
	<Style id="style04">
		<LineStyle>
			<color>ff000000</color>
			<width>2</width>
		</LineStyle>
		<PolyStyle>
			<color>afff00ff</color>
		</PolyStyle>
	</Style>
	<StyleMap id="stylemap_id13">
		<Pair>
			<key>normal</key>
			<styleUrl>#style81</styleUrl>
		</Pair>
		<Pair>
			<key>highlight</key>
			<styleUrl>#style011</styleUrl>
		</Pair>
	</StyleMap>
	<StyleMap id="stylemap_id131">
		<Pair>
			<key>normal</key>
			<styleUrl>#style162</styleUrl>
		</Pair>
		<Pair>
			<key>highlight</key>
			<styleUrl>#style05</styleUrl>
		</Pair>
	</StyleMap>
	<Style id="style01">
		<LineStyle>
			<color>ff000000</color>
			<width>2</width>
		</LineStyle>
		<PolyStyle>
			<color>afff00ff</color>
		</PolyStyle>
	</Style>
	<Style id="style03">
		<LineStyle>
			<color>ff000000</color>
			<width>2</width>
		</LineStyle>
		<PolyStyle>
			<color>afff00ff</color>
		</PolyStyle>
	</Style>
	<Style id="style013">
		<LineStyle>
			<color>ff000000</color>
			<width>2</width>
		</LineStyle>
		<PolyStyle>
			<color>afff00ff</color>
		</PolyStyle>
	</Style>
	<StyleMap id="stylemap_id130">
		<Pair>
			<key>normal</key>
			<styleUrl>#style19</styleUrl>
		</Pair>
		<Pair>
			<key>highlight</key>
			<styleUrl>#style08</styleUrl>
		</Pair>
	</StyleMap>
	<StyleMap id="stylemap_id132">
		<Pair>
			<key>normal</key>
			<styleUrl>#style90</styleUrl>
		</Pair>
		<Pair>
			<key>highlight</key>
			<styleUrl>#style02</styleUrl>
		</Pair>
	</StyleMap>
	<Style id="style113">
		<LineStyle>
			<color>ff000000</color>
			<width>2</width>
		</LineStyle>
		<PolyStyle>
			<color>afff00ff</color>
		</PolyStyle>
	</Style>
	<Style id="style211">
		<LineStyle>
			<color>ff000000</color>
			<width>2</width>
		</LineStyle>
		<PolyStyle>
			<color>afff00ff</color>
		</PolyStyle>
	</Style>
	<Style id="style06">
		<LineStyle>
			<color>ff000000</color>
			<width>2</width>
		</LineStyle>
		<PolyStyle>
			<color>afff00ff</color>
		</PolyStyle>
	</Style>
	<Style id="style90">
		<LineStyle>
			<color>ff000000</color>
			<width>2</width>
		</LineStyle>
		<PolyStyle>
			<color>afff00ff</color>
		</PolyStyle>
	</Style>
	<StyleMap id="stylemap_id1310">
		<Pair>
			<key>normal</key>
			<styleUrl>#style180</styleUrl>
		</Pair>
		<Pair>
			<key>highlight</key>
			<styleUrl>#style002</styleUrl>
		</Pair>
	</StyleMap>
	<Style id="style470">
		<LineStyle>
			<color>ff000000</color>
			<width>2</width>
		</LineStyle>
		<PolyStyle>
			<color>afff00ff</color>
		</PolyStyle>
	</Style>
	<Style id="style011">
		<LineStyle>
			<color>ff000000</color>
			<width>2</width>
		</LineStyle>
		<PolyStyle>
			<color>afff00ff</color>
		</PolyStyle>
	</Style>
	<Style id="style70">
		<LineStyle>
			<color>ff000000</color>
			<width>2</width>
		</LineStyle>
		<PolyStyle>
			<color>afff00ff</color>
		</PolyStyle>
	</Style>
	<Style id="style180">
		<LineStyle>
			<color>ff000000</color>
			<width>2</width>
		</LineStyle>
		<PolyStyle>
			<color>afff00ff</color>
		</PolyStyle>
	</Style>
	<StyleMap id="stylemap_id134">
		<Pair>
			<key>normal</key>
			<styleUrl>#style142</styleUrl>
		</Pair>
		<Pair>
			<key>highlight</key>
			<styleUrl>#style03</styleUrl>
		</Pair>
	</StyleMap>
	<Style id="style142">
		<LineStyle>
			<color>ff000000</color>
			<width>2</width>
		</LineStyle>
		<PolyStyle>
			<color>afff00ff</color>
		</PolyStyle>
	</Style>
	<Style id="style07">
		<LineStyle>
			<color>ff000000</color>
			<width>2</width>
		</LineStyle>
		<PolyStyle>
			<color>afff00ff</color>
		</PolyStyle>
	</Style>
	<Style id="style81">
		<LineStyle>
			<color>ff000000</color>
			<width>2</width>
		</LineStyle>
		<PolyStyle>
			<color>afff00ff</color>
		</PolyStyle>
	</Style>
	<StyleMap id="stylemap_id135">
		<Pair>
			<key>normal</key>
			<styleUrl>#style70</styleUrl>
		</Pair>
		<Pair>
			<key>highlight</key>
			<styleUrl>#style013</styleUrl>
		</Pair>
	</StyleMap>
	<StyleMap id="stylemap_id136">
		<Pair>
			<key>normal</key>
			<styleUrl>#style173</styleUrl>
		</Pair>
		<Pair>
			<key>highlight</key>
			<styleUrl>#style09</styleUrl>
		</Pair>
	</StyleMap>
	<StyleMap id="stylemap_id1312">
		<Pair>
			<key>normal</key>
			<styleUrl>#style470</styleUrl>
		</Pair>
		<Pair>
			<key>highlight</key>
			<styleUrl>#style04</styleUrl>
		</Pair>
	</StyleMap>
	<StyleMap id="stylemap_id138">
		<Pair>
			<key>normal</key>
			<styleUrl>#style1011</styleUrl>
		</Pair>
		<Pair>
			<key>highlight</key>
			<styleUrl>#style07</styleUrl>
		</Pair>
	</StyleMap>
	<Style id="style19">
		<LineStyle>
			<color>ff000000</color>
			<width>2</width>
		</LineStyle>
		<PolyStyle>
			<color>afff00ff</color>
		</PolyStyle>
	</Style>
	<Style id="style162">
		<LineStyle>
			<color>ff000000</color>
			<width>2</width>
		</LineStyle>
		<PolyStyle>
			<color>afff00ff</color>
		</PolyStyle>
	</Style>
	<Style id="style1011">
		<LineStyle>
			<color>ff000000</color>
			<width>2</width>
		</LineStyle>
		<PolyStyle>
			<color>afff00ff</color>
		</PolyStyle>
	</Style>
	<Style id="style20">
		<LineStyle>
			<color>ff000000</color>
			<width>2</width>
		</LineStyle>
		<PolyStyle>
			<color>afff00ff</color>
		</PolyStyle>
	</Style>
	<Style id="style012">
		<LineStyle>
			<color>ff000000</color>
			<width>2</width>
		</LineStyle>
		<PolyStyle>
			<color>afff00ff</color>
		</PolyStyle>
	</Style>
	<Style id="style08">
		<LineStyle>
			<color>ff000000</color>
			<width>2</width>
		</LineStyle>
		<PolyStyle>
			<color>afff00ff</color>
		</PolyStyle>
	</Style>
	<Style id="style173">
		<LineStyle>
			<color>ff000000</color>
			<width>2</width>
		</LineStyle>
		<PolyStyle>
			<color>afff00ff</color>
		</PolyStyle>
	</Style>
	<StyleMap id="stylemap_id133">
		<Pair>
			<key>normal</key>
			<styleUrl>#style113</styleUrl>
		</Pair>
		<Pair>
			<key>highlight</key>
			<styleUrl>#style06</styleUrl>
		</Pair>
	</StyleMap>
	<StyleMap id="stylemap_id137">
		<Pair>
			<key>normal</key>
			<styleUrl>#style20</styleUrl>
		</Pair>
		<Pair>
			<key>highlight</key>
			<styleUrl>#style01</styleUrl>
		</Pair>
	</StyleMap>
	<Folder>
		<name>Others</name>
		<open>1</open>
		<Placemark id="poly">
			<name>KZWY</name>
			<description>	
</description>
			<styleUrl>#stylemap_id1312</styleUrl>
			<Polygon id="poly_poly">
				<outerBoundaryIs>
					<LinearRing>
						<coordinates>
						-45,18.00000191,0
-53.0428209,18.00000191,0
-61.49999857,18.00000191,0
-60,20.00000191,0
-60,23.50000191,0
-60,30.05532014,0
-60,39,0
-67,39.00000191,0
-67,39.116667,0
-67,40.116667,0
-67,41,0
-67,41.116667,0
-67,41.61666679,0
-67,41.616667,0
-67,41.86666679,0
-60,43.60000038,0
-59.49273654,43.70877445,0
-58.83237976,43.85037928,0
-58.12518679,44.00262281,0
-57.40778709,44.15524294,0
-56.83891778,44.27785098,0
-56.63979074,44.32055116,0
-56.05166627,44.44666674,0
-55.53300735,44.54723262,0
-55.49630601,44.55416394,0
-55.39300305,44.57367346,0
-55.04377294,44.63962815,0
-54.82049187,44.68069308,0
-54.64981353,44.71208354,0
-54.53927405,44.73241351,0
-54.08695179,44.81345628,0
-54.06669925,44.8169969,0
-53.96235339,44.83523903,0
-53.65535484,44.88890965,0
-53.60634031,44.89721833,0
-53,45.00000191,0
-51,45.00000191,0
-46.83673477,45.00000191,0
-40,45.00000191,0
-40,35.15041629,0
-40,27.00000191,0
-40,22.30000114,0
-45,18.00000191,0
						</coordinates>
					</LinearRing>
				</outerBoundaryIs>
			</Polygon>
		</Placemark>
		<Placemark id="poly">
			<name>KZAK East</name>
			<description>	
</description>
			<styleUrl>#stylemap_id1312</styleUrl>
			<Polygon id="poly_poly">
				<outerBoundaryIs>
					<LinearRing>
						<coordinates>
						160.0000019,3.500001908,0
160.0000019,3.5,0
160.0000019,0,0
141.0000679,0,0
141.0000679,0,0
141.0000019,3.500000114,0
141.0000019,3.500001908,0
133.0000019,3.500001908,0
132.5333333,4,0
130.0000019,7.000001907,0
130.0000019,11.33775729,0
130.0000019,15.00828941,0
130.0000019,21.00000191,0
139.8247652,21.00000191,0
149.9239736,21.00000191,0
155.0000019,21.00000191,0
155.0000019,27.00000191,0
165.0000019,27.00000191,0
165.0000019,35.18680984,0
165.0000019,43.00000191,0
162.9168955,45.69970525,0
162.916666,45.70000267,0
168.0542428,46.81015244,0
180,49.39144327,0
180,49.39109626,0
180,40.00895442,0
180,29.90974597,0
180,19.99250524,0
180,10.07526452,0
180,3.500001908,0
170.0000019,3.500001908,0
160.0000019,3.500001908,0
						</coordinates>
					</LinearRing>
				</outerBoundaryIs>
			</Polygon>
		</Placemark>
		<Placemark id="poly">
			<name>KZAK West</name>
			<description>	
</description>
			<styleUrl>#stylemap_id1312</styleUrl>
			<Polygon id="poly_poly">
				<outerBoundaryIs>
					<LinearRing>
						<coordinates>
						-126.9333324,36.46666527,0
-125.8333321,35.50000191,0
-125.8333306,35.50000234,0
-125.8333302,35.50000191,0
-124.198975,35.99838164,0
-123.2841206,34.55387461,0
-122.9753121,34.08418309,0
-122.6071338,33.53119486,0
-122.3159554,33.08798879,0
-122.2796224,33.03195873,0
-121.956065,32.53299211,0
-121.3893418,31.64279347,0
-121.2493563,31.41983346,0
-121.208488,31.35438525,0
-121.0977009,31.17646742,0
-121.0625219,31.12021708,0
-121.0363719,31.07797643,0
-120.8333864,30.75008972,0
-120.8333606,30.75004813,0
-120.8333322,30.75000224,0
-120.833332,30.75000193,0
-120.833332,30.75000192,0
-120.8333321,30.75000191,0
-120.8333319,30.75000179,0
-120.8333319,30.75000177,0
-120.8333319,30.75000177,0
-120,30.00000191,0
-120,20.17447296,0
-120,10.16624838,0
-120,5.000001907,0
-120,3.500001908,0
-132.5809112,3.500001908,0
-145,3.500001908,0
-155,-5,0
-157,-5,0
-160,-5,0
-171,-5,0
-180,-5,0
-179.9999989,0.158023821,0
-179.9999968,10.07526454,0
-179.9999947,20.17447297,0
-179.9999926,30.27368141,0
-179.9999905,40.09993829,0
-179.9999885,49.40467328,0
-176.5666656,50.13333321,0
-167.8166656,51.39999962,0
-160,53.50000191,0
-153,56.00000191,0
-151.75,56.76666832,0
-149.338128,56.36766555,0
-146.3919241,55.79983374,0
-145.4727684,55.60137991,0
-143.7955385,55.22609829,0
-142.6056467,54.93657655,0
-140.9727058,54.52001146,0
-140.0145585,54.25979815,0
-139.3659825,54.0836581,0
-138.40899,53.79811527,0
-137.6438855,53.56982706,0
-137.2693776,53.45808318,0
-135,52.71666527,0
-133.75,51.00000191,0
-132.410632,50.42970511,0
-132.2868354,50.37699309,0
-131.4646712,50.0054862,0
-130.9253427,49.76178277,0
-130.8576253,49.73118367,0
-129.4390404,49.05481228,0
-129.4167882,49.04420262,0
-129.4157416,49.04370359,0
-128,48.33333397,0
-126.5006098,45.00135506,0
-126.8833332,41.25000191,0
-126.8999996,40.9833355,0
-127,40.85000038,0
-127,39.89999962,0
-127,37.50000191,0
-126.9333324,36.46666527,0
						</coordinates>
					</LinearRing>
				</outerBoundaryIs>
			</Polygon>
		</Placemark>
		<Placemark id="poly">
			<name>PAZA East</name>
			<description>	
</description>
			<styleUrl>#stylemap_id1312</styleUrl>
			<Polygon id="poly_poly">
				<outerBoundaryIs>
					<LinearRing>
						<coordinates>
						168.0542428,46.81015244,0
162.916666,45.70000267,0
159.0002219,50.08308779,0
159.0000019,50.08333397,0
159.0569752,50.1094376,0
160.5968016,50.81494497,0
162.0902421,51.46050161,0
163.4927525,52.03221074,0
163.6257615,52.08642956,0
163.9385975,52.20640196,0
164.9492234,52.59397646,0
165.2041248,52.69173098,0
165.5255137,52.80814491,0
166.1364315,53.02943239,0
166.4980834,53.16043046,0
166.9677044,53.32181225,0
167.5290559,53.51471657,0
167.8200976,53.61473094,0
169,54,0
169.6076278,54.41352402,0
170,54.67777778,0
170.0000216,54.67779281,0
170.1999978,54.81666427,0
170.2000027,54.81666756,0
170.7193136,55.14139627,0
171.6651043,55.73280578,0
173.1283203,56.5998154,0
174.5920832,57.40983437,0
174.7465194,57.4952965,0
175.3506166,57.80848584,0
175.9450116,58.11664513,0
176.0804618,58.18686819,0
176.5505245,58.41597331,0
177.390079,58.82516594,0
177.5610021,58.9084726,0
178.0370802,59.12659404,0
178.7033745,59.43186556,0
178.9074448,59.52536303,0
179.9986939,59.99943291,0
180,60.00000113,0
180,55.11227514,0
180,50.46958763,0
180,49.39144327,0
168.0542428,46.81015244,0
						</coordinates>
					</LinearRing>
				</outerBoundaryIs>
			</Polygon>
		</Placemark>
		<Placemark id="poly">
			<name>PAZA West</name>
			<description>	
</description>
			<styleUrl>#stylemap_id1312</styleUrl>
			<Polygon id="poly_poly">
				<outerBoundaryIs>
					<LinearRing>
						<coordinates>
						-179.9999885,49.40467328,0
-180.0,50.46666527,0
-180.0,55.11227514,0
-180.0,59.99998811,0
-180.0,60.00000191,0
-179.8932719,60.06645121,0
-179.786114,60.13281337,0
-179.6785239,60.19908782,0
-179.5704994,60.26527398,0
-179.4620382,60.33137126,0
-179.3531377,60.39737907,0
-179.2437958,60.46329681,0
-179.1340099,60.52912389,0
-179.0237778,60.5948597,0
-178.913097,60.66050362,0
-178.8019651,60.72605506,0
-178.6903798,60.79151338,0
-178.5783385,60.85687798,0
-178.4658389,60.92214821,0
-178.1915314,61.07514923,0
-178.0142147,61.18056664,0
-177.7516674,61.33665486,0
-177.0315669,61.72347098,0
-176.96721,61.75804158,0
-176.9605074,61.76178009,0
-176.952204,61.76610232,0
-176.8413296,61.82566068,0
-175.6218411,62.45860826,0
-174.479721,63.01873115,0
-173.4274043,63.5085606,0
-173.2840432,63.57180091,0
-173.1586967,63.62978088,0
-173.0234835,63.69020077,0
-172.8876937,63.75049266,0
-172.7513246,63.81065567,0
-172.6143733,63.87068892,0
-172.4768371,63.93059152,0
-172.3387132,63.99036256,0
-172.1999989,64.05000115,0
-169.0,65.00000191,0
-169.0,67.84111595,0
-169.0,68.00000191,0
-169.0,72.00000191,0
-169.0,87.63333321,0
-169.0,90.0,0
-160.1490207,90.0,0
-150.0498123,90.0,0
-141.0,90.0,0
-141.0,83.04432012,0
-141.0,77.94922396,0
-141.0,75.08989212,0
-141.0,72.00000191,0
-141.0,72.0,0
-141.0003106,68.80865747,0
-141.0006782,65.03196833,0
-141.0011292,60.39943886,0
-141.0005798,60.36666298,0
-140.9955581,60.30737641,0
-140.9887819,60.3059166,0
-140.9463806,60.29777718,0
-140.7869568,60.26999092,0
-140.5213928,60.22221565,0
-140.5077814,60.23796923,0
-140.5019531,60.24471474,0
-140.493042,60.25777626,0
-140.4719238,60.28388405,0
-140.4599915,60.29694557,0
-140.4530198,60.30667108,0
-139.9812469,60.1819458,0
-139.8124945,60.27169971,0
-139.7938843,60.28027535,0
-139.7716675,60.29249764,0
-139.6988831,60.3283329,0
-139.6860449,60.33539122,0
-139.1085671,60.35152927,0
-139.0748606,60.3521044,0
-139.0722198,60.31941605,0
-139.1990051,60.08827591,0
-139.0613098,59.99964142,0
-139.053833,59.99480438,0
-138.7986603,59.92464066,0
-138.7075043,59.90630722,0
-138.6795807,59.8453331,0
-138.6687775,59.80963898,0
-138.6263275,59.76855469,0
-138.0914099,59.49575982,0
-137.9465675,59.42111934,0
-137.6073914,59.24380493,0
-137.54216,59.1064148,0
-137.5000305,58.98538971,0
-137.5261078,58.90636063,0
-137.4517212,58.90835953,0
-137.4474356,58.91068611,0
-137.4458333,58.91055556,0
-137.2541667,59.0075,0
-137.2314498,59.01543846,0
-137.2074488,59.02263244,0
-137.1756439,59.03216553,0
-137.08461,59.06277847,0
-137.0631166,59.06998482,0
-137.036972,59.07875061,0
-136.9696655,59.1012497,0
-136.8767242,59.13616562,0
-136.8546595,59.14710857,0
-136.8287201,59.15997314,0
-136.7386178,59.16214396,0
-136.5844116,59.16585922,0
-136.5804609,59.16977667,0
-136.5758333,59.17,0
-136.5483032,59.20166378,0
-136.4896698,59.25980377,0
-136.4921951,59.26619653,0
-136.4957275,59.27513886,0
-136.469223,59.28408432,0
-136.4722748,59.3180275,0
-136.4726715,59.32202911,0
-136.4773407,59.37625122,0
-136.4771118,59.46583176,0
-136.4641064,59.46381874,0
-136.4273892,59.45813553,0
-136.4008333,59.45277778,0
-136.3955125,59.45320157,0
-136.3737488,59.44983292,0
-136.3724213,59.44961166,0
-136.3681946,59.4489708,0
-136.3624725,59.45038986,0
-136.3613129,59.45066834,0
-136.3606873,59.45080566,0
-136.3049774,59.46452713,0
-136.2997253,59.46925243,0
-136.2944444,59.47083333,0
-136.2696819,59.49627825,0
-136.2386255,59.52819055,0
-136.2398071,59.55941773,0
-136.3539124,59.59983444,0
-136.3393024,59.60348692,0
-136.290802,59.61561203,0
-136.2735596,59.61991501,0
-136.2653351,59.62197113,0
-136.2497253,59.62586212,0
-136.2387543,59.62861252,0
-136.2260429,59.63177556,0
-136.1722222,59.64194444,0
-135.9388889,59.66694444,0
-135.4830556,59.8,0
-135.3575,59.73888889,0
-135.3467983,59.73273384,0
-135.2527466,59.69827652,0
-135.2336731,59.69614029,0
-135.2198334,59.66277695,0
-135.1641388,59.62961197,0
-135.1623201,59.62853347,0
-135.1575775,59.62572098,0
-135.1386108,59.62444305,0
-135.1178284,59.62308502,0
-135.1126404,59.61960983,0
-135.0288849,59.5636673,0
-135.0286102,59.54410934,0
-135.0285339,59.53924942,0
-135.0275574,59.47475052,0
-135.0772705,59.45177841,0
-135.1010284,59.42752838,0
-134.9909267,59.38756687,0
-134.995175,59.38171044,0
-135.0305328,59.34635925,0
-134.9599152,59.28091812,0
-134.9484049,59.27950068,0
-134.7388916,59.25027657,0
-134.7141724,59.24610329,0
-134.6990132,59.24449174,0
-134.6791382,59.192276,0
-134.5755527,59.13650587,0
-134.5664062,59.13054848,0
-134.5527798,59.13121155,0
-134.4834137,59.13161087,0
-134.4471436,59.08922195,0
-134.3819122,59.0387764,0
-134.4071655,58.97922134,0
-134.3135223,58.96219635,0
-134.3165805,58.95703553,0
-134.3322144,58.93065202,0
-134.3365021,58.92341614,0
-134.3083344,58.90122223,0
-134.2581177,58.86102676,0
-134.2433926,58.85619703,0
-134.2216571,58.84906794,0
-133.9723816,58.76730728,0
-133.8405304,58.7294426,0
-133.7071381,58.61227799,0
-133.6907789,58.60253296,0
-133.6833191,58.59554482,0
-133.6274629,58.56476756,0
-133.6016541,58.55054665,0
-133.5788879,58.53972054,0
-133.5588989,58.52804756,0
-133.4299927,58.45916176,0
-133.4273625,58.45621826,0
-133.3773346,58.43055725,0
-133.3959638,58.42107976,0
-133.4615326,58.38772202,0
-133.4183597,58.34628604,0
-133.3611145,58.28055,0
-133.345765,58.27661195,0
-133.3454742,58.27633286,0
-133.2700348,58.22711182,0
-133.2209167,58.1902504,0
-133.2093658,58.1815567,0
-133.2001038,58.17461014,0
-133.1723633,58.15369415,0
-133.0701599,58.0003891,0
-132.8694458,57.8397789,0
-132.7511444,57.69602966,0
-132.660965,57.61677933,0
-132.5538025,57.49658203,0
-132.3699188,57.34980393,0
-132.2548443,57.21901219,0
-132.2486424,57.21072936,0
-132.3667993,57.0912338,0
-132.0453033,57.04511261,0
-132.0660048,56.99994973,0
-132.1236114,56.87366486,0
-131.8729401,56.80602646,0
-131.9009393,56.75348131,0
-131.8616873,56.70425328,0
-131.8354452,56.59958397,0
-131.5817277,56.61224931,0
-131.5798227,56.61154667,0
-131.5790803,56.61114111,0
-131.4721375,56.55272293,0
-131.3198853,56.50027847,0
-131.3111725,56.49727631,0
-131.2975311,56.49255371,0
-131.2953949,56.49180603,0
-131.1736145,56.44958496,0
-131.1636895,56.44457147,0
-131.1444702,56.43471718,0
-131.124717,56.42488496,0
-131.0874939,56.40608215,0
-131.071526,56.40404556,0
-130.9659729,56.39058304,0
-130.9423065,56.38755417,0
-130.9228821,56.38508225,0
-130.9149933,56.38405609,0
-130.879776,56.37952805,0
-130.8598022,56.3769455,0
-130.786887,56.36753026,0
-130.7744446,56.36610603,0
-130.7558594,56.35305214,0
-130.7382586,56.33934573,0
-130.7369995,56.33855438,0
-130.7314148,56.3350296,0
-130.7203827,56.32810974,0
-130.7101593,56.32166672,0
-130.6862488,56.30658341,0
-130.6678314,56.29497147,0
-130.647644,56.28222275,0
-130.6456604,56.28097153,0
-130.6269226,56.26911163,0
-130.6234741,56.26694489,0
-130.6156158,56.26511002,0
-130.58255,56.25736237,0
-130.5709229,56.25461197,0
-130.5406952,56.24752808,0
-130.4680328,56.24311066,0
-130.4650237,56.23583295,0
-130.4564667,56.21513748,0
-130.4515076,56.20314026,0
-130.4496613,56.19863892,0
-130.4397278,56.17458344,0
-130.4261627,56.14161301,0
-130.4187663,56.14034633,0
-130.3502502,56.12861252,0
-130.3026268,56.11387885,0
-130.2463684,56.09647369,0
-130.2443211,56.09685178,0
-130.2301331,56.09947205,0
-130.1039429,56.12285996,0
-130.0980828,56.11617603,0
-130.0830231,56.09899902,0
-130.0648346,56.07822037,0
-130.0589142,56.07144547,0
-130.057663,56.0700264,0
-130.0544128,56.06630707,0
-130.036972,56.04636002,0
-130.0350342,56.04410934,0
-130.0142372,56.02028034,0
-130.0116425,56.01730728,0
-130.0036316,56.00811005,0
-130.0041046,56.00125122,0
-130.0041656,56.00094605,0
-130.0053558,55.99302673,0
-130.0124664,55.94680405,0
-130.0150909,55.92986298,0
-130.0151197,55.92967137,0
-130.0147782,55.91197205,0
-130.0039215,55.91197205,0
-130.0039215,55.9074707,0
-130.0836334,55.82175064,0
-130.1249237,55.80569458,0
-130.1525574,55.76633453,0
-130.1478882,55.71494293,0
-130.1117706,55.68294525,0
-130.1280212,55.58108521,0
-130.0899506,55.4980011,0
-130.0413055,55.45175171,0
-130.0211334,55.33794403,0
-129.9766998,55.30038834,0
-129.9741974,55.28194428,0
-130.1028595,55.19261169,0
-130.1461639,55.14286041,0
-130.1524658,55.1246376,0
-130.1809235,55.09127808,0
-130.1875763,55.0628624,0
-130.2733612,54.97397232,0
-130.3459778,54.91775131,0
-130.3548987,54.91259619,0
-130.3597107,54.90804482,0
-130.366394,54.90499306,0
-130.3722229,54.90082741,0
-130.3898874,54.89237741,0
-130.4227448,54.8733902,0
-130.454422,54.85130692,0
-130.4802704,54.83669281,0
-130.568222,54.79216766,0
-130.6115105,54.78544739,0
-130.628891,54.78274918,0
-130.6590881,54.76308441,0
-130.6416824,54.75004603,0
-130.6257477,54.73810959,0
-130.628199,54.72687337,0
-130.6286621,54.72475052,0
-130.6212016,54.71484769,0
-130.6182594,54.70979118,0
-132.5833333,54.66666667,0
-132.7006092,54.65925612,0
-132.7009141,54.65923686,0
-133.1586804,54.57330777,0
-133.2128779,54.56277499,0
-133.6032381,54.48691224,0
-134.0187208,54.40616715,0
-134.1201881,54.38560057,0
-134.6790222,54.27232953,0
-134.7956801,54.24868396,0
-134.8482481,54.2378291,0
-136.0,54.00000191,0
-135.0,52.71666527,0
-137.2693776,53.45808318,0
-137.6438855,53.56982706,0
-138.40899,53.79811527,0
-139.3659825,54.0836581,0
-140.0145585,54.25979815,0
-140.9727058,54.52001146,0
-142.6056467,54.93657655,0
-143.7955385,55.22609829,0
-145.4727684,55.60137991,0
-146.3919241,55.79983374,0
-149.338128,56.36766555,0
-151.75,56.76666832,0
-153.0,56.00000191,0
-160.0,53.50000191,0
-167.8166656,51.39999962,0
-176.5666656,50.13333321,0
-179.9999885,49.40467328
						</coordinates>
					</LinearRing>
				</outerBoundaryIs>
			</Polygon>
		</Placemark>
	</Folder>
</Document>
</kml>
