{
"type": "FeatureCollection",
"name": "India_coast_SVD",
"crs": { "type": "name", "properties": { "name": "urn:ogc:def:crs:OGC:1.3:CRS84" } },
"features": [
{ "type": "Feature", "properties": { "id": null, "name": "coastplus100", "id_2": null }, "geometry": { "type": "MultiPolygon", "coordinates": [ [ [ [ 92.83110648297469, 17.696083796604153 ], [ 92.780962662189722, 17.773852357591508 ], [ 92.778460662189687, 17.778315768161516 ], [ 92.745929083459828, 17.851636865067633 ], [ 92.610890007457641, 18.02816231234652 ], [ 92.479108871030377, 18.289314390031425 ], [ 92.474958871030424, 18.299904291841891 ], [ 92.454083958133381, 18.381455156828196 ], [ 92.283202691061689, 18.462992400585236 ], [ 92.02896907671628, 18.649950630490771 ], [ 91.991737076716447, 18.683240325381707 ], [ 91.856892867155409, 18.818836911212788 ], [ 91.850224867155404, 18.826384304961813 ], [ 91.77891759713583, 18.922985524286773 ], [ 91.746029874039081, 18.950072022580461 ], [ 91.662410874039125, 19.021427052894996 ], [ 91.472116278684908, 19.226680020431566 ], [ 91.46242588833195, 19.235430869537868 ], [ 91.455756888331891, 19.242699424488123 ], [ 91.444451377776531, 19.256498036500979 ], [ 91.404992234186039, 19.299018729886772 ], [ 91.398889234185944, 19.307397197265157 ], [ 91.391685024937345, 19.320884926230402 ], [ 91.342305139233162, 19.381116317999325 ], [ 91.336187139233203, 19.389499044276647 ], [ 91.26554698663206, 19.494938922859038 ], [ 91.254422986632008, 19.513085434578237 ], [ 91.231571319765408, 19.558672057269153 ], [ 91.177909490376507, 19.59662840432318 ], [ 91.175407490376486, 19.598865925968873 ], [ 91.073263372851713, 19.698607013582365 ], [ 91.059362372851723, 19.713431257441094 ], [ 90.893628405792427, 19.922770111550609 ], [ 90.888074405792409, 19.931150713593524 ], [ 90.81849776899162, 20.046674263854278 ], [ 90.743225768991692, 20.184823216920346 ], [ 90.74248574250953, 20.186268484507359 ], [ 90.718076815649866, 20.216642903433204 ], [ 90.707791815649756, 20.230336289580336 ], [ 90.657574422938723, 20.301656878732953 ], [ 90.627800521886073, 20.292228324449429 ], [ 90.620018521886109, 20.290262275024702 ], [ 90.241864355764335, 20.237607355705837 ], [ 90.222989355764412, 20.237048466705122 ], [ 90.157264824733645, 20.242847459104084 ], [ 90.028415230290463, 20.196425025431793 ], [ 89.72637733203544, 20.144578580805256 ], [ 89.690320326892405, 20.144747446133568 ], [ 89.519171489204993, 20.099624578546432 ], [ 89.51195348920514, 20.098502987957104 ], [ 89.470769224908793, 20.09445479980559 ], [ 89.332340751925273, 20.065343274642455 ], [ 89.289844751925244, 20.058609844262918 ], [ 89.284931593533358, 20.057838485328372 ], [ 89.277714593533446, 20.056715906617253 ], [ 89.212314444681965, 20.053187401069149 ], [ 88.947681540364641, 19.997140770798779 ], [ 88.914066540364715, 19.993775882075031 ], [ 88.844597208607141, 19.992209163412877 ], [ 88.798713787505761, 19.980301064759146 ], [ 88.772376787505678, 19.9763544630108 ], [ 88.688472892582965, 19.965841772358058 ], [ 88.674572892582887, 19.964439251649061 ], [ 88.500204506237225, 19.962185244785722 ], [ 88.461596175107957, 19.882213666247043 ], [ 88.263948540434484, 19.625696350892831 ], [ 88.231934950500118, 19.598072551236484 ], [ 88.111197353328109, 19.412410415323716 ], [ 88.073432353328258, 19.36657261664757 ], [ 87.984862760577826, 19.267682052637866 ], [ 87.932432760577754, 19.213770485736472 ], [ 87.798477802434007, 19.102719715963719 ], [ 87.779007394709069, 19.071078821697306 ], [ 87.585462508188229, 18.856140107674015 ], [ 87.581846508188207, 18.852782567628104 ], [ 87.371297218826015, 18.68702022193181 ], [ 87.135110031331493, 18.556194067017422 ], [ 87.129555031331591, 18.553672957807766 ], [ 87.119179555096338, 18.550225711328654 ], [ 86.960373354324418, 18.471663458538018 ], [ 86.943985354324539, 18.464658617451313 ], [ 86.824474567876265, 18.418782504815098 ], [ 86.718624567876191, 18.382618905907005 ], [ 86.640711584902959, 18.358047210717245 ], [ 86.501276584902953, 18.317678337861086 ], [ 86.341965457411277, 18.280160645707401 ], [ 86.236843100892187, 18.24910401247358 ], [ 86.22746519052653, 18.246283881978048 ], [ 86.225875883665552, 18.245270240012744 ], [ 86.211152369348468, 18.233082987919186 ], [ 86.211597760210083, 18.232442918293042 ], [ 86.207413634535826, 18.229784361228631 ], [ 86.206066768662737, 18.22887322836867 ], [ 86.195248632628932, 18.219917846660248 ], [ 86.137629897986159, 18.171249115276002 ], [ 86.114024444013523, 18.136085580286917 ], [ 86.086476521057605, 18.096362325930482 ], [ 86.07507852105762, 18.080447020554391 ], [ 86.062789492527372, 18.063522035057527 ], [ 86.036681492527421, 18.028051955871756 ], [ 85.884711449880115, 17.859091337442656 ], [ 85.83732553332581, 17.797030156576479 ], [ 85.774145212177146, 17.719399812294629 ], [ 85.629140212177219, 17.552033001143116 ], [ 85.572207849954012, 17.489648992043225 ], [ 85.518045186972174, 17.433302913710616 ], [ 85.491561298644754, 17.404954423542808 ], [ 85.491519266416958, 17.404895273308465 ], [ 85.305153602700145, 17.186695759074013 ], [ 85.294319602700099, 17.176073972563668 ], [ 85.250510595761327, 17.134674376655649 ], [ 85.224417595761366, 17.110906743513723 ], [ 84.989370281873107, 16.932403561965096 ], [ 84.984915281873029, 16.929605689808717 ], [ 84.814343763334378, 16.835786888653747 ], [ 84.809063763334521, 16.833267841907634 ], [ 84.700034142591605, 16.786083984778205 ], [ 84.676104044605779, 16.756640680098105 ], [ 84.631930044605667, 16.704403341442642 ], [ 84.610079127101955, 16.679093687701524 ], [ 84.502016127102053, 16.556459782116381 ], [ 84.189266153343254, 16.281380803323156 ], [ 84.171505153343134, 16.269352277453002 ], [ 84.087085940820685, 16.215787439842039 ], [ 84.035693940820721, 16.185288033796414 ], [ 83.901207890276737, 16.113500270497752 ], [ 83.895928890276778, 16.110982006232863 ], [ 83.89300079590582, 16.109628280399196 ], [ 83.869760027821343, 16.046242162453581 ], [ 83.731045438483392, 15.760317550418923 ], [ 83.537312171013298, 15.505762245064945 ], [ 83.296017433184531, 15.292515871208161 ], [ 83.193249433184505, 15.218143203112213 ], [ 82.984722336082982, 15.089389479273514 ], [ 82.96000333608302, 15.076519474978596 ], [ 82.945427795144411, 15.069020436747939 ], [ 82.857933795144305, 15.024537875912745 ], [ 82.82985305421532, 15.010587314808225 ], [ 82.737613054215473, 14.965822685326627 ], [ 82.631489594441774, 14.918752813789917 ], [ 82.620381594441611, 14.914275909590254 ], [ 82.609579272062902, 14.909965246018873 ], [ 82.567083272063059, 14.893175588908807 ], [ 82.51905993985612, 14.875037908663248 ], [ 82.349061939855972, 14.813749429018644 ], [ 82.34286274180613, 14.811557819688819 ], [ 82.243355388886343, 14.683735330448881 ], [ 82.011890985213014, 14.480088114579413 ], [ 81.849605587092015, 14.383789428336447 ], [ 81.837289732372781, 14.244525621568661 ], [ 81.898821959188268, 14.006459542415154 ], [ 81.901049959188398, 13.988696897613844 ], [ 81.906502703227162, 13.926282973576381 ], [ 81.946485815223284, 13.802863506631628 ], [ 81.958707815223292, 13.756554925449949 ], [ 81.995262726921652, 13.576535689800565 ], [ 81.997215726921567, 13.562936724765045 ], [ 82.013395906189359, 13.336385999999168 ], [ 82.013395906189359, 13.334163999999147 ], [ 81.994138755745979, 13.086876132798006 ], [ 81.970243755745997, 12.934221474646714 ], [ 81.922134654092972, 12.730856599740362 ], [ 81.921603209156174, 12.711985460493668 ], [ 81.918552209156175, 12.668911950681988 ], [ 81.867462508330121, 12.365131701389522 ], [ 81.862457508330024, 12.346491096401087 ], [ 81.854651753168596, 12.318430325267144 ], [ 81.827978753168637, 12.225767854009078 ], [ 81.806140022179122, 12.15587314498533 ], [ 81.739200022179133, 11.957421830971015 ], [ 81.641705945957426, 11.728038567213746 ], [ 81.620327945957513, 11.686811522823684 ], [ 81.544836466206092, 11.556303162708749 ], [ 81.542334466206029, 11.552403361367618 ], [ 81.517288586213567, 11.514527572883642 ], [ 81.491419255777672, 11.476555325826393 ], [ 81.507516333781666, 11.321343521075274 ], [ 81.508259905237239, 11.314009220477649 ], [ 81.509937905237152, 11.297073721320796 ], [ 81.517732045773457, 11.155577180539005 ], [ 81.518282045773475, 11.106970281977011 ], [ 81.518385906189309, 11.08861 ], [ 81.518385906189309, 11.072774999999165 ], [ 81.518173659531541, 11.046525259791764 ], [ 81.517059659531583, 10.977631030253589 ], [ 81.514998490553381, 10.917974399434131 ], [ 81.514174490553401, 10.902412825832833 ], [ 81.511702054357983, 10.88649736537678 ], [ 81.511717906189375, 10.886109999999171 ], [ 81.511717906189375, 10.845551999999255 ], [ 81.50903690965481, 10.807837734550985 ], [ 81.514923480748621, 10.651493810035255 ], [ 81.523631579172687, 10.503450118751681 ], [ 81.522590836057958, 10.503390176280172 ], [ 81.528105906189438, 10.390832999999276 ], [ 81.528105906189438, 10.380275999999212 ], [ 81.525939167735828, 10.296228138802171 ], [ 81.521224167735795, 10.204814471480315 ], [ 81.488710502187985, 9.954051460728298 ], [ 81.417890114913817, 9.710977109017586 ], [ 81.416211114913793, 9.706525097204564 ], [ 81.278623771475026, 9.425766764469573 ], [ 81.108717998883449, 9.200071167125694 ], [ 81.110959914915739, 9.174411363477301 ], [ 80.515842780986603, 9.174411363477301 ], [ 80.239557578200348, 8.620891426627249 ], [ 80.22940110902978, 8.600557691796471 ], [ 80.229021117067703, 8.599797897924629 ], [ 79.687309422003651, 7.51540250470127 ], [ 79.602771859139992, 7.497798384875525 ], [ 79.479880606972216, 7.500059178860269 ], [ 79.405304426441646, 7.387486886281822 ], [ 79.40223742644153, 7.383310878917873 ], [ 79.211001936754656, 7.165558128219589 ], [ 78.984798365689684, 6.984198357154696 ], [ 78.864015269473853, 6.917989812966572 ], [ 78.719287302748612, 6.820284567592297 ], [ 78.503266558526349, 6.696861100165929 ], [ 78.380454999341396, 6.649300055513718 ], [ 78.284512205136267, 6.588521976477068 ], [ 77.980489779384712, 6.471113933394664 ], [ 77.659414708225384, 6.415224984410849 ], [ 77.333607716016061, 6.423020622160835 ], [ 77.283604716015958, 6.429154335560168 ], [ 77.16179423652386, 6.448705878905435 ], [ 77.132345236523861, 6.45456034829974 ], [ 77.014532590421538, 6.48247347889837 ], [ 77.003408590421657, 6.485540562217136 ], [ 76.944087927996051, 6.503089199120156 ], [ 76.797710927995965, 6.549365350470468 ], [ 76.378910910102647, 6.74965544942306 ], [ 76.307529910102616, 6.797031061812452 ], [ 76.201899971132391, 6.873248357128632 ], [ 76.147440971132497, 6.915876705337737 ], [ 76.103384607107344, 6.951586996956352 ], [ 76.08811060710724, 6.964404349975486 ], [ 76.042647418724613, 7.00413648318973 ], [ 76.018778406915416, 7.022013396692982 ], [ 76.007105406915457, 7.031208923191607 ], [ 75.996390363667047, 7.039721305152783 ], [ 75.957785363667071, 7.070648923474991 ], [ 75.814504203292643, 7.199742570628463 ], [ 75.783392203292706, 7.231223300372663 ], [ 75.662727224263975, 7.367469324118487 ], [ 75.649669716134255, 7.38394662211594 ], [ 75.545254346018297, 7.513528916542157 ], [ 75.503266053574464, 7.567890112741494 ], [ 75.479300570150045, 7.600277614548746 ], [ 75.402394383568534, 7.701809285212533 ], [ 75.380729996507611, 7.724123388138096 ], [ 75.197848561694698, 7.948687759558442 ], [ 75.056864943024209, 8.2013683956837 ], [ 75.054113889697348, 8.209295351094418 ], [ 75.052680821326945, 8.211537646181062 ], [ 74.961005821326921, 8.390234534784465 ], [ 74.924163532956229, 8.466807293888472 ], [ 74.876953532956279, 8.571723660124539 ], [ 74.861438722947824, 8.606265307600248 ], [ 74.823590884385396, 8.697761892127899 ], [ 74.784146884385336, 8.801822604171363 ], [ 74.766345531760948, 8.851126145184798 ], [ 74.757465531761085, 8.876998388525537 ], [ 74.74875609319318, 8.903078319906157 ], [ 74.745414093193034, 8.913370219694459 ], [ 74.735389052555504, 8.94534443394206 ], [ 74.722602052555501, 8.987625058918731 ], [ 74.698049444681828, 9.077993073734708 ], [ 74.689993444681761, 9.111363258123616 ], [ 74.666412217845561, 9.227096365492683 ], [ 74.662521217845679, 9.250448750023406 ], [ 74.655505614464687, 9.296582143755872 ], [ 74.652178614464788, 9.320764006546648 ], [ 74.648841362496341, 9.345027699705538 ], [ 74.646282100763457, 9.364495545509264 ], [ 74.643215100763328, 9.388955278585692 ], [ 74.634157358070098, 9.483076098918897 ], [ 74.633808120041152, 9.488270927209955 ], [ 74.63349902354885, 9.490108337070302 ], [ 74.590142224924563, 9.639491661768911 ], [ 74.585640639272938, 9.6513613244051 ], [ 74.580249344768845, 9.673567654708535 ], [ 74.574863730178961, 9.69211691611728 ], [ 74.538892875040048, 9.787398930705685 ], [ 74.502738955036207, 9.869554574122423 ], [ 74.407901376286006, 10.077745571573473 ], [ 74.351357087217551, 10.21877888601824 ], [ 74.334694087217656, 10.266640076241236 ], [ 74.310229481544653, 10.34284895732053 ], [ 74.297457481544683, 10.386247989084058 ], [ 74.280441481663019, 10.458695867720458 ], [ 74.279279042724298, 10.458403341413506 ], [ 74.270765407329847, 10.491546052513517 ], [ 74.26310801138429, 10.512066208735501 ], [ 74.121207819288784, 10.744381696223751 ], [ 74.116202819288759, 10.754407985656174 ], [ 74.111557378920125, 10.764418793616795 ], [ 73.925670229756292, 10.944056483990796 ], [ 73.922328229756332, 10.947960304567212 ], [ 73.743773323980378, 11.201338292173121 ], [ 73.616347369422613, 11.482967519310842 ], [ 73.610244369422659, 11.500780871886832 ], [ 73.590557675421351, 11.568773025408943 ], [ 73.541570322755305, 11.662775160214023 ], [ 73.520573561216764, 11.704503680265626 ], [ 73.422794561216762, 11.905876652960803 ], [ 73.379888438567747, 12.001987985071318 ], [ 73.355256455334185, 12.062326891307753 ], [ 73.300169560257601, 12.174006319722201 ], [ 73.294901443858535, 12.192393232355386 ], [ 73.291000194906772, 12.198593322430831 ], [ 73.288498194906722, 12.204163760835042 ], [ 73.178117407419933, 12.548183697869623 ], [ 73.139512407419986, 12.740095442709666 ], [ 73.137918233279493, 12.748122865225856 ], [ 73.100442474177328, 12.939303327382675 ], [ 73.050668341265975, 13.162891027553719 ], [ 73.027846730973181, 13.29450959331397 ], [ 72.952024784197164, 13.44495246231719 ], [ 72.874043284372945, 13.69224995663304 ], [ 72.873480262860554, 13.694715957179172 ], [ 72.822556006013045, 13.743649770368993 ], [ 72.81921400601307, 13.747557001778674 ], [ 72.669227822908539, 13.953458231395359 ], [ 72.663398822908533, 13.962939016168429 ], [ 72.533938878719638, 14.223554471199432 ], [ 72.524129576063459, 14.257746679357279 ], [ 72.442902924097254, 14.397693395134869 ], [ 72.400983245277487, 14.514750625004661 ], [ 72.329108434914318, 14.617458038601558 ], [ 72.204184280202128, 14.897694192377561 ], [ 72.202506280202044, 14.902705174622412 ], [ 72.190397555009824, 14.955848347476406 ], [ 72.15284352093731, 15.038227600539008 ], [ 72.038287493440208, 15.196102814517754 ], [ 72.000506493440227, 15.260802580488551 ], [ 71.892929692463952, 15.482650698591469 ], [ 71.82122160597217, 15.717484981472905 ], [ 71.798137776280029, 15.821485346775129 ], [ 71.758158502947339, 15.943615822253555 ], [ 71.753900734397092, 15.956814851231439 ], [ 71.735849734397092, 16.013619589788071 ], [ 71.674037151592358, 16.296341213684638 ], [ 71.672810618183618, 16.338202238729092 ], [ 71.67150191149419, 16.342128783203862 ], [ 71.628730911494188, 16.58941746222165 ], [ 71.616043168781772, 16.677778026339723 ], [ 71.599381168781761, 16.82346766481345 ], [ 71.596571149646167, 16.93198430899222 ], [ 71.582252791947923, 16.988253170603898 ], [ 71.566508545048222, 17.062107432373605 ], [ 71.554462904127718, 17.096557623412259 ], [ 71.558147354976683, 17.097749209840298 ], [ 71.48684166259595, 17.305873295729878 ], [ 71.475183662595938, 17.358746598050146 ], [ 71.472605544735273, 17.384593035061666 ], [ 71.47250409367804, 17.384830147853137 ], [ 71.380539639464871, 17.675812354562193 ], [ 71.346099066110128, 17.839438602180056 ], [ 71.31783316340632, 17.907185073642136 ], [ 71.315605163406332, 17.913593697765137 ], [ 71.278440757525829, 18.036809848498965 ], [ 71.273725757525796, 18.055183330561736 ], [ 71.232070281444194, 18.357622258516734 ], [ 71.178130975239498, 18.482262063874821 ], [ 71.176467975239547, 18.487551459393941 ], [ 71.113604508126485, 18.794893135414569 ], [ 71.115105818504588, 19.069738301772013 ], [ 71.107386716302216, 19.132820421671884 ], [ 71.106689899995004, 19.136084254115101 ], [ 71.063007237260393, 19.131497378311391 ], [ 70.933841237260282, 19.123921641446739 ], [ 70.671392099831451, 19.128247822163573 ], [ 70.412925454512148, 19.171748893681816 ], [ 70.400428454512166, 19.174834845289578 ], [ 70.213708305062127, 19.23229855007159 ], [ 70.113153305062269, 19.269592797112445 ], [ 70.089451118805755, 19.278581884412333 ], [ 69.946949118805662, 19.333822280878209 ], [ 69.849032324570416, 19.375310841253018 ], [ 69.800982324570356, 19.397455176362346 ], [ 69.681807926585378, 19.458163460233855 ], [ 69.671797926585484, 19.463770369525768 ], [ 69.633569656890529, 19.485844437572432 ], [ 69.444681656890452, 19.59819680872215 ], [ 69.303931375698554, 19.691802626898255 ], [ 69.249487375698678, 19.732128456824988 ], [ 69.188656254517724, 19.779410262440582 ], [ 69.107266254517668, 19.845760274110294 ], [ 69.08639300747322, 19.863060836950954 ], [ 68.954160007473291, 19.974472636776323 ], [ 68.914995479528514, 20.008532556575108 ], [ 68.899721479528495, 20.022246470295062 ], [ 68.865121509707379, 20.05422536622007 ], [ 68.835412509707339, 20.082488886994504 ], [ 68.721301465475392, 20.202774297659442 ], [ 68.600742465475435, 20.343697614049116 ], [ 68.543795537895036, 20.414203249985956 ], [ 68.522820410930663, 20.441744642749722 ], [ 68.435445015564937, 20.50361852481608 ], [ 68.417379015564961, 20.519575772331073 ], [ 68.365864316031278, 20.567084809664355 ], [ 68.272179824788552, 20.657270463905419 ], [ 68.228871236545473, 20.695556249649417 ], [ 68.220086465563242, 20.702154457569712 ], [ 68.12342146556314, 20.783077394091332 ], [ 68.008603487841668, 20.888916866091172 ], [ 67.972760487841668, 20.925296758210163 ], [ 67.96876792012101, 20.92936298850822 ], [ 67.890719920121043, 21.009111156828101 ], [ 67.813932990776252, 21.093341541537541 ], [ 67.716153990776178, 21.208565611628227 ], [ 67.695918624876512, 21.232436800326642 ], [ 67.650956994816582, 21.287968456519547 ], [ 67.629563994816479, 21.315646693273081 ], [ 67.576543978559869, 21.388469646522324 ], [ 67.562383978559922, 21.409144844774321 ], [ 67.411792076411643, 21.686324089584971 ], [ 67.39650207641148, 21.723142115168322 ], [ 67.350578351584929, 21.849498498759345 ], [ 67.347526351585032, 21.859248808765852 ], [ 67.283422175243061, 22.206374356929729 ], [ 67.281744175243162, 22.233891808867785 ], [ 67.284271411644994, 22.260979110580639 ], [ 67.246387712939182, 22.308377390296531 ], [ 67.119312012650084, 22.33509527736333 ], [ 67.112918012650255, 22.337057724987901 ], [ 66.758457835166709, 22.490802703836387 ], [ 66.671350390717492, 22.555198923038191 ], [ 66.656910471496658, 22.561620844545523 ], [ 66.631283471496545, 22.57604580681561 ], [ 66.359386806681528, 22.766876529077916 ], [ 66.135111583596085, 23.00475403666854 ], [ 66.093054104483286, 23.073893035984913 ], [ 65.965369124944587, 23.223745074910553 ], [ 65.957037124944591, 23.235207561081179 ], [ 65.793186714267136, 23.528302874403263 ], [ 65.689110966310821, 23.580624055404595 ], [ 65.684379966310715, 23.583710401026316 ], [ 65.454496387433224, 23.764570591146853 ], [ 65.432335221639718, 23.789693864717304 ], [ 65.425737671784773, 23.788634318945299 ], [ 65.369457903327529, 23.786416724303567 ], [ 65.184095760571367, 23.71887208919286 ], [ 65.130201760571367, 23.703977842331703 ], [ 64.810451060238037, 23.646268214147529 ], [ 64.804057060237994, 23.645704409193833 ], [ 64.456882855443808, 23.648617069690477 ], [ 64.117924643033192, 23.717825297059036 ], [ 64.092366643033259, 23.725693940525009 ], [ 63.96213647751236, 23.77875387785036 ], [ 63.711714769237865, 23.714415256342356 ], [ 63.493609689400245, 23.700506395746878 ], [ 63.950632901417727, 24.07472735773031 ], [ 64.071611529978952, 24.155908127284949 ], [ 64.206496428717116, 24.215814643240833 ], [ 64.350909681162719, 24.252533760331286 ], [ 64.500164112085528, 24.26489424592048 ], [ 67.283759972168468, 24.264598840789024 ], [ 67.288879000000122, 24.224995 ], [ 67.29248, 24.209717 ], [ 67.302475, 24.176105 ], [ 67.338043, 24.089718 ], [ 67.346375, 24.078331 ], [ 67.349991, 24.074718 ], [ 67.359421, 24.068886 ], [ 67.36499, 24.066387 ], [ 67.378036000000122, 24.062496 ], [ 67.425529, 24.059649 ], [ 67.461197, 24.065355 ], [ 67.486649, 24.045277 ], [ 67.500671, 23.974043 ], [ 67.53804, 23.938129 ], [ 67.53804, 23.934719 ], [ 67.514160000000118, 23.897495 ], [ 67.510544, 23.89388700000012 ], [ 67.506104, 23.89138400000013 ], [ 67.5, 23.890297 ], [ 67.493591, 23.890831 ], [ 67.519218, 23.876549 ], [ 67.563873, 23.870274 ], [ 67.614426, 23.846107 ], [ 67.625259, 23.811108 ], [ 67.630264, 23.802498 ], [ 67.634155000000135, 23.798885 ], [ 67.640549, 23.796944 ], [ 67.676376000000118, 23.792774000000122 ], [ 67.702484, 23.789997 ], [ 67.715271, 23.789440000000127 ], [ 67.838043, 23.810555000000136 ], [ 67.84082, 23.815830000000119 ], [ 67.844437, 23.828331000000105 ], [ 67.843872, 23.845276 ], [ 67.841095000000109, 23.86694 ], [ 67.843048, 23.885273 ], [ 67.845261, 23.89138400000013 ], [ 67.85054, 23.901386000000116 ], [ 67.857208000000128, 23.909996 ], [ 67.867477, 23.904442 ], [ 67.908325, 23.85944000000012 ], [ 67.923035, 23.833332 ], [ 67.947479, 23.807774 ], [ 68.012497, 23.76777600000014 ], [ 68.018051, 23.765274 ], [ 68.023605, 23.766388 ], [ 68.04776, 23.817497 ], [ 68.049988, 23.82333 ], [ 68.048599, 23.834164000000101 ], [ 68.034988, 23.894161 ], [ 68.031097, 23.903328 ], [ 68.013885, 23.927773 ], [ 68.010025, 23.936951 ], [ 68.01638800000012, 23.938606 ], [ 68.022217000000126, 23.937496 ], [ 68.048325, 23.918327 ], [ 68.058319, 23.902218 ], [ 68.07193, 23.792496 ], [ 68.057205000000124, 23.749161 ], [ 68.051086000000112, 23.729439 ], [ 68.050262, 23.723049000000117 ], [ 68.054153, 23.719715000000122 ], [ 68.086929, 23.699997 ], [ 68.093323, 23.698051000000135 ], [ 68.150818, 23.688049 ], [ 68.141937, 23.748604 ], [ 68.152771, 23.876106000000107 ], [ 68.15332, 23.882217 ], [ 68.156097, 23.89444 ], [ 68.158035, 23.898884 ], [ 68.159714, 23.895828 ], [ 68.186096, 23.84222 ], [ 68.187485, 23.8316650000001 ], [ 68.185257, 23.825554 ], [ 68.181931, 23.821384000000137 ], [ 68.176651, 23.811386 ], [ 68.172211, 23.799442 ], [ 68.164154, 23.775276 ], [ 68.162201, 23.769165 ], [ 68.159988000000112, 23.756386 ], [ 68.160812, 23.751389 ], [ 68.163879, 23.747215 ], [ 68.171097, 23.745827 ], [ 68.176651, 23.746662 ], [ 68.1978, 23.766685000000109 ], [ 68.201096, 23.664162 ], [ 68.196640000000116, 23.661663 ], [ 68.147217, 23.623608 ], [ 68.143326, 23.620274 ], [ 68.139984, 23.616108 ], [ 68.139435, 23.6097180000001 ], [ 68.140274, 23.604717 ], [ 68.14415, 23.601109 ], [ 68.149719000000118, 23.598606000000132 ], [ 68.174698, 23.591663 ], [ 68.182205, 23.590275 ], [ 68.252213, 23.579998 ], [ 68.259155, 23.579163 ], [ 68.321381, 23.58083 ], [ 68.326385, 23.58277500000014 ], [ 68.335266, 23.588051 ], [ 68.357208, 23.610275 ], [ 68.363602, 23.640553 ], [ 68.382751, 23.676105000000121 ], [ 68.386658000000125, 23.67944 ], [ 68.447479, 23.72694 ], [ 68.452209, 23.729439 ], [ 68.609985, 23.807499 ], [ 68.741364, 23.844162 ], [ 68.720825, 23.816109 ], [ 68.608032, 23.747494000000131 ], [ 68.423309, 23.627220000000136 ], [ 68.411652000000117, 23.61694 ], [ 68.408325, 23.612774 ], [ 68.406097, 23.606941 ], [ 68.404709, 23.600273 ], [ 68.402481, 23.520554 ], [ 68.405823, 23.504719 ], [ 68.433044000000109, 23.429996 ], [ 68.54304500000012, 23.269165 ], [ 68.649429, 23.156105 ], [ 68.65332, 23.152496 ], [ 68.666656, 23.14222 ], [ 68.752487, 23.089165 ], [ 68.902771, 23.004719 ], [ 68.942749000000106, 22.988049 ], [ 68.965546, 22.978607 ], [ 69.050262, 22.941662000000122 ], [ 69.059418, 22.935551 ], [ 69.113602000000128, 22.894997 ], [ 69.13749700000011, 22.874718 ], [ 69.147491000000116, 22.869164 ], [ 69.21582, 22.840275 ], [ 69.269440000000145, 22.829163 ], [ 69.407486, 22.809162 ], [ 69.683319, 22.75333 ], [ 69.710266, 22.742771 ], [ 69.743866, 22.795277000000112 ], [ 69.747208, 22.799442000000113 ], [ 69.754990000000134, 22.806107 ], [ 69.792755, 22.832775 ], [ 69.806091, 22.840275 ], [ 69.833878000000141, 22.854164 ], [ 69.849426, 22.858608 ], [ 70.227203, 22.957497000000103 ], [ 70.291931, 22.947773 ], [ 70.328598, 22.939163000000121 ], [ 70.334152000000131, 22.936661 ], [ 70.343048, 22.93055 ], [ 70.349716, 22.929718 ], [ 70.389435, 22.935272 ], [ 70.393875, 22.937775 ], [ 70.396103, 22.943607 ], [ 70.402481, 22.974716 ], [ 70.409149, 23.012497 ], [ 70.407211000000132, 23.02277400000014 ], [ 70.402481, 23.03722 ], [ 70.398605, 23.046387 ], [ 70.398331, 23.057774 ], [ 70.404709, 23.076107 ], [ 70.410812, 23.085274 ], [ 70.418045, 23.092773 ], [ 70.470535, 23.124996 ], [ 70.475266000000147, 23.127495 ], [ 70.479599, 23.127495 ], [ 70.481369, 23.127495 ], [ 70.486649, 23.124996 ], [ 70.506943, 23.102219 ], [ 70.51249700000011, 23.094162 ], [ 70.527481, 23.051388 ], [ 70.528595, 23.046387 ], [ 70.527771, 23.034721 ], [ 70.522491000000116, 23.014721000000122 ], [ 70.511383000000137, 22.985271 ], [ 70.505264, 22.976105 ], [ 70.501663, 22.971939 ], [ 70.493866, 22.965271 ], [ 70.489426, 22.962772 ], [ 70.484421, 22.961105 ], [ 70.473312000000135, 22.95916 ], [ 70.467209, 22.95916 ], [ 70.453873, 22.960552 ], [ 70.439972, 22.963051 ], [ 70.434708, 22.961384 ], [ 70.381088, 22.905552 ], [ 70.367477, 22.888607 ], [ 70.323318, 22.816666 ], [ 70.320541, 22.811943 ], [ 70.213608, 22.621384 ], [ 70.187195, 22.57111 ], [ 70.181656, 22.560829000000126 ], [ 70.174423, 22.553329 ], [ 70.165543, 22.54833200000013 ], [ 70.155548, 22.54472 ], [ 70.14444, 22.543053 ], [ 70.138321, 22.543053 ], [ 70.096939, 22.549721 ], [ 70.050812000000121, 22.557499000000121 ], [ 70.040543000000127, 22.558331 ], [ 70.031372000000147, 22.555275 ], [ 70.007492, 22.544998 ], [ 69.984146000000123, 22.533886 ], [ 69.94081100000011, 22.508888 ], [ 69.870819, 22.465549000000124 ], [ 69.700546, 22.405552 ], [ 69.465546, 22.333885 ], [ 69.293869, 22.282219 ], [ 69.288589, 22.281109 ], [ 69.266388, 22.277496 ], [ 69.238312, 22.273331 ], [ 69.219986, 22.273052 ], [ 69.211639, 22.274723 ], [ 69.183044, 22.292496000000142 ], [ 69.174698, 22.299164000000133 ], [ 69.171097, 22.302776 ], [ 69.167206, 22.311943 ], [ 69.166382, 22.316940000000102 ], [ 69.166931, 22.323051 ], [ 69.175537, 22.355553 ], [ 69.177475000000129, 22.360275 ], [ 69.151657, 22.403328 ], [ 69.078323, 22.479439 ], [ 69.072769, 22.481937 ], [ 69.067215, 22.480827 ], [ 69.01388500000013, 22.45055 ], [ 69.005554, 22.444439 ], [ 69.002213, 22.440273 ], [ 68.986374, 22.418327 ], [ 68.970535, 22.393051 ], [ 68.962204, 22.377773000000104 ], [ 68.944427, 22.328331 ], [ 68.942749000000106, 22.321663 ], [ 68.944427, 22.294163 ], [ 68.947479, 22.284443000000124 ], [ 68.962769, 22.247772 ], [ 68.976929, 22.227219000000105 ], [ 68.998322000000144, 22.199718 ], [ 69.017761, 22.176941 ], [ 69.11554, 22.062496000000124 ], [ 69.193588, 21.98333 ], [ 69.229431, 21.94721600000014 ], [ 69.326096000000121, 21.86694 ], [ 69.335266, 21.860828 ], [ 69.43692, 21.771664 ], [ 69.555252, 21.658607 ], [ 69.573318, 21.642773 ], [ 69.583328, 21.637218 ], [ 69.595825, 21.633331 ], [ 69.61026, 21.630276 ], [ 69.615540000000124, 21.627773000000104 ], [ 69.628311, 21.618053 ], [ 69.648041, 21.601109000000122 ], [ 69.788589000000115, 21.466385 ], [ 69.827484, 21.416107 ], [ 69.856094, 21.37722 ], [ 69.895264000000111, 21.326107 ], [ 70.015823, 21.186108 ], [ 70.045532, 21.158051 ], [ 70.060806000000127, 21.14444 ], [ 70.193039, 21.033886 ], [ 70.274429000000112, 20.968052 ], [ 70.328873, 20.928051 ], [ 70.517761, 20.816666000000112 ], [ 70.527771, 20.811108000000104 ], [ 70.575821, 20.789165 ], [ 70.718323000000112, 20.73444000000012 ], [ 70.818878, 20.697495 ], [ 70.831375, 20.694439 ], [ 70.960541, 20.701939 ], [ 70.966095000000109, 20.702774 ], [ 71.13472, 20.759998 ], [ 71.181931, 20.779999 ], [ 71.223602, 20.799442 ], [ 71.375259000000142, 20.855274000000122 ], [ 71.44165, 20.874439 ], [ 71.466934, 20.881939 ], [ 71.475266000000147, 20.887775 ], [ 71.480820000000108, 20.897495000000106 ], [ 71.482483, 20.904163 ], [ 71.568054, 20.974995 ], [ 71.793594, 21.050552 ], [ 72.003326, 21.13472 ], [ 72.048874000000126, 21.160828 ], [ 72.101929, 21.194996000000117 ], [ 72.110535000000141, 21.201939 ], [ 72.110809, 21.207218 ], [ 72.109146000000123, 21.212215 ], [ 72.098038, 21.251942 ], [ 72.103317000000118, 21.304443000000106 ], [ 72.103867, 21.309719 ], [ 72.173035, 21.395275 ], [ 72.179428, 21.403049 ], [ 72.191925, 21.41333 ], [ 72.206375, 21.422771 ], [ 72.233597, 21.453327 ], [ 72.242477000000122, 21.465271 ], [ 72.248596000000134, 21.478607 ], [ 72.289154, 21.61082800000014 ], [ 72.251389000000131, 21.689163 ], [ 72.213318000000129, 21.704994 ], [ 72.21582, 21.730827 ], [ 72.214157, 21.736107 ], [ 72.172485, 21.785831000000144 ], [ 72.16832, 21.788887 ], [ 72.162766, 21.78944 ], [ 72.077774, 21.784164 ], [ 72.025269, 21.773052000000121 ], [ 72.019714, 21.773609 ], [ 71.992477, 21.789165000000139 ], [ 71.991089, 21.794998000000135 ], [ 71.994141, 21.847775 ], [ 71.995529, 21.852497 ], [ 71.998871, 21.856384000000105 ], [ 72.004715, 21.858887 ], [ 72.013611, 21.853886 ], [ 72.021927, 21.847775 ], [ 72.025818000000129, 21.843887000000109 ], [ 72.030273, 21.841663 ], [ 72.071381, 21.831108 ], [ 72.081375, 21.828609 ], [ 72.087204, 21.828053 ], [ 72.093048, 21.828609 ], [ 72.161926, 21.83527400000014 ], [ 72.164429, 21.839439 ], [ 72.155823, 21.924717 ], [ 72.152206, 21.928608000000111 ], [ 72.146652, 21.928883 ], [ 72.133606, 21.926384 ], [ 72.127472000000125, 21.923885 ], [ 72.123306, 21.920273 ], [ 72.112198, 21.914719 ], [ 72.101379, 21.916664 ], [ 72.053864, 21.925827 ], [ 72.043594, 21.928329 ], [ 72.034424, 21.932774 ], [ 72.031097000000102, 21.937496 ], [ 72.031662, 21.942772 ], [ 72.034988, 21.946663 ], [ 72.040817, 21.949162 ], [ 72.125534, 21.972771 ], [ 72.173599, 21.968884000000116 ], [ 72.179153, 21.970551 ], [ 72.245819, 22.003052 ], [ 72.265274, 22.016109 ], [ 72.293045, 22.047497 ], [ 72.30304, 22.059162 ], [ 72.305252, 22.06361 ], [ 72.309418, 22.077774 ], [ 72.324997, 22.146385 ], [ 72.325821, 22.156662 ], [ 72.321930000000123, 22.174995 ], [ 72.307205, 22.218605 ], [ 72.304703000000131, 22.225273 ], [ 72.29693600000013, 22.232216 ], [ 72.291367, 22.232494 ], [ 72.270264, 22.226105000000132 ], [ 72.253876, 22.228329 ], [ 72.178864, 22.247494 ], [ 72.166092, 22.256386 ], [ 72.154984, 22.268330000000105 ], [ 72.151932, 22.273052 ], [ 72.150543, 22.279163 ], [ 72.151932, 22.283886 ], [ 72.158035, 22.286385 ], [ 72.214157, 22.29472 ], [ 72.249710000000107, 22.297775000000115 ], [ 72.375809, 22.299164000000133 ], [ 72.383041, 22.261108 ], [ 72.385818, 22.253330000000119 ], [ 72.389709, 22.249439 ], [ 72.39888, 22.244995 ], [ 72.460815, 22.227772 ], [ 72.466385, 22.227219000000105 ], [ 72.473038, 22.228607 ], [ 72.496933000000126, 22.23555 ], [ 72.503052, 22.238327 ], [ 72.505264, 22.242493 ], [ 72.511932, 22.250275 ], [ 72.54776, 22.274719 ], [ 72.559982, 22.27972 ], [ 72.581100000000106, 22.28611 ], [ 72.586655, 22.285553 ], [ 72.676086, 22.26722 ], [ 72.779984, 22.252220000000136 ], [ 72.790268, 22.258053000000132 ], [ 72.818054000000132, 22.272221 ], [ 72.907486, 22.27861 ], [ 72.911652, 22.275555 ], [ 72.919144, 22.267776 ], [ 72.920822, 22.26249700000011 ], [ 72.923035, 22.228607 ], [ 72.919434, 22.219715 ], [ 72.914993, 22.216106 ], [ 72.908875, 22.213608000000136 ], [ 72.895828, 22.211384 ], [ 72.890274, 22.211662 ], [ 72.885269000000108, 22.213051 ], [ 72.875809, 22.217495 ], [ 72.863312, 22.226662 ], [ 72.850266000000147, 22.234993 ], [ 72.845825, 22.237217000000101 ], [ 72.835541, 22.239994 ], [ 72.824158, 22.241104 ], [ 72.817764000000125, 22.239716000000101 ], [ 72.811646, 22.237217000000101 ], [ 72.798874, 22.226940000000127 ], [ 72.788879, 22.215271 ], [ 72.774155, 22.195274 ], [ 72.763885, 22.178329 ], [ 72.757217, 22.170551 ], [ 72.753052000000139, 22.167217 ], [ 72.746933, 22.164719 ], [ 72.689423, 22.176384 ], [ 72.679153, 22.178883 ], [ 72.674423, 22.181107 ], [ 72.649429, 22.19944 ], [ 72.640549, 22.204716 ], [ 72.625259, 22.208885 ], [ 72.606934000000138, 22.207771 ], [ 72.585815000000139, 22.201385 ], [ 72.575546000000145, 22.195274 ], [ 72.567215, 22.188606 ], [ 72.560532, 22.180828 ], [ 72.536652, 22.137775 ], [ 72.521378, 22.090832 ], [ 72.5186, 22.081108 ], [ 72.501389, 21.981937 ], [ 72.500824, 21.976662 ], [ 72.502213, 21.970551 ], [ 72.527771000000143, 21.917217 ], [ 72.535812, 21.910275 ], [ 72.540543000000127, 21.908329 ], [ 72.551651, 21.907219 ], [ 72.562759000000142, 21.912773000000129 ], [ 72.575546000000145, 21.923050000000103 ], [ 72.578873, 21.926941 ], [ 72.594711, 21.941105 ], [ 72.607483000000116, 21.95138500000013 ], [ 72.622757, 21.960274 ], [ 72.702774, 21.990829 ], [ 72.708328, 21.992493 ], [ 72.714996, 21.993607 ], [ 72.72554, 21.991940000000113 ], [ 72.73027, 21.989716 ], [ 72.734421000000111, 21.986382 ], [ 72.705551, 21.95138500000013 ], [ 72.686371000000122, 21.933331 ], [ 72.681091, 21.930275 ], [ 72.674149000000114, 21.928329 ], [ 72.669144, 21.929718 ], [ 72.656647, 21.938885 ], [ 72.651932, 21.941105 ], [ 72.645828, 21.940552000000139 ], [ 72.639984, 21.938049 ], [ 72.626373, 21.928329 ], [ 72.623032, 21.924438 ], [ 72.56749, 21.848053 ], [ 72.565262, 21.843887000000109 ], [ 72.558029, 21.809441 ], [ 72.555817, 21.788609 ], [ 72.556931, 21.761108 ], [ 72.551376000000118, 21.742218 ], [ 72.546646, 21.733604 ], [ 72.52916, 21.703884 ], [ 72.525269, 21.694717 ], [ 72.524429, 21.683884 ], [ 72.525818, 21.677773 ], [ 72.52916, 21.671635 ], [ 72.536926, 21.666107 ], [ 72.541656, 21.663883 ], [ 72.552765000000136, 21.662773 ], [ 72.573318, 21.668327 ], [ 72.588593, 21.677219 ], [ 72.60165400000011, 21.681938 ], [ 72.615265, 21.685272 ], [ 72.627197, 21.686108 ], [ 72.734985, 21.686939 ], [ 72.740540000000124, 21.686382 ], [ 72.745819, 21.684994 ], [ 72.750275, 21.682774 ], [ 72.7586060000001, 21.676662 ], [ 72.772491, 21.669994 ], [ 72.777481, 21.668606 ], [ 72.788589, 21.667774 ], [ 72.936646, 21.681664 ], [ 72.964432, 21.689995000000124 ], [ 72.97665400000011, 21.695274 ], [ 73.018326, 21.713329 ], [ 73.034714, 21.721661 ], [ 73.055817000000104, 21.738605000000121 ], [ 73.06192, 21.741104000000121 ], [ 73.12164300000012, 21.764721 ], [ 73.126373000000115, 21.764721 ], [ 73.130814, 21.753609 ], [ 73.1297, 21.748329 ], [ 73.127197, 21.74416 ], [ 73.120529, 21.736382 ], [ 73.111099, 21.729996 ], [ 72.904434, 21.644997 ], [ 72.898331, 21.642494 ], [ 72.88443, 21.638329 ], [ 72.871368000000132, 21.63583 ], [ 72.853867, 21.635551 ], [ 72.837204, 21.637218 ], [ 72.825546, 21.637218 ], [ 72.818604, 21.634995 ], [ 72.813309000000118, 21.632217 ], [ 72.666092, 21.521385 ], [ 72.631363, 21.494438 ], [ 72.616379, 21.479996 ], [ 72.609421, 21.466938000000141 ], [ 72.59137, 21.432217 ], [ 72.586929, 21.423607000000118 ], [ 72.585266, 21.418884 ], [ 72.585815000000139, 21.41333 ], [ 72.59082, 21.411942 ], [ 72.602478, 21.416107 ], [ 72.654984, 21.439995 ], [ 72.663315, 21.446663 ], [ 72.671921, 21.453606 ], [ 72.684418, 21.463882 ], [ 72.694702, 21.469715 ], [ 72.715271000000143, 21.474995 ], [ 72.741089000000102, 21.479996 ], [ 72.746368, 21.478607 ], [ 72.753601, 21.470829 ], [ 72.75499, 21.464718000000119 ], [ 72.75444, 21.459717 ], [ 72.751938, 21.455273 ], [ 72.747757, 21.451939 ], [ 72.664993, 21.41555 ], [ 72.608871, 21.400272 ], [ 72.587769, 21.393887 ], [ 72.566666000000112, 21.382496000000117 ], [ 72.564148000000102, 21.378052000000139 ], [ 72.563599, 21.372772 ], [ 72.564987, 21.36694 ], [ 72.5961, 21.279442 ], [ 72.607483000000116, 21.258053000000132 ], [ 72.6147, 21.25 ], [ 72.619980000000112, 21.250832 ], [ 72.644714, 21.259163 ], [ 72.711105, 21.20694 ], [ 72.718048, 21.196106 ], [ 72.682205, 21.16444 ], [ 72.639435, 21.132774 ], [ 72.633331, 21.130276 ], [ 72.621368, 21.129719 ], [ 72.615265, 21.12722 ], [ 72.611374, 21.118053 ], [ 72.611649, 21.108887 ], [ 72.613037, 21.102776 ], [ 72.615814, 21.097218 ], [ 72.618866, 21.092495 ], [ 72.626083, 21.084721 ], [ 72.630814, 21.082497 ], [ 72.702774, 21.074165 ], [ 72.709152000000131, 21.075275 ], [ 72.715271000000143, 21.077774 ], [ 72.726379000000122, 21.083332 ], [ 72.730545, 21.086662 ], [ 72.755829, 21.109161 ], [ 72.798325, 21.129997 ], [ 72.803589, 21.128609 ], [ 72.808029, 21.126385 ], [ 72.814987, 21.117775 ], [ 72.853043, 21.067776 ], [ 72.852478, 21.062496 ], [ 72.848038, 21.037498 ], [ 72.845535, 21.033333 ], [ 72.840546, 20.910275 ], [ 72.846939, 20.844162 ], [ 72.848038, 20.841663 ], [ 72.885818, 20.809441 ], [ 72.915817, 20.812775 ], [ 72.921097000000145, 20.81583 ], [ 72.925262, 20.812775 ], [ 72.934418000000107, 20.774719 ], [ 72.934143, 20.75333 ], [ 72.885269000000108, 20.513054 ], [ 72.881363, 20.504166 ], [ 72.852768, 20.463329 ], [ 72.832764000000111, 20.445827000000122 ], [ 72.829437, 20.44194 ], [ 72.828049, 20.437496 ], [ 72.823883000000137, 20.396107 ], [ 72.821381, 20.381107 ], [ 72.818604, 20.371662 ], [ 72.816376, 20.367496 ], [ 72.808868, 20.360275000000115 ], [ 72.798874, 20.354443 ], [ 72.784988, 20.350269 ], [ 72.781662, 20.346386 ], [ 72.753601, 20.294998 ], [ 72.748032, 20.276108000000136 ], [ 72.7397, 20.220829 ], [ 72.728592000000106, 20.142773 ], [ 72.727455, 20.132185 ], [ 72.723877, 20.096386000000109 ], [ 72.703598000000113, 19.987774 ], [ 72.701385, 19.98333 ], [ 72.694977, 19.975826 ], [ 72.666092, 19.918606 ], [ 72.664154, 19.870831 ], [ 72.672211, 19.816387000000134 ], [ 72.6772, 19.79361 ], [ 72.699707, 19.763611 ], [ 72.703323000000125, 19.697773 ], [ 72.707489, 19.593052 ], [ 72.707764, 19.587498 ], [ 72.753052000000139, 19.375828 ], [ 72.75444, 19.369717 ], [ 72.788879, 19.330551000000128 ], [ 72.79776, 19.326107 ], [ 72.810532, 19.328609 ], [ 72.879425, 19.32333 ], [ 72.958878000000141, 19.310555000000136 ], [ 72.963882, 19.309162 ], [ 72.989975, 19.294163 ], [ 72.998596000000134, 19.289165 ], [ 73.006653000000142, 19.283054 ], [ 73.033051000000114, 19.251942 ], [ 73.047226, 19.217255000000137 ], [ 73.047485000000108, 19.213051000000121 ], [ 73.043320000000108, 19.209717000000126 ], [ 73.032486, 19.204163 ], [ 73.025818, 19.202217 ], [ 73.016098, 19.20583 ], [ 73.013046, 19.210552000000121 ], [ 72.994141000000127, 19.250832000000116 ], [ 72.991928, 19.257221 ], [ 72.856369, 19.317776 ], [ 72.851379, 19.319164000000114 ], [ 72.8461, 19.319443 ], [ 72.780548, 19.312496 ], [ 72.777481, 19.308609 ], [ 72.766663000000108, 19.238605 ], [ 72.766388, 19.233604 ], [ 72.766663000000108, 19.22805 ], [ 72.779984, 19.160275 ], [ 72.783325000000104, 19.148052 ], [ 72.787491, 19.144997 ], [ 72.792480000000126, 19.147774 ], [ 72.799423000000104, 19.160553 ], [ 72.806641000000127, 19.167774 ], [ 72.815811, 19.174164000000133 ], [ 72.820831, 19.172771000000125 ], [ 72.821106, 19.167217 ], [ 72.825546, 19.053051 ], [ 72.822495, 19.037777 ], [ 72.805252, 18.995548 ], [ 72.800537, 18.987217 ], [ 72.796646, 18.983883 ], [ 72.7836, 18.968605 ], [ 72.774994, 18.956661000000111 ], [ 72.770538000000101, 18.948051 ], [ 72.769989000000123, 18.94305 ], [ 72.771652, 18.937775 ], [ 72.823044, 18.912495 ], [ 72.888046, 18.996662 ], [ 72.932205000000124, 19.061108000000104 ], [ 72.969711000000132, 19.078884 ], [ 73.049713000000111, 19.022221000000116 ], [ 73.053314, 19.01833 ], [ 73.055542000000116, 19.011944 ], [ 73.056091, 19.000832 ], [ 73.054703000000131, 18.996105 ], [ 72.975540000000137, 18.946663000000115 ], [ 72.911926, 18.917496 ], [ 72.94470200000012, 18.852219 ], [ 72.993042, 18.790554 ], [ 72.987488, 18.727772 ], [ 72.973038, 18.778885 ], [ 72.969986000000119, 18.783607 ], [ 72.933044000000109, 18.819717000000139 ], [ 72.928589000000102, 18.821941 ], [ 72.923309, 18.820274 ], [ 72.862198, 18.797497 ], [ 72.857483, 18.795277 ], [ 72.851089, 18.750275 ], [ 72.850784, 18.742275 ], [ 72.853867, 18.660553 ], [ 72.902771000000143, 18.518887 ], [ 72.890549, 18.481937 ], [ 72.888596, 18.472218 ], [ 72.889435, 18.434162 ], [ 72.89415, 18.415829 ], [ 72.896378, 18.409439000000134 ], [ 72.91304, 18.375553 ], [ 72.931931, 18.348885000000109 ], [ 72.967209, 18.301662000000135 ], [ 72.971375, 18.18055 ], [ 73.011383000000137, 17.990829000000133 ], [ 73.056091, 17.886662 ], [ 73.101089000000115, 17.791664 ], [ 73.109146000000123, 17.769718 ], [ 73.121094, 17.723328 ], [ 73.122208000000114, 17.717216 ], [ 73.121918000000107, 17.712215 ], [ 73.119431, 17.707771 ], [ 73.111374, 17.701385 ], [ 73.10498, 17.6936070000001 ], [ 73.102768, 17.689438 ], [ 73.114426, 17.636662 ], [ 73.119705, 17.625553 ], [ 73.131363, 17.605831000000137 ], [ 73.178589, 17.471107 ], [ 73.185806000000127, 17.440273 ], [ 73.198181, 17.36866 ], [ 73.247757, 17.174164 ], [ 73.258881, 17.14527500000014 ], [ 73.274704, 17.08194 ], [ 73.274429, 17.060829 ], [ 73.274155000000121, 17.039719 ], [ 73.273605, 17.034721 ], [ 73.271378, 17.030552 ], [ 73.266937, 17.030552 ], [ 73.253052, 16.998882 ], [ 73.269714, 16.853329 ], [ 73.312485, 16.606384 ], [ 73.360535, 16.512218 ], [ 73.338882000000126, 16.513332 ], [ 73.326096, 16.485828 ], [ 73.344147, 16.429161 ], [ 73.408035, 16.23444000000012 ], [ 73.447205, 16.061386 ], [ 73.447754000000145, 16.055832 ], [ 73.485535000000141, 15.991386 ], [ 73.49942, 15.97583 ], [ 73.524704, 15.951387 ], [ 73.530548, 15.946943 ], [ 73.549988, 15.933887 ], [ 73.586655, 15.899721 ], [ 73.593872, 15.892776 ], [ 73.611099, 15.863886 ], [ 73.633606, 15.823887 ], [ 73.635818, 15.819729 ], [ 73.640823000000125, 15.806665000000123 ], [ 73.649429, 15.784164 ], [ 73.650543, 15.778332 ], [ 73.649994000000106, 15.773333 ], [ 73.642487000000131, 15.745275 ], [ 73.641937, 15.740274000000113 ], [ 73.645538, 15.736385 ], [ 73.670532, 15.721664 ], [ 73.697205, 15.721939 ], [ 73.686096, 15.711664 ], [ 73.683044, 15.707775 ], [ 73.681366, 15.703331 ], [ 73.681931, 15.697777 ], [ 73.765549, 15.487776 ], [ 73.791367, 15.450554 ], [ 73.796097, 15.449165 ], [ 73.81694, 15.446943 ], [ 73.82222, 15.446386 ], [ 73.843872, 15.444721 ], [ 73.916931, 15.419165 ], [ 73.921097000000145, 15.416943 ], [ 73.9422, 15.405277 ], [ 73.950272, 15.4 ], [ 73.952774, 15.394444000000135 ], [ 73.964157000000114, 15.368608000000108 ], [ 73.963608000000136, 15.363609 ], [ 73.957764000000111, 15.36333100000013 ], [ 73.953598, 15.365553 ], [ 73.949997, 15.369442 ], [ 73.944138, 15.378885 ], [ 73.939148000000102, 15.389721000000122 ], [ 73.935532, 15.39277600000014 ], [ 73.926651000000106, 15.397221 ], [ 73.917206, 15.4 ], [ 73.912491, 15.40111 ], [ 73.8316650000001, 15.406109 ], [ 73.79304500000012, 15.407221 ], [ 73.787491, 15.406942 ], [ 73.784424, 15.403053000000114 ], [ 73.786102000000142, 15.398054 ], [ 73.789429, 15.394165 ], [ 73.806931000000134, 15.37583 ], [ 73.814423, 15.369997 ], [ 73.848869, 15.349276 ], [ 73.852211, 15.349442 ], [ 73.863701, 15.352609 ], [ 73.870041, 15.351942000000122 ], [ 73.872375, 15.350109 ], [ 73.905823, 15.301388 ], [ 73.951660000000118, 15.162498 ], [ 73.958328, 15.065832 ], [ 74.071655000000135, 14.906387 ], [ 74.101364, 14.867094 ], [ 74.088593, 14.80361 ], [ 74.089706, 14.797777 ], [ 74.095535, 14.788332 ], [ 74.098877, 14.784443 ], [ 74.102768, 14.781387 ], [ 74.176086, 14.741665000000125 ], [ 74.223312, 14.737776 ], [ 74.227203000000145, 14.736664 ], [ 74.243591, 14.72583 ], [ 74.250824, 14.718887 ], [ 74.270828, 14.682775000000106 ], [ 74.271103, 14.677221 ], [ 74.283051, 14.6055530000001 ], [ 74.299149, 14.526665 ], [ 74.300812, 14.521666 ], [ 74.304153, 14.517776 ], [ 74.308594, 14.515554 ], [ 74.328598, 14.512777000000142 ], [ 74.333603, 14.515554 ], [ 74.338882, 14.523333 ], [ 74.339981, 14.533333 ], [ 74.338043, 14.555553 ], [ 74.341095, 14.559164 ], [ 74.353043, 14.568888 ], [ 74.358032, 14.568331 ], [ 74.375259, 14.541666000000134 ], [ 74.411926, 14.483332000000132 ], [ 74.402771, 14.456387 ], [ 74.399429000000112, 14.452776 ], [ 74.394440000000145, 14.453331000000105 ], [ 74.386932000000115, 14.459442 ], [ 74.375259, 14.448332 ], [ 74.401932, 14.361664 ], [ 74.429977, 14.279165 ], [ 74.450821, 14.246109 ], [ 74.478317, 14.131386000000134 ], [ 74.497757, 14.046387 ], [ 74.5619200000001, 13.941387000000134 ], [ 74.568604, 13.933609 ], [ 74.602768, 13.867496 ], [ 74.619141, 13.832499 ], [ 74.670258, 13.618053 ], [ 74.674698, 13.521387 ], [ 74.676086000000112, 13.510277 ], [ 74.73027, 13.267221 ], [ 74.771652, 13.056387 ], [ 74.810257, 12.864719 ], [ 74.812759, 12.859163 ], [ 74.815811, 12.8555530000001 ], [ 74.828598, 12.848886 ], [ 74.837769, 12.846109000000126 ], [ 74.855255, 12.754997 ], [ 74.861923, 12.747498 ], [ 74.881653, 12.714443 ], [ 74.923599, 12.611942000000113 ], [ 75.021378, 12.41111 ], [ 75.127472, 12.208054 ], [ 75.176376, 12.067497 ], [ 75.186371000000122, 12.025555 ], [ 75.192474, 12.007776 ], [ 75.195816, 12.003887000000134 ], [ 75.200821, 12.003332 ], [ 75.239166, 12.006943 ], [ 75.258011000000124, 12.009165 ], [ 75.274414, 12.007776 ], [ 75.377472, 11.860554 ], [ 75.528595, 11.700275 ], [ 75.551926, 11.644722 ], [ 75.554977000000122, 11.636665000000107 ], [ 75.558868, 11.624441 ], [ 75.564987, 11.58972 ], [ 75.578873, 11.549721 ], [ 75.5811, 11.544165 ], [ 75.608032, 11.481665 ], [ 75.613037, 11.471664 ], [ 75.620819, 11.466387 ], [ 75.629974, 11.463610000000131 ], [ 75.641373, 11.464998 ], [ 75.651932, 11.464443000000131 ], [ 75.678589000000102, 11.445831000000112 ], [ 75.688873000000115, 11.435276 ], [ 75.717758, 11.365274 ], [ 75.861649, 10.980553 ], [ 75.891663000000108, 10.863886 ], [ 75.894714000000135, 10.846664 ], [ 75.907486000000119, 10.803331 ], [ 75.924149, 10.755554 ], [ 76.023315, 10.538332 ], [ 76.081375, 10.406666 ], [ 76.164154, 10.187777 ], [ 76.18248, 10.089441000000136 ], [ 76.184708, 10.083887 ], [ 76.196365000000128, 10.065275 ], [ 76.203049, 10.037777 ], [ 76.205551, 10.033054000000106 ], [ 76.23526, 9.98472 ], [ 76.238876000000118, 9.983608 ], [ 76.238586000000112, 10.013054000000125 ], [ 76.228592000000106, 10.066387 ], [ 76.227478000000133, 10.071943 ], [ 76.219711, 10.085831 ], [ 76.213318, 10.09333 ], [ 76.210541000000148, 10.098053 ], [ 76.208328, 10.103331 ], [ 76.205551, 10.115274000000113 ], [ 76.204712, 10.120831 ], [ 76.20665, 10.130276 ], [ 76.21138, 10.132774 ], [ 76.216385000000116, 10.132219 ], [ 76.236923, 10.114719 ], [ 76.243317, 10.106941 ], [ 76.320267000000115, 9.943888 ], [ 76.349152, 9.920553 ], [ 76.356369, 9.914444000000117 ], [ 76.362198, 9.906109 ], [ 76.384155000000135, 9.860275 ], [ 76.395828, 9.824999 ], [ 76.396652000000131, 9.819164 ], [ 76.415817000000118, 9.681942 ], [ 76.424423, 9.601387 ], [ 76.424423, 9.594442000000129 ], [ 76.469986000000119, 9.552498 ], [ 76.498596, 9.532221 ], [ 76.499146, 9.52861 ], [ 76.484985, 9.50111 ], [ 76.480545, 9.498608000000104 ], [ 76.469986000000119, 9.495275 ], [ 76.392487000000131, 9.503611 ], [ 76.359146, 9.515554 ], [ 76.352203, 9.522499 ], [ 76.349991000000102, 9.527498 ], [ 76.350266000000147, 9.539999 ], [ 76.362762, 9.596943000000124 ], [ 76.374985, 9.63361 ], [ 76.382751, 9.646666 ], [ 76.356934000000138, 9.776665 ], [ 76.326385, 9.76972 ], [ 76.28627, 9.831053 ], [ 76.263321, 9.873886 ], [ 76.261108, 9.879164000000117 ], [ 76.257492, 9.891388 ], [ 76.257767, 9.906942 ], [ 76.260818, 9.910555 ], [ 76.265274, 9.909164 ], [ 76.272766, 9.903887 ], [ 76.283051, 9.903332 ], [ 76.289429, 9.905277000000126 ], [ 76.292480000000126, 9.908609000000126 ], [ 76.292206, 9.913887 ], [ 76.289978, 9.919443 ], [ 76.256104, 9.961943 ], [ 76.252487, 9.96472 ], [ 76.248032, 9.966387 ], [ 76.242752, 9.966108 ], [ 76.2397, 9.962498 ], [ 76.238312, 9.952776 ], [ 76.245529, 9.902222000000108 ], [ 76.261429000000135, 9.832554 ], [ 76.263763, 9.825553 ], [ 76.288315000000125, 9.67972 ], [ 76.294144, 9.593054 ], [ 76.297211, 9.568609 ], [ 76.300537000000134, 9.544443 ], [ 76.303864, 9.520277000000135 ], [ 76.307755, 9.496943 ], [ 76.315811, 9.46361 ], [ 76.328598, 9.421387 ], [ 76.331940000000145, 9.41111 ], [ 76.34082, 9.385277 ], [ 76.380264, 9.281387 ], [ 76.395264, 9.248053 ], [ 76.442474, 9.143332 ], [ 76.534149, 8.964998 ], [ 76.556931000000134, 8.990831000000128 ], [ 76.561096000000134, 8.99222 ], [ 76.656937, 9.007221 ], [ 76.663315, 9.006388 ], [ 76.66748, 9.003611 ], [ 76.667206, 8.998053 ], [ 76.661926, 8.96833 ], [ 76.6586, 8.964998 ], [ 76.645828000000108, 8.96361 ], [ 76.627197, 8.966108 ], [ 76.615814000000114, 8.968887000000109 ], [ 76.606094, 8.973331 ], [ 76.60054, 8.971943 ], [ 76.577209, 8.946665 ], [ 76.570831, 8.939165 ], [ 76.568878, 8.934164 ], [ 76.568054, 8.928055 ], [ 76.568329000000119, 8.906666 ], [ 76.575821, 8.876942 ], [ 76.66832, 8.781942 ], [ 76.812195, 8.592497 ], [ 76.841660000000104, 8.552776 ], [ 76.950272, 8.418331000000137 ], [ 76.959152, 8.408609 ], [ 76.961380000000133, 8.404444 ], [ 76.967484000000127, 8.396666 ], [ 76.998596, 8.365274 ], [ 77.037201, 8.334442 ], [ 77.048874, 8.325275 ], [ 77.081375, 8.302221 ], [ 77.092789, 8.294749000000138 ], [ 77.158035, 8.235554 ], [ 77.173309, 8.222775 ], [ 77.227768, 8.180277 ], [ 77.299149, 8.133053 ], [ 77.445526, 8.086943 ], [ 77.45665, 8.083887 ], [ 77.486099, 8.078054 ], [ 77.536102, 8.071943 ], [ 77.558594, 8.089441 ], [ 77.557205, 8.094997 ], [ 77.55748, 8.101942 ], [ 77.56164600000011, 8.111664 ], [ 77.567490000000134, 8.119719 ], [ 77.574432, 8.126663000000121 ], [ 77.587204, 8.134722 ], [ 77.606644, 8.14277600000014 ], [ 77.650269, 8.154444000000126 ], [ 77.78804, 8.19611 ], [ 77.951096, 8.305832 ], [ 77.996933000000126, 8.338331 ], [ 78.002487, 8.339441000000136 ], [ 78.026932, 8.349442 ], [ 78.060532, 8.364164 ], [ 78.063599000000124, 8.36833 ], [ 78.128036000000122, 8.476387000000102 ], [ 78.131653, 8.486664 ], [ 78.142761, 8.57222 ], [ 78.143051, 8.586109 ], [ 78.139984, 8.61722 ], [ 78.174423, 8.861109 ], [ 78.175812, 8.866665 ], [ 78.192474, 8.904165 ], [ 78.211655, 8.934443 ], [ 78.225266, 8.955553000000123 ], [ 78.233871, 8.967775 ], [ 78.383881, 9.081665 ], [ 78.396652, 9.08972 ], [ 78.409988, 9.096943 ], [ 78.429153, 9.105831 ], [ 78.46138, 9.114998 ], [ 78.662201, 9.176664 ], [ 78.809982, 9.228886000000102 ], [ 78.856369, 9.244442 ], [ 78.877472, 9.25111 ], [ 78.964706, 9.273054 ], [ 78.9711, 9.273609 ], [ 78.997482, 9.274721 ], [ 79.176369, 9.262444 ], [ 79.221710000000144, 9.255943 ], [ 79.294434, 9.246664 ], [ 79.324997, 9.235275000000115 ], [ 79.339432, 9.22860900000012 ], [ 79.351929, 9.220276 ], [ 79.376648, 9.195553 ], [ 79.412491, 9.16861 ], [ 79.440811, 9.148333 ], [ 79.447205, 9.147499 ], [ 79.451385, 9.15 ], [ 79.452774, 9.155554000000109 ], [ 79.45166, 9.16111 ], [ 79.448868, 9.165276 ], [ 79.438583, 9.175831 ], [ 79.331665, 9.264166000000102 ], [ 79.230988, 9.292665 ], [ 79.224655, 9.290833000000134 ], [ 79.206154, 9.288666 ], [ 79.202324, 9.288332000000139 ], [ 79.126823000000115, 9.291665 ], [ 79.120155000000125, 9.293331 ], [ 79.110664, 9.296498 ], [ 79.095985, 9.302832000000137 ], [ 79.080658, 9.312665 ], [ 79.009155, 9.331665 ], [ 78.977478000000133, 9.362776 ], [ 78.941086, 9.409443000000124 ], [ 78.916656000000103, 9.447220000000129 ], [ 78.909988000000112, 9.468054 ], [ 78.908035, 9.479719 ], [ 78.94081100000011, 9.593887 ], [ 78.945816, 9.602776000000119 ], [ 78.981934, 9.664165000000139 ], [ 79.035263, 9.744164 ], [ 79.134155000000135, 9.876942 ], [ 79.15416, 9.90361 ], [ 79.179153, 9.934164 ], [ 79.195816, 9.952497 ], [ 79.219437, 9.978331 ], [ 79.25, 10.01722100000012 ], [ 79.261658, 10.041666 ], [ 79.256943, 10.05083100000013 ], [ 79.243591, 10.078609 ], [ 79.239426, 10.088331 ], [ 79.235535, 10.14361 ], [ 79.235809000000131, 10.151943 ], [ 79.240814, 10.18111 ], [ 79.243042, 10.184998 ], [ 79.267212, 10.22472 ], [ 79.276657, 10.234997 ], [ 79.314697000000137, 10.271111 ], [ 79.324997, 10.280832 ], [ 79.328873, 10.283888 ], [ 79.383041000000105, 10.314444 ], [ 79.393326, 10.319164 ], [ 79.399155, 10.319719 ], [ 79.49275200000011, 10.30722 ], [ 79.565262000000132, 10.295277000000112 ], [ 79.711258, 10.266221 ], [ 79.763611, 10.258333000000107 ], [ 79.768875, 10.259443 ], [ 79.770264, 10.263887 ], [ 79.767487, 10.273054 ], [ 79.76388500000013, 10.276110000000131 ], [ 79.756432, 10.286942 ], [ 79.753937, 10.28827600000011 ], [ 79.750427, 10.287943 ], [ 79.747269, 10.28311 ], [ 79.745262, 10.281110000000126 ], [ 79.741928, 10.279777000000138 ], [ 79.738770000000102, 10.279777000000138 ], [ 79.678429, 10.297609000000136 ], [ 79.677429000000132, 10.300276 ], [ 79.68026, 10.304942 ], [ 79.682091, 10.306942 ], [ 79.685928, 10.307942000000139 ], [ 79.689598, 10.308275 ], [ 79.739769000000138, 10.304776 ], [ 79.745605, 10.303776 ], [ 79.750931, 10.301943000000108 ], [ 79.755928, 10.299609 ], [ 79.76577, 10.294443 ], [ 79.780823, 10.289442000000122 ], [ 79.7836, 10.286386 ], [ 79.784424000000115, 10.282499 ], [ 79.780548, 10.274443 ], [ 79.782486, 10.268888 ], [ 79.786926, 10.267221 ], [ 79.801651000000106, 10.267498000000103 ], [ 79.819992000000127, 10.269999 ], [ 79.832764000000111, 10.273054 ], [ 79.854980000000126, 10.281111 ], [ 79.858032, 10.284443 ], [ 79.859711, 10.288887 ], [ 79.864426, 10.380276 ], [ 79.864426, 10.390833 ], [ 79.862762, 10.407776 ], [ 79.853043, 10.573053 ], [ 79.845535, 10.772499 ], [ 79.842484, 10.806387 ], [ 79.84082, 10.817779 ], [ 79.846649, 10.835831 ], [ 79.848038, 10.845552 ], [ 79.848038, 10.856108 ], [ 79.848038, 10.88611 ], [ 79.846649, 10.903053000000114 ], [ 79.841934, 10.921944 ], [ 79.841095, 10.943609 ], [ 79.852768, 10.98833 ], [ 79.853592, 11.003887000000134 ], [ 79.854706, 11.072775 ], [ 79.854706, 11.088610000000131 ], [ 79.854156, 11.13722 ], [ 79.852478, 11.154165 ], [ 79.833878, 11.333609 ], [ 79.833054000000118, 11.339441 ], [ 79.831100000000106, 11.344997 ], [ 79.823044, 11.349442000000124 ], [ 79.784714000000122, 11.425554 ], [ 79.782211000000132, 11.430553 ], [ 79.751389, 11.549166000000127 ], [ 79.750824, 11.560276000000101 ], [ 79.763046000000145, 11.648888 ], [ 79.765549, 11.66361 ], [ 79.781662, 11.739719 ], [ 79.786652, 11.758331 ], [ 79.783051, 11.769999 ], [ 79.783875, 11.775 ], [ 79.786102, 11.778887000000111 ], [ 79.791092, 11.781387 ], [ 79.799149, 11.78722 ], [ 79.803864, 11.795277 ], [ 79.805542, 11.804998000000126 ], [ 79.804466, 11.818136 ], [ 79.804153, 11.821943 ], [ 79.804153, 11.832775 ], [ 79.805542, 11.837219 ], [ 79.815262, 11.847492 ], [ 79.816086, 11.863052 ], [ 79.827484, 11.894722 ], [ 79.845078, 11.938789 ], [ 79.858032, 11.973608 ], [ 79.859192, 11.990029 ], [ 79.863876, 12.023888 ], [ 79.867203, 12.032776000000126 ], [ 79.870773, 12.038537 ], [ 79.879425, 12.052498 ], [ 79.931091, 12.134722 ], [ 79.936096, 12.142498 ], [ 79.95166, 12.165833 ], [ 79.981659, 12.20722 ], [ 80.0336, 12.27861 ], [ 80.102203000000145, 12.378054000000134 ], [ 80.136383, 12.428055 ], [ 80.13888500000013, 12.431942 ], [ 80.160263, 12.473053 ], [ 80.227203, 12.67111 ], [ 80.253876, 12.763611 ], [ 80.258881, 12.782221 ], [ 80.261932, 12.825275 ], [ 80.261383000000137, 12.863331 ], [ 80.262772, 12.949165 ], [ 80.264435, 12.959164 ], [ 80.279434, 13.043331 ], [ 80.281937, 13.052776 ], [ 80.305252, 13.134443 ], [ 80.317490000000134, 13.164999 ], [ 80.325821, 13.181665 ], [ 80.349716, 13.334164 ], [ 80.349716, 13.336386 ], [ 80.3477630000001, 13.349998 ], [ 80.335541, 13.396387 ], [ 80.333435000000122, 13.401854 ], [ 80.313873, 13.42222 ], [ 80.261383000000137, 13.465275 ], [ 80.231369, 13.479998000000137 ], [ 80.21666, 13.483053 ], [ 80.118858000000102, 13.499723 ], [ 80.115265, 13.503054 ], [ 80.109146000000123, 13.51111 ], [ 80.084427, 13.548332 ], [ 80.058594, 13.587498 ], [ 80.049423000000104, 13.617775000000108 ], [ 80.049423000000104, 13.623331 ], [ 80.089157, 13.686665000000119 ], [ 80.092484000000127, 13.690275 ], [ 80.152481, 13.718054 ], [ 80.2397, 13.591942 ], [ 80.250549, 13.573608 ], [ 80.281662, 13.507221 ], [ 80.30914300000012, 13.438053 ], [ 80.313034, 13.439165 ], [ 80.315536, 13.443054000000132 ], [ 80.31581100000011, 13.453886 ], [ 80.314987, 13.459721 ], [ 80.312759, 13.465275 ], [ 80.283875, 13.52611 ], [ 80.268326000000116, 13.55472 ], [ 80.23082, 13.660831 ], [ 80.225815000000125, 13.679998 ], [ 80.225266000000147, 13.696665 ], [ 80.226089, 13.706942 ], [ 80.231369, 13.736664 ], [ 80.233047, 13.741108 ], [ 80.246094, 13.760555000000124 ], [ 80.250549, 13.774166 ], [ 80.249710000000107, 13.791109 ], [ 80.247482, 13.808887 ], [ 80.243042000000116, 13.819998 ], [ 80.227478, 13.857498 ], [ 80.222763, 13.868053 ], [ 80.18248, 13.955832 ], [ 80.151382000000126, 14.035831 ], [ 80.139709, 14.104998 ], [ 80.126083, 14.200275 ], [ 80.132202, 14.253887 ], [ 80.137207, 14.256388 ], [ 80.142212, 14.264444 ], [ 80.170532, 14.334721000000116 ], [ 80.174149, 14.343887 ], [ 80.177475, 14.358053 ], [ 80.194977000000108, 14.555832 ], [ 80.181366000000139, 14.6022210000001 ], [ 80.15332, 14.674442 ], [ 80.149994, 14.678610000000106 ], [ 80.142761, 14.684998 ], [ 80.108597, 14.759998 ], [ 80.087494000000106, 14.845552 ], [ 80.049713000000111, 15.042776 ], [ 80.048874, 15.048887 ], [ 80.048874, 15.065275 ], [ 80.054977000000122, 15.105553 ], [ 80.056641000000127, 15.115553 ], [ 80.090820000000122, 15.309164 ], [ 80.096939, 15.322220000000129 ], [ 80.111099, 15.352221 ], [ 80.136383, 15.397778 ], [ 80.209152, 15.530832 ], [ 80.230545, 15.60083 ], [ 80.235535, 15.614164 ], [ 80.260269, 15.671387 ], [ 80.265274, 15.679998 ], [ 80.279434, 15.699165000000107 ], [ 80.299713, 15.720276 ], [ 80.314148, 15.733887 ], [ 80.325272, 15.743887 ], [ 80.336929, 15.753332 ], [ 80.367203, 15.774166 ], [ 80.394989000000123, 15.790833 ], [ 80.554153, 15.876942 ], [ 80.559982, 15.878885 ], [ 80.684708, 15.9 ], [ 80.723312, 15.897221000000116 ], [ 80.728317, 15.896387 ], [ 80.733047000000113, 15.894722000000115 ], [ 80.775269, 15.879719 ], [ 80.77887, 15.876387 ], [ 80.804428, 15.844721 ], [ 80.807480000000112, 15.840553 ], [ 80.812759, 15.821943 ], [ 80.814987, 15.787777 ], [ 80.814697, 15.771387000000118 ], [ 80.825272, 15.751944 ], [ 80.886108, 15.873608 ], [ 80.890274, 15.881941 ], [ 80.897491000000116, 15.91111 ], [ 80.896103, 15.928331 ], [ 80.88916, 15.971386000000109 ], [ 80.883331, 15.99472 ], [ 80.876923, 16.011665 ], [ 80.87831100000011, 16.015274 ], [ 80.891937, 16.026108 ], [ 80.903595000000109, 16.008053000000132 ], [ 80.908035, 15.977776 ], [ 80.912201, 15.93222 ], [ 80.902817, 15.882774 ], [ 80.898376, 15.863331 ], [ 80.899765000000116, 15.858053 ], [ 80.905594000000121, 15.849165 ], [ 80.997818000000109, 15.779165 ], [ 81.006714, 15.775 ], [ 81.011993, 15.774166 ], [ 81.017273, 15.775555 ], [ 81.019760000000133, 15.779444000000126 ], [ 81.020599000000118, 15.784443 ], [ 81.017548, 15.797499 ], [ 81.0150450000001, 15.802221 ], [ 81.011719, 15.806387 ], [ 81.004486, 15.812777 ], [ 80.999756, 15.823332 ], [ 80.998367, 15.829998 ], [ 80.998367, 15.835276 ], [ 81.001709, 15.844442000000129 ], [ 81.029205, 15.877775 ], [ 81.035873, 15.884722000000124 ], [ 81.043655, 15.89138800000012 ], [ 81.104767, 15.938053 ], [ 81.15033000000011, 15.969997 ], [ 81.163925, 16.066109 ], [ 81.245865, 16.309998000000121 ], [ 81.250031, 16.3186070000001 ], [ 81.26532, 16.332218 ], [ 81.31337, 16.363331 ], [ 81.328659, 16.370831 ], [ 81.334763, 16.373051 ], [ 81.347824000000116, 16.375275 ], [ 81.412262, 16.385273 ], [ 81.430038, 16.368053 ], [ 81.493927, 16.354717 ], [ 81.571716, 16.342495 ], [ 81.648102, 16.335274 ], [ 81.653381, 16.334442 ], [ 81.713928, 16.31694 ], [ 81.727264, 16.310829000000126 ], [ 81.770874, 16.325829000000113 ], [ 81.940872000000127, 16.386662 ], [ 81.983368, 16.403328000000101 ], [ 81.994476000000134, 16.407772 ], [ 82.086716, 16.452217 ], [ 82.17421, 16.496384 ], [ 82.198929, 16.509163 ], [ 82.301697, 16.583054000000118 ], [ 82.346436, 16.704716 ], [ 82.363098, 16.777222000000108 ], [ 82.366150000000118, 16.792221 ], [ 82.37114, 16.845276 ], [ 82.368591, 16.83194 ], [ 82.364151000000106, 16.82333 ], [ 82.359711, 16.820553 ], [ 82.276382, 16.85944000000012 ], [ 82.272217, 16.862217 ], [ 82.254990000000134, 16.880276 ], [ 82.251938, 16.884441 ], [ 82.248871000000122, 16.897495 ], [ 82.247482000000105, 16.909718 ], [ 82.248596, 16.920273000000122 ], [ 82.292206, 17.013611 ], [ 82.298325, 17.026665 ], [ 82.313309, 17.045551000000103 ], [ 82.359711, 17.095829 ], [ 82.364426, 17.10083 ], [ 82.475266, 17.202217 ], [ 82.509155, 17.226662 ], [ 82.539429, 17.247215 ], [ 82.548874, 17.252777 ], [ 82.61499, 17.291107 ], [ 82.777481, 17.372219 ], [ 82.806641, 17.382496 ], [ 82.884155, 17.408051 ], [ 83.010269, 17.487217 ], [ 83.154709, 17.545551 ], [ 83.159714, 17.547775 ], [ 83.164993, 17.550274 ], [ 83.216385, 17.580551000000128 ], [ 83.234146000000123, 17.592495 ], [ 83.342209, 17.714439 ], [ 83.386383000000137, 17.766388 ], [ 83.517487, 17.933331 ], [ 83.572769, 18.006664 ], [ 83.575546, 18.01083 ], [ 83.582764, 18.017498 ], [ 83.593872, 18.026108 ], [ 83.772446, 18.139694 ], [ 83.884155, 18.188885 ], [ 83.978592, 18.22777200000013 ], [ 84.070541000000105, 18.263332 ], [ 84.075821, 18.265831 ], [ 84.080276, 18.268608 ], [ 84.106369, 18.292221 ], [ 84.117203, 18.302776000000108 ], [ 84.119980000000112, 18.306664 ], [ 84.134155, 18.341663 ], [ 84.287323000000129, 18.504677 ], [ 84.349426000000108, 18.568886 ], [ 84.494431, 18.735271 ], [ 84.613037, 18.889717 ], [ 84.631653, 18.912216000000114 ], [ 84.63998400000014, 18.918606 ], [ 84.656647, 18.925274 ], [ 84.661102, 18.928051 ], [ 84.676376000000118, 18.94194 ], [ 84.702484, 18.977219 ], [ 84.713882, 18.99305 ], [ 84.759995, 19.061386 ], [ 84.780823000000112, 19.094162 ], [ 84.764999, 19.097496 ], [ 84.758881, 19.095551000000114 ], [ 84.75499, 19.09222 ], [ 84.748322, 19.079163 ], [ 84.745529, 19.075275 ], [ 84.740265, 19.073051 ], [ 84.73526, 19.074718 ], [ 84.717758000000117, 19.096386000000109 ], [ 84.717209, 19.102497 ], [ 84.717484, 19.108051 ], [ 84.719437, 19.112495 ], [ 84.726585, 19.124001 ], [ 84.76249700000011, 19.112217000000101 ], [ 84.768875, 19.112774 ], [ 84.786102, 19.114441 ], [ 84.794434, 19.120831 ], [ 84.828873000000101, 19.168606000000125 ], [ 84.880539, 19.228329 ], [ 85.099716, 19.412216 ], [ 85.157654, 19.459829000000127 ], [ 85.18182400000012, 19.479162 ], [ 85.265991, 19.535662000000116 ], [ 85.279495000000111, 19.544331000000113 ], [ 85.290421, 19.551062 ], [ 85.329819, 19.571161000000131 ], [ 85.306221, 19.576889000000108 ], [ 85.299126, 19.582491 ], [ 85.289787, 19.59519 ], [ 85.295761, 19.599672000000112 ], [ 85.316673, 19.618347 ], [ 85.325264, 19.613117 ], [ 85.329437, 19.60194 ], [ 85.331940000000145, 19.596943 ], [ 85.335541, 19.59333 ], [ 85.340271, 19.591385000000116 ], [ 85.361649000000114, 19.60083 ], [ 85.380264, 19.611107 ], [ 85.38472, 19.613884 ], [ 85.408325, 19.649998 ], [ 85.4102630000001, 19.654442000000131 ], [ 85.410049000000129, 19.665781 ], [ 85.402954, 19.675117 ], [ 85.386147000000108, 19.684454 ], [ 85.374565000000132, 19.668394 ], [ 85.344315, 19.660177 ], [ 85.30883, 19.641876000000138 ], [ 85.284554, 19.640383 ], [ 85.253929, 19.654575000000136 ], [ 85.244965, 19.64449100000013 ], [ 85.232269, 19.600794 ], [ 85.191933, 19.572407 ], [ 85.187820000000102, 19.542154 ], [ 85.167656, 19.511156 ], [ 85.153458, 19.498831 ], [ 85.128441, 19.501444 ], [ 85.121948, 19.513126000000113 ], [ 85.122459, 19.542154 ], [ 85.134521, 19.555227 ], [ 85.143753000000117, 19.603033 ], [ 85.170334000000139, 19.624977 ], [ 85.203636, 19.682787 ], [ 85.238831000000118, 19.740597 ], [ 85.326797, 19.792751 ], [ 85.353195, 19.829197 ], [ 85.434883, 19.887009 ], [ 85.458755, 19.903345000000115 ], [ 85.534164, 19.880724 ], [ 85.575005, 19.835482 ], [ 85.559296, 19.801550000000134 ], [ 85.560555, 19.751280000000122 ], [ 85.549248000000148, 19.732428000000141 ], [ 85.519707, 19.726145 ], [ 85.489548, 19.722374000000116 ], [ 85.461273, 19.713577 ], [ 85.439911, 19.704781 ], [ 85.42231, 19.695982000000129 ], [ 85.431107, 19.687813000000119 ], [ 85.450592, 19.680273000000113 ], [ 85.44368, 19.666449000000114 ], [ 85.45138500000013, 19.660275000000127 ], [ 85.479706, 19.665272 ], [ 85.486923, 19.666664000000139 ], [ 85.634155, 19.727772 ], [ 85.741364, 19.75972 ], [ 85.871368, 19.797775 ], [ 85.928314, 19.813053000000139 ], [ 85.954163, 19.819717000000139 ], [ 86.0186, 19.831387 ], [ 86.158035, 19.871384 ], [ 86.263885, 19.907219 ], [ 86.280273, 19.914162 ], [ 86.357483, 19.957497 ], [ 86.360809, 19.960274 ], [ 86.355255, 19.969715 ], [ 86.347488000000112, 19.975826 ], [ 86.297211, 20.004444 ], [ 86.245255, 20.023331 ], [ 86.196365, 20.074997 ], [ 86.289597000000128, 20.060112000000117 ], [ 86.310524, 20.030737 ], [ 86.37442, 19.981106000000125 ], [ 86.3797, 19.979996 ], [ 86.414703, 19.980274 ], [ 86.420258, 19.982773 ], [ 86.423874, 19.986107 ], [ 86.426086000000112, 19.990551 ], [ 86.484985, 20.142494 ], [ 86.486374, 20.147495 ], [ 86.483597, 20.172497 ], [ 86.486649, 20.176384 ], [ 86.49054, 20.179718 ], [ 86.535263, 20.203049000000135 ], [ 86.540543, 20.205551 ], [ 86.546097, 20.207771 ], [ 86.598328, 20.226105 ], [ 86.621918000000107, 20.234161 ], [ 86.640823, 20.239437 ], [ 86.651657000000114, 20.243885 ], [ 86.710342, 20.282562 ], [ 86.762772, 20.336109 ], [ 86.800537, 20.381664 ], [ 86.802765000000136, 20.386108 ], [ 86.807205000000124, 20.401386000000116 ], [ 86.807755, 20.40694 ], [ 86.806931, 20.430828 ], [ 86.804428, 20.436108000000104 ], [ 86.798599, 20.434994000000131 ], [ 86.771927000000119, 20.401108 ], [ 86.739151, 20.372219 ], [ 86.728317000000118, 20.367775 ], [ 86.723038, 20.367496 ], [ 86.720825, 20.372498 ], [ 86.717484, 20.389996 ], [ 86.717758000000117, 20.39555 ], [ 86.72387700000013, 20.44194 ], [ 86.726379, 20.452217 ], [ 86.73054500000012, 20.461105 ], [ 86.755829, 20.491383 ], [ 86.78804, 20.523052 ], [ 86.804153, 20.53611 ], [ 86.813309, 20.541664 ], [ 86.866928, 20.57111 ], [ 87.001099, 20.657772000000136 ], [ 87.025558, 20.674828 ], [ 86.986923, 20.677773 ], [ 86.94081100000011, 20.696384000000137 ], [ 86.937195, 20.69999700000011 ], [ 86.891373, 20.759441 ], [ 86.949707, 20.779999 ], [ 86.961929, 20.781109 ], [ 86.965820000000122, 20.784721 ], [ 86.967484000000127, 20.795277 ], [ 86.964996, 20.808609000000104 ], [ 86.958878, 20.825554 ], [ 86.949142, 20.846107000000131 ], [ 86.898041, 20.953884 ], [ 86.891373, 20.961662 ], [ 86.886932000000115, 20.964439 ], [ 86.883331, 20.968052 ], [ 86.876648, 20.976105 ], [ 86.836655, 21.099442 ], [ 86.835266, 21.106106 ], [ 86.828049, 21.152496 ], [ 86.834427, 21.189438 ], [ 86.836929, 21.199718 ], [ 86.846649, 21.222771 ], [ 86.875534, 21.274441 ], [ 86.88443, 21.286385 ], [ 86.963318, 21.381939 ], [ 87.001099, 21.42194 ], [ 87.012497, 21.432217 ], [ 87.04332, 21.459438 ], [ 87.063309000000118, 21.475826 ], [ 87.071655, 21.481937 ], [ 87.112198, 21.508331 ], [ 87.116928000000144, 21.511387 ], [ 87.198868, 21.54583 ], [ 87.215546000000131, 21.552776 ], [ 87.329163, 21.561665 ], [ 87.445816, 21.603607 ], [ 87.464157, 21.60944 ], [ 87.480896, 21.611786 ], [ 87.521652000000131, 21.617496000000131 ], [ 87.673035, 21.643887 ], [ 87.684982, 21.64777400000014 ], [ 87.796371, 21.698883 ], [ 87.829437, 21.719162 ], [ 87.869705, 21.752499 ], [ 87.960541, 21.828609 ], [ 87.971924000000115, 21.839439 ], [ 87.981094, 21.851109 ], [ 87.991653, 21.867775 ], [ 88.036652, 21.950829 ], [ 88.082214, 22.018055000000118 ], [ 88.086929, 22.020832 ], [ 88.109985000000108, 22.035275000000127 ], [ 88.122482000000105, 22.04472 ], [ 88.164993, 22.087776 ], [ 88.168045, 22.091663 ], [ 88.173599, 22.105831000000137 ], [ 88.175537000000134, 22.116386 ], [ 88.174423, 22.123051 ], [ 88.167206, 22.138607 ], [ 88.141937, 22.172218 ], [ 88.133331, 22.178051 ], [ 88.128586, 22.179996000000131 ], [ 88.117966, 22.182606 ], [ 88.100266, 22.184719 ], [ 88.070541, 22.187775 ], [ 88.014709, 22.198883 ], [ 88.0, 22.204994 ], [ 87.995819, 22.207771 ], [ 87.981934, 22.223049 ], [ 87.956375, 22.256664000000114 ], [ 87.947479000000101, 22.269718 ], [ 87.943863, 22.281666 ], [ 87.904434, 22.419163 ], [ 87.907761, 22.421661 ], [ 87.927765, 22.422771 ], [ 87.932755, 22.42083 ], [ 87.939423, 22.412773 ], [ 87.944702, 22.386383 ], [ 87.945251, 22.374165 ], [ 87.946930000000123, 22.361107 ], [ 87.96582, 22.297497 ], [ 87.970535, 22.28722 ], [ 87.987488, 22.259163000000115 ], [ 87.996643, 22.246105 ], [ 88.007492000000127, 22.235271 ], [ 88.028595, 22.221107000000131 ], [ 88.0336, 22.218884 ], [ 88.080276, 22.208607 ], [ 88.145828, 22.1936070000001 ], [ 88.169983, 22.183331 ], [ 88.18692, 22.172218 ], [ 88.194138, 22.164997 ], [ 88.199417, 22.155273 ], [ 88.201385, 22.149441 ], [ 88.203049, 22.14333 ], [ 88.218872000000147, 22.082775 ], [ 88.218597000000102, 22.070831 ], [ 88.21582, 22.060829 ], [ 88.208603, 22.0472180000001 ], [ 88.199417, 22.035553 ], [ 88.192474, 22.028332 ], [ 88.176926, 22.014999 ], [ 88.149429, 21.979717 ], [ 88.144989, 21.970551 ], [ 88.1436, 21.965549 ], [ 88.141937, 21.954994 ], [ 88.142212, 21.948883 ], [ 88.15332, 21.88055 ], [ 88.154984, 21.874718 ], [ 88.160538, 21.864998000000128 ], [ 88.173599, 21.850273 ], [ 88.186096, 21.833607 ], [ 88.205826, 21.801388 ], [ 88.206985000000145, 21.782497 ], [ 88.205826, 21.725273000000129 ], [ 88.204712, 21.713882 ], [ 88.203323, 21.708885 ], [ 88.197479, 21.70055 ], [ 88.181931, 21.687218 ], [ 88.179703, 21.682495 ], [ 88.179153, 21.676941 ], [ 88.181366, 21.663609 ], [ 88.19693, 21.616665 ], [ 88.199417, 21.611664 ], [ 88.204163000000108, 21.605274000000122 ], [ 88.254166, 21.548607 ], [ 88.260818, 21.548885 ], [ 88.293594, 21.556664 ], [ 88.299149000000114, 21.558887 ], [ 88.303864, 21.561665 ], [ 88.306931, 21.565552000000139 ], [ 88.308319, 21.570553 ], [ 88.308029000000147, 21.576664000000108 ], [ 88.293320000000108, 21.674717 ], [ 88.291092, 21.688049 ], [ 88.289154, 21.694160000000124 ], [ 88.274704, 21.725826 ], [ 88.260818, 21.76722 ], [ 88.257492, 21.779163 ], [ 88.257095000000106, 21.790165000000115 ], [ 88.258041, 21.796665 ], [ 88.261932000000115, 21.799999 ], [ 88.267761000000121, 21.80083100000013 ], [ 88.291931, 21.782219 ], [ 88.295532, 21.77861 ], [ 88.297211, 21.772774 ], [ 88.301086, 21.746384 ], [ 88.307755, 21.694160000000124 ], [ 88.308868000000132, 21.657772000000136 ], [ 88.303864, 21.631386 ], [ 88.302765, 21.620274000000109 ], [ 88.303864, 21.61333100000013 ], [ 88.305817000000104, 21.607498000000135 ], [ 88.308594, 21.60305 ], [ 88.399719, 21.583332 ], [ 88.405548, 21.584164 ], [ 88.44693, 21.607773000000122 ], [ 88.453873, 21.614998 ], [ 88.463882, 21.637775 ], [ 88.473312, 21.661385000000109 ], [ 88.474426, 21.672497 ], [ 88.474152, 21.678608 ], [ 88.471649, 21.683884 ], [ 88.468323000000112, 21.783054 ], [ 88.471375, 21.88583 ], [ 88.471924, 21.891384 ], [ 88.496094, 21.950272 ], [ 88.504440000000102, 21.945827 ], [ 88.510544, 21.936939 ], [ 88.513885, 21.925274000000115 ], [ 88.531937, 21.831665 ], [ 88.525543, 21.65583 ], [ 88.518051, 21.595276 ], [ 88.514999, 21.591385 ], [ 88.509995, 21.589996 ], [ 88.503876, 21.590553 ], [ 88.498322000000144, 21.588329 ], [ 88.494431, 21.584995 ], [ 88.489975, 21.576107 ], [ 88.484421, 21.562218000000144 ], [ 88.483047, 21.556942 ], [ 88.483322, 21.550831 ], [ 88.494431, 21.524166 ], [ 88.498032, 21.520554 ], [ 88.511932, 21.521942000000138 ], [ 88.538269000000128, 21.525848 ], [ 88.572220000000129, 21.559998 ], [ 88.600540000000137, 21.607498000000135 ], [ 88.602768, 21.611942000000113 ], [ 88.627197, 21.714161 ], [ 88.628860000000145, 21.731106000000125 ], [ 88.628586, 21.749161 ], [ 88.627472, 21.755833 ], [ 88.623596000000134, 21.766941 ], [ 88.612762, 21.777775 ], [ 88.608597, 21.780552 ], [ 88.602478, 21.781109 ], [ 88.596939, 21.778885 ], [ 88.579712, 21.766666 ], [ 88.574158, 21.764442 ], [ 88.566666000000112, 21.763611 ], [ 88.562485, 21.76638800000012 ], [ 88.560806, 21.772221 ], [ 88.556931, 21.813332 ], [ 88.558594, 21.823887 ], [ 88.571655, 21.874718 ], [ 88.577774, 21.882774 ], [ 88.585541, 21.889439 ], [ 88.591660000000104, 21.897217 ], [ 88.603592, 21.936939 ], [ 88.596588, 21.988382 ], [ 88.625534, 22.036942 ], [ 88.626083, 22.042496 ], [ 88.624146, 22.061665000000119 ], [ 88.619431000000134, 22.071941 ], [ 88.612488, 22.095829 ], [ 88.613876, 22.10083 ], [ 88.640274, 22.160828 ], [ 88.661102000000142, 22.20055 ], [ 88.667755000000113, 22.202217 ], [ 88.673599, 22.201660000000118 ], [ 88.678589, 22.19944 ], [ 88.682205, 22.195827000000122 ], [ 88.684418, 22.19083 ], [ 88.682755, 22.173885 ], [ 88.680542000000116, 22.169441 ], [ 88.677475, 22.16555 ], [ 88.658035, 22.148884 ], [ 88.654984, 22.144997000000103 ], [ 88.644714, 22.121941000000106 ], [ 88.637772, 22.096664 ], [ 88.650658, 22.047417 ], [ 88.658737, 22.016968 ], [ 88.623032, 21.968052 ], [ 88.625809000000118, 21.955273 ], [ 88.630539, 21.944996 ], [ 88.634155, 21.941383 ], [ 88.638885, 21.939163 ], [ 88.677765, 21.931107000000111 ], [ 88.683594, 21.931938000000116 ], [ 88.688309, 21.934719 ], [ 88.727478000000133, 22.015831 ], [ 88.728043, 22.021385 ], [ 88.727768, 22.027496 ], [ 88.713043, 22.061943 ], [ 88.752571, 22.04369 ], [ 88.765617, 22.005161 ], [ 88.746979, 21.984653 ], [ 88.723984, 21.963526 ], [ 88.714043, 21.931211 ], [ 88.69664, 21.84297 ], [ 88.682205, 21.696106 ], [ 88.684708, 21.676384 ], [ 88.707214, 21.566387000000134 ], [ 88.710815, 21.562775 ], [ 88.714996, 21.559998 ], [ 88.733597000000145, 21.550831 ], [ 88.738876000000118, 21.549721 ], [ 88.772491, 21.553051 ], [ 88.784424, 21.556942 ], [ 88.849426000000108, 21.624996 ], [ 88.85554500000012, 21.632774 ], [ 88.920822, 21.633884 ], [ 89.001938000000109, 21.601387 ], [ 89.007492000000127, 21.599998 ], [ 89.014709, 21.601109000000122 ], [ 89.057205, 21.607773000000122 ], [ 89.063599, 21.60944 ], [ 89.074158000000125, 21.614162000000135 ], [ 89.082764, 21.620274000000109 ], [ 89.088882, 21.628052 ], [ 89.09166, 21.638329 ], [ 89.089706, 21.650272 ], [ 89.08638, 21.662216000000114 ], [ 89.018600000000106, 21.860554 ], [ 89.016388, 21.865829 ], [ 89.005554, 21.903606 ], [ 89.048599, 21.922218 ], [ 89.05748, 21.928329 ], [ 89.062759, 21.936661 ], [ 89.064148, 21.941662 ], [ 89.065262, 21.988884 ], [ 89.064423, 22.007221 ], [ 89.063309, 22.014164 ], [ 89.061646, 22.019997 ], [ 89.056931000000134, 22.030552000000114 ], [ 89.050262, 22.038609 ], [ 89.044983, 22.048054 ], [ 89.039703, 22.066109 ], [ 89.037766000000147, 22.079441 ], [ 89.036652, 22.098053 ], [ 89.042206, 22.132774 ], [ 89.043869, 22.136383 ], [ 89.048599, 22.13583 ], [ 89.053314, 22.133606 ], [ 89.061096000000134, 22.12722 ], [ 89.062759, 22.121109 ], [ 89.063004, 22.115475000000117 ], [ 89.058319, 22.094162 ], [ 89.056641, 22.07749600000011 ], [ 89.056931000000134, 22.07111 ], [ 89.061287000000107, 22.053045000000111 ], [ 89.089561, 22.014591 ], [ 89.088142, 21.96398 ], [ 89.078873, 21.896664 ], [ 89.097488000000112, 21.81583 ], [ 89.099716, 21.810555 ], [ 89.103317000000118, 21.806942 ], [ 89.107483, 21.804165000000125 ], [ 89.139435, 21.78722 ], [ 89.14415, 21.784996 ], [ 89.149429, 21.783886 ], [ 89.156372000000147, 21.783886 ], [ 89.160263, 21.78611 ], [ 89.189972, 21.787498 ], [ 89.21666, 21.723606 ], [ 89.218597000000102, 21.69833 ], [ 89.21582, 21.688049 ], [ 89.204987, 21.671383000000105 ], [ 89.201385, 21.661942 ], [ 89.20166, 21.65583 ], [ 89.203873, 21.650551 ], [ 89.207489000000123, 21.646942 ], [ 89.216385, 21.641941 ], [ 89.228592, 21.640831 ], [ 89.241928000000144, 21.641384 ], [ 89.249146, 21.642494 ], [ 89.260269, 21.646664 ], [ 89.292755, 21.666664 ], [ 89.293320000000108, 21.672218 ], [ 89.295822, 21.761387 ], [ 89.349716, 21.967216000000121 ], [ 89.354706, 21.968605 ], [ 89.357758, 21.964161000000104 ], [ 89.369980000000112, 21.938885 ], [ 89.374695, 21.928608000000111 ], [ 89.3836060000001, 21.899441 ], [ 89.385818, 21.88583 ], [ 89.385544, 21.874165000000119 ], [ 89.382751, 21.864162 ], [ 89.380539, 21.8597180000001 ], [ 89.377472, 21.855831 ], [ 89.373306, 21.852497 ], [ 89.368042, 21.844162 ], [ 89.365814, 21.839718000000119 ], [ 89.363037000000134, 21.829441 ], [ 89.362198, 21.806107 ], [ 89.363037000000134, 21.769444 ], [ 89.367477, 21.742493 ], [ 89.369141, 21.736382 ], [ 89.37442, 21.72694 ], [ 89.380264, 21.718052 ], [ 89.383881, 21.714439 ], [ 89.388046, 21.711384 ], [ 89.392761, 21.709438 ], [ 89.405548, 21.709160000000111 ], [ 89.412766000000147, 21.710274 ], [ 89.417480000000126, 21.712772 ], [ 89.421371, 21.716106000000138 ], [ 89.459427, 21.762218 ], [ 89.466095, 21.775555 ], [ 89.51638800000012, 21.907497 ], [ 89.516937, 21.913052 ], [ 89.51944, 21.953327 ], [ 89.487671, 22.032263000000114 ], [ 89.518875, 22.064442 ], [ 89.5131, 22.089108 ], [ 89.502602, 22.110107 ], [ 89.492477, 22.131939 ], [ 89.463318, 22.210827 ], [ 89.461655000000121, 22.216938000000141 ], [ 89.461380000000133, 22.223049 ], [ 89.461929, 22.228607 ], [ 89.473602, 22.286942000000124 ], [ 89.475815, 22.291386 ], [ 89.492752, 22.273888 ], [ 89.496933000000126, 22.26249700000011 ], [ 89.497208, 22.256386 ], [ 89.496368000000132, 22.250832 ], [ 89.493591, 22.240551 ], [ 89.489151, 22.231663 ], [ 89.486923, 22.221107000000131 ], [ 89.486374, 22.215549 ], [ 89.487198, 22.196941 ], [ 89.510284, 22.140839 ], [ 89.524994, 22.097860000000139 ], [ 89.534042000000113, 22.063931 ], [ 89.5186, 22.000832 ], [ 89.523315, 21.990551 ], [ 89.532211000000132, 21.98555 ], [ 89.538879000000122, 21.98582800000014 ], [ 89.54776, 21.991661000000136 ], [ 89.550491, 22.001804 ], [ 89.58027600000014, 22.11360900000011 ], [ 89.580826, 22.125553 ], [ 89.578598, 22.13888500000013 ], [ 89.576096, 22.144161 ], [ 89.56749, 22.157497 ], [ 89.556641, 22.168606 ], [ 89.550812, 22.177219 ], [ 89.548325, 22.182495000000131 ], [ 89.545532, 22.195274 ], [ 89.546371, 22.200829 ], [ 89.549988, 22.21027400000014 ], [ 89.577209, 22.263885 ], [ 89.609421, 22.31472 ], [ 89.620819, 22.32444 ], [ 89.603867, 22.257221 ], [ 89.598038, 22.0816650000001 ], [ 89.570831000000112, 21.893330000000105 ], [ 89.565536, 21.878883 ], [ 89.561096, 21.869995 ], [ 89.554703, 21.862217000000101 ], [ 89.533051, 21.840553000000114 ], [ 89.526932, 21.83277500000014 ], [ 89.524429, 21.828331 ], [ 89.520264, 21.813332 ], [ 89.521652, 21.800274 ], [ 89.540817, 21.740273000000116 ], [ 89.547211000000118, 21.723885 ], [ 89.553040000000124, 21.714996 ], [ 89.556641, 21.711384 ], [ 89.560806, 21.708607 ], [ 89.574997, 21.702217 ], [ 89.581100000000106, 21.70166 ], [ 89.698868, 21.783886 ], [ 89.7836, 21.825829 ], [ 89.798325, 21.827774 ], [ 89.815811, 21.833607 ], [ 89.820541, 21.836384000000123 ], [ 89.877472, 21.881107 ], [ 89.881653, 21.884441 ], [ 89.88472, 21.888329 ], [ 89.886108, 21.893330000000105 ], [ 89.885818, 21.899441 ], [ 89.884155000000135, 21.905552 ], [ 89.875534, 21.918884 ], [ 89.86554, 21.93055 ], [ 89.856644, 21.943886000000134 ], [ 89.851379, 21.953606 ], [ 89.846375, 21.971661 ], [ 89.8461, 21.977772 ], [ 89.847488000000112, 21.988884 ], [ 89.861099, 22.07222 ], [ 89.864426, 22.076107 ], [ 89.868866, 22.084995000000106 ], [ 89.870819, 22.095551 ], [ 89.870819, 22.10194 ], [ 89.869141, 22.145275 ], [ 89.866928, 22.164997 ], [ 89.865814000000114, 22.171661 ], [ 89.860809, 22.189716 ], [ 89.857483, 22.201660000000118 ], [ 89.851654, 22.218884 ], [ 89.84166, 22.254719000000136 ], [ 89.841095, 22.26722 ], [ 89.847763, 22.286663 ], [ 89.859985000000108, 22.31472 ], [ 89.891650163697136, 22.363111548736214 ], [ 89.900398268561688, 22.335294139698672 ], [ 89.875809, 22.283886 ], [ 89.872482000000105, 22.269444 ], [ 89.872208, 22.260277 ], [ 89.87442, 22.244717 ], [ 89.877197000000137, 22.236938000000123 ], [ 89.879700000000128, 22.23054900000011 ], [ 89.886658000000125, 22.21944 ], [ 89.896103, 22.199997 ], [ 89.914154, 22.144718000000125 ], [ 89.915268, 22.127773 ], [ 89.915268, 22.101387 ], [ 89.912201, 22.075829 ], [ 89.910538, 22.068054000000132 ], [ 89.9102630000001, 22.058887000000141 ], [ 89.911102, 22.051109 ], [ 89.915817, 22.037220000000104 ], [ 89.932205000000124, 21.997772 ], [ 89.935532, 21.991661000000136 ], [ 89.948593, 21.976662 ], [ 89.954163000000108, 21.973049000000117 ], [ 89.961639, 21.970551 ], [ 89.97052, 21.96944 ], [ 89.978027, 21.971664 ], [ 89.982468, 21.976681 ], [ 89.984695, 21.983917000000133 ], [ 89.982468, 22.000317000000109 ], [ 89.978302, 22.014721 ], [ 89.977203, 22.022507 ], [ 89.977219000000105, 22.031158 ], [ 89.979462, 22.0389330000001 ], [ 90.033875, 22.135273 ], [ 90.038879, 22.140553000000125 ], [ 90.043869, 22.14444 ], [ 90.066666, 22.159996 ], [ 90.073044, 22.162773 ], [ 90.079987000000131, 22.159718000000112 ], [ 90.07666, 22.153049 ], [ 90.072769000000108, 22.147495 ], [ 90.066666, 22.144161 ], [ 90.059708, 22.141941 ], [ 90.046646, 22.135273 ], [ 90.042206, 22.130829 ], [ 90.039154, 22.124439 ], [ 89.991928, 22.025341 ], [ 89.996628, 22.000053 ], [ 89.999985, 21.994499000000133 ], [ 90.006943, 21.991104 ], [ 90.035812, 21.981106 ], [ 90.045258, 21.979996 ], [ 90.052475, 21.982216 ], [ 90.059036, 21.988773 ], [ 90.0336, 21.952217 ], [ 90.029984, 21.945827 ], [ 90.028046, 21.938606 ], [ 90.021927, 21.86694 ], [ 90.024704, 21.859997 ], [ 90.115540000000124, 21.812218 ], [ 90.154709, 21.801662000000135 ], [ 90.170822000000101, 21.79833200000013 ], [ 90.189697, 21.798885 ], [ 90.197479, 21.80083100000013 ], [ 90.211380000000133, 21.806107 ], [ 90.267487000000131, 21.844719 ], [ 90.272491000000116, 21.849163 ], [ 90.279434, 21.862217000000101 ], [ 90.284149000000127, 21.875275 ], [ 90.290543, 21.897495000000106 ], [ 90.291656, 21.90583 ], [ 90.305542, 21.966663 ], [ 90.309982, 21.982216 ], [ 90.317215, 22.00222 ], [ 90.331375, 22.035275000000127 ], [ 90.339157000000114, 22.046387 ], [ 90.343597, 22.051388 ], [ 90.348602, 22.056385 ], [ 90.358322000000101, 22.065830000000119 ], [ 90.368042, 22.075275 ], [ 90.371094, 22.081387 ], [ 90.395725014097266, 22.162024248532536 ], [ 90.405903460428803, 22.159803331594528 ], [ 90.405823, 22.151661000000104 ], [ 90.389709, 22.111664 ], [ 90.388046, 22.103607000000125 ], [ 90.38916, 22.095551 ], [ 90.394440000000145, 22.090553 ], [ 90.425262, 22.073887 ], [ 90.431656, 22.070553000000132 ], [ 90.440536000000122, 22.071663000000115 ], [ 90.446365000000128, 22.076107 ], [ 90.489321162880373, 22.141601753252452 ], [ 91.782794107978205, 21.859368504773489 ], [ 91.773785172598181, 21.899351073590658 ], [ 91.74118130357455, 22.183336569410613 ], [ 91.671698054786049, 22.172331255478731 ], [ 91.507921398823257, 22.176731505567354 ], [ 91.348247696744281, 22.210940890080334 ], [ 91.198871631417802, 22.273610940245511 ], [ 91.065588379762801, 22.362273719810542 ], [ 91.058483695204202, 22.368061794657123 ], [ 91.045059386742167, 22.372546146185364 ], [ 90.904178276836632, 22.451590686027494 ], [ 90.837512276774603, 22.497914374468721 ], [ 90.708004051877751, 22.609628763242334 ], [ 90.606829645630057, 22.744113634717984 ], [ 90.538556564209728, 22.895238944030144 ], [ 90.506266987515431, 23.056136974567593 ], [ 90.504952537791638, 23.071838513363367 ], [ 90.549713, 23.07111 ], [ 90.558029, 23.07222 ], [ 90.563873, 23.076107 ], [ 90.578598, 23.089996 ], [ 90.5961, 23.110554 ], [ 90.60054, 23.125275 ], [ 90.6147, 23.189438000000109 ], [ 90.613876, 23.214439 ], [ 90.612488, 23.222218 ], [ 90.60554500000012, 23.24305 ], [ 90.58027600000014, 23.283886 ], [ 90.569992000000127, 23.289719 ], [ 90.562195, 23.292496 ], [ 90.554153, 23.294163 ], [ 90.526718, 23.29676400000011 ], [ 90.507492, 23.297497 ], [ 90.4897, 23.299999 ], [ 90.471375, 23.306385 ], [ 90.429428000000144, 23.323330000000112 ], [ 90.423599, 23.326664000000108 ], [ 90.395132772762466, 23.348442347281981 ], [ 90.36411274964631, 23.421707128358307 ], [ 90.374146, 23.419163 ], [ 90.397491, 23.41333 ], [ 90.485809, 23.396107 ], [ 90.545822000000101, 23.38472 ], [ 90.550262, 23.383884 ], [ 90.573608, 23.435272 ], [ 90.574707, 23.439163 ], [ 90.575272, 23.447773 ], [ 90.579437, 23.520275 ], [ 90.579437, 23.537777 ], [ 90.578598, 23.541943 ], [ 90.573608, 23.546665 ], [ 90.515823, 23.549164 ], [ 90.49942, 23.552776000000108 ], [ 90.489975000000129, 23.558052 ], [ 90.484711, 23.562218 ], [ 90.473602, 23.575829 ], [ 90.560806, 23.586662 ], [ 90.593826, 23.597965 ], [ 90.611099, 23.584164 ], [ 90.60582, 23.579163 ], [ 90.589157, 23.553886 ], [ 90.586655, 23.546665 ], [ 90.586655, 23.533886 ], [ 90.5961, 23.497215 ], [ 90.598602000000142, 23.490273000000116 ], [ 90.603043, 23.489716 ], [ 90.645721, 23.501934 ], [ 90.64769, 23.512508 ], [ 90.666374, 23.517673 ], [ 90.691086, 23.507221000000129 ], [ 90.694977, 23.512497 ], [ 90.696365, 23.516109 ], [ 90.697754, 23.524998 ], [ 90.691696, 23.551403 ], [ 90.704987, 23.552219 ], [ 90.711929, 23.549164 ], [ 90.716660000000104, 23.544998000000135 ], [ 90.717484, 23.513332 ], [ 90.716660000000104, 23.504719 ], [ 90.712494, 23.495827 ], [ 90.70138500000013, 23.482773 ], [ 90.696365, 23.478329 ], [ 90.692749, 23.476383 ], [ 90.688873, 23.475552 ], [ 90.658035, 23.484718 ], [ 90.641373, 23.487774000000115 ], [ 90.636383000000137, 23.487774000000115 ], [ 90.625809, 23.48444000000012 ], [ 90.606644000000131, 23.474438000000134 ], [ 90.598602000000142, 23.462772 ], [ 90.597488, 23.454994 ], [ 90.593048000000124, 23.378609 ], [ 90.593597000000102, 23.370552 ], [ 90.594986, 23.367218 ], [ 90.615814, 23.327774 ], [ 90.626648, 23.318886000000134 ], [ 90.629700000000128, 23.317497 ], [ 90.643875, 23.208328 ], [ 90.638596, 23.189163 ], [ 90.623871000000122, 23.063332 ], [ 90.623871000000122, 23.058609 ], [ 90.626648, 23.048332 ], [ 90.630539000000113, 23.041664 ], [ 90.643875, 23.031666 ], [ 90.679703, 22.991661000000136 ], [ 90.707214000000135, 22.948883 ], [ 90.721924000000115, 22.925552 ], [ 90.723312, 22.922497 ], [ 90.745819, 22.871662000000129 ], [ 90.748032, 22.860554 ], [ 90.750832, 22.823032 ], [ 90.776382, 22.765553 ], [ 90.781662, 22.756943 ], [ 90.799423000000104, 22.732216000000108 ], [ 90.829437, 22.691105000000107 ], [ 90.833603, 22.685551 ], [ 90.943588, 22.582218 ], [ 90.948318, 22.578331 ], [ 90.961655, 22.571663 ], [ 90.968872, 22.569717000000139 ], [ 90.982758000000103, 22.568329 ], [ 90.994705, 22.571384 ], [ 91.000824, 22.574718 ], [ 91.007759, 22.579529 ], [ 91.041931, 22.591106 ], [ 91.111923, 22.577496 ], [ 91.12553400000013, 22.577496 ], [ 91.228867, 22.585552 ], [ 91.232483, 22.587219 ], [ 91.255554, 22.616108 ], [ 91.258881, 22.622219 ], [ 91.261108, 22.62944 ], [ 91.262207, 22.637775 ], [ 91.260544, 22.645550000000128 ], [ 91.255829, 22.654442 ], [ 91.251099, 22.659161 ], [ 91.334717, 22.713051000000121 ], [ 91.455826, 22.789997 ], [ 91.544144000000131, 22.702496 ], [ 91.56749, 22.674164000000133 ], [ 91.658325, 22.554165000000125 ], [ 91.669434, 22.53722 ], [ 91.699997, 22.488327 ], [ 91.708878000000141, 22.472771 ], [ 91.741928, 22.404716 ], [ 91.750275, 22.385551 ], [ 91.756104, 22.368607 ], [ 91.758881, 22.353329 ], [ 91.761108, 22.319996 ], [ 91.770828, 22.26249700000011 ], [ 91.773041, 22.254997 ], [ 91.782761000000107, 22.237495 ], [ 91.786102000000142, 22.231663 ], [ 91.788589, 22.229439000000127 ], [ 91.811371000000122, 22.1936070000001 ], [ 91.816376, 22.153606 ], [ 91.82222, 22.13694 ], [ 91.825821, 22.130276 ], [ 91.8311, 22.121941000000106 ], [ 91.835815, 22.117218 ], [ 91.839157, 22.115829 ], [ 91.843048, 22.116108000000111 ], [ 91.856934, 22.102776000000119 ], [ 91.902206, 21.922771000000125 ], [ 91.915268, 21.862774 ], [ 91.901382000000126, 21.774441 ], [ 91.95018, 21.791615 ], [ 91.954582, 21.75581 ], [ 91.946365, 21.733505 ], [ 91.961914, 21.680092 ], [ 91.976654, 21.654163 ], [ 91.979156000000103, 21.651939 ], [ 91.984985, 21.648884000000123 ], [ 91.9897, 21.648331 ], [ 92.00972, 21.657219 ], [ 92.014999, 21.661663 ], [ 92.017487000000131, 21.668327 ], [ 92.016098, 21.671661 ], [ 92.015549, 21.679996 ], [ 92.020828, 21.703049 ], [ 92.023041000000148, 21.70583 ], [ 92.026382, 21.704163 ], [ 92.027771000000143, 21.701385 ], [ 92.039429, 21.660275 ], [ 92.036377, 21.635273 ], [ 92.004715000000147, 21.496105 ], [ 91.973038, 21.466385 ], [ 91.955261000000121, 21.45055 ], [ 91.971924, 21.409439 ], [ 91.978592, 21.401386 ], [ 92.001938, 21.368607 ], [ 92.026932, 21.328884 ], [ 92.046097000000145, 21.292221 ], [ 92.049988, 21.277775 ], [ 92.052475000000129, 21.253609 ], [ 92.048874, 21.228607 ], [ 92.045822, 21.19305 ], [ 92.045258, 21.18055 ], [ 92.045822, 21.17194 ], [ 92.050262, 21.158051 ], [ 92.064987, 21.13583 ], [ 92.075272, 21.122219 ], [ 92.123032, 21.06694 ], [ 92.207489, 20.933052 ], [ 92.222488000000112, 20.901939 ], [ 92.29776, 20.764442 ], [ 92.303314, 20.756107 ], [ 92.317215, 20.741383 ], [ 92.319717, 20.739162 ], [ 92.323608, 20.738049 ], [ 92.327484, 20.738884 ], [ 92.329987, 20.741383 ], [ 92.331665, 20.74416 ], [ 92.333878, 20.751389 ], [ 92.333328, 20.764164 ], [ 92.33027600000014, 20.774166 ], [ 92.309708, 20.831108 ], [ 92.291092, 20.868053 ], [ 92.2686, 20.906662 ], [ 92.263321, 20.919163 ], [ 92.260818, 20.934719 ], [ 92.257217, 20.966938 ], [ 92.255554, 20.983051000000103 ], [ 92.255829, 21.027222 ], [ 92.256378, 21.03194 ], [ 92.261932, 21.05431 ], [ 92.273605, 20.986382 ], [ 92.282761, 20.94305 ], [ 92.287766, 20.933331 ], [ 92.310806, 20.890553 ], [ 92.362198, 20.75861 ], [ 92.373871000000122, 20.700829 ], [ 92.377472, 20.697216 ], [ 92.385544, 20.691383 ], [ 92.408875, 20.680275 ], [ 92.42804, 20.6722180000001 ], [ 92.433594, 20.670551 ], [ 92.460266, 20.649719 ], [ 92.495255, 20.621384 ], [ 92.505554, 20.610275 ], [ 92.619705, 20.457218 ], [ 92.678589, 20.341106 ], [ 92.684418000000107, 20.324718 ], [ 92.692749, 20.303886 ], [ 92.703873, 20.285831 ], [ 92.709991, 20.277496 ], [ 92.71666, 20.27027500000014 ], [ 92.732758000000103, 20.258331 ], [ 92.736923000000104, 20.259998 ], [ 92.739151, 20.264442 ], [ 92.739975, 20.269997 ], [ 92.737488, 20.426384 ], [ 92.734421, 20.445827000000122 ], [ 92.711655, 20.58138700000012 ], [ 92.707489000000123, 20.591942 ], [ 92.703873, 20.595829 ], [ 92.699783, 20.598766 ], [ 92.691925, 20.604717 ], [ 92.681656, 20.615829 ], [ 92.644714000000135, 20.672771 ], [ 92.63916, 20.681664 ], [ 92.634995, 20.692219000000136 ], [ 92.640823, 20.692772 ], [ 92.645264, 20.690552 ], [ 92.652206, 20.683052 ], [ 92.713608000000136, 20.60083 ], [ 92.796097, 20.489994 ], [ 92.830511794203403, 20.430102483567225 ], [ 92.830544287596609, 20.280717547220046 ], [ 92.795258, 20.25972 ], [ 92.791092, 20.256386 ], [ 92.78804, 20.252777 ], [ 92.767487, 20.219162 ], [ 92.764999, 20.214718 ], [ 92.765274, 20.208607 ], [ 92.767212, 20.203327 ], [ 92.773315, 20.194996 ], [ 92.830573483133364, 20.146494156892437 ], [ 92.83110648297469, 17.696083796604153 ] ] ], [ [ [ 90.237762, 22.192772000000105 ], [ 90.239426, 22.185272 ], [ 90.238312, 22.176662000000135 ], [ 90.227768, 22.130276 ], [ 90.224701, 22.124439 ], [ 90.216095, 22.114441 ], [ 90.209152, 22.111385 ], [ 90.201096000000121, 22.10944000000012 ], [ 90.192749, 22.108608 ], [ 90.184418, 22.109997 ], [ 90.176926, 22.112495000000138 ], [ 90.167480000000126, 22.111942 ], [ 90.157486000000119, 22.103329 ], [ 90.118591, 22.065830000000119 ], [ 90.092758, 22.035275000000127 ], [ 90.061371000000122, 21.991774 ], [ 90.063370000000134, 21.995939 ], [ 90.066940000000102, 22.004997 ], [ 90.073318, 22.026943000000131 ], [ 90.080551, 22.039440000000127 ], [ 90.095261, 22.061665000000119 ], [ 90.145828000000108, 22.115551 ], [ 90.151657000000114, 22.120552 ], [ 90.237762, 22.192772000000105 ] ] ] ] } }
]
}
