54.543	,-166.735
54.321	,-162.187
57.401	,-151.490
54.230	,-150.134
50.700	,-167.300
49.522	,177.463
44.800	,162.300
50.400	,157.700
54.500	,168.200
60.300	,178.600
63.600	,-175.300
61.503	,-171.521
58.335	,-167.527
54.543	,-166.735
