{
"type": "FeatureCollection",
"name": "MumbaiBuffer",
"crs": { "type": "name", "properties": { "name": "urn:ogc:def:crs:OGC:1.3:CRS84" } },
"features": [
{ "type": "Feature", "properties": { }, "geometry": { "type": "MultiPolygon", "coordinates": [ [ [ [ 70.000001907000183, 7.500001907000183 ], [ 72.000001908000058, 7.500001907000069 ], [ 72.000067826093115, 6.669039865724284 ], [ 70.851987366149956, 6.688031891708053 ], [ 70.816501924357411, 2.923130465688401 ], [ 70.696657799999088, 2.626180934892623 ], [ 68.831855606349052, -0.249196187976302 ], [ 68.830647756973192, -6.005533475551082 ], [ 68.767277383346823, -6.32407802662312 ], [ 68.690396562052555, -6.467917847514912 ], [ 68.460898653672487, -6.697370570061933 ], [ 68.317098682745495, -6.774197897917357 ], [ 67.998807822366629, -6.83747276962604 ], [ 60.000067814917323, -6.83747276962604 ], [ 59.681736446488628, -6.774181126592289 ], [ 59.537922298341485, -6.697334041752193 ], [ 59.308418171619927, -6.467826689325492 ], [ 59.184211433270747, -6.167802256617517 ], [ 59.168227861822643, -6.005357894951328 ], [ 59.18690818405134, 19.965830238428644 ], [ 59.242110156560074, 20.124047846451838 ], [ 59.450632897226804, 20.390025385898369 ], [ 63.248740441602749, 23.500001907000183 ], [ 64.497367608000104, 23.500001907000183 ], [ 64.500001907000183, 23.500001907000183 ], [ 60.000001907000183, 19.800001144000134 ], [ 60.000001907000183, 12.000001907000183 ], [ 60.000001907000183, 10.700002670000117 ], [ 60.000001907000183, 1.977700995000134 ], [ 60.000001907000183, -5.999999999999886 ], [ 68.000001907000012, -5.999999999999886 ], [ 68.000001907000012, 0.000000000000171 ], [ 70.000001907000183, 3.083333968999966 ], [ 70.000001907000183, 5.490198135000128 ], [ 70.000001907000183, 7.500001907000183 ] ] ] ] } }
]
}
