"shapeid","x","y"
"0.0","72.1709933746524","15.000001907000069"
"0.0","72.00000190800006","15.000001907000069"
"0.0","71.89292969246395","15.482650698591469"
"0.0","71.67403715159236","16.296341213684638"
"0.0","71.55814735497668","17.0977492098403"
"0.0","71.17646797523955","18.48755145939394"
"0.0","71.11360450812649","18.79489313541457"
"0.0","71.106689899995","19.1360842541151"
"0.0","70.67139209983145","19.128247822163573"
"0.0","70.21370830506213","19.23229855007159"
"0.0","69.68180792658538","19.458163460233855"
"0.0","69.10726625451767","19.845760274110294"
"0.0","68.83541250970734","20.082488886994504"
"0.0","68.52282041093066","20.441744642749722"
"0.0","68.00860348784167","20.888916866091172"
"0.0","67.62956399481648","21.31564669327308"
"0.0","67.39650207641148","21.723142115168322"
"0.0","67.24638771293918","22.30837739029653"
"0.0","66.75845783516671","22.490802703836387"
"0.0","66.35938680668153","22.766876529077916"
"0.0","65.96536912494459","23.223745074910553"
"0.0","65.8097785107967","23.498955155197844"
"0.0","67.23581302000008","23.49781549200003"
"0.0","68.16969234400005","23.497069151000176"
"0.0","68.11546319799999","23.538778597000146"
"0.0","68.11486053900012","23.539242121000086"
"0.0","68.11142370200008","23.601520674000085"
"0.0","68.13491630599998","23.647645950000026"
"0.0","68.18568611100005","23.6884593960001"
"0.0","68.19069969383858","23.72083141721793"
"0.0","68.201096","23.664162"
"0.0","68.140274","23.604717"
"0.0","68.259155","23.579163"
"0.0","68.335266","23.588051"
"0.0","68.447479","23.72694"
"0.0","68.741364","23.844162"
"0.0","68.408325","23.612774"
"0.0","68.43304400000011","23.429996"
"0.0","68.65332","23.152496"
"0.0","69.14749100000012","22.869164"
"0.0","69.710266","22.742771"
"0.0","69.849426","22.858608"
"0.0","70.227203","22.957497000000103"
"0.0","70.389435","22.935272"
"0.0","70.410812","23.085274"
"0.0","70.47526600000015","23.127495"
"0.0","70.51249700000011","23.094162"
"0.0","70.51138300000014","22.985271"
"0.0","70.367477","22.888607"
"0.0","70.165543","22.54833200000013"
"0.0","70.04054300000013","22.558331"
"0.0","69.870819","22.465549000000124"
"0.0","69.238312","22.273331"
"0.0","69.171097","22.302776"
"0.0","69.17747500000013","22.360275"
"0.0","69.067215","22.480827"
"0.0","68.986374","22.418327"
"0.0","68.944427","22.294163"
"0.0","69.11554","22.062496000000124"
"0.0","69.78858900000012","21.466385"
"0.0","70.06080600000013","21.14444"
"0.0","70.517761","20.81666600000011"
"0.0","70.831375","20.694439"
"0.0","70.96609500000011","20.702774"
"0.0","71.466934","20.881939"
"0.0","71.568054","20.974995"
"0.0","72.11053500000014","21.201939"
"0.0","72.103867","21.309719"
"0.0","72.24247700000012","21.465271"
"0.0","72.289154","21.61082800000014"
"0.0","72.172485","21.785831000000144"
"0.0","72.019714","21.773609"
"0.0","71.994141","21.847775"
"0.0","72.161926","21.83527400000014"
"0.0","72.152206","21.92860800000011"
"0.0","72.031662","21.942772"
"0.0","72.265274","22.016109"
"0.0","72.325821","22.156662"
"0.0","72.29693600000013","22.232216"
"0.0","72.178864","22.247494"
"0.0","72.151932","22.283886"
"0.0","72.375809","22.299164000000133"
"0.0","72.389709","22.249439"
"0.0","72.466385","22.227219000000105"
"0.0","72.5811000000001","22.28611"
"0.0","72.919144","22.267776"
"0.0","72.914993","22.216106"
"0.0","72.81776400000012","22.2397160000001"
"0.0","72.746933","22.164719"
"0.0","72.57554600000014","22.195274"
"0.0","72.500824","21.976662"
"0.0","72.551651","21.907219"
"0.0","72.73442100000011","21.986382"
"0.0","72.56749","21.848053"
"0.0","72.541656","21.663883"
"0.0","72.936646","21.681664"
"0.0","73.130814","21.753609"
"0.0","72.81330900000012","21.632217"
"0.0","72.631363","21.494438"
"0.0","72.58581500000014","21.41333"
"0.0","72.71527100000014","21.474995"
"0.0","72.751938","21.455273"
"0.0","72.5641480000001","21.37805200000014"
"0.0","72.60748300000012","21.25805300000013"
"0.0","72.718048","21.196106"
"0.0","72.615814","21.097218"
"0.0","72.702774","21.074165"
"0.0","72.808029","21.126385"
"0.0","72.853043","21.067776"
"0.0","72.846939","20.844162"
"0.0","72.93441800000011","20.774719"
"0.0","72.88526900000011","20.513054"
"0.0","72.753601","20.294998"
"0.0","72.664154","19.870831"
"0.0","72.75444","19.369717"
"0.0","72.79776","19.326107"
"0.0","72.963882","19.309162"
"0.0","73.047226","19.217255000000137"
"0.0","72.856369","19.317776"
"0.0","72.780548","19.312496"
"0.0","72.76666300000011","19.22805"
"0.0","72.7833250000001","19.148052"
"0.0","72.820831","19.172771000000125"
"0.0","72.825546","19.053051"
"0.0","72.76998900000012","18.94305"
"0.0","72.823044","18.912495"
"0.0","72.96971100000013","19.078884"
"0.0","73.05554200000012","19.011944"
"0.0","72.911926","18.917496"
"0.0","72.993042","18.790554"
"0.0","72.987488","18.727772"
"0.0","72.93304400000011","18.81971700000014"
"0.0","72.857483","18.795277"
"0.0","72.853867","18.660553"
"0.0","73.274704","17.08194"
"0.0","73.269714","16.853329"
"0.0","73.360535","16.512218"
"0.0","73.326096","16.485828"
"0.0","73.37001084566383","16.330612494434906"
"0.0","73.0","16.283333330000062"
"0.0","73.58333246300003","15.000001907000069"
"0.0","72.1709933746524","15.000001907000069"
