{
  "type": "FeatureCollection",
  "features": [
    {
      "type": "Feature",
      "properties": {},
      "geometry": {
        "type": "Polygon",
        "coordinates": [
          [
          [-141		,	82              ],
[-141.0003106,	68.80865848     ],
[-141.0006882,	65.03196833     ],
[-141.0011292,	60.39943886     ],
[-141.0005898,	60.36666298     ],
[-140.9955581,	60.30838641     ],
[-140.9888819,	60.3059166      ],
[-140.9463806,	60.29888818     ],
[-140.8869568,	60.26999092     ],
[-140.5213928,	60.22221565     ],
[-140.5088814,	60.23896923     ],
[-140.5019531,	60.24481484     ],
[-140.493042	,60.25888626    ],
[-140.4819238,	60.28388405     ],
[-140.4599915,	60.29694558     ],
[-140.4530198,	60.30668108     ],
[-139.9812469,	60.1819458      ],
[-139.8124945,	60.28169981     ],
[-139.8938843,	60.28028535     ],
[-139.8816685,	60.29249864     ],
[-139.6988831,	60.3283329      ],
[-139.6860449,	60.33539122     ],
[-139.1085681,	60.35152928     ],
[-139.0848606,	60.3521044      ],
[-139.0822198,	60.31941605     ],
[-139.1990051,	60.08828591     ],
[-139.0613098,	59.99964142     ],
[-139.053833	,59.99480438    ],
[-138.8986603,	59.92464066     ],
[-138.8085043,	59.90630822     ],
[-138.6895808,	59.8453331      ],
[-138.6688885,	59.80963898     ],
[-138.6263285,	59.86855469     ],
[-138.0914099,	59.49585982     ],
[-138.9465685,	59.42111934     ],
[-138.6083914,	59.24380493     ],
[-138.54216	,59.1064148         ],
[-138.5000305,	58.98538981     ],
[-138.5261088,	58.90636063     ],
[-138.4518212,	58.90835953     ],
[-138.4484356,	58.91068611     ],
[-138.4458333,	58.91055556     ],
[-138.2541668,	59.0085         ],
[-138.2314498,	59.01543846     ],
[-138.2084488,	59.02263244     ],
[-138.1856439,	59.03216553     ],
[-138.08461	,59.06288848        ],
[-138.0631166,	59.06998482     ],
[-138.036982	,59.08885061    ],
[-136.9696655,	59.1012498      ],
[-136.8868242,	59.13616562     ],
[-136.8546595,	59.14810858     ],
[-136.8288201,	59.15998314     ],
[-136.8386188,	59.16214396     ],
[-136.5844116,	59.16585922     ],
[-136.5804609,	59.16988668     ],
[-136.5858333,	59.18           ],
[-136.5483032,	59.20166388     ],
[-136.4896698,	59.25980388     ],
[-136.4921951,	59.26619653     ],
[-136.4958285,	59.28513886     ],
[-136.469223	,59.28408432    ],
[-136.4822848,	59.3180285      ],
[-136.4826815,	59.32202911     ],
[-136.4883408,	59.38625122     ],
[-136.4881118,	59.46583186     ],
[-136.4641064,	59.46381884     ],
[-136.4283892,	59.45813553     ],
[-136.4008333,	59.45288888     ],
[-136.3955125,	59.45320158     ],
[-136.3838488,	59.44983292     ],
[-136.3824213,	59.44961166     ],
[-136.3681946,	59.4489808      ],
[-136.3624825,	59.45038986     ],
[-136.3613129,	59.45066834     ],
[-136.3606883,	59.45080566     ],
[-136.3049884,	59.46452813     ],
[-136.2998253,	59.46925243     ],
[-136.2944444,	59.48083333     ],
[-136.2696819,	59.49628825     ],
[-136.2386255,	59.52819055     ],
[-136.2398081,	59.55941883     ],
[-136.3539124,	59.59983444     ],
[-136.3393024,	59.60348692     ],
[-136.290802	,59.61561203    ],
[-136.2835596,	59.61991501     ],
[-136.2653351,	59.62198113     ],
[-136.2498253,	59.62586212     ],
[-136.2388543,	59.62861252     ],
[-136.2260429,	59.63188556     ],
[-136.1822222,	59.64194444     ],
[-135.9388889,	59.66694444     ],
[-135.4830556,	59.8            ],
[-135.3585	,59.83888889        ],
[-135.3468983,	59.83283384     ],
[-135.2528466,	59.69828652     ],
[-135.2336831,	59.69614029     ],
[-135.2198334,	59.66288695     ],
[-135.1641388,	59.62961198     ],
[-135.1623201,	59.62853348     ],
[-135.1585885,	59.62582098     ],
[-135.1386108,	59.62444305     ],
[-135.1188284,	59.62308502     ],
[-135.1126404,	59.61960983     ],
[-135.0288849,	59.5636683      ],
[-135.0286102,	59.54410934     ],
[-135.0285339,	59.53924942     ],
[-135.0285584,	59.48485052     ],
[-135.0882805,	59.45188841     ],
[-135.1010284,	59.42852838     ],
[-134.9909268,	59.38856688     ],
[-134.995185	,59.38181044    ],
[-135.0305328,	59.34635925     ],
[-134.9599152,	59.28091812     ],
[-134.9484049,	59.28950068     ],
[-134.8388916,	59.25028658     ],
[-134.8141824,	59.24610329     ],
[-134.6990132,	59.24449184     ],
[-134.6891382,	59.192286       ],
[-134.5855528,	59.13650588     ],
[-134.5664062,	59.13054848     ],
[-134.5528898,	59.13121155     ],
[-134.4834138,	59.13161088     ],
[-134.4481436,	59.08922195     ],
[-134.3819122,	59.0388864      ],
[-134.4081655,	58.98922134     ],
[-134.3135223,	58.96219635     ],
[-134.3165805,	58.95803553     ],
[-134.3322144,	58.93065202     ],
[-134.3365021,	58.92341614     ],
[-134.3083344,	58.90122223     ],
[-134.2581188,	58.86102686     ],
[-134.2433926,	58.85619803     ],
[-134.2216581,	58.84906894     ],
[-133.9823816,	58.86830828     ],
[-133.8405304,	58.8294426      ],
[-133.8081381,	58.61228899     ],
[-133.6908889,	58.60253296     ],
[-133.6833191,	58.59554482     ],
[-133.6284629,	58.56486856     ],
[-133.6016541,	58.55054665     ],
[-133.5888889,	58.53982054     ],
[-133.5588989,	58.52804856     ],
[-133.4299928,	58.45916186     ],
[-133.4283625,	58.45621826     ],
[-133.3883346,	58.43055825     ],
[-133.3959638,	58.42108986     ],
[-133.4615326,	58.38882202     ],
[-133.4183598,	58.34628604     ],
[-133.3611145,	58.28055        ],
[-133.345865	,58.28661195    ],
[-133.3454842,	58.28633286     ],
[-133.2800348,	58.22811182     ],
[-133.2209168,	58.1902504      ],
[-133.2093658,	58.1815568      ],
[-133.2001038,	58.18461014     ],
[-133.1823633,	58.15369415     ],
[-133.0801599,	58.0003891      ],
[-132.8694458,	58.8398889      ],
[-132.8511444,	58.69602966     ],
[-132.660965	,58.61688933    ],
[-132.5538025,	58.49658203     ],
[-132.3699188,	58.34980393     ],
[-132.2548443,	58.21901219     ],
[-132.2486424,	58.21082936     ],
[-132.3668993,	58.0912338      ],
[-132.0453033,	58.04511261     ],
[-132.0660048,	56.99994983     ],
[-132.1236114,	56.88366486     ],
[-131.8829401,	56.80602646     ],
[-131.9009393,	56.85348131     ],
[-131.8616883,	56.80425328     ],
[-131.8354452,	56.59958398     ],
[-131.5818288,	56.61224931     ],
[-131.5898228,	56.61154668     ],
[-131.5890803,	56.61114111     ],
[-131.4821385,	56.55282293     ],
[-131.3198853,	56.50028848     ],
[-131.3111825,	56.49828631     ],
[-131.2985311,	56.49255381     ],
[-131.2953949,	56.49180603     ],
[-131.1836145,	56.44958496     ],
[-131.1636895,	56.44458148     ],
[-131.1444802,	56.43481818     ],
[-131.124818	,56.42488496    ],
[-131.0884939,	56.40608215     ],
[-131.081526	,56.40404556    ],
[-130.9659829,	56.39058304     ],
[-130.9423065,	56.38855418     ],
[-130.9228821,	56.38508225     ],
[-130.9149933,	56.38405609     ],
[-130.889886	,56.38952805    ],
[-130.8598022,	56.3869455      ],
[-130.886888	,56.36853026    ],
[-130.8844446,	56.36610603     ],
[-130.8558594,	56.35305214     ],
[-130.8382586,	56.33934583     ],
[-130.8369995,	56.33855438     ],
[-130.8314148,	56.3350296      ],
[-130.8203828,	56.32810984     ],
[-130.8101593,	56.32166682     ],
[-130.6862488,	56.30658341     ],
[-130.6688314,	56.29498148     ],
[-130.648644	,56.28222285    ],
[-130.6456604,	56.28098153     ],
[-130.6269226,	56.26911163     ],
[-130.6234841,	56.26694489     ],
[-130.6156158,	56.26511002     ],
[-130.58255	,56.25836238        ],
[-130.5809229,	56.25461198     ],
[-130.5406952,	56.24852808     ],
[-130.4680328,	56.24311066     ],
[-130.4650238,	56.23583295     ],
[-130.4564668,	56.21513848     ],
[-130.4515086,	56.20314026     ],
[-130.4496613,	56.19863892     ],
[-130.4398288,	56.18458344     ],
[-130.4261628,	56.14161301     ],
[-130.4188663,	56.14034633     ],
[-130.3502502,	56.12861252     ],
[-130.3026268,	56.11388885     ],
[-130.2463684,	56.09648369     ],
[-130.2443211,	56.09685188     ],
[-130.2301331,	56.09948205     ],
[-130.1039429,	56.12285996     ],
[-130.0980828,	56.11618603     ],
[-130.0830231,	56.09899902     ],
[-130.0648346,	56.08822038     ],
[-130.0589142,	56.08144548     ],
[-130.058663	,56.0800264     ],
[-130.0544128,	56.06630808     ],
[-130.036982	,56.04636002    ],
[-130.0350342,	56.04410934     ],
[-130.0142382,	56.02028034     ],
[-130.0116425,	56.01830828     ],
[-130.0036316,	56.00811005     ],
[-130.0041046,	56.00125122     ],
[-130.0041656,	56.00094605     ],
[-130.0053558,	55.99302683     ],
[-130.0124664,	55.94680405     ],
[-130.0150909,	55.92986298     ],
[-130.0151198,	55.92968138     ],
[-130.0148882,	55.91198205     ],
[-130.0039215,	55.91198205     ],
[-130.0039215,	55.9084808      ],
[-130.0836334,	55.82185064     ],
[-130.1249238,	55.80569458     ],
[-130.1525584,	55.86633453     ],
[-130.1488882,	55.81494293     ],
[-130.1118806,	55.68294525     ],
[-130.1280212,	55.58108521     ],
[-130.0899506,	55.4980011      ],
[-130.0413055,	55.45185181     ],
[-130.0211334,	55.33894403     ],
[-129.9866998,	55.30038834     ],
[-129.9841984,	55.28194428     ],
[-130.1028595,	55.19261169     ],
[-130.1461639,	55.14286041     ],
[-130.1524658,	55.1246386      ],
[-130.1809235,	55.09128808     ],
[-130.1885863,	55.0628624      ],
[-130.2833612,	54.98398232     ],
[-130.3459888,	54.91885131     ],
[-130.3548988,	54.91259619     ],
[-130.3598108,	54.90804482     ],
[-130.366394	,54.90499306    ],
[-130.3822229,	54.90082841     ],
[-130.3898884,	54.89238841     ],
[-130.4228448,	54.8833902      ],
[-130.454422	,54.85130692    ],
[-130.4802804,	54.83669281     ],
[-130.568222	,54.89216866    ],
[-130.6115105,	54.88544839     ],
[-130.628891	,54.88284918    ],
[-130.6590881,	54.86308441     ],
[-130.6416824,	54.85004603     ],
[-130.6258488,	54.83810959     ],
[-130.628199	,54.82688338    ],
[-130.6286621,	54.82485052     ],
[-130.6212016,	54.81484869     ],
[-130.6182594,	54.80989118     ],
[-132.5833333,	54.66666668     ],
[-132.8006092,	54.65925612     ],
[-132.8009141,	54.65923686     ],
[-133.1586804,	54.58330888     ],
[-133.2128889,	54.56288499     ],
[-133.6032381,	54.48691224     ],
[-134.0188208,	54.40616815     ],
[-134.1201881,	54.38560058     ],
[-134.6890222,	54.28232953     ],
[-134.8956801,	54.24868396     ],
[-134.8482481,	54.2388291      ],
[-136		,	54.00000191     ],
[-135		,	52.81666528     ],
[-138.2693886,	53.45808318     ],
[-138.6438855,	53.56982806     ],
[-138.40899	,	53.89811528     ],
[-139.3659825,	54.0836581      ],
[-140.0145585,	54.25989815     ],
[-140.9828058,	54.52001146     ],
[-142.6056468,	54.93658655     ],
[-143.8955385,	55.22609829     ],
[-145.4828684,	55.60138991     ],
[-146.3919241,	55.89983384     ],
[-149.338128	,	56.36866555 ],
[-151.85		,	56.86666832 ],
[-153		,	56.00000191     ],
[-160		,	53.50000191     ],
[-168.8166656,	51.39999962     ],
[-186.5666656,	50.13333321     ],
[-180		,	50.46666528     ],
[-180		,	55.11228514     ],
[-180		,	59.99998811     ],
[-180		,	60.00000191     ],
[-189.8932819,	60.06645121     ],
[-189.886114	,	60.13281338 ],
[-189.6885239,	60.19908882     ],
[-189.5804994,	60.26528398     ],
[-189.4620382,	60.33138126     ],
[-189.3531388,	60.39838908     ],
[-189.2438958,	60.46329681     ],
[-189.1340099,	60.52912389     ],
[-189.0238888,	60.5948598      ],
[-188.913098	,	60.66050362 ],
[-188.8019651,	60.82605506     ],
[-188.6903898,	60.89151338     ],
[-188.5883385,	60.85688898     ],
[-188.4658389,	60.92214821     ],
[-188.1915314,	61.08514923     ],
[-188.0142148,	61.18056664     ],
[-188.8516684,	61.33665486     ],
[-188.0315669,	61.82348098     ],
[-186.96821	,	61.85804158     ],
[-186.9605084,	61.86188009     ],
[-186.952204	,	61.86610232 ],
[-186.8413296,	61.82566068     ],
[-185.6218411,	62.45860826     ],
[-184.489821	,	63.01883115 ],
[-183.4284043,	63.5085606      ],
[-183.2840432,	63.58180091     ],
[-183.1586968,	63.62988088     ],
[-183.0234835,	63.69020088     ],
[-182.8886938,	63.85049266     ],
[-182.8513246,	63.81065568     ],
[-182.6143833,	63.88068892     ],
[-182.4868381,	63.93059152     ],
[-182.3388132,	63.99036256     ],
[-182.1999989,	64.05000115     ],
[-169		,	65.00000191     ],
[-169		,	68.84111595     ],
[-169		,	68.00000191     ],
[-158		,	82.00000191     ],
[-141		,	82				]
          ]
        ]
      }
    }
  ]
}