{
  "type": "FeatureCollection",
  "features": [
    {
      "type": "Feature",
      "properties": {},
      "geometry": {
        "type": "Polygon",
        "coordinates": [
          [
           [32.08336221	,71.49999475],
[43.26668355	,68.66666978],
[44.15001656	,67.86666955],
[42.50001535	,66.78333618],
[40.00003004	,66.25000635],
[38.5000276	,66.00000586],
[36.65001315	,66.00000324],
[35.08334616	,66.33333677],
[29.60667772	,66.40000387],
[29.57156623	,66.43372774],
[29.01668889	,66.96667624],
[29.9500228	,67.51667627],
[30.01668957	,67.66667629],
[29.68335618	,67.8000069 ],
[29.35002286	,68.06667642],
[28.66668935	,68.20000705],
[28.45002278	,68.55000713],
[28.80002308	,68.8666766 ],
[28.53335632	,68.88334329],
[28.45002297	,68.91667664],
[28.91668989	,69.05000719],
[29.05002326	,69.01667661],
[29.20002334	,69.06667661],
[29.3333596	,69.2333433 ],
[29.28335961	,69.30000721],
[29.50002639	,69.33334331],
[29.53335972	,69.31667663],
[29.85002657	,69.41667663],
[29.98335995	,69.41667662],
[30.13336005	,69.48334329],
[30.20002679	,69.55000719],
[30.15002682	,69.63334332],
[30.10002681	,69.65000721],
[30.15002684	,69.66667665],
[30.51669357	,69.53334327],
[30.67593407	,69.54130396],
[30.85002704	,69.55000714],
[30.93336042	,69.58334325],
[30.93336048	,69.68334327],
[30.92077007	,69.69803174],
[30.89845017	,69.72407101],
[30.83338153	,69.79998266],
[30.83336121	,69.80000636],
[30.83336051	,69.80000718],
[30.93275814	,69.86627655],
[31.13333321	,70.00000191],
[31.13335983	,70.00000658],
[32.08333397	,70.16666603],
[32.08333397	,70.16667182],
[32.08333397	,71.50000191],
[32.08336221	,71.49999475]
          ]
        ]
      }
    }
  ]
}