{
  "type": "FeatureCollection",
  "features": [
    {
      "type": "Feature",
      "properties": {},
      "geometry": {
        "type": "Polygon",
        "coordinates": [
          [
          [-45				,18.00000191],
[-53.0428209		,18.00000191],
[-61.49999857	,18.00000191],
[-60				,20.00000191],
[-60				,23.50000191],
[-60				,30.05532014],
[-60				,39         ],
[-67				,39.00000191],
[-67				,39.116667  ],
[-67				,40.116667  ],
[-67				,41         ],
[-67				,41.116667  ],
[-67				,41.61666679],
[-67				,41.616667  ],
[-67				,41.86666679],
[-60				,43.60000038],
[-59.49273654	,43.70877445],
[-58.83237976	,43.85037928],
[-58.12518679	,44.00262281],
[-57.40778709	,44.15524294],
[-56.83891778	,44.27785098],
[-56.63979074	,44.32055116],
[-56.05166627	,44.44666674],
[-55.53300735	,44.54723262],
[-55.49630601	,44.55416394],
[-55.39300305	,44.57367346],
[-55.04377294	,44.63962815],
[-54.82049187	,44.68069308],
[-54.64981353	,44.71208354],
[-54.53927405	,44.73241351],
[-54.08695179	,44.81345628],
[-54.06669925	,44.8169969 ],
[-53.96235339	,44.83523903],
[-53.65535484	,44.88890965],
[-53.60634031	,44.89721833],
[-53				,45.00000191],
[-51				,45.00000191],
[-46.83673477	,45.00000191],
[-40				,45.00000191],
[-40				,35.15041629],
[-40				,27.00000191],
[-40				,22.30000114],
[-45				,18.00000191]
          ]
        ]
      }
    }
  ]
}