"shapeid","x","y"
"0","-141.0","72.0"
"0","-141.0003106","68.80865747"
"0","-141.0006782","65.03196833"
"0","-141.0011292","60.39943886"
"0","-141.0005798","60.36666298"
"0","-140.9955581","60.30737641"
"0","-140.9887819","60.3059166"
"0","-140.9463806","60.29777718"
"0","-140.7869568","60.26999092"
"0","-140.5213928","60.22221565"
"0","-140.5077814","60.23796923"
"0","-140.5019531","60.24471474"
"0","-140.493042","60.25777626"
"0","-140.4719238","60.28388405"
"0","-140.4599915","60.29694557"
"0","-140.4530198","60.30667108"
"0","-139.9812469","60.1819458"
"0","-139.8124945","60.27169971"
"0","-139.7938843","60.28027535"
"0","-139.7716675","60.29249764"
"0","-139.6988831","60.3283329"
"0","-139.6860449","60.33539122"
"0","-139.1085671","60.35152927"
"0","-139.0748606","60.3521044"
"0","-139.0722198","60.31941605"
"0","-139.1990051","60.08827591"
"0","-139.0613098","59.99964142"
"0","-139.053833","59.99480438"
"0","-138.7986603","59.92464066"
"0","-138.7075043","59.90630722"
"0","-138.6795807","59.8453331"
"0","-138.6687775","59.80963898"
"0","-138.6263275","59.76855469"
"0","-138.0914099","59.49575982"
"0","-137.9465675","59.42111934"
"0","-137.6073914","59.24380493"
"0","-137.54216","59.1064148"
"0","-137.5000305","58.98538971"
"0","-137.5261078","58.90636063"
"0","-137.4517212","58.90835953"
"0","-137.4474356","58.91068611"
"0","-137.4458333","58.91055556"
"0","-137.2541667","59.0075"
"0","-137.2314498","59.01543846"
"0","-137.2074488","59.02263244"
"0","-137.1756439","59.03216553"
"0","-137.08461","59.06277847"
"0","-137.0631166","59.06998482"
"0","-137.036972","59.07875061"
"0","-136.9696655","59.1012497"
"0","-136.8767242","59.13616562"
"0","-136.8546595","59.14710857"
"0","-136.8287201","59.15997314"
"0","-136.7386178","59.16214396"
"0","-136.5844116","59.16585922"
"0","-136.5804609","59.16977667"
"0","-136.5758333","59.17"
"0","-136.5483032","59.20166378"
"0","-136.4896698","59.25980377"
"0","-136.4921951","59.26619653"
"0","-136.4957275","59.27513886"
"0","-136.469223","59.28408432"
"0","-136.4722748","59.3180275"
"0","-136.4726715","59.32202911"
"0","-136.4773407","59.37625122"
"0","-136.4771118","59.46583176"
"0","-136.4641064","59.46381874"
"0","-136.4273892","59.45813553"
"0","-136.4008333","59.45277778"
"0","-136.3955125","59.45320157"
"0","-136.3737488","59.44983292"
"0","-136.3724213","59.44961166"
"0","-136.3681946","59.4489708"
"0","-136.3624725","59.45038986"
"0","-136.3613129","59.45066834"
"0","-136.3606873","59.45080566"
"0","-136.3049774","59.46452713"
"0","-136.2997253","59.46925243"
"0","-136.2944444","59.47083333"
"0","-136.2696819","59.49627825"
"0","-136.2386255","59.52819055"
"0","-136.2398071","59.55941773"
"0","-136.3539124","59.59983444"
"0","-136.3393024","59.60348692"
"0","-136.290802","59.61561203"
"0","-136.2735596","59.61991501"
"0","-136.2653351","59.62197113"
"0","-136.2497253","59.62586212"
"0","-136.2387543","59.62861252"
"0","-136.2260429","59.63177556"
"0","-136.1722222","59.64194444"
"0","-135.9388889","59.66694444"
"0","-135.4830556","59.8"
"0","-135.3575","59.73888889"
"0","-135.3467983","59.73273384"
"0","-135.2527466","59.69827652"
"0","-135.2336731","59.69614029"
"0","-135.2198334","59.66277695"
"0","-135.1641388","59.62961197"
"0","-135.1623201","59.62853347"
"0","-135.1575775","59.62572098"
"0","-135.1386108","59.62444305"
"0","-135.1178284","59.62308502"
"0","-135.1126404","59.61960983"
"0","-135.0288849","59.5636673"
"0","-135.0286102","59.54410934"
"0","-135.0285339","59.53924942"
"0","-135.0275574","59.47475052"
"0","-135.0772705","59.45177841"
"0","-135.1010284","59.42752838"
"0","-134.9909267","59.38756687"
"0","-134.995175","59.38171044"
"0","-135.0305328","59.34635925"
"0","-134.9599152","59.28091812"
"0","-134.9484049","59.27950068"
"0","-134.7388916","59.25027657"
"0","-134.7141724","59.24610329"
"0","-134.6990132","59.24449174"
"0","-134.6791382","59.192276"
"0","-134.5755527","59.13650587"
"0","-134.5664062","59.13054848"
"0","-134.5527798","59.13121155"
"0","-134.4834137","59.13161087"
"0","-134.4471436","59.08922195"
"0","-134.3819122","59.0387764"
"0","-134.4071655","58.97922134"
"0","-134.3135223","58.96219635"
"0","-134.3165805","58.95703553"
"0","-134.3322144","58.93065202"
"0","-134.3365021","58.92341614"
"0","-134.3083344","58.90122223"
"0","-134.2581177","58.86102676"
"0","-134.2433926","58.85619703"
"0","-134.2216571","58.84906794"
"0","-133.9723816","58.76730728"
"0","-133.8405304","58.7294426"
"0","-133.7071381","58.61227799"
"0","-133.6907789","58.60253296"
"0","-133.6833191","58.59554482"
"0","-133.6274629","58.56476756"
"0","-133.6016541","58.55054665"
"0","-133.5788879","58.53972054"
"0","-133.5588989","58.52804756"
"0","-133.4299927","58.45916176"
"0","-133.4273625","58.45621826"
"0","-133.3773346","58.43055725"
"0","-133.3959638","58.42107976"
"0","-133.4615326","58.38772202"
"0","-133.4183597","58.34628604"
"0","-133.3611145","58.28055"
"0","-133.345765","58.27661195"
"0","-133.3454742","58.27633286"
"0","-133.2700348","58.22711182"
"0","-133.2209167","58.1902504"
"0","-133.2093658","58.1815567"
"0","-133.2001038","58.17461014"
"0","-133.1723633","58.15369415"
"0","-133.0701599","58.0003891"
"0","-132.8694458","57.8397789"
"0","-132.7511444","57.69602966"
"0","-132.660965","57.61677933"
"0","-132.5538025","57.49658203"
"0","-132.3699188","57.34980393"
"0","-132.2548443","57.21901219"
"0","-132.2486424","57.21072936"
"0","-132.3667993","57.0912338"
"0","-132.0453033","57.04511261"
"0","-132.0660048","56.99994973"
"0","-132.1236114","56.87366486"
"0","-131.8729401","56.80602646"
"0","-131.9009393","56.75348131"
"0","-131.8616873","56.70425328"
"0","-131.8354452","56.59958397"
"0","-131.5817277","56.61224931"
"0","-131.5798227","56.61154667"
"0","-131.5790803","56.61114111"
"0","-131.4721375","56.55272293"
"0","-131.3198853","56.50027847"
"0","-131.3111725","56.49727631"
"0","-131.2975311","56.49255371"
"0","-131.2953949","56.49180603"
"0","-131.1736145","56.44958496"
"0","-131.1636895","56.44457147"
"0","-131.1444702","56.43471718"
"0","-131.124717","56.42488496"
"0","-131.0874939","56.40608215"
"0","-131.071526","56.40404556"
"0","-130.9659729","56.39058304"
"0","-130.9423065","56.38755417"
"0","-130.9228821","56.38508225"
"0","-130.9149933","56.38405609"
"0","-130.879776","56.37952805"
"0","-130.8598022","56.3769455"
"0","-130.786887","56.36753026"
"0","-130.7744446","56.36610603"
"0","-130.7558594","56.35305214"
"0","-130.7382586","56.33934573"
"0","-130.7369995","56.33855438"
"0","-130.7314148","56.3350296"
"0","-130.7203827","56.32810974"
"0","-130.7101593","56.32166672"
"0","-130.6862488","56.30658341"
"0","-130.6678314","56.29497147"
"0","-130.647644","56.28222275"
"0","-130.6456604","56.28097153"
"0","-130.6269226","56.26911163"
"0","-130.6234741","56.26694489"
"0","-130.6156158","56.26511002"
"0","-130.58255","56.25736237"
"0","-130.5709229","56.25461197"
"0","-130.5406952","56.24752808"
"0","-130.4680328","56.24311066"
"0","-130.4650237","56.23583295"
"0","-130.4564667","56.21513748"
"0","-130.4515076","56.20314026"
"0","-130.4496613","56.19863892"
"0","-130.4397278","56.17458344"
"0","-130.4261627","56.14161301"
"0","-130.4187663","56.14034633"
"0","-130.3502502","56.12861252"
"0","-130.3026268","56.11387885"
"0","-130.2463684","56.09647369"
"0","-130.2443211","56.09685178"
"0","-130.2301331","56.09947205"
"0","-130.1039429","56.12285996"
"0","-130.0980828","56.11617603"
"0","-130.0830231","56.09899902"
"0","-130.0648346","56.07822037"
"0","-130.0589142","56.07144547"
"0","-130.057663","56.0700264"
"0","-130.0544128","56.06630707"
"0","-130.036972","56.04636002"
"0","-130.0350342","56.04410934"
"0","-130.0142372","56.02028034"
"0","-130.0116425","56.01730728"
"0","-130.0036316","56.00811005"
"0","-130.0041046","56.00125122"
"0","-130.0041656","56.00094605"
"0","-130.0053558","55.99302673"
"0","-130.0124664","55.94680405"
"0","-130.0150909","55.92986298"
"0","-130.0151197","55.92967137"
"0","-130.0147782","55.91197205"
"0","-130.0039215","55.91197205"
"0","-130.0039215","55.9074707"
"0","-130.0836334","55.82175064"
"0","-130.1249237","55.80569458"
"0","-130.1525574","55.76633453"
"0","-130.1478882","55.71494293"
"0","-130.1117706","55.68294525"
"0","-130.1280212","55.58108521"
"0","-130.0899506","55.4980011"
"0","-130.0413055","55.45175171"
"0","-130.0211334","55.33794403"
"0","-129.9766998","55.30038834"
"0","-129.9741974","55.28194428"
"0","-130.1028595","55.19261169"
"0","-130.1461639","55.14286041"
"0","-130.1524658","55.1246376"
"0","-130.1809235","55.09127808"
"0","-130.1875763","55.0628624"
"0","-130.2733612","54.97397232"
"0","-130.3459778","54.91775131"
"0","-130.3548987","54.91259619"
"0","-130.3597107","54.90804482"
"0","-130.366394","54.90499306"
"0","-130.3722229","54.90082741"
"0","-130.3898874","54.89237741"
"0","-130.4227448","54.8733902"
"0","-130.454422","54.85130692"
"0","-130.4802704","54.83669281"
"0","-130.568222","54.79216766"
"0","-130.6115105","54.78544739"
"0","-130.628891","54.78274918"
"0","-130.6590881","54.76308441"
"0","-130.6416824","54.75004603"
"0","-130.6257477","54.73810959"
"0","-130.628199","54.72687337"
"0","-130.6286621","54.72475052"
"0","-130.6212016","54.71484769"
"0","-130.6182594","54.70979118"
"0","-132.5833333","54.66666667"
"0","-132.7006092","54.65925612"
"0","-132.7009141","54.65923686"
"0","-133.1586804","54.57330777"
"0","-133.2128779","54.56277499"
"0","-133.6032381","54.48691224"
"0","-134.0187208","54.40616715"
"0","-134.1201881","54.38560057"
"0","-134.6790222","54.27232953"
"0","-134.7956801","54.24868396"
"0","-134.8482481","54.2378291"
"0","-136.0","54.00000191"
"0","-135.0","52.71666527"
"0","-137.2693776","53.45808318"
"0","-137.6438855","53.56982706"
"0","-138.40899","53.79811527"
"0","-139.3659825","54.0836581"
"0","-140.0145585","54.25979815"
"0","-140.9727058","54.52001146"
"0","-142.6056467","54.93657655"
"0","-143.7955385","55.22609829"
"0","-145.4727684","55.60137991"
"0","-146.3919241","55.79983374"
"0","-149.338128","56.36766555"
"0","-151.75","56.76666832"
"0","-153.0","56.00000191"
"0","-160.0","53.50000191"
"0","-167.8166656","51.39999962"
"0","-176.5666656","50.13333321"
"0","-180.0","50.46666527"
"0","-180.0","55.11227514"
"0","-180.0","59.99998811"
"0","-180.0","60.00000191"
"0","-179.8932719","60.06645121"
"0","-179.786114","60.13281337"
"0","-179.6785239","60.19908782"
"0","-179.5704994","60.26527398"
"0","-179.4620382","60.33137126"
"0","-179.3531377","60.39737907"
"0","-179.2437958","60.46329681"
"0","-179.1340099","60.52912389"
"0","-179.0237778","60.5948597"
"0","-178.913097","60.66050362"
"0","-178.8019651","60.72605506"
"0","-178.6903798","60.79151338"
"0","-178.5783385","60.85687798"
"0","-178.4658389","60.92214821"
"0","-178.1915314","61.07514923"
"0","-178.0142147","61.18056664"
"0","-177.7516674","61.33665486"
"0","-177.0315669","61.72347098"
"0","-176.96721","61.75804158"
"0","-176.9605074","61.76178009"
"0","-176.952204","61.76610232"
"0","-176.8413296","61.82566068"
"0","-175.6218411","62.45860826"
"0","-174.479721","63.01873115"
"0","-173.4274043","63.5085606"
"0","-173.2840432","63.57180091"
"0","-173.1586967","63.62978088"
"0","-173.0234835","63.69020077"
"0","-172.8876937","63.75049266"
"0","-172.7513246","63.81065567"
"0","-172.6143733","63.87068892"
"0","-172.4768371","63.93059152"
"0","-172.3387132","63.99036256"
"0","-172.1999989","64.05000115"
"0","-169.0","65.00000191"
"0","-169.0","67.84111595"
"0","-169.0","68.00000191"
"0","-169.0","72.00000191"
"0","-169.0","87.63333321"
"0","-169.0","90.0"
"0","-160.1490207","90.0"
"0","-150.0498123","90.0"
"0","-141.0","90.0"
"0","-141.0","83.04432012"
"0","-141.0","77.94922396"
"0","-141.0","75.08989212"
"0","-141.0","72.00000191"
"0","-141.0","72.0"
