{
  "type": "FeatureCollection",
  "features": [
    {
      "type": "Feature",
      "properties": {},
      "geometry": {
        "type": "Polygon",
        "coordinates": [
          [
           [36.65001315	,66.00000324],
[35.16667891	,65.06666986],
[36			,64.55      ],
[36.00317171	,64.54477777],
[36.43265129	,63.83450674],
[36.4333454	,63.83333619],
[37.30001132	,61.33333565],
[37.29999971	,61.33333416],
[36.65001112	,61.25000236],
[36.65000751	,61.25000096],
[35.61667738	,60.85000236],
[35.98334366	,59.36666872],
[35.81667673	,58.58333524],
[34.56666667	,58.2       ],
[34.47877625	,58.16295528],
[32.55		,57.35      ],
[31.1665306	,56.91591684],
[30.931667	,55.621667  ],
[30.92624855	,55.60257149],
[30.91888618	,55.60833168],
[30.91705017	,55.60933877],
[30.91027641	,55.61305428],
[30.89305306	,55.61776924],
[30.87694359	,55.61915779],
[30.86361122	,55.61860085],
[30.84638786	,55.61554909],
[30.83638573	,55.61249733],
[30.83093859	,55.61028097],
[30.7947216	,55.59554482],
[30.78277779	,55.59388161],
[30.76888847	,55.59360695],
[30.75666618	,55.59665871],
[30.75222206	,55.59887886],
[30.74555016	,55.60416603],
[30.74152917	,55.60913294],
[30.74083138	,55.60999489],
[30.73694038	,55.61638832],
[30.73388481	,55.62332344],
[30.73193932	,55.63027382],
[30.73166466	,55.63833046],
[30.73249626	,55.64666176],
[30.73193932	,55.65027046],
[30.73027611	,55.65360451],
[30.72694206	,55.65638161],
[30.7227726	,55.65860176],
[30.71221733	,55.66221047],
[30.69916344	,55.66471291],
[30.69194222	,55.66499519],
[30.67201245	,55.66222267],
[30.66326944	,55.67388056],
[30.62545278	,55.71685278],
[30.56300556	,55.75581389],
[30.51831667	,55.77930833],
[30.49282293	,55.78447708],
[30.4952755	,55.78777504],
[30.49721718	,55.79194069],
[30.49666405	,55.79554939],
[30.49333	,55.79805183],
[30.48971748	,55.79999733],
[30.46666527	,55.80555153],
[30.42499733	,55.81249428],
[30.38781166	,55.81969643],
[30.37999916	,55.82222176],
[30.36666679	,55.82471657],
[30.35058403	,55.82636452],
[30.32999992	,55.82888222],
[30.28694344	,55.83915901],
[30.25000191	,55.85222054],
[30.24582863	,55.85444069],
[30.24416161	,55.85777473],
[30.24444008	,55.86194038],
[30.24027443	,55.86416054],
[30.22610664	,55.86610603],
[30.21944237	,55.86583138],
[30.21416283	,55.86444283],
[30.20610619	,55.85972023],
[30.19166374	,55.84887886],
[30.18694115	,55.84694099],
[30.17916298	,55.8422184 ],
[30.17660551	,55.84115493],
[30.125275	,55.83316944],
[30.11375155	,55.83182279],
[30.08638573	,55.83777046],
[30.08222008	,55.83999062],
[30.07627678	,55.84143257],
[30.0288868	,55.85222054],
[30.01472282	,55.85444069],
[30.00000191	,55.85582924],
[29.97251701	,55.85637093],
[29.94638634	,55.85444069],
[29.92833138	,55.85166359],
[29.90694237	,55.84610176],
[29.8972187	,55.84276772],
[29.88713229	,55.83814442],
[29.85426944	,55.83374722],
[29.75686667	,55.80624722],
[29.712175	,55.79078056],
[29.60044722	,55.75697778],
[29.52882778	,55.73348611],
[29.45568657	,55.71377266],
[29.44249535	,55.72776985],
[29.43221855	,55.73555183],
[29.41916466	,55.74221993],
[29.40249825	,55.74721718],
[29.39277458	,55.75139046],
[29.38583183	,55.75638771],
[29.37916374	,55.76166725],
[29.37138557	,55.77054787],
[29.36499977	,55.78388405],
[29.3644878	,55.78437126],
[29.37298889	,55.81943333],
[29.37516333	,55.82431575],
[29.38472176	,55.83804512],
[29.39444161	,55.84694099],
[29.39888573	,55.85444069],
[29.40166283	,55.86305428],
[29.40305138	,55.87166023],
[29.4038868	,55.88416481],
[29.40335434	,55.88761484],
[29.40444374	,55.89249611],
[29.40528571	,55.89361959],
[29.40694237	,55.89583016],
[29.41027641	,55.89888191],
[29.41944313	,55.9027729 ],
[29.44249535	,55.90665627],
[29.46194267	,55.9083271 ],
[29.4644413	,55.9111042 ],
[29.4636097	,55.91471291],
[29.45860863	,55.92083168],
[29.45694161	,55.92416573],
[29.44944191	,55.93305397],
[29.4252758	,55.95110512],
[29.41221809	,55.95777321],
[29.40138817	,55.96138191],
[29.38916588	,55.96415901],
[29.35416603	,55.96971321],
[29.34964751	,55.97084284],
[29.32416725	,55.97721291],
[29.29888725	,55.98249245],
[29.27555656	,55.98472023],
[29.24555016	,55.98582649],
[29.22860909	,55.99083138],
[29.19972038	,56.00694466],
[29.17222023	,56.01555061],
[29.13916588	,56.02193642],
[29.09122339	,56.0284514 ],
[29.05944252	,56.03277016],
[29.03333473	,56.03055   ],
[29.02194405	,56.02832985],
[29.00610924	,56.02388191],
[28.96388435	,56.00694466],
[28.94333077	,56.00055122],
[28.88971901	,55.98694038],
[28.86944389	,55.98054695],
[28.86083031	,55.97609901],
[28.85750008	,55.97304726],
[28.85051918	,55.96907997],
[28.8471348	,55.96186745],
[28.82697222	,55.95293889],
[28.79382057	,55.94879577],
[28.79166603	,55.94915962],
[28.78472328	,55.95110512],
[28.78472328	,55.95054817],
[28.77922077	,55.95114857],
[28.75416756	,55.95388222],
[28.73805046	,55.95833016],
[28.73127174	,55.96241188],
[28.71971703	,55.97471047],
[28.7163868	,55.98166084],
[28.7124691	,55.98726082],
[28.70805168	,55.99415779],
[28.70722008	,55.99777413],
[28.70555306	,56.00527382],
[28.70722008	,56.01805306],
[28.70555306	,56.02555275],
[28.70221901	,56.03221321],
[28.69721794	,56.03833199],
[28.6911068	,56.04388618],
[28.67166328	,56.05582619],
[28.66472054	,56.06082344],
[28.66194344	,56.06388283],
[28.65944099	,56.06694222],
[28.65610695	,56.07361031],
[28.6538868	,56.08888435],
[28.64610863	,56.09360695],
[28.62805367	,56.09832954],
[28.61388588	,56.10027504],
[28.57527733	,56.10166359],
[28.57115869	,56.1022989 ],
[28.56805611	,56.10277748],
[28.53555489	,56.10499764],
[28.52083397	,56.10527229],
[28.48138619	,56.10222054],
[28.44999886	,56.09832954],
[28.44249535	,56.0986042 ],
[28.41583061	,56.09665871],
[28.38749886	,56.09610176],
[28.38221932	,56.09471321],
[28.37833214	,56.0922184 ],
[28.36777687	,56.07860756],
[28.3627389	,56.06721389],
[28.36249733	,56.06666756],
[28.35849953	,56.06154823],
[28.35360909	,56.05694008],
[28.34972191	,56.0547123 ],
[28.33999825	,56.05110359],
[28.31249809	,56.04999733],
[28.30730248	,56.05272865],
[28.2947216	,56.06276894],
[28.29305458	,56.06610298],
[28.28777886	,56.07193947],
[28.28444481	,56.07444191],
[28.27361107	,56.07805061],
[28.25583458	,56.08249855],
[28.25583458	,56.08665657],
[28.2575016	,56.09054756],
[28.25416756	,56.09749031],
[28.25166512	,56.10027504],
[28.23999596	,56.10750008],
[28.23110771	,56.11194038],
[28.23333168	,56.11138344],
[28.2227726	,56.11471748],
[28.20833015	,56.12082863],
[28.19777489	,56.12860298],
[28.18888664	,56.13276863],
[28.18527412	,56.13527107],
[28.16860771	,56.14860725],
[28.16831116	,56.14937905],
[28.16666667	,56.15      ],
[28.16520562	,56.15155352],
[28.14472222	,56.17333333],
[28.2	,56.2          ],
[28.20318882	,56.20425176],
[28.20332909	,56.21055031],
[28.20166206	,56.21805   ],
[28.20277596	,56.22971535],
[28.21221733	,56.23888588],
[28.22305107	,56.24666023],
[28.22654152	,56.25000191],
[28.22944069	,56.25277901],
[28.23333168	,56.25527382],
[28.23749733	,56.26277351],
[28.2377758	,56.27110481],
[28.23555183	,56.28221321],
[28.23305321	,56.28943825],
[28.22695682	,56.30123145],
[28.22224032	,56.30830619],
[28.22108526	,56.31003878],
[28.21265304	,56.32268711],
[28.20766206	,56.33017357],
[28.18333333	,56.36666667],
[28.18333333	,56.39443776],
[28.18333333	,56.39446851],
[28.18333333	,56.40396092],
[28.18333333	,56.40962832],
[28.18583107	,56.42416573],
[28.18943977	,56.43221474],
[28.19055367	,56.43665504],
[28.18971825	,56.44054604],
[28.1799984	,56.44860268],
[28.15749931	,56.46332741],
[28.15499687	,56.4663868 ],
[28.15108959	,56.4690866 ],
[28.14777565	,56.47137642],
[28.13888741	,56.47999001],
[28.13166618	,56.48499489],
[28.11999702	,56.49638557],
[28.11638832	,56.49888039],
[28.11305428	,56.50555611],
[28.11221886	,56.51361275],
[28.11416435	,56.51749611],
[28.12055397	,56.52360725],
[28.14777565	,56.54083443],
[28.14780182	,56.54085838],
[28.14907194	,56.55577053],
[28.15		,56.56666667],
[28.06021396	,56.57949324],
[28.05360985	,56.58138466],
[28.03638649	,56.59054756],
[28.02894177	,56.59650801],
[28.0093663	,56.65523443],
[28			,56.68333333],
[27.94313529	,56.72284949],
[27.90166667	,56.75166667],
[27.99520556	,56.82661667],
[27.88182839	,56.85466815],
[27.83333333	,56.86666667],
[27.66666667	,56.83333333],
[27.66910467	,56.84552332],
[27.6808333	,56.90416651],
[27.68333333	,56.91666667],
[27.70794688	,56.92487118],
[27.73333333	,56.93333333],
[27.75		,57         ],
[27.74136783	,57.00431609],
[27.71666667	,57.01666667],
[27.74983249	,57.08299831],
[27.75		,57.08333333],
[27.73333333	,57.1       ],
[27.78135921	,57.14002157],
[27.83333333	,57.18333333],
[27.864837	,57.29359617],
[27.86110878	,57.30221748],
[27.86017801	,57.30324433],
[27.81106545	,57.32780061],
[27.78999901	,57.33360481],
[27.78360939	,57.3347187 ],
[27.75583458	,57.34360695],
[27.74083138	,57.34943581],
[27.71027565	,57.36527443],
[27.68721962	,57.37999153],
[27.67360878	,57.39055061],
[27.66416359	,57.39499855],
[27.66055489	,57.39749336],
[27.64472008	,57.40304756],
[27.60638619	,57.41054726],
[27.59888649	,57.41137886],
[27.59333229	,57.41332436],
[27.5802784	,57.4158268 ],
[27.56916618	,57.41944313],
[27.56249809	,57.42054939],
[27.53833199	,57.43082619],
[27.52722359	,57.43860054],
[27.52555656	,57.44165993],
[27.52555656	,57.44582558],
[27.5257568	,57.4466945 ],
[27.52638817	,57.44943428],
[27.53138924	,57.45665932],
[27.54333305	,57.46915627],
[27.54525948	,57.47294045],
[27.5502758	,57.48027229],
[27.54277611	,57.49360847],
[27.5419445	,57.49721718],
[27.54222298	,57.50943947],
[27.54376196	,57.51773823],
[27.55		,57.53333333],
[27.54665403	,57.53333333],
[27.50112729	,57.53333333],
[27.41666667	,57.53333333],
[27.41360714	,57.53273473],
[27.37206078	,57.53563881],
[27.36333275	,57.54416084],
[27.36166573	,57.54749489],
[27.35915039	,57.55503824],
[27.35805321	,57.55832863],
[27.35333061	,57.56860542],
[27.35166359	,57.57610512],
[27.34805489	,57.5830555 ],
[27.34694481	,57.58693886],
[27.34694481	,57.59110451],
[27.34805489	,57.59554482],
[27.35138893	,57.5986042 ],
[27.35666466	,57.60000038],
[27.38465681	,57.60392556],
[27.38833046	,57.60444069],
[27.39944267	,57.60750008],
[27.40332985	,57.60999489],
[27.40583229	,57.61361122],
[27.40583229	,57.61749458],
[27.4038868	,57.62082863],
[27.40305138	,57.62471199],
[27.40555382	,57.62804604],
[27.41416359	,57.63276863],
[27.41499901	,57.63638496],
[27.4066639	,57.64499855],
[27.39555168	,57.65249062],
[27.39238138	,57.65678603],
[27.3908329	,57.65888405],
[27.39166451	,57.66332436],
[27.40083122	,57.67804909],
[27.40583229	,57.68499184],
[27.40999794	,57.68749428],
[27.41305351	,57.69054604],
[27.41721916	,57.69304848],
[27.44138527	,57.70249367],
[27.46944237	,57.70943642],
[27.48888588	,57.71193886],
[27.5130558	,57.7163868 ],
[27.52666664	,57.72276497],
[27.53083229	,57.73027229],
[27.52444267	,57.73999214],
[27.52166557	,57.74276924],
[27.5177784	,57.74943733],
[27.51416588	,57.76444435],
[27.51638985	,57.77332497],
[27.5213871	,57.78055   ],
[27.52362793	,57.78259685],
[27.52777672	,57.78638649],
[27.53249931	,57.78833199],
[27.54055595	,57.79332924],
[27.55138969	,57.79638863],
[27.56944466	,57.79999733],
[27.56944786	,57.8       ],
[27.57277489	,57.80277443],
[27.57083321	,57.80610085],
[27.56694222	,57.80860329],
[27.55388832	,57.81138039],
[27.54361153	,57.81527138],
[27.54583168	,57.81777382],
[27.55138969	,57.81944466],
[27.57722282	,57.82277107],
[27.60583305	,57.82416725],
[27.61916542	,57.8255558 ],
[27.62999916	,57.82860756],
[27.64249611	,57.83055306],
[27.67360878	,57.8302784 ],
[27.69377079	,57.83125693],
[27.70221901	,57.83166695],
[27.71628342	,57.83333333],
[27.73499489	,57.83555031],
[27.75305367	,57.83915901],
[27.78527641	,57.84832954],
[27.81388664	,57.86027718],
[27.8142637	,57.86056703],
[27.82111168	,57.86583138],
[27.82277489	,57.86971474],
[27.82305336	,57.87388039],
[27.82027626	,57.88110542],
[27.81749916	,57.88388252],
[27.8118753	,57.88763558],
[27.80999947	,57.88888741],
[27.80527687	,57.89110756],
[27.78472328	,57.89888191],
[27.7733326	,57.90221596],
[27.75833321	,57.90416145],
[27.7461071	,57.90721321],
[27.73193932	,57.91360664],
[27.69805336	,57.91999245],
[27.69249535	,57.92166328],
[27.68388557	,57.92638588],
[27.68110848	,57.92943764],
[27.67749596	,57.93610573],
[27.67749596	,57.94027138],
[27.67944145	,57.94915962],
[27.68333333	,57.95784388],
[27.68666267	,57.9652729 ],
[27.69249535	,57.97165871],
[27.69416237	,57.97582436],
[27.69805336	,57.98888588],
[27.69833183	,57.99694252],
[27.69721794	,58.00083351],
[27.68971825	,58.00583077],
[27.67067528	,58.01043892],
[27.66537082	,58.0105035 ],
[27.66378212	,58.01052284],
[27.65249825	,58.01249886],
[27.64222145	,58.02083015],
[27.64234556	,58.02396742],
[27.64249611	,58.0277729 ],
[27.6463871	,58.0324955 ],
[27.66082954	,58.03860664],
[27.67666435	,58.05082893],
[27.67944145	,58.05638313],
[27.68083	,58.06249428],
[27.67833138	,58.06777382],
[27.6772213	,58.07416725],
[27.67333031	,58.07888222],
[27.66305351	,58.08721352],
[27.64999962	,58.09415627],
[27.64110756	,58.09610176],
[27.62527657	,58.10166359],
[27.61888695	,58.10527229],
[27.60972023	,58.10721779],
[27.60194206	,58.10999489],
[27.59555245	,58.11361122],
[27.58969399	,58.11570055],
[27.57999992	,58.11915779],
[27.57361031	,58.12249184],
[27.56583214	,58.12526894],
[27.56055641	,58.12943459],
[27.55416679	,58.13276863],
[27.54888725	,58.13694191],
[27.54500008	,58.14193916],
[27.53999901	,58.14610481],
[27.53611183	,58.15082741],
[27.53083229	,58.15499306],
[27.51555443	,58.17416573],
[27.5102787	,58.17833138],
[27.50638771	,58.18305397],
[27.48055077	,58.20360756],
[27.47666359	,58.20860481],
[27.47416496	,58.21388435],
[27.47166252	,58.2263813 ],
[27.47194099	,58.25388527],
[27.46944237	,58.26610756],
[27.46693993	,58.27166176],
[27.4644413	,58.28388405],
[27.46471977	,58.29777718],
[27.4672184	,58.30304909],
[27.4727726	,58.30721474],
[27.48583031	,58.32083321],
[27.49666405	,58.32888222],
[27.5150013	,58.33999062],
[27.52583122	,58.34804726],
[27.52972221	,58.35277748],
[27.53499794	,58.35694313],
[27.53916462	,58.36166257],
[27.54194868	,58.3672307 ],
[27.54333305	,58.37332344],
[27.54361153	,58.39388466],
[27.54222298	,58.3999958 ],
[27.54225143	,58.40143449],
[27.54249764	,58.4138813 ],
[27.53527641	,58.45083046],
[27.53344917	,58.45448494],
[27.53249931	,58.45638466],
[27.53000069	,58.46859932],
[27.52388954	,58.48582649],
[27.5213871	,58.49833107],
[27.51861	,58.50361061],
[27.51749992	,58.50972176],
[27.51249886	,58.52083015],
[27.50972176	,58.52638435],
[27.50583458	,58.53110695],
[27.50333214	,58.53666115],
[27.50083351	,58.54888344],
[27.49582863	,58.55999184],
[27.49444008	,58.56610298],
[27.4905529	,58.57083321],
[27.48805046	,58.57638741],
[27.48666191	,58.58249855],
[27.48416328	,58.58804512],
[27.48305321	,58.59415627],
[27.48027611	,58.59971809],
[27.47805214	,58.61194038],
[27.4727726	,58.62304878],
[27.47027397	,58.63527107],
[27.47027397	,58.64222145],
[27.46777535	,58.64777565],
[27.46666527	,58.65387917],
[27.45110893	,58.68693733],
[27.44610787	,58.71138191],
[27.44610787	,58.71832466],
[27.44249535	,58.73694038],
[27.42944145	,58.76416206],
[27.42555428	,58.76971626],
[27.42416573	,58.77610207],
[27.42166328	,58.78138161],
[27.42166328	,58.78833199],
[27.42305183	,58.79444313],
[27.42305183	,58.80138588],
[27.42610741	,58.81360817],
[27.42811557	,58.81806532],
[27.42860985	,58.81916237],
[27.4327755	,58.82388496],
[27.4355526	,58.82943916],
[27.43943977	,58.83416176],
[27.44499779	,58.83832741],
[27.45722008	,58.85249519],
[27.48943901	,58.87721443],
[27.49360848	,58.88193703],
[27.53388786	,58.90221596],
[27.55000115	,58.90777016],
[27.59694481	,58.93138313],
[27.60249901	,58.93554878],
[27.60916328	,58.93888283],
[27.61999702	,58.94721413],
[27.65360832	,58.96415901],
[27.66971779	,58.96943855],
[27.68943977	,58.97943306],
[27.68999672	,58.97971535],
[27.70499611	,58.98582649],
[27.72499657	,58.98777199],
[27.72800636	,58.99118233],
[27.73193932	,58.99804878],
[27.73472023	,59.0102787 ],
[27.73749733	,59.0158329 ],
[27.74166298	,59.02054787],
[27.76361275	,59.03694344],
[27.76749992	,59.04166603],
[27.77305412	,59.04583168],
[27.77722359	,59.05054665],
[27.77868578	,59.05163441],
[27.81351384	,59.11432493],
[27.813981	,59.11516581],
[27.83333333	,59.15      ],
[27.84134431	,59.15600824],
[27.84453774	,59.16002083],
[27.85612297	,59.17006493],
[27.86719322	,59.1848278 ],
[27.87721062	,59.19800758],
[27.87932015	,59.20591545],
[27.87984657	,59.2185688 ],
[27.87984657	,59.22805977],
[27.88617516	,59.23596764],
[27.89671898	,59.2454586 ],
[27.90568352	,59.25389671],
[27.90831947	,59.26285744],
[27.91253853	,59.27182198],
[27.9204464	,59.27551079],
[27.93204308	,59.27920342],
[27.95155144	,59.285532  ],
[27.9710598	,59.28711128],
[27.99584007	,59.28447533],
[28.01112938	,59.27972984],
[28.01233169	,59.27956288],
[28.03011131	,59.27709389],
[28.05541802	,59.27920342],
[28.07492638	,59.28289223],
[28.09549141	,59.2839489 ],
[28.12185097	,59.28869438],
[28.14399529	,59.29080391],
[28.15823174	,59.29765511],
[28.17035866	,59.30978203],
[28.17169576	,59.31253476],
[28.1793232	,59.32823753],
[28.18301201	,59.34352684],
[28.18926811	,59.35283852],
[28.19083214	,59.35804939],
[28.19360924	,59.36332893],
[28.19527626	,59.36944008],
[28.19388771	,59.37582588],
[28.18083	,59.38943672],
[28.17027474	,59.39777565],
[28.15722084	,59.40499306],
[28.14777565	,59.40693855],
[28.12777519	,59.41805458],
[28.12388802	,59.42305183],
[28.10944176	,59.43610573],
[28.07610893	,59.45332527],
[28.05194283	,59.46193886],
[28.04249764	,59.46388435],
[28.03194237	,59.47221565],
[28.02638817	,59.47499275],
[28.0158329	,59.47860146],
[27.63986456	,59.61056576],
[27.63666667	,59.61166667],
[25.975		,59.86666667],
[25.8669447	,59.88329056],
[25.86666667	,59.88333333],
[26.55		,60.13333333],
[26.55014277	,60.13334608],
[27.29333333	,60.19972222],
[27.46666667	,60.21666667],
[27.81666667	,60.55      ],
[29.44762222	,61.43325833],
[29.54871667	,61.49159167],
[29.62537778	,61.50769167],
[29.81290278	,61.61438333],
[29.82510833	,61.64801667],
[30.07983333	,61.80828056],
[30.33816667	,61.98911389],
[30.60871111	,62.15109444],
[30.83204444	,62.27136389],
[30.96118611	,62.33387778],
[31.18646111	,62.48359722],
[31.25727778	,62.50771944],
[31.30591667	,62.59246389],
[31.36063333	,62.63469167],
[31.41614444	,62.74137778],
[31.46506944	,62.80635556],
[31.58418056	,62.91247222],
[31.52779722	,62.95332222],
[31.5239		,62.97303333],
[31.50558056	,62.99514167],
[31.36500833	,63.07690833],
[31.29223611	,63.10165833],
[31.25473333	,63.16636389],
[31.25278611	,63.18693333],
[31.24585278	,63.20114167],
[31.21193333	,63.22663889],
[31.13527222	,63.25586111],
[30.98613056	,63.30387222],
[30.88941944	,63.36051944],
[30.73998611	,63.41884167],
[30.50443611	,63.47361389],
[30.43745	,63.51635833],
[30.36859722	,63.556375  ],
[30.28606667	,63.57966667],
[30.21441389	,63.60891667],
[30.00333611	,63.72946667],
[29.99330833	,63.74361667],
[30.00214722	,63.75275556],
[30.16102778	,63.78776389],
[30.235225	,63.81051389],
[30.28215	,63.83916389],
[30.33192778	,63.89888889],
[30.54798611	,64.01495556],
[30.60631111	,64.064975  ],
[30.61445278	,64.08664722],
[30.60241111	,64.1111    ],
[30.54797222	,64.17      ],
[30.54638611	,64.18473611],
[30.57461389	,64.21583889],
[30.56406667	,64.24001667],
[30.48906389	,64.25496944],
[30.34693889	,64.32305   ],
[30.19432222	,64.34887222],
[30.11628333	,64.36915278],
[30.04901111	,64.40553611],
[30.08624722	,64.47274722],
[30.08458611	,64.48306111],
[30.01135833	,64.51166667],
[29.99668889	,64.53080556],
[29.98695	,64.55303611],
[29.99181389	,64.56528056],
[29.97233333	,64.58109444],
[30.020525	,64.59612222],
[30.1503		,64.62247778],
[30.19652778	,64.65025556],
[30.20792778	,64.66778889],
[30.11624722	,64.73527778],
[30.14208333	,64.77000278],
[30.12375	,64.78249444],
[30.04808611	,64.79556667],
[29.82763889	,64.79274444],
[29.75234722	,64.82248056],
[29.69258333	,64.86969167],
[29.63258611	,64.93329167],
[29.62868889	,64.94801667],
[29.60370278	,65.00720278],
[29.61813611	,65.05109167],
[29.63452222	,65.06833611],
[29.71232778	,65.09028333],
[29.79368611	,65.09750278],
[29.87120833	,65.120825  ],
[29.871725	,65.12581111],
[29.82061389	,65.1489    ],
[29.86759167	,65.18746389],
[29.86730278	,65.20333333],
[29.79757222	,65.22556111],
[29.72228056	,65.22585   ],
[29.64951667	,65.223325  ],
[29.60035278	,65.239425  ],
[29.59365	,65.24887778],
[29.61089444	,65.27110833],
[29.74478889	,65.34193333],
[29.74116667	,65.43526667],
[29.7328		,65.47583333],
[29.74339722	,65.51445278],
[29.82389444	,65.54722778],
[29.85695278	,65.56607778],
[29.71920556	,65.63804167],
[29.87166944	,65.66113333],
[30.02166667	,65.69110278],
[30.12113611	,65.66497778],
[30.13058333	,65.71390833],
[30.13138611	,65.71917778],
[30.09946111	,65.80833333],
[29.965825	,65.99557778],
[29.90748611	,66.12695556],
[29.88886111	,66.14391667],
[29.81666667	,66.17943889],
[29.75328889	,66.22722222],
[29.63077778	,66.32720278],
[29.60667772	,66.40000387],
[35.08334616	,66.33333677],
[36.65001315	,66.00000324]
          ]
        ]
      }
    }
  ]
}