{
  "type": "FeatureCollection",
  "features": [
    {
      "type": "Feature",
      "properties": {},
      "geometry": {
        "type": "Polygon",
        "coordinates": [
          [
         [180			,86.22360039],
[174.8065722	,85.56906255],
[164.9646422	,84.32866263],
[154.9661649	,83.06853271],
[144.8781264	,81.7971152 ],
[135.1257577	,80.56800288],
[124.847309	,79.27258756],
[114.7500019	,78.00000191],
[113.5452321	,78.0211005 ],
[113.545232	,78.0211005 ],
[112.1915033	,78.0383535 ],
[112.1915033	,78.0383535 ],
[110.634458	,78.05051725],
[109.4002864	,78.05270384],
[108.6988681	,78.05394655],
[108.6482592	,78.05367369],
[108.2397553	,78.05147122],
[106.677868	,78.04305025],
[106.4979711	,78.0407903 ],
[105.8894451	,78.03314573],
[104.6628869	,78.01773716],
[104.3876076	,78.01093604],
[102.5888774	,77.96649617],
[100.2013555	,77.90345917],
[98.16901054	,77.83382439],
[97.92253305	,77.82537927],
[97.12342533	,77.78888163],
[96.85460264	,77.7766037 ],
[96.00790538	,77.7379325 ],
[95.64443104	,77.72133154],
[94.56829406	,77.6623804 ],
[93.66541153	,77.6129202 ],
[93.40732913	,77.59878236],
[91.21642973	,77.45827346],
[91.08035484	,77.44836851],
[89.50000191	,77.33333397],
[88.68347912	,77.1564237 ],
[87.83320235	,76.96383097],
[87.75858389	,76.94692944],
[86.73692155	,76.70361382],
[85.63092085	,76.42518593],
[84.568901	,76.14207194],
[83.43806478	,75.8223454 ],
[81.83333397	,75.33333397],
[80.31695342	,75.25595209],
[80.25137243	,75.25260545],
[80.19368252	,75.24928641],
[79.51665455	,75.2103353 ],
[79.03667811	,75.18272105],
[79.03667806	,75.18272105],
[78.88197003	,75.17304125],
[78.41392144	,75.14375628],
[78.13220191	,75.1261296 ],
[78.13220184	,75.12612959],
[78.01402716	,75.11819063],
[77.56764329	,75.08820263],
[77.43971835	,75.07960864],
[77.16036901	,75.06084199],
[77.09006391	,75.05573151],
[75.93303883	,74.97162725],
[74.98704961	,74.89737818],
[74.89268119	,74.88997136],
[73.86355575	,74.80360943],
[72.50958627	,74.68127767],
[70.68333244	,74.50000191],
[70.91666985	,73.66666985],
[70.91668364	,73.66666719],
[69.47146294	,73.6666674 ],
[68.6666947	,73.66666603],
[66.28335917	,71.50000083],
[66.28333317	,71.49999983],
[65.66669149	,71.47619135],
[65.04852675	,71.45232407],
[57.65002333	,71.16666757],
[57.65002344	,71.16666858],
[58.00002739	,73.9000023 ],
[48.61668965	,73.00000328],
[49.5000204	,70.50000276],
[43.26669632	,68.66667354],
[43.26668355	,68.66666978],
[32.08336221	,71.49999475],
[32.08333397	,71.50000191],
[32.08333397	,74.00000191],
[35.00000191	,74.00000191],
[35.00000191	,81.00000191],
[32.00000191	,81.00000191],
[32.00000191	,90         ],
[49.89631813	,90         ],
[69.91276729	,90         ],
[89.92921646	,90         ],
[109.9456656	,90         ],
[129.9621148	,90         ],
[149.814793	,90         ],
[165.0272944	,90         ],
[180			,90         ],
[180			,86.22360039]
          ]
        ]
      }
    }
  ]
}