"",0,43.639934,-59.813773
"",0,44.446667,-56.051667
"",0,45.000000,-53.000000
"",0,45.000000,-47.666667
"",0,51.830000,-47.666667
"",0,54.250000,-52.258333
"",0,63.500000,-50.529444
"",0,65.166667,-50.529444
"",0,65.166667,-53.375000
"",0,65.649000,-54.108000
"",0,67.000000,-55.133000
"",0,67.000000,-70.000000
"",0,60.000000,-70.000000
"",0,57.416111,-68.266667
"",0,53.750000,-71.500000
"",0,51.000000,-71.500000
"",0,50.957917,-71.455111
"",0,49.500000,-69.900000
"",0,46.000000,-65.000000
"",0,42.361905,-65.000000
"",0,43.513797,-60.348126
"",0,43.639933,-59.813779