"",0,65.000000,-57.750000
"",0,65.004000,-58.500000
"",0,65.004000,-59.250000
"",0,65.000000,-60.000000
"",0,64.992000,-60.024000
"",0,64.750000,-60.788000
"",0,64.504000,-61.539000
"",0,64.254000,-62.276000
"",0,64.000000,-63.000000
"",0,61.000000,-63.000000
"",0,60.961000,-62.955000
"",0,60.922000,-62.911000
"",0,60.883000,-62.867000
"",0,60.844000,-62.822000
"",0,60.804000,-62.778000
"",0,60.765000,-62.734000
"",0,60.726000,-62.690000
"",0,60.687000,-62.646000
"",0,60.648000,-62.603000
"",0,60.641000,-62.595000
"",0,60.609000,-62.559000
"",0,60.583000,-62.531000
"",0,60.569000,-62.516000
"",0,60.530000,-62.472000
"",0,60.491000,-62.429000
"",0,60.452000,-62.386000
"",0,60.412000,-62.343000
"",0,60.373000,-62.300000
"",0,60.334000,-62.257000
"",0,60.294000,-62.214000
"",0,60.256000,-62.172000
"",0,60.255000,-62.171000
"",0,60.216000,-62.129000
"",0,60.176000,-62.086000
"",0,60.149000,-62.056000
"",0,60.137000,-62.044000
"",0,60.098000,-62.001000
"",0,60.058000,-61.959000
"",0,60.019000,-61.917000
"",0,59.979000,-61.875000
"",0,59.940000,-61.833000
"",0,59.900000,-61.792000
"",0,59.861000,-61.750000
"",0,59.821000,-61.708000
"",0,59.782000,-61.667000
"",0,59.742000,-61.626000
"",0,59.706000,-61.588000
"",0,59.703000,-61.584000
"",0,59.697000,-61.578000
"",0,59.663000,-61.543000
"",0,59.624000,-61.502000
"",0,59.584000,-61.461000
"",0,59.545000,-61.420000
"",0,59.505000,-61.379000
"",0,59.465000,-61.339000
"",0,59.426000,-61.298000
"",0,59.386000,-61.257000
"",0,59.346000,-61.217000
"",0,59.307000,-61.177000
"",0,59.267000,-61.137000
"",0,59.227000,-61.096000
"",0,59.188000,-61.056000
"",0,59.148000,-61.016000
"",0,59.108000,-60.977000
"",0,59.069000,-60.937000
"",0,59.047000,-60.915000
"",0,59.029000,-60.897000
"",0,59.025000,-60.893000
"",0,58.989000,-60.858000
"",0,58.949000,-60.818000
"",0,58.944000,-60.813000
"",0,58.815000,-60.685000
"",0,58.710000,-60.583000
"",0,58.613000,-60.488000
"",0,58.471000,-60.351000
"",0,58.295000,-61.096000
"",0,58.115000,-61.833000
"",0,57.931000,-62.563000
"",0,57.742000,-63.285000
"",0,57.550000,-64.000000
"",0,55.356000,-64.000000
"",0,55.083000,-65.083000
"",0,54.417000,-65.333000
"",0,53.701891,-64.918097
"",0,54.672677,-61.193277
"",0,51.476597,-56.105884
"",0,44.846180,-53.848326
"",0,45.000000,-53.000000
"",0,45.000000,-50.000000
"",0,45.000000,-49.000000
"",0,45.000000,-48.000000
"",0,45.000000,-47.666667
"",0,51.830000,-47.666667
"",0,63.500000,-50.529444
"",0,63.500000,-51.000000
"",0,63.500000,-52.000000
"",0,63.500000,-53.000000
"",0,63.500000,-54.000000
"",0,63.500000,-55.000000
"",0,63.500000,-55.597900
"",0,65.000000,-57.750000