"shapeid","x","y"
"0","-21.364781","12.959427"
"0","-24.349998","13.661345"
"0","-37.5","17.0"
"0","-37.498114","13.49276"
"0","-34.999998","7.659427"
"0","-15.999998","-6.373905"
"0","-9.999998","-6.373905"
"0","-9.999998","-12.005853"
"0","-2.999998","-9.507088"
"0","-2.999998","-1.851595"
"0","-7.333388","1e-06"
"0","-7.333298","-0.007238"
"0","-16.914781","8.99276"
"0","-21.364781","12.959427"
