"shapeid","x","y"
"0.0","-16.914781","8.99276"
"0.0","-15.834804867930126","9.019042742109802"
"0.0","-7.966967217514521","1.618669038596342"
"0.0","-7.333388","1e-06"
"0.0","-2.999998","-1.851595"
"0.0","-2.419455637710001","-1.855296197362196"
"0.0","-2.42160132791106","-2.2836260760003"
"0.0","-2.462472568769052","-9.510489084911779"
"0.0","-2.478044399831599","-9.704044664137152"
"0.0","-2.52179206992639","-9.886756855790487"
"0.0","-2.59121990629632","-10.048788800047255"
"0.0","-2.682498564527358","-10.181459892602815"
"0.0","-2.790684965853101","-10.277692284869374"
"0.0","-2.909987469327706","-10.332368778989741"
"0.0","-9.858362902087748","-12.81160973380738"
"0.0","-9.97676639684248","-12.842083160895838"
"0.0","-10.09637325962526","-12.828563544345197"
"0.0","-10.210986133876062","-12.77175122438386"
"0.0","-10.314648761470346","-12.674592056943728"
"0.0","-10.401937000843416","-12.54213477521605"
"0.0","-10.46823130676591","-12.381284367534391"
"0.0","-10.509959386975828","-12.200460338267083"
"0.0","-10.524796858692312","-12.009173025962678"
"0.0","-10.549973979784118","-7.177581530937456"
"0.0","-15.975076295009599","-7.210380224229088"
"0.0","-16.097396138322882","-7.19810236861001"
"0.0","-16.21499076613277","-7.145181611453169"
"0.0","-16.32213896258907","-7.054187252449165"
"0.0","-35.21175203820874","6.868969731516025"
"0.0","-35.356349050344406","6.962770025815505"
"0.0","-35.478785656632425","7.100662205242211"
"0.0","-35.57130821179335","7.274050039052807"
"0.0","-38.09835142278513","13.079585574717473"
"0.0","-38.165708937364236","13.276596837541996"
"0.0","-38.19005210694724","13.487862605200561"
"0.0","-38.22365559526812","16.994879706094427"
"0.0","-38.20942020283311","17.169813655323157"
"0.0","-38.16369967261734","17.337430501615255"
"0.0","-38.088331081224126","17.49026764113952"
"0.0","-37.986524658238075","17.6214782074444"
"0.0","-37.86274330403016","17.725151689148525"
"0.0","-37.72251149640112","17.796596613784285"
"0.0","-37.572160578165516","17.832568863504758"
"0.0","-37.41852341232018","17.83143160477466"
"0.0","-24.183280136382212","14.476157070122225"
"0.0","-21.641578479527716","13.877130379404134"
"0.0","-21.364781","12.959427"
"0.0","-16.914781","8.99276"
