{
"type": "FeatureCollection",
"name": "GanderOceanicDelegatedfromNewYork",
"crs": { "type": "name", "properties": { "name": "urn:ogc:def:crs:OGC:1.3:CRS84" } },
"features": [
{ "type": "Feature", "properties": { }, "geometry": { "type": "MultiPolygon", "coordinates": [ [ [ [ -40.0, 45.0, 0.0 ], [ -40.0, 44.5, 0.0 ], [ -41.0, 44.5, 0.0 ], [ -42.0, 44.5, 0.0 ], [ -43.0, 44.5, 0.0 ], [ -44.0, 44.5, 0.0 ], [ -45.0, 44.5, 0.0 ], [ -46.0, 44.5, 0.0 ], [ -46.337, 44.5, 0.0 ], [ -46.337, 45.0, 0.0 ], [ -46.0, 45.0, 0.0 ], [ -45.0, 45.0, 0.0 ], [ -44.0, 45.0, 0.0 ], [ -43.0, 45.0, 0.0 ], [ -42.0, 45.0, 0.0 ], [ -41.0, 45.0, 0.0 ], [ -40.0, 45.0, 0.0 ] ] ] ] } }
]
}
