{
"type": "FeatureCollection",
"name": "moncton_BVol(adj)",
"crs": { "type": "name", "properties": { "name": "urn:ogc:def:crs:OGC:1.3:CRS84" } },
"features": [
{ "type": "Feature", "properties": { }, "geometry": { "type": "Polygon", "coordinates": [ [ [ -56.052, 44.447 ], [ -56.64, 44.321 ], [ -56.839, 44.278 ], [ -57.408, 44.155 ], [ -58.125, 44.003 ], [ -58.832, 43.85 ], [ -59.493, 43.709 ], [ -60.0, 43.6 ], [ -60.552, 43.482 ], [ -61.102, 43.362 ], [ -61.65, 43.238 ], [ -62.195, 43.113 ], [ -62.738, 42.984 ], [ -63.279, 42.853 ], [ -63.818, 42.72 ], [ -64.354, 42.584 ], [ -64.888, 42.445 ], [ -65.42, 42.304 ], [ -65.949, 42.161 ], [ -66.476, 42.015 ], [ -67.0, 41.867 ], [ -67.117, 44.5 ], [ -66.903, 44.777 ], [ -66.901, 44.802 ], [ -66.915, 44.819 ], [ -66.963, 44.841 ], [ -66.978, 44.858 ], [ -66.979, 44.921 ], [ -67.024, 44.965 ], [ -67.094, 45.091 ], [ -67.163, 45.175 ], [ -67.205, 45.184 ], [ -67.207, 45.183 ], [ -67.207, 45.184 ], [ -67.215, 45.184 ], [ -67.223, 45.187 ], [ -67.236, 45.194 ], [ -67.253, 45.199 ], [ -67.261, 45.201 ], [ -67.268, 45.201 ], [ -67.275, 45.199 ], [ -67.286, 45.195 ], [ -67.287, 45.194 ], [ -67.289, 45.188 ], [ -67.29, 45.184 ], [ -67.291, 45.181 ], [ -67.294, 45.178 ], [ -67.292, 45.176 ], [ -67.291, 45.174 ], [ -67.292, 45.171 ], [ -67.294, 45.17 ], [ -67.299, 45.169 ], [ -67.302, 45.162 ], [ -67.302, 45.157 ], [ -67.301, 45.157 ], [ -67.296, 45.155 ], [ -67.294, 45.152 ], [ -67.297, 45.148 ], [ -67.32, 45.142 ], [ -67.318, 45.138 ], [ -67.321, 45.132 ], [ -67.33, 45.131 ], [ -67.34, 45.126 ], [ -67.353, 45.129 ], [ -67.371, 45.142 ], [ -67.38, 45.152 ], [ -67.391, 45.154 ], [ -67.405, 45.16 ], [ -67.405, 45.167 ], [ -67.399, 45.169 ], [ -67.4, 45.177 ], [ -67.409, 45.18 ], [ -67.418, 45.19 ], [ -67.429, 45.193 ], [ -67.428, 45.203 ], [ -67.439, 45.226 ], [ -67.453, 45.241 ], [ -67.463, 45.243 ], [ -67.473, 45.257 ], [ -67.472, 45.261 ], [ -67.475, 45.264 ], [ -67.477, 45.275 ], [ -67.482, 45.276 ], [ -67.484, 45.28 ], [ -67.489, 45.281 ], [ -67.486, 45.291 ], [ -67.482, 45.291 ], [ -67.477, 45.289 ], [ -67.474, 45.292 ], [ -67.466, 45.294 ], [ -67.466, 45.297 ], [ -67.469, 45.298 ], [ -67.467, 45.3 ], [ -67.461, 45.3 ], [ -67.458, 45.309 ], [ -67.456, 45.312 ], [ -67.452, 45.317 ], [ -67.454, 45.32 ], [ -67.457, 45.326 ], [ -67.452, 45.328 ], [ -67.444, 45.331 ], [ -67.441, 45.336 ], [ -67.431, 45.342 ], [ -67.429, 45.346 ], [ -67.431, 45.351 ], [ -67.427, 45.356 ], [ -67.426, 45.357 ], [ -67.433, 45.361 ], [ -67.434, 45.365 ], [ -67.43, 45.372 ], [ -67.427, 45.374 ], [ -67.422, 45.374 ], [ -67.422, 45.373 ], [ -67.421, 45.374 ], [ -67.419, 45.377 ], [ -67.42, 45.378 ], [ -67.421, 45.379 ], [ -67.426, 45.385 ], [ -67.428, 45.391 ], [ -67.455, 45.412 ], [ -67.461, 45.419 ], [ -67.461, 45.422 ], [ -67.471, 45.423 ], [ -67.473, 45.425 ], [ -67.48, 45.44 ], [ -67.477, 45.443 ], [ -67.477, 45.446 ], [ -67.484, 45.452 ], [ -67.485, 45.456 ], [ -67.482, 45.458 ], [ -67.482, 45.46 ], [ -67.487, 45.467 ], [ -67.501, 45.479 ], [ -67.504, 45.489 ], [ -67.499, 45.491 ], [ -67.495, 45.489 ], [ -67.489, 45.49 ], [ -67.489, 45.494 ], [ -67.485, 45.495 ], [ -67.481, 45.495 ], [ -67.477, 45.497 ], [ -67.467, 45.496 ], [ -67.464, 45.497 ], [ -67.464, 45.498 ], [ -67.471, 45.5 ], [ -67.471, 45.504 ], [ -67.463, 45.509 ], [ -67.452, 45.499 ], [ -67.45, 45.5 ], [ -67.449, 45.502 ], [ -67.453, 45.509 ], [ -67.449, 45.511 ], [ -67.441, 45.506 ], [ -67.431, 45.504 ], [ -67.429, 45.501 ], [ -67.424, 45.506 ], [ -67.416, 45.502 ], [ -67.42, 45.511 ], [ -67.427, 45.518 ], [ -67.432, 45.52 ], [ -67.432, 45.524 ], [ -67.435, 45.53 ], [ -67.432, 45.541 ], [ -67.425, 45.54 ], [ -67.424, 45.547 ], [ -67.421, 45.551 ], [ -67.429, 45.568 ], [ -67.424, 45.572 ], [ -67.425, 45.577 ], [ -67.43, 45.584 ], [ -67.455, 45.605 ], [ -67.493, 45.602 ], [ -67.494, 45.6 ], [ -67.488, 45.596 ], [ -67.49, 45.592 ], [ -67.495, 45.589 ], [ -67.503, 45.587 ], [ -67.519, 45.588 ], [ -67.535, 45.595 ], [ -67.546, 45.598 ], [ -67.564, 45.596 ], [ -67.583, 45.602 ], [ -67.589, 45.607 ], [ -67.606, 45.607 ], [ -67.64, 45.625 ], [ -67.644, 45.623 ], [ -67.64, 45.616 ], [ -67.646, 45.614 ], [ -67.663, 45.625 ], [ -67.666, 45.624 ], [ -67.675, 45.631 ], [ -67.681, 45.639 ], [ -67.693, 45.65 ], [ -67.691, 45.654 ], [ -67.698, 45.66 ], [ -67.701, 45.669 ], [ -67.709, 45.679 ], [ -67.715, 45.681 ], [ -67.725, 45.685 ], [ -67.727, 45.688 ], [ -67.727, 45.689 ], [ -67.734, 45.689 ], [ -67.734, 45.684 ], [ -67.73, 45.678 ], [ -67.731, 45.677 ], [ -67.729, 45.677 ], [ -67.728, 45.675 ], [ -67.718, 45.668 ], [ -67.721, 45.662 ], [ -67.724, 45.664 ], [ -67.733, 45.664 ], [ -67.745, 45.673 ], [ -67.755, 45.668 ], [ -67.769, 45.678 ], [ -67.803, 45.678 ], [ -67.818, 45.694 ], [ -67.803, 45.696 ], [ -67.81, 45.729 ], [ -67.804, 45.73 ], [ -67.782, 45.732 ], [ -67.793, 45.75 ], [ -67.794, 45.751 ], [ -67.806, 45.755 ], [ -67.809, 45.767 ], [ -67.805, 45.77 ], [ -67.804, 45.777 ], [ -67.804, 45.782 ], [ -67.805, 45.788 ], [ -67.807, 45.795 ], [ -67.802, 45.804 ], [ -67.78, 45.816 ], [ -67.78, 45.818 ], [ -67.767, 45.819 ], [ -67.766, 45.819 ], [ -67.755, 45.824 ], [ -67.76, 45.827 ], [ -67.763, 45.829 ], [ -67.769, 45.839 ], [ -67.79, 45.852 ], [ -67.797, 45.86 ], [ -67.796, 45.866 ], [ -67.804, 45.869 ], [ -67.804, 45.883 ], [ -67.799, 45.884 ], [ -67.797, 45.888 ], [ -67.785, 45.896 ], [ -67.78, 45.895 ], [ -67.778, 45.898 ], [ -67.777, 45.897 ], [ -67.776, 45.896 ], [ -67.769, 45.898 ], [ -67.767, 45.904 ], [ -67.765, 45.91 ], [ -67.758, 45.911 ], [ -67.755, 45.912 ], [ -67.751, 45.918 ], [ -67.757, 45.923 ], [ -67.758, 45.926 ], [ -67.766, 45.928 ], [ -67.766, 45.93 ], [ -67.772, 45.932 ], [ -67.774, 45.935 ], [ -67.778, 45.934 ], [ -67.781, 45.943 ], [ -67.782, 46.103 ], [ -67.782, 46.277 ], [ -67.783, 46.346 ], [ -67.784, 46.413 ], [ -67.787, 46.542 ], [ -67.788, 46.59 ], [ -67.789, 46.661 ], [ -67.789, 46.791 ], [ -67.79, 46.913 ], [ -67.791, 47.068 ], [ -67.795, 47.07 ], [ -67.811, 47.076 ], [ -67.819, 47.082 ], [ -67.823, 47.084 ], [ -67.837, 47.087 ], [ -67.868, 47.101 ], [ -67.881, 47.104 ], [ -67.889, 47.112 ], [ -67.892, 47.129 ], [ -67.898, 47.133 ], [ -67.901, 47.135 ], [ -67.909, 47.147 ], [ -67.91, 47.148 ], [ -67.914, 47.15 ], [ -67.915, 47.15 ], [ -67.926, 47.155 ], [ -67.936, 47.165 ], [ -67.939, 47.171 ], [ -67.951, 47.184 ], [ -67.952, 47.194 ], [ -67.955, 47.198 ], [ -67.958, 47.2 ], [ -67.974, 47.205 ], [ -67.99, 47.211 ], [ -68.0, 47.22 ], [ -68.02, 47.238 ], [ -68.062, 47.256 ], [ -68.064, 47.257 ], [ -68.074, 47.26 ], [ -68.079, 47.266 ], [ -68.083, 47.272 ], [ -68.098, 47.278 ], [ -68.12, 47.287 ], [ -68.126, 47.292 ], [ -68.127, 47.294 ], [ -68.137, 47.296 ], [ -68.152, 47.31 ], [ -68.152, 47.322 ], [ -68.155, 47.325 ], [ -68.161, 47.328 ], [ -68.176, 47.329 ], [ -68.202, 47.339 ], [ -68.203, 47.339 ], [ -68.216, 47.34 ], [ -68.224, 47.345 ], [ -68.224, 47.346 ], [ -68.225, 47.351 ], [ -68.231, 47.354 ], [ -68.252, 47.353 ], [ -68.265, 47.353 ], [ -68.281, 47.359 ], [ -68.285, 47.36 ], [ -68.293, 47.359 ], [ -68.305, 47.356 ], [ -68.323, 47.36 ], [ -68.336, 47.36 ], [ -68.357, 47.356 ], [ -68.362, 47.356 ], [ -68.37, 47.351 ], [ -68.38, 47.34 ], [ -68.384, 47.326 ], [ -68.384, 47.323 ], [ -68.381, 47.309 ], [ -68.382, 47.308 ], [ -68.385, 47.303 ], [ -68.384, 47.302 ], [ -68.376, 47.294 ], [ -68.376, 47.29 ], [ -68.379, 47.288 ], [ -68.39, 47.287 ], [ -68.413, 47.288 ], [ -68.429, 47.282 ], [ -68.441, 47.284 ], [ -68.449, 47.283 ], [ -68.458, 47.285 ], [ -68.466, 47.295 ], [ -68.474, 47.298 ], [ -68.491, 47.294 ], [ -68.508, 47.297 ], [ -68.518, 47.296 ], [ -68.529, 47.293 ], [ -68.54, 47.285 ], [ -68.55, 47.282 ], [ -68.571, 47.286 ], [ -68.565, 47.29 ], [ -68.532, 47.327 ], [ -68.486, 47.36 ], [ -68.427, 47.398 ], [ -68.37, 47.427 ], [ -68.297, 47.458 ], [ -68.235, 47.48 ], [ -68.169, 47.498 ], [ -68.098, 47.512 ], [ -68.025, 47.523 ], [ -68.0, 47.525 ], [ -67.958, 47.699 ], [ -67.95, 47.733 ], [ -67.797, 47.755 ], [ -66.897, 47.883 ], [ -66.9, 47.89 ], [ -66.911, 47.911 ], [ -66.922, 47.939 ], [ -66.93, 47.967 ], [ -66.933, 47.996 ], [ -66.933, 48.025 ], [ -66.93, 48.051 ], [ -66.929, 48.054 ], [ -66.922, 48.083 ], [ -66.91, 48.111 ], [ -66.895, 48.138 ], [ -66.877, 48.165 ], [ -66.855, 48.19 ], [ -66.83, 48.213 ], [ -66.802, 48.236 ], [ -66.771, 48.256 ], [ -66.737, 48.275 ], [ -66.702, 48.291 ], [ -66.664, 48.306 ], [ -66.624, 48.318 ], [ -66.583, 48.327 ], [ -66.541, 48.335 ], [ -66.498, 48.34 ], [ -66.454, 48.342 ], [ -66.411, 48.342 ], [ -66.367, 48.339 ], [ -66.325, 48.333 ], [ -66.283, 48.325 ], [ -66.242, 48.315 ], [ -66.203, 48.303 ], [ -66.187, 48.296 ], [ -66.165, 48.288 ], [ -66.13, 48.271 ], [ -66.097, 48.252 ], [ -66.067, 48.231 ], [ -66.039, 48.208 ], [ -66.015, 48.184 ], [ -65.994, 48.159 ], [ -65.976, 48.133 ], [ -65.962, 48.105 ], [ -65.951, 48.077 ], [ -65.944, 48.048 ], [ -65.941, 48.019 ], [ -65.941, 48.0 ], [ -65.911, 47.997 ], [ -64.622, 47.848 ], [ -64.103, 47.983 ], [ -63.581, 48.116 ], [ -63.057, 48.246 ], [ -62.53, 48.374 ], [ -62.0, 48.5 ], [ -61.817, 48.413 ], [ -61.241, 48.153 ], [ -60.424, 47.735 ], [ -59.803, 47.42 ], [ -59.271, 47.146 ], [ -58.606, 46.795 ], [ -57.66, 46.28 ], [ -57.261, 46.059 ], [ -56.866, 45.836 ], [ -56.474, 45.612 ], [ -56.331, 45.224 ], [ -56.191, 44.836 ], [ -56.052, 44.447 ] ] ] } }
]
}
