21.996,150.892
24.015,154.089
27.698,154.095
27.817,160.674
29.506,163.816
36.901,163.737
37.000,174.833
37.000,180.000
36.000,-170.000
35.000,-160.000
26.162,-160.003
26.172,-161.326
23.976,-164.046
19.997,-163.985
18.418,-161.893
21.996,150.892
