<?xml version="1.0" encoding="utf-8" ?>
<kml xmlns="http://www.opengis.net/kml/2.2">
<Document id="root_doc">
<Schema name="Vancouver_req" id="Vancouver_req">
	<SimpleField name="id" type="string"></SimpleField>
	<SimpleField name="featureVersion" type="int"></SimpleField>
	<SimpleField name="featureBirthDate" type="string"></SimpleField>
	<SimpleField name="featureEffectiveDate" type="string"></SimpleField>
	<SimpleField name="featureEndDate" type="string"></SimpleField>
	<SimpleField name="customerID" type="string"></SimpleField>
	<SimpleField name="volumeName" type="string"></SimpleField>
	<SimpleField name="icaoID" type="string"></SimpleField>
	<SimpleField name="sac" type="string"></SimpleField>
	<SimpleField name="sic" type="string"></SimpleField>
	<SimpleField name="sid" type="string"></SimpleField>
	<SimpleField name="featureID" type="string"></SimpleField>
	<SimpleField name="featureType" type="string"></SimpleField>
	<SimpleField name="serviceFeatureProperties" type="string"></SimpleField>
	<SimpleField name="geometryType" type="string"></SimpleField>
	<SimpleField name="centerPoint" type="string"></SimpleField>
	<SimpleField name="floorFeet" type="int"></SimpleField>
	<SimpleField name="ceilingFeet" type="int"></SimpleField>
	<SimpleField name="billingFeatureProperties" type="string"></SimpleField>
</Schema>
<Folder><name>Vancouver_req</name>
  <Placemark>
	<Style><LineStyle><color>ff0000ff</color></LineStyle><PolyStyle><fill>0</fill></PolyStyle></Style>
	<ExtendedData><SchemaData schemaUrl="#Vancouver_req">
		<SimpleData name="id">d7-64-01-01</SimpleData>
		<SimpleData name="featureVersion">1</SimpleData>
		<SimpleData name="featureBirthDate">1999/12/31 23:59:59</SimpleData>
		<SimpleData name="featureEffectiveDate">1999/12/31 23:59:59</SimpleData>
		<SimpleData name="featureEndDate">2099/12/31 23:59:59</SimpleData>
		<SimpleData name="customerID">CUS-navcan</SimpleData>
		<SimpleData name="volumeName">Vancouver FIR</SimpleData>
		<SimpleData name="icaoID">ROGV</SimpleData>
		<SimpleData name="sac">0xd7</SimpleData>
		<SimpleData name="sic">0x64</SimpleData>
		<SimpleData name="sid">0x01</SimpleData>
		<SimpleData name="featureID">0x01</SimpleData>
		<SimpleData name="featureType">billing</SimpleData>
		<SimpleData name="geometryType">polygon</SimpleData>
		<SimpleData name="centerPoint">(2:-124.599115,52.947273)</SimpleData>
		<SimpleData name="floorFeet">18000</SimpleData>
		<SimpleData name="ceilingFeet">60000</SimpleData>
		<SimpleData name="billingFeatureProperties">{ &quot;billingType&quot;: &quot;usage&quot;, &quot;billingPriority&quot;: 0, &quot;billingEffectiveDate&quot;: &quot;1999-12-31T23:59:59.999Z&quot;, &quot;failedStateThresholdSecs&quot;: 86400 }</SimpleData>
	</SchemaData></ExtendedData>
      <Polygon><outerBoundaryIs><LinearRing><coordinates>-127.996334,48.332423 -124.7509,48.501029 -123.528029,48.222796 -123.170303,48.292742 -122.935614,49.001239 -119.547606,49.007106 -115.977032,49.001874 -112.047413,49.012167 -116.643495,54.363361 -121.693769,57.497979 -133.842649,58.726828 -132.27015,57.187069 -131.838922,56.601609 -130.32576,56.075497 -129.974055,55.286391 -130.654447,54.763067 -130.615456,54.707489 -131.800704,54.492056 -132.684876,54.662224 -135.996481,53.997498 -133.748733,50.997586 -127.996334,48.332423</coordinates></LinearRing></outerBoundaryIs></Polygon>
  </Placemark>
</Folder>
</Document></kml>
