"shapeid","x","y"
"0","73.370011","16.330612"
"0","73.447753","16.055835"
"0","73.447754","16.055832"
"0","73.593872","15.892776"
"0","73.641937","15.740274"
"0","73.697205","15.721939"
"0","73.791367","15.450554"
"0","73.950272","15.4"
"0","73.963608","15.363609"
"0","73.912491","15.40111"
"0","73.784424","15.403053"
"0","73.905823","15.301388"
"0","73.958328","15.065832"
"0","74.101364","14.867094"
"0","74.089706","14.797777"
"0","74.250824","14.718887"
"0","74.300812","14.521666"
"0","74.333603","14.515554"
"0","74.358032","14.568331"
"0","74.411926","14.483332"
"0","74.375259","14.448332"
"0","74.497757","14.046387"
"0","74.619141","13.832499"
"0","74.810257","12.864719"
"0","75.192474","12.007776"
"0","75.274414","12.007776"
"0","75.528595","11.700275"
"0","75.613037","11.471664"
"0","75.688873","11.435276"
"0","76.203049","10.037777"
"0","76.238876","9.983608"
"0","76.216385","10.132219"
"0","76.384155","9.860275"
"0","76.424423","9.594442"
"0","76.498596","9.532221"
"0","76.469986","9.495275"
"0","76.352203","9.522499"
"0","76.382751","9.646666"
"0","76.356934","9.776665"
"0","76.28627","9.831053"
"0","76.257767","9.906942"
"0","76.292206","9.913887"
"0","76.242752","9.966108"
"0","76.307755","9.496943"
"0","76.380264","9.281387"
"0","76.534149","8.964998"
"0","76.66748","9.003611"
"0","76.6586","8.964998"
"0","76.570831","8.939165"
"0","76.575821","8.876942"
"0","76.998596","8.365274"
"0","77.299149","8.133053"
"0","77.45665","8.083887"
"0","77.536102","8.071943"
"0","77.587204","8.134722"
"0","77.78804","8.19611"
"0","78.060532","8.364164"
"0","78.131653","8.486664"
"0","78.192474","8.904165"
"0","78.409988","9.096943"
"0","78.9711","9.273609"
"0","79.294434","9.246664"
"0","79.451385","9.15"
"0","79.331665","9.264166"
"0","79.009155","9.331665"
"0","78.908035","9.479719"
"0","78.981934","9.664165"
"0","79.25","10.017221"
"0","79.240814","10.18111"
"0","79.324997","10.280832"
"0","79.399155","10.319719"
"0","79.763611","10.258333"
"0","79.677429","10.300276"
"0","79.786926","10.267221"
"0","79.859711","10.288887"
"0","79.854156","11.13722"
"0","79.833054","11.339441"
"0","79.751389","11.549166"
"0","79.752499","11.558658"
"0","79.763046","11.648888"
"0","79.846991","11.958281"
"0","79.867203","12.032776"
"0","80.160263","12.473053"
"0","80.258881","12.782221"
"0","80.349716","13.334164"
"0","80.313873","13.42222"
"0","80.118858","13.499723"
"0","80.049423","13.617775"
"0","80.152481","13.718054"
"0","80.313034","13.439165"
"0","80.225815","13.679998"
"0","80.247482","13.808887"
"0","80.126083","14.200275"
"0","80.194977","14.555832"
"0","80.048874","15.048887"
"0","80.09082","15.309164"
"0","80.265274","15.679998"
"0","80.554153","15.876942"
"0","80.684708","15.9"
"0","80.77887","15.876387"
"0","80.825272","15.751944"
"0","80.897491","15.91111"
"0","80.891937","16.026108"
"0","80.912201","15.93222"
"0","80.899765","15.858053"
"0","81.017273","15.775555"
"0","81.001709","15.844442"
"0","81.086593","15.916152"
"0","81.15033","15.969997"
"0","81.223903","16.231837"
"0","81.245865","16.309998"
"0","81.31337","16.363331"
"0","81.412262","16.385273"
"0","81.727264","16.310829"
"0","81.923344","16.381966"
"0","81.994476","16.407772"
"0","82.112333","16.475014"
"0","82.301697","16.583054"
"0","82.346436","16.704716"
"0","82.37114","16.845276"
"0","82.359711","16.820553"
"0","82.276382","16.85944"
"0","82.248596","16.920273"
"0","82.364426","17.10083"
"0","82.61499","17.291107"
"0","83.234146","17.592495"
"0","83.548275","17.975453"
"0","84.750917","16.811816"
"0","84.700034","16.786084"
"0","84.189266","16.281381"
"0","83.893001","16.109628"
"0","83.731045","15.760318"
"0","83.537312","15.505762"
"0","83.296017","15.292516"
"0","82.857934","15.024538"
"0","82.342863","14.811558"
"0","82.011891","14.480088"
"0","81.849606","14.383789"
"0","81.83729","14.244526"
"0","81.997216","13.562937"
"0","81.994139","13.086876"
"0","81.827979","12.225768"
"0","81.641706","11.728039"
"0","81.491419","11.476555"
"0","81.521224","10.204814"
"0","81.478368","10.000002"
"0","80.000002","10.000002"
"0","78.305794","6.611588"
"0","77.98049","6.471114"
"0","77.659415","6.415225"
"0","77.132345","6.45456"
"0","76.797711","6.549365"
"0","76.378911","6.749655"
"0","75.814504","7.199743"
"0","75.197849","7.948688"
"0","74.924164","8.466807"
"0","74.722602","8.987625"
"0","74.574864","9.692117"
"0","74.263108","10.512066"
"0","74.111557","10.764419"
"0","73.922328","10.94796"
"0","73.743773","11.201338"
"0","73.288498","12.204164"
"0","73.178117","12.548184"
"0","73.027847","13.29451"
"0","72.87348","13.694716"
"0","72.663399","13.962939"
"0","72.000002","15.000002"
"0","71.89293","15.482651"
"0","71.80703481772325","15.801948788722216"
"0","71.83503962992474","15.813884152838474"
"0","71.99147222796321","15.83679351570173"
"0","72.39177915961437","15.841055554291328"
"0","72.37255101883852","15.881877634971277"
"0","72.31271534590871","16.049147462482324"
"0","72.28487555388406","16.227573400623015"
"0","72.29055521005104","16.408820558206706"
"0","72.32971950392508","16.584364329467526"
"0","72.40073365610655","16.745892084052162"
"0","72.50040062496582","16.885705455206235"
"0","72.6240840005798","16.997102335441976"
"0","72.76591598996413","17.074716905508"
"0","72.91908310937765","17.11479692477045"
"0","73.25451804647494","17.157660073691343"
"0","73.274704","17.08194"
"0","73.269714","16.853329"
"0","73.360535","16.512218"
"0","73.326096","16.485828"
"0","73.370011","16.330612"
