{
"type": "FeatureCollection",
"name": "NewMumbaiCoast",
"crs": { "type": "name", "properties": { "name": "urn:ogc:def:crs:OGC:1.3:CRS84" } },
"features": [
{ "type": "Feature", "properties": { }, "geometry": { "type": "MultiPolygon", "coordinates": [ [ [ [ 74.242825899702964, 14.722803198887975 ], [ 74.220798402687052, 14.645617204507827 ], [ 74.135872339956649, 14.48264956018207 ], [ 74.022454321365956, 14.346845577684618 ], [ 73.886507081623876, 14.24519165229783 ], [ 73.735064124268618, 14.18289458283378 ], [ 73.575883852899508, 14.16313570570782 ], [ 72.535335522683326, 14.163135705707829 ], [ 72.000002, 15.000002 ], [ 71.89293, 15.482651 ], [ 71.674037, 16.296341 ], [ 71.558147, 17.097749 ], [ 71.176468, 18.487551 ], [ 71.113605, 18.794893 ], [ 71.10669, 19.136084 ], [ 70.671392, 19.128248 ], [ 70.213708, 19.232299 ], [ 69.681808, 19.458163 ], [ 69.107266, 19.84576 ], [ 68.835413, 20.082489 ], [ 68.52282, 20.441745 ], [ 68.008603, 20.888917 ], [ 67.629564, 21.315647 ], [ 67.396502, 21.723142 ], [ 67.246388, 22.308377 ], [ 66.758458, 22.490803 ], [ 66.359387, 22.766877 ], [ 65.965369, 23.223745 ], [ 65.809779, 23.498955 ], [ 67.235813, 23.497815 ], [ 68.169692, 23.497069 ], [ 68.115463, 23.538779 ], [ 68.114861, 23.539242 ], [ 68.111424, 23.601521 ], [ 68.134916, 23.647646 ], [ 68.185686, 23.688459 ], [ 68.1907, 23.720831 ], [ 68.201096, 23.664162 ], [ 68.140274, 23.604717 ], [ 68.259155, 23.579163 ], [ 68.335266, 23.588051 ], [ 68.447479, 23.72694 ], [ 68.741364, 23.844162 ], [ 68.408325, 23.612774 ], [ 68.433044, 23.429996 ], [ 68.65332, 23.152496 ], [ 69.147491, 22.869164 ], [ 69.710266, 22.742771 ], [ 69.849426, 22.858608 ], [ 70.227203, 22.957497 ], [ 70.389435, 22.935272 ], [ 70.410812, 23.085274 ], [ 70.475266, 23.127495 ], [ 70.512497, 23.094162 ], [ 70.511383, 22.985271 ], [ 70.367477, 22.888607 ], [ 70.165543, 22.548332 ], [ 70.040543, 22.558331 ], [ 69.870819, 22.465549 ], [ 69.238312, 22.273331 ], [ 69.171097, 22.302776 ], [ 69.177475, 22.360275 ], [ 69.067215, 22.480827 ], [ 68.986374, 22.418327 ], [ 68.944427, 22.294163 ], [ 69.11554, 22.062496 ], [ 69.788589, 21.466385 ], [ 70.060806, 21.14444 ], [ 70.517761, 20.816666 ], [ 70.831375, 20.694439 ], [ 70.966095, 20.702774 ], [ 71.466934, 20.881939 ], [ 71.568054, 20.974995 ], [ 72.110535, 21.201939 ], [ 72.103867, 21.309719 ], [ 72.242477, 21.465271 ], [ 72.289154, 21.610828 ], [ 72.172485, 21.785831 ], [ 72.019714, 21.773609 ], [ 71.994141, 21.847775 ], [ 72.161926, 21.835274 ], [ 72.152206, 21.928608 ], [ 72.031662, 21.942772 ], [ 72.265274, 22.016109 ], [ 72.325821, 22.156662 ], [ 72.296936, 22.232216 ], [ 72.178864, 22.247494 ], [ 72.151932, 22.283886 ], [ 72.375809, 22.299164 ], [ 72.389709, 22.249439 ], [ 72.466385, 22.227219 ], [ 72.5811, 22.28611 ], [ 72.919144, 22.267776 ], [ 72.914993, 22.216106 ], [ 72.817764, 22.239716 ], [ 72.746933, 22.164719 ], [ 72.575546, 22.195274 ], [ 72.500824, 21.976662 ], [ 72.551651, 21.907219 ], [ 72.734421, 21.986382 ], [ 72.56749, 21.848053 ], [ 72.541656, 21.663883 ], [ 72.936646, 21.681664 ], [ 73.130814, 21.753609 ], [ 72.813309, 21.632217 ], [ 72.631363, 21.494438 ], [ 72.585815, 21.41333 ], [ 72.715271, 21.474995 ], [ 72.751938, 21.455273 ], [ 72.564148, 21.378052 ], [ 72.607483, 21.258053 ], [ 72.718048, 21.196106 ], [ 72.615814, 21.097218 ], [ 72.702774, 21.074165 ], [ 72.808029, 21.126385 ], [ 72.853043, 21.067776 ], [ 72.846939, 20.844162 ], [ 72.934418, 20.774719 ], [ 72.885269, 20.513054 ], [ 72.753601, 20.294998 ], [ 72.664154, 19.870831 ], [ 72.75444, 19.369717 ], [ 72.79776, 19.326107 ], [ 72.963882, 19.309162 ], [ 73.047226, 19.217255 ], [ 72.856369, 19.317776 ], [ 72.780548, 19.312496 ], [ 72.766663, 19.22805 ], [ 72.783325, 19.148052 ], [ 72.820831, 19.172771 ], [ 72.825546, 19.053051 ], [ 72.769989, 18.94305 ], [ 72.823044, 18.912495 ], [ 72.969711, 19.078884 ], [ 73.055542, 19.011944 ], [ 72.911926, 18.917496 ], [ 72.993042, 18.790554 ], [ 72.987488, 18.727772 ], [ 72.933044, 18.819717 ], [ 72.857483, 18.795277 ], [ 72.853867, 18.660553 ], [ 73.274704, 17.08194 ], [ 73.269714, 16.853329 ], [ 73.360535, 16.512218 ], [ 73.326096, 16.485828 ], [ 73.370011, 16.330612 ], [ 73.447753, 16.055835 ], [ 73.447754, 16.055832 ], [ 73.593872, 15.892776 ], [ 73.641937, 15.740274 ], [ 73.697205, 15.721939 ], [ 73.791367, 15.450554 ], [ 73.950272, 15.4 ], [ 73.963608, 15.363609 ], [ 73.912491, 15.40111 ], [ 73.784424, 15.403053 ], [ 73.905823, 15.301388 ], [ 73.958328, 15.065832 ], [ 74.101364, 14.867094 ], [ 74.089706, 14.797777 ], [ 74.242825899702964, 14.722803198887975 ] ] ] ] } }
]
}
