{
"type": "FeatureCollection",
"name": "GanderFixed",
"crs": { "type": "name", "properties": { "name": "urn:ogc:def:crs:OGC:1.3:CRS84" } },
"features": [
{ "type": "Feature", "properties": { }, "geometry": { "type": "Polygon", "coordinates": [ [ [ -57.868056, 43.072222 ], [ -61.201667, 42.381667 ], [ -65.0, 41.880535943022075 ], [ -65.0, 41.916 ], [ -65.0, 42.4157 ], [ -65.0, 46.0 ], [ -69.9, 49.5 ], [ -71.5, 51.0 ], [ -71.5, 53.75 ], [ -68.266667, 57.416111 ], [ -70.0, 60.0 ], [ -70.0, 67.0 ], [ -59.681944, 67.0 ], [ -55.133, 67.0 ], [ -54.108, 65.649 ], [ -53.375, 65.166667 ], [ -50.529444, 65.166667 ], [ -50.529444, 63.5 ], [ -47.666667, 51.83 ], [ -47.666667, 44.5 ], [ -50.0, 44.5 ], [ -55.75, 43.583333 ], [ -57.868056, 43.072222 ] ] ] } }
]
}
