{
  "fileVersion": 1,
  "checksum": "da71448d73c9b6c27e397803f2d46412",
  "fileFormatVersion": 1,
  "fileName": "iaa.geojson",
  "fileGeneratedBy": "SVDD",
  "type": "FeatureCollection",
  "customerCollection": [
    {
      "type": "customer",
      "properties": {
        "customerID": "CUS-1000012",
        "customerName": "IAA",
        "customerRegion": "Ireland",
        "customerRecordVersion": 1,
        "customerEffectiveDate": "1999-12-31T23:59:59.999Z",
        "customerEndDate": "2099-12-31T23:59:59.999Z",
        "anspTargetReportBundleTimeMsecs": 50,
        "cat023StatusReportEnabled": true,
        "servicePredictionReportLookAheadHours": 24,
        "rateServicePredictionReportMins": 30,
        "rateServicePredictionDefinitionMins": 30,
        "rateVersionNumberReportMins": 5,
        "DDID": "0x0003",
        "anspTargetReportVersion": "2.4",
        "servicePredictionReportTimeIncrementMins": 1,
        "anspTargetReportTOA": true,
        "anspTargetReportFineTOMR": true,
        "trackNumberFieldEnabled": true,
        "anspTargetReportPosType": true,
        "anspTargetReportTOMRv": true,
        "anspTargetReportAGV": true,
        "anspTargetReportFTC0": true,
        "invalidMode3ACode": "0000",
        "duplicateType2SameSVol": false,
        "anspTargetReportValidation": false,
        "anspTargetReportFailedState": true,
        "sdpCollection": [
          {
            "sdpId": "0x000300",
            "sdpName": "Ballygirren SDP",
            "sdpLocation": "Ballygirreen, Newmarket on Fergus, Co Clare, Ireland",
            "anspAssetIPAddress": "127.0.0.1",
            "anspAssetNetmask": "255.255.255.0",
            "anspInterfaceDuplexMode": "auto",
            "anspInterfaceDuplexSpeed": 100,
            "anspAssetDuplexType": "full",
            "serviceVolumeDelivery": [
              {
                "serviceVolumeId": "0x725001",
                "singleOrDualStream": "single",
                "unicastOrMulticastStream1": "multicast",
                "reflectedDestinationIPAddressStream1": "233.3.160.80",
                "unicastOrMulticastStream2": "multicast"
              },
              {
                "serviceVolumeId": "0x725101",
                "singleOrDualStream": "single",
                "unicastOrMulticastStream1": "multicast",
                "reflectedDestinationIPAddressStream1": "233.3.160.81",
                "unicastOrMulticastStream2": "multicast"
              },
              {
                "serviceVolumeId": "0x725201",
                "singleOrDualStream": "single",
                "unicastOrMulticastStream1": "multicast",
                "reflectedDestinationIPAddressStream1": "233.3.160.82",
                "unicastOrMulticastStream2": "multicast"
              },
              {
                "serviceVolumeId": "0x725301",
                "singleOrDualStream": "single",
                "unicastOrMulticastStream1": "multicast",
                "reflectedDestinationIPAddressStream1": "233.3.160.83",
                "unicastOrMulticastStream2": "multicast"
              }
            ]
          }
        ]
      }
    }
  ],
  "totalFeatures": 8,
  "features": [
    {
      "id": "72-50-01-00",
      "type": "Feature",
      "bbox": [
        -16.436700,
        50.162600,
        -4.068000,
        56.276900
      ],
      "properties": {
        "featureVersion": 1,
        "featureEffectiveDate": "1999-12-31T23:59:59.999Z",
        "featureBirthDate": "1999-12-31T23:59:59.999Z",
        "featureEndDate": "2099-12-31T23:59:59.999Z",
        "customerID": "CUS-1000012",
        "volumeName": "Shannon FIR (includes Class C Airspace)",
        "icaoID": "EISN",
        "sac": "0x72",
        "sic": "0x50",
        "sid": "0x01",
        "featureID": "0x00",
        "featureType": "service",
        "serviceFeatureProperties": {
          "serviceType": "primary",
          "serviceDefaultMode": "active",
          "contractUpdateIntervalMsecs": 8000,
          "contractLatencyMsecs": 2000,
          "anspTargetReportUpdateMode": "update",
          "anspTargetReportMinWaitTimeMsecs": 1000,
          "anspTargetReportPeriodicRateMsecs": 0,
          "anspTestTargetReportRateSecs": 1,
          "anspTestTargetReportICAO": "0x4ca4ae",
          "anspTestTargetReportPosition": [
            -13.000000,
            53.000000
          ],
          "anspTestTargetReportAltFeet": -1000,
          "anspTestTargetReportMode3AEnabled": false,
          "anspTestTargetReportTargetIDEnabled": true,
          "anspTestTargetReportTargetID": "EISN",
          "offlineStatusThresholdPercent": 0,
          "degradedStatusThresholdPercent": 85,
          "networkServicesAddress": "233.114.80.1",
          "portTargetReportsCAT021": 59980,
          "portVersionNumberCAT247": 59981,
          "portAPDKeepAlive": 65535,
          "portEquipmentStatusCAT023": 59982,
          "portServiceVolumeStatusCAT023": 59983,
          "portServiceVolumeStatisticsCAT023": 59984,
          "portServiceDefinitionReportCAT238": 59988,
          "portServicePredictionReportCAT238": 59990,
          "portServiceSystemStatusReportCAT025": 59992,
          "portServiceStatisticsReportCAT025": 59993,
          "portConstellationTLEReportCAT253": 59994,
          "portCat033": 59681,
          "portCat033BelowMinLV": 59682,
          "portCat033DupType1": 59683,
          "portCat033DupType1BelowMinLV": 59684,
          "portCat033InvMode3A": 59685,
          "portCat033InvMode3ABelowMinLV": 59686,
          "latencyTPM": true,
          "updateIntervalTPM": true,
          "probabilityUpdateTPM": true,
          "probabilityLongGapTPM": true,
          "serviceDesignator": "1090ADSB",
          "serviceMode": "operational",
          "expectedTargetLoad": 2000,
          "sendSurfaceTargets": false,
          "minLinkVersion": 0,
          "anspTargetReportRxID1": 0,
          "gracefulDegradation": false,
          "gracefulDegradationLoad": 1000,
          "gracefulDegradationRate": 0.005,
          "serviceVolumeId": "0x725001",
          "rateTLESecs": 300,
          "rateEquipmentStatusSecs": 5,
          "rateServiceVolumeStatusSecs": 5,
          "rateServiceVolumeStatisticsSecs": 5,
          "anspTestTargetReportTargetsNIC": 11,
          "anspTestTargetReportNoTargetsNIC": 10,
          "anspTestTargetReportTargetsNACp": 11,
          "anspTestTargetReportNoTargetsNACp": 10
        },
        "geometryType": "polygon",
        "centerPoint": [
          -10.265976,
          52.931714
        ],
        "floorFeet": 100,
        "ceilingFeet": 66000
      },
      "geometry": {
        "type": "Polygon",
        "coordinates": [
          [
            [
              -16.436700,
              54.689700
            ],
            [
              -16.295700,
              50.162600
            ],
            [
              -7.517400,
              50.162600
            ],
            [
              -4.151400,
              51.939400
            ],
            [
              -4.068000,
              54.526000
            ],
            [
              -5.726200,
              54.837500
            ],
            [
              -4.480800,
              55.732100
            ],
            [
              -7.198300,
              56.276900
            ],
            [
              -9.068500,
              56.106800
            ],
            [
              -9.871300,
              55.468100
            ],
            [
              -10.352200,
              55.379800
            ],
            [
              -16.436700,
              54.689700
            ]
          ]
        ]
      }
    },
    {
      "id": "72-51-01-00",
      "type": "Feature",
      "bbox": [
        -16.344400,
        47.569900,
        -6.655900,
        51.837400
      ],
      "properties": {
        "featureVersion": 1,
        "featureEffectiveDate": "1999-12-31T23:59:59.999Z",
        "featureBirthDate": "1999-12-31T23:59:59.999Z",
        "featureEndDate": "2099-12-31T23:59:59.999Z",
        "customerID": "CUS-1000012",
        "volumeName": "Shannon Oceanic Transition Area (SOTA, Class A)",
        "icaoID": "SOTA",
        "sac": "0x72",
        "sic": "0x51",
        "sid": "0x01",
        "featureID": "0x00",
        "featureType": "service",
        "serviceFeatureProperties": {
          "serviceType": "primary",
          "serviceDefaultMode": "active",
          "contractUpdateIntervalMsecs": 8000,
          "contractLatencyMsecs": 2000,
          "anspTargetReportUpdateMode": "update",
          "anspTargetReportMinWaitTimeMsecs": 1000,
          "anspTargetReportPeriodicRateMsecs": 0,
          "anspTestTargetReportRateSecs": 1,
          "anspTestTargetReportICAO": "0x4ca4ad",
          "anspTestTargetReportPosition": [
            -13.000000,
            50.000000
          ],
          "anspTestTargetReportAltFeet": -1000,
          "anspTestTargetReportMode3AEnabled": false,
          "anspTestTargetReportTargetIDEnabled": true,
          "anspTestTargetReportTargetID": "SOTA",
          "offlineStatusThresholdPercent": 0,
          "degradedStatusThresholdPercent": 85,
          "networkServicesAddress": "233.114.81.1",
          "portTargetReportsCAT021": 59980,
          "portVersionNumberCAT247": 59981,
          "portAPDKeepAlive": 65535,
          "portEquipmentStatusCAT023": 59982,
          "portServiceVolumeStatusCAT023": 59983,
          "portServiceVolumeStatisticsCAT023": 59984,
          "portServiceDefinitionReportCAT238": 59988,
          "portServicePredictionReportCAT238": 59990,
          "portServiceSystemStatusReportCAT025": 59992,
          "portServiceStatisticsReportCAT025": 59993,
          "portConstellationTLEReportCAT253": 59994,
          "portCat033": 59681,
          "portCat033BelowMinLV": 59682,
          "portCat033DupType1": 59683,
          "portCat033DupType1BelowMinLV": 59684,
          "portCat033InvMode3A": 59685,
          "portCat033InvMode3ABelowMinLV": 59686,
          "latencyTPM": true,
          "updateIntervalTPM": true,
          "probabilityUpdateTPM": true,
          "probabilityLongGapTPM": true,
          "serviceDesignator": "1090ADSB",
          "serviceMode": "operational",
          "expectedTargetLoad": 2000,
          "sendSurfaceTargets": false,
          "minLinkVersion": 0,
          "anspTargetReportRxID1": 0,
          "gracefulDegradation": false,
          "gracefulDegradationLoad": 1000,
          "gracefulDegradationRate": 0.005,
          "serviceVolumeId": "0x725101",
          "rateTLESecs": 300,
          "rateEquipmentStatusSecs": 5,
          "rateServiceVolumeStatusSecs": 5,
          "rateServiceVolumeStatisticsSecs": 5,
          "anspTestTargetReportTargetsNIC": 11,
          "anspTestTargetReportNoTargetsNIC": 10,
          "anspTestTargetReportTargetsNACp": 11,
          "anspTestTargetReportNoTargetsNACp": 10
        },
        "geometryType": "polygon",
        "centerPoint": [
          -11.365200,
          49.875095
        ],
        "floorFeet": 5500,
        "ceilingFeet": 66000
      },
      "geometry": {
        "type": "Polygon",
        "coordinates": [
          [
            [
              -16.344400,
              51.837400
            ],
            [
              -16.247600,
              48.246800
            ],
            [
              -6.769300,
              47.569900
            ],
            [
              -6.655900,
              51.837400
            ],
            [
              -16.344400,
              51.837400
            ]
          ]
        ]
      }
    },
    {
      "id": "72-52-01-00",
      "type": "Feature",
      "bbox": [
        -16.558600,
        52.991300,
        -8.440800,
        57.837400
      ],
      "properties": {
        "featureVersion": 1,
        "featureEffectiveDate": "1999-12-31T23:59:59.999Z",
        "featureBirthDate": "1999-12-31T23:59:59.999Z",
        "featureEndDate": "2099-12-31T23:59:59.999Z",
        "customerID": "CUS-1000012",
        "volumeName": "Northern Oceanic Transition Area (NOTA, Class A)",
        "icaoID": "NOTA",
        "sac": "0x72",
        "sic": "0x52",
        "sid": "0x01",
        "featureID": "0x00",
        "featureType": "service",
        "serviceFeatureProperties": {
          "serviceType": "primary",
          "serviceDefaultMode": "active",
          "contractUpdateIntervalMsecs": 8000,
          "contractLatencyMsecs": 2000,
          "anspTargetReportUpdateMode": "update",
          "anspTargetReportMinWaitTimeMsecs": 1000,
          "anspTargetReportPeriodicRateMsecs": 0,
          "anspTestTargetReportRateSecs": 1,
          "anspTestTargetReportICAO": "0x4ca4af",
          "anspTestTargetReportPosition": [
            -13.000000,
            56.000000
          ],
          "anspTestTargetReportAltFeet": -1000,
          "anspTestTargetReportMode3AEnabled": false,
          "anspTestTargetReportTargetIDEnabled": true,
          "anspTestTargetReportTargetID": "NOTA",
          "offlineStatusThresholdPercent": 0,
          "degradedStatusThresholdPercent": 85,
          "networkServicesAddress": "233.114.82.1",
          "portTargetReportsCAT021": 59980,
          "portVersionNumberCAT247": 59981,
          "portAPDKeepAlive": 65535,
          "portEquipmentStatusCAT023": 59982,
          "portServiceVolumeStatusCAT023": 59983,
          "portServiceVolumeStatisticsCAT023": 59984,
          "portServiceDefinitionReportCAT238": 59988,
          "portServicePredictionReportCAT238": 59990,
          "portServiceSystemStatusReportCAT025": 59992,
          "portServiceStatisticsReportCAT025": 59993,
          "portConstellationTLEReportCAT253": 59994,
          "portCat033": 59681,
          "portCat033BelowMinLV": 59682,
          "portCat033DupType1": 59683,
          "portCat033DupType1BelowMinLV": 59684,
          "portCat033InvMode3A": 59685,
          "portCat033InvMode3ABelowMinLV": 59686,
          "latencyTPM": true,
          "updateIntervalTPM": true,
          "probabilityUpdateTPM": true,
          "probabilityLongGapTPM": true,
          "serviceDesignator": "1090ADSB",
          "serviceMode": "operational",
          "expectedTargetLoad": 2000,
          "sendSurfaceTargets": false,
          "minLinkVersion": 0,
          "anspTargetReportRxID1": 0,
          "gracefulDegradation": false,
          "gracefulDegradationLoad": 1000,
          "gracefulDegradationRate": 0.005,
          "serviceVolumeId": "0x725201",
          "rateTLESecs": 300,
          "rateEquipmentStatusSecs": 5,
          "rateServiceVolumeStatusSecs": 5,
          "rateServiceVolumeStatisticsSecs": 5,
          "anspTestTargetReportTargetsNIC": 11,
          "anspTestTargetReportNoTargetsNIC": 10,
          "anspTestTargetReportTargetsNACp": 11,
          "anspTestTargetReportNoTargetsNACp": 10
        },
        "geometryType": "polygon",
        "centerPoint": [
          -12.627548,
          55.642450
        ],
        "floorFeet": 5500,
        "ceilingFeet": 66000
      },
      "geometry": {
        "type": "Polygon",
        "coordinates": [
          [
            [
              -16.558600,
              57.837400
            ],
            [
              -16.377500,
              52.991300
            ],
            [
              -8.591600,
              53.873000
            ],
            [
              -8.440800,
              57.837400
            ],
            [
              -16.558600,
              57.837400
            ]
          ]
        ]
      }
    },
    {
      "id": "72-53-01-00",
      "type": "Feature",
      "bbox": [
        -8.749500,
        51.688900,
        -4.068220,
        55.137400
      ],
      "properties": {
        "featureVersion": 1,
        "featureEffectiveDate": "1999-12-31T23:59:59.999Z",
        "featureBirthDate": "1999-12-31T23:59:59.999Z",
        "featureEndDate": "2099-12-31T23:59:59.999Z",
        "customerID": "CUS-1000012",
        "volumeName": "Dublin 3NM Airspace (Class C)",
        "icaoID": "Dublin",
        "sac": "0x72",
        "sic": "0x53",
        "sid": "0x01",
        "featureID": "0x00",
        "featureType": "service",
        "serviceFeatureProperties": {
          "serviceType": "primary",
          "serviceDefaultMode": "active",
          "contractUpdateIntervalMsecs": 8000,
          "contractLatencyMsecs": 2000,
          "anspTargetReportUpdateMode": "update",
          "anspTargetReportMinWaitTimeMsecs": 1000,
          "anspTargetReportPeriodicRateMsecs": 0,
          "anspTestTargetReportRateSecs": 1,
          "anspTestTargetReportICAO": "0x4ca4ac",
          "anspTestTargetReportPosition": [
            -6.000000,
            53.500000
          ],
          "anspTestTargetReportAltFeet": -1000,
          "anspTestTargetReportMode3AEnabled": false,
          "anspTestTargetReportTargetIDEnabled": true,
          "anspTestTargetReportTargetID": "DUBLIN",
          "offlineStatusThresholdPercent": 0,
          "degradedStatusThresholdPercent": 85,
          "networkServicesAddress": "233.114.83.1",
          "portTargetReportsCAT021": 59980,
          "portVersionNumberCAT247": 59981,
          "portAPDKeepAlive": 65535,
          "portEquipmentStatusCAT023": 59982,
          "portServiceVolumeStatusCAT023": 59983,
          "portServiceVolumeStatisticsCAT023": 59984,
          "portServiceDefinitionReportCAT238": 59988,
          "portServicePredictionReportCAT238": 59990,
          "portServiceSystemStatusReportCAT025": 59992,
          "portServiceStatisticsReportCAT025": 59993,
          "portConstellationTLEReportCAT253": 59994,
          "portCat033": 59681,
          "portCat033BelowMinLV": 59682,
          "portCat033DupType1": 59683,
          "portCat033DupType1BelowMinLV": 59684,
          "portCat033InvMode3A": 59685,
          "portCat033InvMode3ABelowMinLV": 59686,
          "latencyTPM": true,
          "updateIntervalTPM": true,
          "probabilityUpdateTPM": true,
          "probabilityLongGapTPM": true,
          "serviceDesignator": "1090ADSB",
          "serviceMode": "operational",
          "expectedTargetLoad": 2000,
          "sendSurfaceTargets": false,
          "minLinkVersion": 0,
          "anspTargetReportRxID1": 0,
          "gracefulDegradation": false,
          "gracefulDegradationLoad": 1000,
          "gracefulDegradationRate": 0.005,
          "serviceVolumeId": "0x725301",
          "rateTLESecs": 300,
          "rateEquipmentStatusSecs": 5,
          "rateServiceVolumeStatusSecs": 5,
          "rateServiceVolumeStatisticsSecs": 5,
          "anspTestTargetReportTargetsNIC": 11,
          "anspTestTargetReportNoTargetsNIC": 10,
          "anspTestTargetReportTargetsNACp": 11,
          "anspTestTargetReportNoTargetsNACp": 10
        },
        "geometryType": "polygon",
        "centerPoint": [
          -6.294378,
          53.338016
        ],
        "floorFeet": 100,
        "ceilingFeet": 24500
      },
      "geometry": {
        "type": "Polygon",
        "coordinates": [
          [
            [
              -4.518635,
              51.745549
            ],
            [
              -4.151857,
              51.939159
            ],
            [
              -4.086042,
              53.966437
            ],
            [
              -4.068220,
              54.519124
            ],
            [
              -5.066654,
              54.713602
            ],
            [
              -5.726200,
              54.837500
            ],
            [
              -5.721195,
              54.841095
            ],
            [
              -7.242400,
              55.137400
            ],
            [
              -8.749500,
              54.036900
            ],
            [
              -8.707300,
              52.750100
            ],
            [
              -7.849800,
              52.191100
            ],
            [
              -7.405500,
              51.896900
            ],
            [
              -6.455900,
              51.688900
            ],
            [
              -4.518635,
              51.745549
            ]
          ]
        ]
      }
    },
    {
      "id": "72-50-01-01",
      "type": "Feature",
      "bbox": [
        -16.436700,
        50.162600,
        -4.068000,
        56.276900
      ],
      "properties": {
        "featureVersion": 1,
        "featureEffectiveDate": "1999-12-31T23:59:59.999Z",
        "featureBirthDate": "1999-12-31T23:59:59.999Z",
        "featureEndDate": "2099-12-31T23:59:59.999Z",
        "customerID": "CUS-1000012",
        "volumeName": "Shannon FIR (includes Class C Airspace)",
        "icaoID": "EISN",
        "sac": "0x72",
        "sic": "0x50",
        "sid": "0x01",
        "featureID": "0x01",
        "featureType": "billing",
        "billingFeatureProperties": {
          "billingType": "usage",
          "billingPriority": 0,
          "billingEffectiveDate": "1999-12-31T23:59:59.999Z",
          "failedStateThresholdSecs": 86400
        },
        "geometryType": "polygon",
        "centerPoint": [
          -10.265976,
          52.931714
        ],
        "floorFeet": 100,
        "ceilingFeet": 66000
      },
      "geometry": {
        "type": "Polygon",
        "coordinates": [
          [
            [
              -16.436700,
              54.689700
            ],
            [
              -16.295700,
              50.162600
            ],
            [
              -7.517400,
              50.162600
            ],
            [
              -4.151400,
              51.939400
            ],
            [
              -4.068000,
              54.526000
            ],
            [
              -5.726200,
              54.837500
            ],
            [
              -4.480800,
              55.732100
            ],
            [
              -7.198300,
              56.276900
            ],
            [
              -9.068500,
              56.106800
            ],
            [
              -9.871300,
              55.468100
            ],
            [
              -10.352200,
              55.379800
            ],
            [
              -16.436700,
              54.689700
            ]
          ]
        ]
      }
    },
    {
      "id": "72-51-01-01",
      "type": "Feature",
      "bbox": [
        -16.344400,
        47.569900,
        -6.655900,
        51.837400
      ],
      "properties": {
        "featureVersion": 1,
        "featureEffectiveDate": "1999-12-31T23:59:59.999Z",
        "featureBirthDate": "1999-12-31T23:59:59.999Z",
        "featureEndDate": "2099-12-31T23:59:59.999Z",
        "customerID": "CUS-1000012",
        "volumeName": "Shannon Oceanic Transition Area (SOTA, Class A)",
        "icaoID": "SOTA",
        "sac": "0x72",
        "sic": "0x51",
        "sid": "0x01",
        "featureID": "0x01",
        "featureType": "billing",
        "billingFeatureProperties": {
          "billingType": "usage",
          "billingPriority": 0,
          "billingEffectiveDate": "1999-12-31T23:59:59.999Z",
          "failedStateThresholdSecs": 86400
        },
        "geometryType": "polygon",
        "centerPoint": [
          -11.365200,
          49.875095
        ],
        "floorFeet": 5500,
        "ceilingFeet": 66000
      },
      "geometry": {
        "type": "Polygon",
        "coordinates": [
          [
            [
              -16.344400,
              51.837400
            ],
            [
              -16.247600,
              48.246800
            ],
            [
              -6.769300,
              47.569900
            ],
            [
              -6.655900,
              51.837400
            ],
            [
              -16.344400,
              51.837400
            ]
          ]
        ]
      }
    },
    {
      "id": "72-52-01-01",
      "type": "Feature",
      "bbox": [
        -16.558600,
        52.991300,
        -8.440800,
        57.837400
      ],
      "properties": {
        "featureVersion": 1,
        "featureEffectiveDate": "1999-12-31T23:59:59.999Z",
        "featureBirthDate": "1999-12-31T23:59:59.999Z",
        "featureEndDate": "2099-12-31T23:59:59.999Z",
        "customerID": "CUS-1000012",
        "volumeName": "Northern Oceanic Transition Area (NOTA, Class A)",
        "icaoID": "NOTA",
        "sac": "0x72",
        "sic": "0x52",
        "sid": "0x01",
        "featureID": "0x01",
        "featureType": "billing",
        "billingFeatureProperties": {
          "billingType": "usage",
          "billingPriority": 0,
          "billingEffectiveDate": "1999-12-31T23:59:59.999Z",
          "failedStateThresholdSecs": 86400
        },
        "geometryType": "polygon",
        "centerPoint": [
          -12.627548,
          55.642450
        ],
        "floorFeet": 5500,
        "ceilingFeet": 66000
      },
      "geometry": {
        "type": "Polygon",
        "coordinates": [
          [
            [
              -16.558600,
              57.837400
            ],
            [
              -16.377500,
              52.991300
            ],
            [
              -8.591600,
              53.873000
            ],
            [
              -8.440800,
              57.837400
            ],
            [
              -16.558600,
              57.837400
            ]
          ]
        ]
      }
    },
    {
      "id": "72-53-01-01",
      "type": "Feature",
      "bbox": [
        -8.749500,
        51.688900,
        -4.068220,
        55.137400
      ],
      "properties": {
        "featureVersion": 1,
        "featureEffectiveDate": "1999-12-31T23:59:59.999Z",
        "featureBirthDate": "1999-12-31T23:59:59.999Z",
        "featureEndDate": "2099-12-31T23:59:59.999Z",
        "customerID": "CUS-1000012",
        "volumeName": "Dublin 3NM Airspace",
        "icaoID": "EISN",
        "sac": "0x72",
        "sic": "0x53",
        "sid": "0x01",
        "featureID": "0x01",
        "featureType": "billing",
        "billingFeatureProperties": {
          "billingType": "usage",
          "billingPriority": 0,
          "billingEffectiveDate": "1999-12-31T23:59:59.999Z",
          "failedStateThresholdSecs": 86400
        },
        "geometryType": "polygon",
        "centerPoint": [
          -6.294378,
          53.338016
        ],
        "floorFeet": 100,
        "ceilingFeet": 24500
      },
      "geometry": {
        "type": "Polygon",
        "coordinates": [
          [
            [
              -4.518635,
              51.745549
            ],
            [
              -4.151857,
              51.939159
            ],
            [
              -4.086042,
              53.966437
            ],
            [
              -4.068220,
              54.519124
            ],
            [
              -5.066654,
              54.713602
            ],
            [
              -5.726200,
              54.837500
            ],
            [
              -5.721195,
              54.841095
            ],
            [
              -7.242400,
              55.137400
            ],
            [
              -8.749500,
              54.036900
            ],
            [
              -8.707300,
              52.750100
            ],
            [
              -7.849800,
              52.191100
            ],
            [
              -7.405500,
              51.896900
            ],
            [
              -6.455900,
              51.688900
            ],
            [
              -4.518635,
              51.745549
            ]
          ]
        ]
      }
    }
  ]
}
