<?xml version="1.0" encoding="utf-8" ?>
<kml xmlns="http://www.opengis.net/kml/2.2">
<Document id="root_doc">
<Folder><name>montreal_BVol</name>
  <Placemark>
	<Style><LineStyle><color>ff0000ff</color></LineStyle><PolyStyle><fill>0</fill></PolyStyle></Style>
      <Polygon><outerBoundaryIs><LinearRing><coordinates>-60,65 -60.024,64.992 -60.788,64.75 -61.539,64.504 -62.276,64.254 -63,64 -63,61 -62.955,60.961 -62.911,60.922 -62.867,60.883 -62.822,60.844 -62.778,60.804 -62.734,60.765 -62.69,60.726 -62.646,60.687 -62.603,60.648 -62.595,60.641 -62.559,60.609 -62.531,60.583 -62.516,60.569 -62.472,60.53 -62.429,60.491 -62.386,60.452 -62.343,60.412 -62.3,60.373 -62.257,60.334 -62.214,60.294 -62.172,60.256 -62.171,60.255 -62.129,60.216 -62.086,60.176 -62.056,60.149 -62.044,60.137 -62.001,60.098 -61.959,60.058 -61.917,60.019 -61.875,59.979 -61.833,59.94 -61.792,59.9 -61.75,59.861 -61.708,59.821 -61.667,59.782 -61.626,59.742 -61.588,59.706 -61.584,59.703 -61.578,59.697 -61.543,59.663 -61.502,59.624 -61.461,59.584 -61.42,59.545 -61.379,59.505 -61.339,59.465 -61.298,59.426 -61.257,59.386 -61.217,59.346 -61.177,59.307 -61.137,59.267 -61.096,59.227 -61.056,59.188 -61.016,59.148 -60.977,59.108 -60.937,59.069 -60.915,59.047 -60.897,59.029 -60.893,59.025 -60.858,58.989 -60.818,58.949 -60.813,58.944 -60.685,58.815 -60.583,58.71 -60.488,58.613 -60.351,58.471 -61.096,58.295 -61.833,58.115 -62.563,57.931 -63.285,57.742 -64.0,57.55 -64.0,55.356 -65.083,55.083 -65.333,54.417 -64.917,53.7 -64.757,53.32 -64.601,52.94 -64.447,52.559 -64.295,52.179 -64.146,51.798 -64.0,51.417 -63.356,51.226 -62.717,51.031 -62.083,50.833 -61.452,50.837 -61.231,50.837 -60.971,50.838 -60.836,50.838 -60.748,50.837 -60.132,50.834 -60.0,50.833 -59.5,51.333 -59.5,51.633 -59.137,51.787 -59.116,51.796 -59.027,51.833 -58.852,51.906 -58.808,51.924 -58.695,51.971 -58.595,52.012 -58.543,52.034 -58.482,52.058 -58.393,52.095 -58.143,52.196 -57.0,51.735 -57.0,51.283 -58,51 -58.45,50.786 -58.896,50.569 -59.337,50.352 -59.775,50.132 -60.296,49.878 -61.0,49.533 -61.0,49.3 -61.337,49.034 -61.67,48.768 -62.0,48.5 -62.53,48.374 -63.057,48.246 -63.581,48.116 -64.103,47.983 -64.622,47.848 -65.911,47.997 -65.941,48.0 -65.941,48.019 -65.944,48.048 -65.951,48.077 -65.962,48.105 -65.976,48.133 -65.994,48.159 -66.015,48.184 -66.039,48.208 -66.067,48.231 -66.097,48.252 -66.13,48.271 -66.165,48.288 -66.187,48.296 -66.203,48.303 -66.242,48.315 -66.283,48.325 -66.325,48.333 -66.367,48.339 -66.411,48.342 -66.454,48.342 -66.498,48.34 -66.541,48.335 -66.583,48.327 -66.624,48.318 -66.664,48.306 -66.702,48.291 -66.737,48.275 -66.771,48.256 -66.802,48.236 -66.83,48.213 -66.855,48.19 -66.877,48.165 -66.895,48.138 -66.91,48.111 -66.922,48.083 -66.929,48.054 -66.93,48.051 -66.933,48.025 -66.933,47.996 -66.93,47.967 -66.922,47.939 -66.911,47.911 -66.9,47.89 -66.897,47.883 -67.797,47.755 -67.95,47.733 -67.958,47.699 -68.0,47.525 -68.025,47.523 -68.098,47.512 -68.169,47.498 -68.235,47.48 -68.297,47.458 -68.37,47.427 -68.427,47.398 -68.486,47.36 -68.532,47.327 -68.565,47.29 -68.571,47.286 -68.579,47.288 -68.589,47.282 -68.592,47.275 -68.599,47.27 -68.598,47.268 -68.594,47.259 -68.605,47.25 -68.613,47.246 -68.622,47.243 -68.654,47.24 -68.66,47.237 -68.664,47.237 -68.669,47.239 -68.676,47.243 -68.688,47.244 -68.7,47.24 -68.705,47.238 -68.711,47.239 -68.712,47.24 -68.718,47.241 -68.723,47.239 -68.724,47.239 -68.735,47.236 -68.752,47.227 -68.762,47.223 -68.77,47.221 -68.781,47.222 -68.807,47.216 -68.816,47.214 -68.861,47.19 -68.874,47.188 -68.882,47.183 -68.896,47.183 -68.902,47.179 -68.909,47.186 -68.92,47.19 -68.92,47.195 -68.925,47.198 -68.93,47.197 -68.929,47.199 -68.934,47.2 -68.942,47.206 -68.95,47.202 -68.953,47.207 -68.961,47.206 -68.966,47.213 -69.004,47.23 -69.033,47.241 -69.05,47.256 -69.047,47.268 -69.047,47.27 -69.048,47.275 -69.05,47.279 -69.05,47.28 -69.049,47.284 -69.05,47.292 -69.053,47.294 -69.049,47.306 -69.051,47.31 -69.055,47.316 -69.054,47.355 -69.054,47.377 -69.053,47.378 -69.05,47.379 -69.047,47.384 -69.042,47.383 -69.04,47.384 -69.04,47.386 -69.045,47.391 -69.043,47.397 -69.04,47.396 -69.038,47.397 -69.042,47.401 -69.039,47.404 -69.031,47.403 -69.033,47.405 -69.03,47.408 -69.037,47.408 -69.034,47.415 -69.04,47.416 -69.042,47.416 -69.039,47.422 -69.043,47.427 -69.047,47.427 -69.046,47.424 -69.051,47.422 -69.048,47.425 -69.052,47.43 -69.054,47.429 -69.056,47.43 -69.055,47.432 -69.062,47.434 -69.062,47.431 -69.067,47.43 -69.068,47.427 -69.074,47.427 -69.081,47.424 -69.087,47.426 -69.09,47.424 -69.091,47.427 -69.097,47.427 -69.099,47.431 -69.104,47.431 -69.105,47.428 -69.107,47.428 -69.108,47.436 -69.113,47.436 -69.113,47.438 -69.118,47.439 -69.122,47.442 -69.124,47.441 -69.139,47.447 -69.141,47.444 -69.146,47.449 -69.157,47.451 -69.162,47.448 -69.164,47.451 -69.178,47.457 -69.19,47.454 -69.197,47.455 -69.204,47.452 -69.224,47.46 -69.369,47.317 -69.528,47.16 -69.548,47.139 -69.568,47.12 -69.632,47.057 -69.74,46.949 -69.746,46.944 -69.907,46.784 -69.942,46.749 -69.964,46.728 -69.978,46.714 -69.997,46.695 -70.015,46.61 -70.026,46.559 -70.048,46.456 -70.048,46.454 -70.049,46.448 -70.051,46.438 -70.052,46.438 -70.056,46.416 -70.076,46.409 -70.083,46.41 -70.087,46.409 -70.089,46.411 -70.094,46.41 -70.095,46.41 -70.096,46.409 -70.095,46.409 -70.094,46.408 -70.097,46.407 -70.095,46.407 -70.096,46.405 -70.1,46.405 -70.098,46.404 -70.1,46.403 -70.099,46.401 -70.101,46.401 -70.1,46.398 -70.107,46.393 -70.106,46.391 -70.109,46.39 -70.11,46.387 -70.113,46.387 -70.111,46.386 -70.114,46.385 -70.116,46.388 -70.116,46.386 -70.126,46.381 -70.127,46.371 -70.133,46.369 -70.136,46.37 -70.141,46.364 -70.14,46.362 -70.145,46.362 -70.148,46.359 -70.156,46.361 -70.159,46.359 -70.162,46.361 -70.166,46.357 -70.172,46.359 -70.181,46.354 -70.182,46.352 -70.191,46.35 -70.195,46.341 -70.2,46.337 -70.209,46.329 -70.206,46.324 -70.207,46.32 -70.203,46.314 -70.206,46.309 -70.206,46.3 -70.213,46.298 -70.215,46.294 -70.231,46.291 -70.232,46.285 -70.24,46.279 -70.241,46.273 -70.243,46.273 -70.244,46.272 -70.253,46.26 -70.254,46.254 -70.251,46.249 -70.255,46.246 -70.254,46.245 -70.259,46.239 -70.26,46.235 -70.261,46.231 -70.267,46.225 -70.267,46.219 -70.274,46.215 -70.272,46.213 -70.272,46.21 -70.286,46.196 -70.286,46.195 -70.293,46.192 -70.29,46.189 -70.291,46.186 -70.286,46.185 -70.278,46.175 -70.266,46.169 -70.264,46.165 -70.251,46.157 -70.248,46.152 -70.24,46.15 -70.237,46.146 -70.24,46.143 -70.242,46.134 -70.244,46.129 -70.255,46.113 -70.253,46.1 -70.26,46.101 -70.261,46.101 -70.273,46.102 -70.278,46.1 -70.285,46.1 -70.285,46.098 -70.29,46.094 -70.292,46.087 -70.302,46.082 -70.3,46.079 -70.302,46.073 -70.304,46.073 -70.305,46.072 -70.303,46.071 -70.311,46.064 -70.308,46.062 -70.303,46.062 -70.3,46.061 -70.284,46.063 -70.28,46.061 -70.278,46.06 -70.28,46.052 -70.298,46.039 -70.302,46.033 -70.299,46.03 -70.301,46.028 -70.307,46.025 -70.318,46.019 -70.311,46.016 -70.311,46.012 -70.306,46.01 -70.304,46.003 -70.302,45.999 -70.292,45.997 -70.289,45.994 -70.284,45.995 -70.295,45.986 -70.3,45.986 -70.307,45.983 -70.309,45.98 -70.307,45.978 -70.312,45.974 -70.31,45.973 -70.312,45.966 -70.316,45.963 -70.313,45.962 -70.305,45.965 -70.298,45.963 -70.283,45.964 -70.277,45.967 -70.273,45.964 -70.275,45.963 -70.274,45.961 -70.266,45.964 -70.258,45.959 -70.261,45.952 -70.256,45.952 -70.253,45.955 -70.248,45.95 -70.242,45.947 -70.244,45.945 -70.243,45.945 -70.239,45.944 -70.24,45.939 -70.251,45.934 -70.263,45.924 -70.262,45.92 -70.26,45.92 -70.257,45.918 -70.259,45.909 -70.258,45.909 -70.253,45.907 -70.254,45.903 -70.266,45.894 -70.259,45.891 -70.26,45.89 -70.272,45.883 -70.274,45.88 -70.284,45.872 -70.303,45.863 -70.308,45.859 -70.337,45.853 -70.338,45.853 -70.342,45.852 -70.348,45.848 -70.349,45.848 -70.349,45.847 -70.352,45.841 -70.359,45.835 -70.371,45.835 -70.369,45.831 -70.372,45.828 -70.386,45.82 -70.388,45.814 -70.397,45.808 -70.396,45.799 -70.401,45.796 -70.407,45.798 -70.408,45.797 -70.417,45.796 -70.418,45.794 -70.414,45.79 -70.416,45.785 -70.41,45.784 -70.406,45.776 -70.408,45.773 -70.405,45.77 -70.407,45.763 -70.401,45.757 -70.396,45.757 -70.389,45.751 -70.388,45.75 -70.389,45.747 -70.392,45.745 -70.394,45.744 -70.394,45.74 -70.389,45.738 -70.39,45.736 -70.385,45.736 -70.386,45.735 -70.384,45.735 -70.39,45.729 -70.397,45.729 -70.4,45.72 -70.429,45.71 -70.429,45.708 -70.426,45.707 -70.433,45.707 -70.439,45.704 -70.441,45.705 -70.444,45.704 -70.451,45.704 -70.456,45.707 -70.462,45.706 -70.465,45.706 -70.471,45.703 -70.469,45.702 -70.479,45.695 -70.494,45.689 -70.502,45.682 -70.511,45.679 -70.52,45.671 -70.52,45.669 -70.526,45.667 -70.534,45.671 -70.542,45.666 -70.547,45.666 -70.553,45.668 -70.558,45.667 -70.564,45.663 -70.562,45.66 -70.565,45.655 -70.576,45.648 -70.58,45.643 -70.584,45.642 -70.584,45.639 -70.592,45.63 -70.597,45.63 -70.607,45.626 -70.609,45.622 -70.618,45.615 -70.619,45.612 -70.632,45.609 -70.636,45.61 -70.645,45.607 -70.654,45.592 -70.659,45.59 -70.659,45.587 -70.664,45.583 -70.672,45.579 -70.672,45.576 -70.678,45.571 -70.688,45.569 -70.685,45.567 -70.689,45.562 -70.677,45.552 -70.687,45.549 -70.697,45.54 -70.701,45.532 -70.699,45.53 -70.706,45.528 -70.711,45.52 -70.717,45.518 -70.722,45.514 -70.723,45.507 -70.722,45.506 -70.712,45.502 -70.712,45.498 -70.718,45.49 -70.716,45.487 -70.706,45.48 -70.699,45.479 -70.692,45.474 -70.693,45.466 -70.69,45.464 -70.682,45.462 -70.681,45.455 -70.681,45.452 -70.675,45.452 -70.663,45.446 -70.658,45.446 -70.651,45.445 -70.647,45.439 -70.643,45.436 -70.643,45.434 -70.64,45.431 -70.636,45.427 -70.63,45.427 -70.628,45.423 -70.631,45.416 -70.634,45.415 -70.635,45.415 -70.635,45.411 -70.63,45.407 -70.624,45.406 -70.621,45.403 -70.623,45.4 -70.631,45.399 -70.636,45.395 -70.639,45.389 -70.635,45.383 -70.65,45.377 -70.659,45.378 -70.661,45.378 -70.662,45.386 -70.675,45.393 -70.676,45.393 -70.678,45.394 -70.683,45.395 -70.684,45.395 -70.688,45.393 -70.696,45.392 -70.7,45.395 -70.712,45.39 -70.724,45.396 -70.73,45.399 -70.73,45.404 -70.744,45.412 -70.745,45.416 -70.744,45.421 -70.75,45.423 -70.755,45.428 -70.764,45.426 -70.768,45.428 -70.781,45.431 -70.788,45.426 -70.794,45.428 -70.798,45.427 -70.803,45.418 -70.811,45.416 -70.813,45.411 -70.824,45.401 -70.826,45.4 -70.824,45.391 -70.82,45.391 -70.817,45.39 -70.814,45.388 -70.812,45.383 -70.807,45.377 -70.802,45.366 -70.808,45.363 -70.81,45.358 -70.814,45.357 -70.809,45.352 -70.81,45.349 -70.817,45.345 -70.82,45.34 -70.818,45.333 -70.813,45.328 -70.808,45.328 -70.806,45.321 -70.808,45.312 -70.815,45.308 -70.811,45.304 -70.816,45.298 -70.819,45.299 -70.835,45.294 -70.83,45.29 -70.832,45.279 -70.836,45.276 -70.841,45.267 -70.849,45.263 -70.85,45.256 -70.847,45.253 -70.849,45.245 -70.84,45.238 -70.837,45.237 -70.838,45.235 -70.846,45.234 -70.858,45.229 -70.875,45.234 -70.88,45.233 -70.885,45.235 -70.889,45.239 -70.895,45.24 -70.898,45.244 -70.895,45.252 -70.896,45.253 -70.898,45.255 -70.898,45.258 -70.899,45.258 -70.906,45.261 -70.905,45.265 -70.908,45.269 -70.911,45.27 -70.916,45.277 -70.921,45.279 -70.919,45.287 -70.917,45.289 -70.916,45.29 -70.915,45.29 -70.914,45.292 -70.912,45.296 -70.914,45.3 -70.92,45.305 -70.918,45.312 -70.926,45.315 -70.927,45.315 -70.93,45.319 -70.935,45.319 -70.939,45.32 -70.941,45.323 -70.945,45.326 -70.945,45.329 -70.949,45.331 -70.952,45.339 -70.962,45.337 -70.967,45.332 -70.973,45.334 -70.985,45.332 -70.989,45.334 -70.991,45.338 -71.011,45.348 -71.013,45.344 -71.011,45.338 -71.012,45.334 -71.008,45.333 -71.007,45.333 -71.002,45.328 -71.004,45.325 -71.008,45.319 -71.016,45.316 -71.027,45.315 -71.029,45.313 -71.033,45.31 -71.038,45.312 -71.039,45.312 -71.047,45.313 -71.053,45.311 -71.059,45.314 -71.066,45.312 -71.067,45.312 -71.075,45.307 -71.076,45.307 -71.083,45.306 -71.098,45.302 -71.105,45.295 -71.105,45.292 -71.108,45.29 -71.111,45.285 -71.109,45.282 -71.106,45.283 -71.107,45.279 -71.111,45.275 -71.117,45.274 -71.12,45.262 -71.125,45.255 -71.128,45.254 -71.132,45.245 -71.145,45.242 -71.147,45.24 -71.149,45.243 -71.162,45.25 -71.173,45.246 -71.181,45.24 -71.184,45.245 -71.187,45.245 -71.187,45.248 -71.195,45.251 -71.198,45.254 -71.203,45.254 -71.212,45.25 -71.221,45.251 -71.222,45.254 -71.228,45.25 -71.231,45.25 -71.235,45.26 -71.239,45.262 -71.244,45.268 -71.249,45.268 -71.256,45.273 -71.259,45.272 -71.263,45.278 -71.267,45.291 -71.266,45.292 -71.265,45.293 -71.273,45.297 -71.277,45.296 -71.28,45.295 -71.281,45.298 -71.284,45.302 -71.288,45.301 -71.291,45.299 -71.297,45.299 -71.301,45.297 -71.309,45.287 -71.314,45.287 -71.321,45.282 -71.332,45.28 -71.336,45.273 -71.343,45.271 -71.348,45.272 -71.353,45.269 -71.361,45.27 -71.363,45.266 -71.357,45.257 -71.357,45.253 -71.363,45.248 -71.377,45.245 -71.385,45.233 -71.389,45.235 -71.394,45.241 -71.402,45.243 -71.412,45.239 -71.412,45.236 -71.417,45.236 -71.42,45.233 -71.429,45.234 -71.433,45.238 -71.437,45.239 -71.438,45.239 -71.44,45.238 -71.444,45.237 -71.443,45.235 -71.441,45.235 -71.426,45.225 -71.418,45.222 -71.416,45.218 -71.403,45.215 -71.399,45.207 -71.398,45.204 -71.399,45.203 -71.406,45.198 -71.405,45.195 -71.409,45.188 -71.415,45.185 -71.415,45.179 -71.416,45.176 -71.417,45.174 -71.419,45.17 -71.421,45.169 -71.424,45.166 -71.425,45.166 -71.424,45.164 -71.424,45.161 -71.427,45.153 -71.433,45.149 -71.435,45.145 -71.436,45.142 -71.438,45.142 -71.432,45.135 -71.427,45.13 -71.429,45.124 -71.437,45.118 -71.44,45.116 -71.44,45.113 -71.448,45.113 -71.45,45.11 -71.448,45.108 -71.449,45.105 -71.458,45.099 -71.459,45.095 -71.465,45.093 -71.469,45.084 -71.481,45.084 -71.481,45.081 -71.486,45.079 -71.489,45.071 -71.494,45.071 -71.496,45.069 -71.497,45.068 -71.497,45.067 -71.498,45.06 -71.499,45.058 -71.499,45.054 -71.501,45.052 -71.505,45.052 -71.505,45.049 -71.5,45.045 -71.498,45.045 -71.493,45.046 -71.491,45.042 -71.492,45.035 -71.495,45.032 -71.5,45.026 -71.497,45.024 -71.5,45.024 -71.499,45.021 -71.499,45.02 -71.501,45.017 -71.501,45.016 -71.5,45.015 -71.502,45.013 -71.769,45.011 -71.915,45.008 -72.275,45.004 -72.447,45.008 -72.556,45.008 -72.585,45.012 -72.642,45.015 -72.846,45.017 -72.968,45.014 -73.064,45.016 -73.346,45.011 -73.347,45.011 -73.434,45.009 -73.651,45.003 -73.802,45.002 -73.898,45.0 -74.027,44.996 -74.15,44.991 -74.335,44.992 -74.458,44.997 -74.658,45.0 -74.751,45.002 -74.77,45.006 -74.786,45.011 -74.812,45.018 -74.829,45.019 -74.85,45.016 -74.883,45.006 -74.9,45.0 -74.906,44.998 -74.909,44.996 -74.911,44.995 -74.919,44.992 -74.923,44.99 -74.931,44.989 -74.953,44.988 -74.969,44.989 -74.984,44.988 -74.991,44.986 -75.001,44.98 -75.01,44.971 -75.021,44.964 -75.025,44.959 -75.029,44.955 -75.054,44.939 -75.06,44.937 -75.066,44.934 -75.077,44.929 -75.084,44.928 -75.091,44.926 -75.112,44.925 -75.119,44.923 -75.125,44.92 -75.136,44.914 -75.166,44.903 -75.171,44.898 -75.176,44.895 -75.181,44.891 -75.21,44.879 -75.216,44.876 -75.246,44.865 -75.278,44.857 -75.289,44.851 -75.302,44.846 -75.306,44.842 -75.313,44.84 -75.318,44.837 -75.338,44.823 -75.347,44.814 -75.368,44.801 -75.374,44.799 -75.39,44.79 -75.395,44.785 -75.396,44.786 -75.436,44.762 -75.454,44.745 -75.475,44.732 -75.49,44.72 -75.5,44.714 -75.51,44.707 -75.537,44.691 -75.545,44.685 -75.552,44.68 -75.563,44.674 -75.577,44.663 -75.583,44.66 -75.592,44.651 -75.618,44.635 -75.622,44.631 -75.628,44.628 -75.652,44.609 -75.658,44.606 -75.667,44.598 -75.682,44.588 -75.707,44.568 -75.712,44.565 -75.721,44.557 -75.736,44.546 -75.795,44.495 -75.802,44.491 -75.806,44.487 -75.811,44.483 -75.821,44.475 -75.825,44.47 -75.828,44.446 -75.834,44.434 -75.841,44.423 -75.849,44.415 -75.864,44.403 -75.88,44.393 -75.904,44.385 -75.931,44.378 -75.954,44.37 -75.966,44.364 -75.982,44.359 -75.998,44.355 -76.019,44.353 -76.035,44.353 -76.047,44.35 -76.053,44.346 -76.058,44.343 -76.057,44.344 -76.058,44.345 -76.064,44.341 -76.138,44.294 -76.145,44.292 -76.191,44.22 -76.198,44.364 -76.203,44.477 -76.203,44.478 -76.205,44.517 -76.21,44.633 -76.211,44.638 -76.211,44.641 -76.213,44.698 -76.217,44.768 -76.217,44.772 -76.217,44.776 -76.221,44.858 -76.224,44.918 -76.224,44.92 -76.224,44.923 -76.232,45.104 -76.232,45.105 -76.239,45.251 -76.239,45.253 -76.239,45.255 -76.243,45.337 -76.246,45.402 -76.246,45.403 -76.246,45.406 -76.251,45.511 -76.264,45.776 -76.267,45.837 -76.928,45.961 -77.25,46.133 -77.25,46.947 -77.557,47.12 -77.583,47.14 -78.088,47.532 -78.09,47.533 -78.11,47.548 -78.478,47.784 -78.567,47.841 -78.569,47.84 -78.571,47.839 -78.573,47.838 -78.575,47.837 -78.577,47.837 -78.579,47.836 -78.581,47.835 -78.583,47.834 -78.585,47.833 -78.587,47.832 -78.589,47.831 -78.591,47.83 -78.593,47.829 -78.595,47.828 -78.598,47.827 -78.602,47.825 -78.606,47.823 -78.61,47.822 -78.614,47.82 -78.618,47.819 -78.622,47.817 -78.626,47.816 -78.63,47.814 -78.634,47.813 -78.638,47.812 -78.642,47.81 -78.646,47.809 -78.65,47.807 -78.654,47.806 -78.659,47.805 -78.663,47.803 -78.667,47.802 -78.671,47.801 -78.675,47.799 -78.679,47.798 -78.683,47.797 -78.687,47.796 -78.691,47.795 -78.695,47.793 -78.7,47.792 -78.704,47.791 -78.708,47.79 -78.712,47.789 -78.716,47.788 -78.72,47.787 -78.724,47.786 -78.729,47.785 -78.733,47.784 -78.737,47.783 -78.741,47.782 -78.745,47.781 -78.749,47.78 -78.754,47.779 -78.758,47.778 -78.762,47.777 -78.766,47.776 -78.77,47.776 -78.774,47.775 -78.779,47.774 -78.783,47.773 -78.787,47.772 -78.791,47.772 -78.795,47.771 -78.799,47.77 -78.804,47.77 -78.808,47.769 -78.812,47.768 -78.816,47.768 -78.82,47.767 -78.825,47.766 -78.829,47.766 -78.833,47.765 -78.837,47.765 -78.841,47.764 -78.846,47.764 -78.85,47.763 -78.854,47.763 -78.858,47.762 -78.862,47.762 -78.867,47.762 -78.871,47.761 -78.873,47.761 -78.875,47.761 -78.879,47.76 -78.884,47.76 -78.888,47.76 -78.892,47.76 -78.896,47.759 -78.9,47.759 -78.905,47.759 -78.909,47.759 -78.913,47.758 -78.917,47.758 -78.921,47.758 -78.926,47.758 -78.93,47.758 -78.934,47.758 -78.938,47.758 -78.942,47.758 -78.947,47.758 -78.951,47.758 -78.955,47.758 -78.959,47.758 -78.963,47.758 -78.967,47.758 -78.972,47.758 -78.976,47.758 -78.978,47.758 -78.98,47.758 -78.982,47.758 -78.984,47.758 -78.986,47.758 -78.988,47.758 -78.99,47.758 -78.993,47.759 -78.995,47.759 -78.997,47.759 -78.999,47.759 -79.001,47.759 -79.003,47.759 -79.005,47.759 -79.007,47.759 -79.009,47.759 -79.011,47.76 -79.013,47.76 -79.015,47.76 -79.017,47.76 -79.02,47.76 -79.022,47.76 -79.024,47.761 -79.026,47.761 -79.028,47.761 -79.03,47.761 -79.032,47.761 -79.034,47.761 -79.036,47.762 -79.038,47.762 -79.04,47.762 -79.042,47.762 -79.044,47.762 -79.046,47.763 -79.048,47.763 -79.05,47.763 -79.053,47.763 -79.055,47.764 -79.057,47.764 -79.059,47.764 -79.061,47.764 -79.063,47.765 -79.065,47.765 -79.067,47.765 -79.069,47.765 -79.071,47.766 -79.073,47.766 -79.075,47.766 -79.077,47.766 -79.079,47.767 -79.081,47.767 -79.083,47.767 -79.085,47.768 -79.087,47.768 -79.089,47.768 -79.091,47.769 -79.093,47.769 -79.095,47.769 -79.097,47.77 -79.099,47.77 -79.102,47.77 -79.104,47.771 -79.106,47.771 -79.108,47.771 -79.11,47.772 -79.112,47.772 -79.114,47.773 -79.116,47.773 -79.118,47.773 -79.12,47.774 -79.122,47.774 -79.124,47.775 -79.126,47.775 -79.128,47.775 -79.13,47.776 -79.132,47.776 -79.134,47.777 -79.136,47.777 -79.138,47.778 -79.14,47.778 -79.142,47.778 -79.144,47.779 -79.146,47.779 -79.148,47.78 -79.15,47.78 -79.152,47.781 -79.154,47.781 -79.156,47.782 -79.158,47.782 -79.16,47.783 -79.162,47.783 -79.164,47.784 -79.166,47.784 -79.168,47.785 -79.17,47.785 -79.172,47.786 -79.174,47.786 -79.176,47.787 -79.178,47.787 -79.18,47.788 -79.182,47.788 -79.184,47.789 -79.186,47.789 -79.188,47.79 -79.19,47.791 -79.192,47.791 -79.194,47.792 -79.196,47.792 -79.198,47.793 -79.199,47.793 -79.201,47.794 -79.203,47.795 -79.205,47.795 -79.207,47.796 -79.209,47.797 -79.21,47.797 -79.217,47.799 -79.222,47.801 -79.227,47.803 -79.232,47.805 -79.235,47.806 -79.237,47.807 -79.24,47.808 -79.242,47.809 -79.245,47.81 -79.247,47.811 -79.249,47.812 -79.252,47.813 -79.255,47.814 -79.257,47.816 -79.26,47.817 -79.263,47.818 -79.265,47.819 -79.268,47.82 -79.271,47.821 -79.273,47.822 -79.276,47.824 -79.279,47.825 -79.281,47.826 -79.284,47.827 -79.287,47.828 -79.289,47.829 -79.292,47.831 -79.294,47.832 -79.297,47.833 -79.299,47.834 -79.302,47.835 -79.304,47.837 -79.307,47.838 -79.309,47.839 -79.312,47.84 -79.314,47.842 -79.317,47.843 -79.319,47.844 -79.321,47.845 -79.324,47.846 -79.326,47.848 -79.329,47.849 -79.331,47.85 -79.333,47.851 -79.336,47.853 -79.338,47.854 -79.34,47.855 -79.343,47.857 -79.345,47.858 -79.347,47.859 -79.349,47.86 -79.352,47.862 -79.354,47.863 -79.356,47.864 -79.358,47.866 -79.36,47.867 -79.363,47.868 -79.365,47.87 -79.367,47.871 -79.369,47.872 -79.371,47.874 -79.374,47.875 -79.376,47.876 -79.378,47.878 -79.38,47.879 -79.383,47.881 -79.385,47.882 -79.387,47.884 -79.389,47.885 -79.391,47.887 -79.393,47.888 -79.396,47.889 -79.398,47.891 -79.4,47.892 -79.402,47.894 -79.404,47.895 -79.406,47.897 -79.408,47.898 -79.41,47.9 -79.412,47.901 -79.414,47.903 -79.416,47.904 -79.418,47.906 -79.42,47.907 -79.422,47.909 -79.424,47.91 -79.426,47.912 -79.428,47.914 -79.43,47.915 -79.431,47.917 -79.433,47.918 -79.435,47.92 -79.437,47.921 -79.439,47.923 -79.44,47.924 -79.441,47.925 -79.442,47.926 -79.443,47.927 -79.444,47.928 -79.445,47.928 -79.446,47.929 -79.447,47.93 -79.448,47.931 -79.448,47.932 -79.449,47.932 -79.45,47.933 -79.451,47.934 -79.452,47.935 -79.453,47.936 -79.454,47.936 -79.454,47.937 -79.455,47.938 -79.456,47.939 -79.458,47.94 -79.459,47.942 -79.46,47.943 -79.461,47.944 -79.462,47.945 -79.464,47.946 -79.465,47.948 -79.466,47.949 -79.467,47.95 -79.468,47.951 -79.469,47.953 -79.47,47.954 -79.472,47.955 -79.473,47.956 -79.474,47.957 -79.475,47.959 -79.476,47.96 -79.477,47.961 -79.478,47.962 -79.479,47.964 -79.48,47.965 -79.481,47.966 -79.482,47.967 -79.483,47.969 -79.484,47.97 -79.486,47.971 -79.487,47.972 -79.488,47.974 -79.489,47.975 -79.49,47.976 -79.491,47.977 -79.492,47.979 -79.493,47.98 -79.494,47.981 -79.495,47.982 -79.495,47.984 -79.496,47.985 -79.497,47.986 -79.498,47.988 -79.499,47.989 -79.5,47.99 -79.501,47.992 -79.503,47.993 -79.504,47.995 -79.505,47.997 -79.506,47.998 -79.507,48.0 -79.508,48.001 -79.509,48.003 -79.51,48.004 -79.511,48.006 -79.512,48.008 -79.513,48.009 -79.514,48.011 -79.515,48.012 -79.515,48.013 -79.516,48.015 -79.517,48.016 -79.519,48.019 -79.522,48.025 -79.523,48.027 -79.524,48.028 -79.525,48.029 -79.525,48.03 -79.526,48.031 -79.526,48.032 -79.527,48.032 -79.527,48.033 -79.527,48.034 -79.528,48.034 -79.528,48.035 -79.529,48.036 -79.529,48.037 -79.53,48.039 -79.531,48.04 -79.531,48.041 -79.531,48.042 -79.532,48.043 -79.532,48.044 -79.533,48.045 -79.533,48.046 -79.534,48.046 -79.534,48.047 -79.534,48.048 -79.535,48.05 -79.536,48.052 -79.537,48.054 -79.538,48.055 -79.538,48.056 -79.538,48.057 -79.539,48.058 -79.54,48.06 -79.54,48.061 -79.541,48.063 -79.541,48.064 -79.542,48.066 -79.543,48.067 -79.543,48.069 -79.544,48.07 -79.544,48.072 -79.545,48.074 -79.546,48.075 -79.546,48.077 -79.547,48.078 -79.547,48.08 -79.548,48.081 -79.548,48.083 -79.549,48.084 -79.549,48.086 -79.55,48.087 -79.55,48.089 -79.551,48.09 -79.551,48.092 -79.552,48.094 -79.552,48.095 -79.552,48.097 -79.553,48.098 -79.553,48.1 -79.554,48.101 -79.554,48.103 -79.555,48.104 -79.555,48.106 -79.555,48.108 -79.556,48.109 -79.556,48.111 -79.556,48.112 -79.557,48.114 -79.557,48.115 -79.557,48.117 -79.558,48.118 -79.558,48.12 -79.558,48.122 -79.559,48.123 -79.559,48.125 -79.559,48.126 -79.559,48.128 -79.56,48.129 -79.56,48.131 -79.56,48.133 -79.56,48.134 -79.561,48.136 -79.561,48.137 -79.561,48.139 -79.561,48.14 -79.562,48.142 -79.562,48.144 -79.562,48.145 -79.562,48.147 -79.562,48.148 -79.562,48.15 -79.563,48.151 -79.563,48.153 -79.563,48.155 -79.563,48.156 -79.563,48.158 -79.563,48.159 -79.563,48.161 -79.563,48.162 -79.563,48.164 -79.563,48.166 -79.563,48.167 -79.564,48.169 -79.564,48.17 -79.564,48.172 -79.564,48.174 -79.564,48.175 -79.564,48.177 -79.564,48.178 -79.564,48.18 -79.564,48.181 -79.564,48.183 -79.564,48.185 -79.563,48.186 -79.563,48.188 -79.563,48.189 -79.563,48.191 -79.563,48.192 -79.563,48.194 -79.563,48.196 -79.563,48.197 -79.563,48.199 -79.563,48.2 -79.563,48.202 -79.562,48.203 -79.562,48.205 -79.562,48.206 -79.562,48.208 -79.562,48.21 -79.562,48.211 -79.561,48.213 -79.561,48.214 -79.561,48.216 -79.561,48.217 -79.561,48.219 -79.56,48.22 -79.56,48.222 -79.56,48.224 -79.56,48.225 -79.559,48.227 -79.559,48.228 -79.559,48.23 -79.558,48.231 -79.558,48.233 -79.558,48.234 -79.558,48.236 -79.557,48.238 -79.557,48.239 -79.556,48.241 -79.556,48.242 -79.556,48.244 -79.555,48.245 -79.555,48.247 -79.555,48.248 -79.554,48.25 -79.554,48.251 -79.553,48.253 -79.553,48.254 -79.553,48.256 -79.552,48.257 -79.552,48.259 -79.551,48.26 -79.551,48.262 -79.55,48.264 -79.55,48.265 -79.549,48.267 -79.549,48.268 -79.548,48.27 -79.548,48.271 -79.547,48.273 -79.547,48.274 -79.546,48.276 -79.546,48.277 -79.545,48.279 -79.545,48.28 -79.544,48.282 -79.543,48.283 -79.543,48.285 -79.542,48.286 -79.542,48.288 -79.541,48.289 -79.54,48.291 -79.54,48.292 -79.539,48.293 -79.538,48.295 -79.538,48.296 -79.537,48.298 -79.537,48.299 -79.536,48.301 -79.535,48.302 -79.534,48.304 -79.534,48.305 -79.533,48.307 -79.532,48.308 -79.532,48.31 -79.531,48.311 -79.53,48.313 -79.529,48.314 -79.529,48.315 -79.528,48.317 -79.527,48.318 -79.526,48.32 -79.525,48.321 -79.525,48.323 -79.524,48.324 -79.523,48.326 -79.522,48.327 -79.521,48.328 -79.521,48.33 -79.52,48.331 -79.519,48.333 -79.518,48.334 -79.517,48.335 -79.516,48.337 -79.515,48.338 -79.514,48.34 -79.514,48.341 -79.513,48.342 -79.512,48.344 -79.511,48.345 -79.51,48.347 -79.509,48.348 -79.508,48.349 -79.507,48.351 -79.506,48.352 -79.505,48.354 -79.504,48.355 -79.503,48.356 -79.502,48.358 -79.501,48.359 -79.5,48.36 -79.499,48.362 -79.498,48.363 -79.497,48.364 -79.496,48.366 -79.495,48.367 -79.494,48.369 -79.493,48.37 -79.492,48.371 -79.491,48.373 -79.49,48.374 -79.489,48.375 -79.487,48.377 -79.486,48.378 -79.485,48.379 -79.484,48.38 -79.483,48.382 -79.482,48.383 -79.481,48.384 -79.48,48.386 -79.478,48.387 -79.477,48.388 -79.476,48.389 -79.475,48.391 -79.474,48.392 -79.473,48.393 -79.471,48.394 -79.47,48.396 -79.469,48.397 -79.468,48.398 -79.467,48.399 -79.465,48.401 -79.464,48.402 -79.463,48.403 -79.462,48.404 -79.461,48.406 -79.459,48.407 -79.458,48.408 -79.457,48.409 -79.456,48.41 -79.454,48.412 -79.453,48.413 -79.452,48.414 -79.45,48.415 -79.449,48.416 -79.448,48.418 -79.446,48.419 -79.445,48.42 -79.444,48.421 -79.442,48.422 -79.441,48.424 -79.44,48.425 -79.438,48.426 -79.437,48.427 -79.436,48.428 -79.434,48.429 -79.433,48.431 -79.431,48.432 -79.43,48.433 -79.429,48.434 -79.427,48.435 -79.426,48.436 -79.424,48.437 -79.423,48.439 -79.422,48.44 -79.42,48.441 -79.419,48.442 -79.417,48.443 -79.416,48.444 -79.414,48.445 -79.413,48.446 -79.411,48.447 -79.41,48.449 -79.408,48.45 -79.407,48.451 -79.405,48.452 -79.404,48.453 -79.402,48.454 -79.401,48.455 -79.399,48.456 -79.398,48.457 -79.396,48.458 -79.395,48.459 -79.393,48.46 -79.391,48.461 -79.39,48.462 -79.388,48.464 -79.387,48.465 -79.385,48.466 -79.383,48.467 -79.382,48.468 -79.38,48.469 -79.379,48.47 -79.377,48.471 -79.375,48.472 -79.374,48.473 -79.372,48.474 -79.37,48.475 -79.369,48.476 -79.367,48.477 -79.365,48.478 -79.364,48.479 -79.362,48.48 -79.36,48.481 -79.359,48.482 -79.357,48.483 -79.355,48.484 -79.354,48.485 -79.352,48.486 -79.35,48.487 -79.348,48.488 -79.347,48.488 -79.345,48.489 -79.343,48.49 -79.341,48.491 -79.34,48.492 -79.338,48.493 -79.336,48.494 -79.334,48.495 -79.332,48.496 -79.331,48.497 -79.329,48.498 -79.327,48.499 -79.325,48.5 -79.323,48.5 -79.322,48.501 -79.32,48.502 -79.318,48.503 -79.316,48.504 -79.314,48.505 -79.312,48.506 -79.311,48.507 -79.309,48.508 -79.307,48.508 -79.305,48.509 -79.303,48.51 -79.301,48.511 -79.299,48.512 -79.297,48.513 -79.295,48.514 -79.294,48.514 -79.292,48.515 -79.29,48.516 -79.288,48.517 -79.286,48.518 -79.284,48.518 -79.282,48.519 -79.28,48.52 -79.278,48.521 -79.276,48.522 -79.274,48.523 -79.272,48.523 -79.27,48.524 -79.268,48.525 -79.266,48.526 -79.264,48.526 -79.262,48.527 -79.26,48.528 -79.258,48.529 -79.256,48.529 -79.254,48.53 -79.252,48.531 -79.25,48.532 -79.248,48.532 -79.246,48.533 -79.244,48.534 -79.242,48.535 -79.24,48.535 -79.238,48.536 -79.236,48.537 -79.234,48.538 -79.232,48.538 -79.23,48.539 -79.227,48.54 -79.225,48.54 -79.223,48.541 -79.221,48.542 -79.219,48.542 -79.217,48.543 -79.215,48.544 -79.213,48.544 -79.21,48.545 -79.208,48.546 -79.206,48.546 -79.204,48.547 -79.202,48.548 -79.2,48.548 -79.198,48.549 -79.195,48.55 -79.193,48.55 -79.191,48.551 -79.189,48.552 -79.187,48.552 -79.184,48.553 -79.182,48.553 -79.18,48.554 -79.178,48.555 -79.176,48.555 -79.173,48.556 -79.171,48.556 -79.169,48.557 -79.167,48.558 -79.164,48.558 -79.162,48.559 -79.16,48.559 -79.158,48.56 -79.155,48.56 -79.153,48.561 -79.151,48.562 -79.149,48.562 -79.146,48.563 -79.144,48.563 -79.142,48.564 -79.139,48.564 -79.137,48.565 -79.135,48.565 -79.132,48.566 -79.13,48.566 -79.128,48.567 -79.125,48.567 -79.123,48.568 -79.121,48.568 -79.118,48.569 -79.116,48.569 -79.114,48.57 -79.111,48.57 -79.109,48.571 -79.104,48.572 -79.099,48.573 -79.095,48.574 -79.09,48.574 -79.085,48.575 -79.08,48.576 -79.075,48.577 -79.07,48.578 -79.066,48.579 -79.061,48.579 -79.056,48.58 -79.051,48.581 -79.046,48.582 -79.041,48.582 -79.036,48.583 -79.031,48.584 -79.026,48.584 -79.02,48.585 -79.015,48.586 -79.012,48.586 -79.009,48.586 -79.004,48.587 -79.0,48.587 -79,49 -79.065,49.317 -79.13,49.635 -79.197,49.952 -79.199,49.959 -79.215,50.036 -79.374,50.774 -79.387,50.832 -79.521,51.432 -79.618,51.861 -79.631,51.919 -79.641,51.963 -79.707,52.243 -79.8,52.643 -79.817,52.713 -79.987,53.414 -80.0,53.467 -79.999,62.75 -79.308,62.919 -78.351,63.143 -78.336,63.146 -78.3,63.154 -77.226,63.394 -77.183,63.404 -76.194,63.613 -76.193,63.614 -76.177,63.617 -76.176,63.617 -75.275,63.799 -75.256,63.803 -75.215,63.811 -75.173,63.82 -74.988,63.856 -74.802,63.892 -74.615,63.928 -74.428,63.964 -74.214,64.004 -74.053,64.034 -73.891,64.064 -72.532,64.307 -71.261,64.519 -71.178,64.533 -70.737,64.601 -70.196,64.686 -70.107,64.7 -70.088,64.702 -69.503,64.789 -69.159,64.839 -69.115,64.846 -69.096,64.848 -68.001,65.0 -68,65 -66.448,65.033 -66.436,65.034 -65.977,65.038 -65.642,65.044 -65.631,65.045 -65.502,65.046 -65.252,65.048 -65.001,65.05 -64.751,65.052 -64.501,65.053 -64.25,65.053 -64.0,65.054 -63.75,65.053 -63.499,65.053 -63.249,65.052 -62.999,65.05 -62.748,65.048 -62.498,65.046 -62.248,65.043 -62.224,65.043 -61.998,65.04 -61.748,65.037 -61.693,65.036 -61.678,65.035 -61.236,65.024 -60,65</coordinates></LinearRing></outerBoundaryIs></Polygon>
  </Placemark>
</Folder>
</Document></kml>
