{
"type": "FeatureCollection",
"name": "Edmonton_BVol(fixed)",
"crs": { "type": "name", "properties": { "name": "urn:ogc:def:crs:OGC:1.3:CRS84" } },
"features": [
{ "type": "Feature", "properties": { }, "geometry": { "type": "MultiPolygon", "coordinates": [ [ [ [ -141.0, 90.0 ], [ -60.0, 90.0 ], [ -60.001, 82.0 ], [ -60.817, 81.864 ], [ -60.823, 81.863 ], [ -60.827, 81.863 ], [ -61.091, 81.817 ], [ -61.356, 81.771 ], [ -61.611, 81.727 ], [ -61.619, 81.725 ], [ -61.626, 81.724 ], [ -62.38, 81.587 ], [ -62.388, 81.585 ], [ -62.393, 81.585 ], [ -63.675, 81.338 ], [ -63.676, 81.337 ], [ -63.677, 81.337 ], [ -63.779, 81.316 ], [ -63.852, 81.302 ], [ -63.855, 81.301 ], [ -64.029, 81.264 ], [ -64.719, 81.122 ], [ -64.722, 81.122 ], [ -64.725, 81.121 ], [ -65.201, 81.016 ], [ -65.391, 80.976 ], [ -65.392, 80.976 ], [ -65.522, 80.946 ], [ -65.714, 80.904 ], [ -65.718, 80.903 ], [ -65.722, 80.902 ], [ -66.355, 80.754 ], [ -66.665, 80.683 ], [ -66.67, 80.681 ], [ -66.734, 80.665 ], [ -66.82, 80.645 ], [ -66.822, 80.645 ], [ -66.823, 80.644 ], [ -67.864, 80.384 ], [ -67.867, 80.383 ], [ -67.87, 80.382 ], [ -67.949, 80.361 ], [ -68.008, 80.346 ], [ -68.014, 80.345 ], [ -68.226, 80.287 ], [ -68.854, 80.119 ], [ -68.856, 80.119 ], [ -68.858, 80.118 ], [ -69.079, 80.055 ], [ -69.262, 80.005 ], [ -69.267, 80.004 ], [ -69.514, 79.93 ], [ -69.922, 79.814 ], [ -69.924, 79.813 ], [ -69.927, 79.812 ], [ -70.28, 79.703 ], [ -70.558, 79.621 ], [ -70.563, 79.62 ], [ -70.785, 79.548 ], [ -71.051, 79.466 ], [ -71.053, 79.465 ], [ -71.055, 79.465 ], [ -71.462, 79.329 ], [ -71.762, 79.232 ], [ -71.766, 79.231 ], [ -71.924, 79.175 ], [ -72.108, 79.114 ], [ -72.109, 79.114 ], [ -72.11, 79.113 ], [ -72.579, 78.946 ], [ -72.883, 78.839 ], [ -72.887, 78.837 ], [ -72.985, 78.8 ], [ -73.099, 78.759 ], [ -73.1, 78.759 ], [ -73.658, 78.544 ], [ -73.928, 78.441 ], [ -73.931, 78.44 ], [ -73.975, 78.423 ], [ -74.03, 78.401 ], [ -74.031, 78.401 ], [ -75.0, 78.0 ], [ -75.222, 77.605 ], [ -75.229, 77.594 ], [ -75.23, 77.592 ], [ -75.432, 77.209 ], [ -75.44, 77.193 ], [ -75.457, 77.159 ], [ -75.481, 77.114 ], [ -75.482, 77.112 ], [ -75.484, 77.107 ], [ -75.687, 76.693 ], [ -75.691, 76.685 ], [ -75.693, 76.68 ], [ -75.704, 76.656 ], [ -75.72, 76.623 ], [ -75.721, 76.622 ], [ -76.0, 76.0 ], [ -74.899, 75.646 ], [ -73.85, 75.288 ], [ -72.85, 74.925 ], [ -71.896, 74.558 ], [ -70.986, 74.187 ], [ -70.117, 73.813 ], [ -69.286, 73.435 ], [ -68.491, 73.054 ], [ -67.731, 72.67 ], [ -67.002, 72.283 ], [ -66.304, 71.893 ], [ -65.634, 71.502 ], [ -64.992, 71.108 ], [ -64.374, 70.711 ], [ -63.781, 70.313 ], [ -63.21, 69.913 ], [ -62.661, 69.512 ], [ -62.132, 69.108 ], [ -61.622, 68.703 ], [ -61.13, 68.297 ], [ -60.656, 67.889 ], [ -60.198, 67.479 ], [ -59.755, 67.069 ], [ -59.327, 66.657 ], [ -58.914, 66.245 ], [ -58.513, 65.831 ], [ -58.126, 65.416 ], [ -57.75, 65.0 ], [ -58.5, 65.004 ], [ -59.25, 65.004 ], [ -60.0, 65.0 ], [ -61.236, 65.024 ], [ -61.678, 65.035 ], [ -61.693, 65.036 ], [ -61.748, 65.037 ], [ -61.998, 65.04 ], [ -62.224, 65.043 ], [ -62.248, 65.043 ], [ -62.498, 65.046 ], [ -62.748, 65.048 ], [ -62.999, 65.05 ], [ -63.249, 65.052 ], [ -63.499, 65.053 ], [ -63.75, 65.053 ], [ -64.0, 65.054 ], [ -64.25, 65.053 ], [ -64.501, 65.053 ], [ -64.751, 65.052 ], [ -65.001, 65.05 ], [ -65.252, 65.048 ], [ -65.502, 65.046 ], [ -65.631, 65.045 ], [ -65.642, 65.044 ], [ -65.977, 65.038 ], [ -66.436, 65.034 ], [ -66.448, 65.033 ], [ -68.0, 65.0 ], [ -68.001, 65.0 ], [ -69.096, 64.848 ], [ -69.115, 64.846 ], [ -69.159, 64.839 ], [ -69.503, 64.789 ], [ -70.088, 64.702 ], [ -70.107, 64.7 ], [ -70.196, 64.686 ], [ -70.737, 64.601 ], [ -71.178, 64.533 ], [ -71.261, 64.519 ], [ -72.532, 64.307 ], [ -73.891, 64.064 ], [ -74.053, 64.034 ], [ -74.214, 64.004 ], [ -74.428, 63.964 ], [ -74.615, 63.928 ], [ -74.802, 63.892 ], [ -74.988, 63.856 ], [ -75.173, 63.82 ], [ -75.215, 63.811 ], [ -75.256, 63.803 ], [ -75.275, 63.799 ], [ -76.176, 63.617 ], [ -76.177, 63.617 ], [ -76.193, 63.614 ], [ -76.194, 63.613 ], [ -77.183, 63.404 ], [ -77.226, 63.394 ], [ -78.3, 63.154 ], [ -78.336, 63.146 ], [ -78.351, 63.143 ], [ -79.308, 62.919 ], [ -79.999, 62.75 ], [ -80.0, 64.408 ], [ -81.437, 64.162 ], [ -81.439, 64.162 ], [ -82.66, 63.938 ], [ -82.665, 63.937 ], [ -82.725, 63.926 ], [ -82.755, 63.92 ], [ -82.76, 63.919 ], [ -83.406, 63.793 ], [ -84.098, 63.657 ], [ -84.14, 63.648 ], [ -84.146, 63.647 ], [ -84.356, 63.603 ], [ -85.675, 63.323 ], [ -85.86, 63.284 ], [ -85.864, 63.283 ], [ -86.203, 63.205 ], [ -87.117, 62.996 ], [ -87.447, 62.92 ], [ -87.449, 62.92 ], [ -87.451, 62.919 ], [ -87.777, 62.839 ], [ -88.756, 62.597 ], [ -89.164, 62.496 ], [ -89.166, 62.496 ], [ -89.169, 62.495 ], [ -89.507, 62.405 ], [ -90.067, 62.258 ], [ -90.419, 62.164 ], [ -90.423, 62.163 ], [ -90.651, 62.099 ], [ -92.052, 61.702 ], [ -92.292, 61.634 ], [ -92.295, 61.633 ], [ -92.393, 61.603 ], [ -93.16, 61.373 ], [ -93.221, 61.354 ], [ -93.338, 61.318 ], [ -93.455, 61.282 ], [ -93.572, 61.245 ], [ -93.688, 61.209 ], [ -93.804, 61.172 ], [ -93.92, 61.136 ], [ -94.035, 61.099 ], [ -94.15, 61.062 ], [ -94.265, 61.026 ], [ -94.38, 60.989 ], [ -94.494, 60.952 ], [ -94.608, 60.914 ], [ -94.722, 60.877 ], [ -94.836, 60.84 ], [ -94.942, 60.804 ], [ -94.949, 60.802 ], [ -95.062, 60.765 ], [ -95.15, 60.736 ], [ -95.46, 60.631 ], [ -95.472, 60.627 ], [ -95.716, 60.542 ], [ -96.347, 60.322 ], [ -96.8, 60.164 ], [ -96.803, 60.163 ], [ -97.389, 59.946 ], [ -97.844, 59.778 ], [ -98.164, 59.66 ], [ -98.167, 59.659 ], [ -99.401, 59.155 ], [ -100.48, 58.708 ], [ -101.12, 58.444 ], [ -101.75, 58.177 ], [ -102.37, 57.907 ], [ -102.37, 57.906 ], [ -102.95, 57.64 ], [ -103.52, 57.371 ], [ -104.08, 57.099 ], [ -104.09, 57.093 ], [ -104.12, 57.078 ], [ -104.67, 56.806 ], [ -104.7, 56.793 ], [ -104.72, 56.783 ], [ -105.56, 56.35 ], [ -105.58, 56.343 ], [ -105.61, 56.328 ], [ -106.03, 56.106 ], [ -106.06, 56.088 ], [ -106.06, 56.087 ], [ -106.92, 55.622 ], [ -106.92, 55.621 ], [ -107.02, 55.567 ], [ -107.21, 55.461 ], [ -107.7, 55.182 ], [ -107.71, 55.179 ], [ -108.42, 54.767 ], [ -108.69, 54.767 ], [ -108.68, 54.741 ], [ -108.64, 54.657 ], [ -108.61, 54.585 ], [ -108.61, 54.572 ], [ -108.59, 54.485 ], [ -108.59, 54.311 ], [ -108.62, 54.225 ], [ -108.65, 54.14 ], [ -108.7, 54.057 ], [ -108.76, 53.977 ], [ -108.83, 53.901 ], [ -108.91, 53.828 ], [ -109.0, 53.759 ], [ -109.1, 53.696 ], [ -109.21, 53.637 ], [ -109.33, 53.585 ], [ -109.45, 53.539 ], [ -109.58, 53.499 ], [ -109.72, 53.466 ], [ -109.81, 53.448 ], [ -109.85, 53.44 ], [ -109.86, 53.44 ], [ -109.95, 53.428 ], [ -110.0, 53.421 ], [ -110.0, 49.011 ], [ -110.0, 49.001 ], [ -110.1, 48.999 ], [ -110.13, 49.0 ], [ -110.2, 48.999 ], [ -110.3, 49.0 ], [ -110.33, 48.999 ], [ -110.37, 49.0 ], [ -110.47, 48.999 ], [ -110.5, 49.0 ], [ -110.6, 48.999 ], [ -110.67, 49.0 ], [ -110.77, 48.999 ], [ -111.33, 49.0 ], [ -111.37, 48.999 ], [ -111.8, 48.999 ], [ -111.87, 49.0 ], [ -112.03, 48.999 ], [ -112.07, 49.0 ], [ -112.17, 48.999 ], [ -112.23, 49.0 ], [ -112.3, 48.999 ], [ -112.34, 49.0 ], [ -112.4, 48.999 ], [ -112.43, 49.0 ], [ -112.5, 48.999 ], [ -112.54, 49.0 ], [ -112.57, 48.999 ], [ -112.6, 49.0 ], [ -112.93, 49.0 ], [ -112.97, 48.999 ], [ -113.03, 49.0 ], [ -113.23, 48.999 ], [ -113.33, 49.0 ], [ -113.37, 48.999 ], [ -113.5, 49.0 ], [ -113.57, 48.999 ], [ -113.77, 49.0 ], [ -114.03, 48.999 ], [ -114.06, 49.001 ], [ -114.34, 48.999 ], [ -114.37, 49.0 ], [ -114.47, 48.999 ], [ -114.53, 49.0 ], [ -114.6, 48.999 ], [ -114.63, 49.0 ], [ -114.67, 49.0 ], [ -114.9, 48.999 ], [ -115.0, 49.0 ], [ -115.03, 48.999 ], [ -115.13, 49.0 ], [ -115.17, 48.999 ], [ -115.37, 49.0 ], [ -115.4, 48.999 ], [ -115.47, 49.0 ], [ -115.5, 48.999 ], [ -115.5, 49.0 ], [ -115.49, 49.011 ], [ -115.492093104655225, 49.010981799089954 ], [ -115.14, 49.5 ], [ -115.14, 49.966 ], [ -115.15, 50.002 ], [ -115.15, 50.039 ], [ -115.17, 50.074 ], [ -115.19, 50.109 ], [ -115.21, 50.142 ], [ -115.24, 50.174 ], [ -115.27, 50.205 ], [ -115.3, 50.233 ], [ -115.34, 50.26 ], [ -115.39, 50.284 ], [ -115.43, 50.305 ], [ -115.48, 50.324 ], [ -115.53, 50.34 ], [ -115.59, 50.353 ], [ -115.64, 50.364 ], [ -115.7, 50.37 ], [ -115.75, 50.374 ], [ -115.81, 50.375 ], [ -115.87, 50.372 ], [ -115.93, 50.366 ], [ -115.98, 50.357 ], [ -116.03, 50.345 ], [ -116.09, 50.33 ], [ -116.27, 50.534 ], [ -116.6, 50.908 ], [ -117.22, 51.575 ], [ -117.41, 51.787 ], [ -117.71, 52.105 ], [ -118.03, 52.43 ], [ -118.35, 52.754 ], [ -118.67, 53.078 ], [ -119.0, 53.4 ], [ -119.49, 53.721 ], [ -120.17, 54.163 ], [ -120.77, 54.544 ], [ -121.69, 55.102 ], [ -122.27, 55.441 ], [ -122.64, 55.657 ], [ -123.25, 56.0 ], [ -124.63, 56.202 ], [ -124.67, 56.207 ], [ -124.67, 56.208 ], [ -126.15, 56.404 ], [ -126.29, 56.421 ], [ -126.96, 56.501 ], [ -127.74, 56.594 ], [ -127.75, 56.595 ], [ -127.93, 56.615 ], [ -128.12, 56.636 ], [ -128.13, 56.637 ], [ -129.43, 56.771 ], [ -130.53, 56.874 ], [ -130.55, 56.876 ], [ -130.57, 56.878 ], [ -130.59, 56.879 ], [ -132.07, 57.0 ], [ -132.05, 57.045 ], [ -132.37, 57.091 ], [ -132.25, 57.211 ], [ -132.25, 57.219 ], [ -132.37, 57.35 ], [ -132.55, 57.497 ], [ -132.66, 57.617 ], [ -132.75, 57.696 ], [ -132.87, 57.84 ], [ -133.07, 58.0 ], [ -133.17, 58.154 ], [ -133.2, 58.175 ], [ -133.21, 58.182 ], [ -133.22, 58.19 ], [ -133.27, 58.227 ], [ -133.35, 58.276 ], [ -133.35, 58.277 ], [ -133.36, 58.281 ], [ -133.42, 58.346 ], [ -133.46, 58.388 ], [ -133.4, 58.421 ], [ -133.38, 58.431 ], [ -133.43, 58.456 ], [ -133.43, 58.459 ], [ -133.56, 58.528 ], [ -133.58, 58.54 ], [ -133.6, 58.551 ], [ -133.63, 58.565 ], [ -133.68, 58.596 ], [ -133.69, 58.603 ], [ -133.71, 58.612 ], [ -133.84, 58.729 ], [ -133.97, 58.767 ], [ -134.22, 58.849 ], [ -134.24, 58.856 ], [ -134.26, 58.861 ], [ -134.31, 58.901 ], [ -134.34, 58.923 ], [ -134.33, 58.931 ], [ -134.32, 58.957 ], [ -134.31, 58.962 ], [ -134.41, 58.979 ], [ -134.38, 59.039 ], [ -134.45, 59.089 ], [ -134.48, 59.132 ], [ -134.55, 59.131 ], [ -134.57, 59.131 ], [ -134.58, 59.137 ], [ -134.68, 59.192 ], [ -134.7, 59.244 ], [ -134.71, 59.246 ], [ -134.74, 59.25 ], [ -134.95, 59.28 ], [ -134.96, 59.281 ], [ -135.03, 59.346 ], [ -135.0, 59.382 ], [ -134.99, 59.388 ], [ -135.1, 59.428 ], [ -135.08, 59.452 ], [ -135.03, 59.475 ], [ -135.03, 59.539 ], [ -135.03, 59.544 ], [ -135.03, 59.564 ], [ -135.11, 59.62 ], [ -135.12, 59.623 ], [ -135.14, 59.624 ], [ -135.16, 59.626 ], [ -135.16, 59.629 ], [ -135.16, 59.63 ], [ -135.22, 59.663 ], [ -135.23, 59.696 ], [ -135.25, 59.698 ], [ -135.35, 59.733 ], [ -135.36, 59.739 ], [ -135.48, 59.8 ], [ -135.94, 59.667 ], [ -136.17, 59.642 ], [ -136.23, 59.632 ], [ -136.24, 59.629 ], [ -136.25, 59.626 ], [ -136.27, 59.622 ], [ -136.27, 59.62 ], [ -136.29, 59.616 ], [ -136.34, 59.603 ], [ -136.35, 59.6 ], [ -136.24, 59.559 ], [ -136.24, 59.528 ], [ -136.27, 59.496 ], [ -136.29, 59.471 ], [ -136.3, 59.469 ], [ -136.3, 59.465 ], [ -136.36, 59.451 ], [ -136.36, 59.45 ], [ -136.37, 59.449 ], [ -136.37, 59.45 ], [ -136.4, 59.453 ], [ -136.43, 59.458 ], [ -136.46, 59.464 ], [ -136.48, 59.466 ], [ -136.48, 59.376 ], [ -136.47, 59.322 ], [ -136.47, 59.318 ], [ -136.47, 59.284 ], [ -136.5, 59.275 ], [ -136.49, 59.266 ], [ -136.49, 59.26 ], [ -136.55, 59.202 ], [ -136.58, 59.17 ], [ -136.58, 59.166 ], [ -136.74, 59.162 ], [ -136.83, 59.16 ], [ -136.85, 59.147 ], [ -136.88, 59.136 ], [ -136.97, 59.101 ], [ -137.04, 59.079 ], [ -137.06, 59.07 ], [ -137.08, 59.063 ], [ -137.18, 59.032 ], [ -137.21, 59.023 ], [ -137.23, 59.015 ], [ -137.25, 59.008 ], [ -137.45, 58.911 ], [ -137.45, 58.908 ], [ -137.53, 58.906 ], [ -137.5, 58.985 ], [ -137.54, 59.106 ], [ -137.61, 59.244 ], [ -137.95, 59.421 ], [ -138.09, 59.496 ], [ -138.63, 59.769 ], [ -138.67, 59.81 ], [ -138.68, 59.845 ], [ -138.71, 59.906 ], [ -138.8, 59.925 ], [ -139.05, 59.995 ], [ -139.06, 60.0 ], [ -139.2, 60.088 ], [ -139.07, 60.319 ], [ -139.07, 60.352 ], [ -139.11, 60.352 ], [ -139.69, 60.335 ], [ -139.7, 60.328 ], [ -139.77, 60.292 ], [ -139.79, 60.28 ], [ -139.81, 60.272 ], [ -139.98, 60.182 ], [ -140.45, 60.307 ], [ -140.46, 60.297 ], [ -140.47, 60.284 ], [ -140.49, 60.258 ], [ -140.5, 60.245 ], [ -140.51, 60.238 ], [ -140.52, 60.222 ], [ -140.79, 60.27 ], [ -140.95, 60.298 ], [ -140.99, 60.306 ], [ -141.0, 60.307 ], [ -141.0, 60.367 ], [ -141.0, 60.399 ], [ -141.0, 60.828 ], [ -141.0, 61.257 ], [ -141.0, 61.687 ], [ -141.0, 62.116 ], [ -141.0, 62.545 ], [ -141.0, 62.974 ], [ -141.0, 63.403 ], [ -141.0, 63.832 ], [ -141.0, 64.262 ], [ -141.0, 64.691 ], [ -141.0, 65.12 ], [ -141.0, 65.53 ], [ -141.0, 65.94 ], [ -141.0, 66.35 ], [ -141.0, 66.76 ], [ -141.0, 67.169 ], [ -141.0, 67.579 ], [ -141.0, 67.989 ], [ -141.0, 68.399 ], [ -141.0, 68.809 ], [ -141.0, 69.649 ], [ -141.0, 69.65 ], [ -141.0, 70.092 ], [ -141.0, 70.535 ], [ -141.0, 70.977 ], [ -141.0, 71.42 ], [ -141.0, 71.862 ], [ -141.0, 72.304 ], [ -141.0, 72.747 ], [ -141.0, 73.189 ], [ -141.0, 73.632 ], [ -141.0, 74.074 ], [ -141.0, 74.516 ], [ -141.0, 74.959 ], [ -141.0, 75.401 ], [ -141.0, 75.843 ], [ -141.0, 76.286 ], [ -141.0, 76.728 ], [ -141.0, 77.171 ], [ -141.0, 77.613 ], [ -141.0, 78.055 ], [ -141.0, 78.498 ], [ -141.0, 78.94 ], [ -141.0, 79.383 ], [ -141.0, 79.825 ], [ -141.0, 80.267 ], [ -141.0, 80.71 ], [ -141.0, 81.152 ], [ -141.0, 81.595 ], [ -141.0, 82.037 ], [ -141.0, 82.479 ], [ -141.0, 82.922 ], [ -141.0, 83.364 ], [ -141.0, 83.807 ], [ -141.0, 84.249 ], [ -141.0, 84.691 ], [ -141.0, 85.134 ], [ -141.0, 85.576 ], [ -141.0, 86.018 ], [ -141.0, 86.461 ], [ -141.0, 86.903 ], [ -141.0, 87.346 ], [ -141.0, 87.788 ], [ -141.0, 88.23 ], [ -141.0, 88.673 ], [ -141.0, 89.115 ], [ -141.0, 89.558 ], [ -141.0, 90.0 ] ] ] ] } }
]
}
