<?xml version="1.0" encoding="UTF-8"?>
<kml xmlns="http://www.opengis.net/kml/2.2" xmlns:gx="http://www.google.com/kml/ext/2.2" xmlns:kml="http://www.opengis.net/kml/2.2" xmlns:atom="http://www.w3.org/2005/Atom">
<Document>
<name>Aireon Service Volumes SVDD 13 DRAFT 2 with FAA</name>
<Placemark>
<name>ROGO 13 DRAFT </name>
<description>
	Gander Oceanic Service Volume
	SVDD 13 DRAFT 2
</description>
<Style>
	<LineStyle>
		<color>ff00ff00</color>
		<width>3</width>
	</LineStyle>
	<PolyStyle>
		<color>0000ff00</color>
	</PolyStyle>
</Style>
<Polygon>
	<altitudeMode>clampToGround</altitudeMode>
	
	<outerBoundaryIs>
		<LinearRing>
			<coordinates>
-27.000000,+43.333333,0 -28.000000,+43.333333,0 -29.000000,+43.333333,0 -30.000000,+43.333333,0 -31.000000,+43.333333,0 -32.000000,+43.333333,0 -33.000000,+43.333333,0 -34.000000,+43.333333,0 -35.000000,+43.333333,0 -36.000000,+43.333333,0 -37.000000,+43.333333,0 -38.000000,+43.333333,0 -39.000000,+43.333333,0 -40.000000,+43.333333,0 -40.000000,+44.500000,0 -46.337000,+44.500000,0 -46.337000,+52.000000,0 -48.500000,+55.000000,0 -50.000000,+65.166667,0 -50.000000,+65.166667,0 -49.000000,+65.166667,0 -48.000000,+65.166667,0 -47.000000,+65.166667,0 -46.000000,+65.166667,0 -45.000000,+65.166667,0 -44.000000,+65.166667,0 -43.000000,+65.166667,0 -42.000000,+65.166667,0 -41.000000,+65.166667,0 -40.000000,+65.166667,0 -39.000000,+65.166667,0 -38.100000,+65.166667,0 -34.000000,+64.143000,0 -30.000000,+62.950000,0 -26.673333,+61.785333,0 -27.000000,+43.333333,0
			</coordinates>
		</LinearRing>
	</outerBoundaryIs>
</Polygon>
</Placemark>
<Placemark>
<name>ROGG 13 DRAFT 2</name>
<description>
	Gander Service Volume
	SVDD 13 DRAFT 2
</description>
<Style>
	<LineStyle>
		<color>ff00ff00</color>
		<width>3</width>
	</LineStyle>
	<PolyStyle>
		<color>0000ff00</color>
	</PolyStyle>
</Style>
<Polygon>
	<altitudeMode>clampToGround</altitudeMode>
	
	<outerBoundaryIs>
		<LinearRing>
			<coordinates>
-46.337000,+52.000000,0 -48.500000,+55.000000,0 -50.000000,+65.166667,0 -53.375000,+65.166667,0 -54.108000,+65.649000,0 -55.133000,+67.000000,0 -74.000000,+67.000000,0 -74.000000,+60.000000,0 -71.500000,+51.000000,0 -71.455111,+50.957917,0 -69.900000,+49.500000,0 -67.000000,+47.430000,0 -67.000000,+44.942000,0 -66.979475,+44.921373,0 -66.977985,+44.857550,0 -66.963364,+44.841333,0 -66.914907,+44.819143,0 -66.901022,+44.802134,0 -66.903082,+44.777136,0 -67.116667,+44.500000,0 -67.062946,+44.500000,0 -67.000000,+44.499922,0 -67.000000,+41.616667,0 -61.201667,+42.381667,0 -57.868056,+43.072222,0 -55.750000,+43.583333,0 -50.000000,+44.500000,0 -46.337000,+44.500000,0 -46.337000,+52.000000,0
			</coordinates>
		</LinearRing>
	</outerBoundaryIs>
</Polygon>
</Placemark>
<Placemark>
<name>ROGM 13 DRAFT 2</name>
<description>
	Moncton Service Volume
	SVDD 13 DRAFT 2
</description>
<Style>
	<LineStyle>
		<color>ff00ff00</color>
		<width>3</width>
	</LineStyle>
	<PolyStyle>
		<color>0000ff00</color>
	</PolyStyle>
</Style>
<Polygon>
	<altitudeMode>clampToGround</altitudeMode>
	
	<outerBoundaryIs>
		<LinearRing>
			<coordinates>
-67.000000,+44.499922,0 -67.062946,+44.500000,0 -67.116667,+44.500000,0 -66.903082,+44.777136,0 -66.901022,+44.802134,0 -66.914907,+44.819143,0 -66.963364,+44.841333,0 -66.977985,+44.857550,0 -66.979475,+44.921373,0 -67.023596,+44.964987,0 -67.112000,+45.112000,0 -67.160000,+45.164000,0 -67.235000,+45.173000,0 -67.267000,+45.191000,0 -67.290000,+45.190000,0 -67.291045,+45.181099,0 -67.293733,+45.177970,0 -67.292470,+45.176195,0 -67.291017,+45.174152,0 -67.291557,+45.170994,0 -67.294170,+45.170349,0 -67.298980,+45.169162,0 -67.302458,+45.161942,0 -67.301906,+45.158643,0 -67.301636,+45.157034,0 -67.301395,+45.156936,0 -67.295829,+45.154664,0 -67.294321,+45.152280,0 -67.296589,+45.147562,0 -67.319905,+45.142447,0 -67.317921,+45.137755,0 -67.321021,+45.131809,0 -67.330253,+45.131485,0 -67.339856,+45.125594,0 -67.353441,+45.129483,0 -67.370573,+45.142093,0 -67.380424,+45.151936,0 -67.390585,+45.154108,0 -67.404614,+45.159913,0 -67.404878,+45.166654,0 -67.399046,+45.169367,0 -67.400182,+45.177034,0 -67.408630,+45.180259,0 -67.418000,+45.190068,0 -67.428882,+45.193222,0 -67.428263,+45.202706,0 -67.439436,+45.226161,0 -67.453287,+45.240616,0 -67.462630,+45.243223,0 -67.472507,+45.257202,0 -67.471814,+45.261457,0 -67.475402,+45.264292,0 -67.476572,+45.275372,0 -67.482111,+45.276073,0 -67.484070,+45.279701,0 -67.489339,+45.281321,0 -67.486100,+45.291138,0 -67.482324,+45.291406,0 -67.476992,+45.288831,0 -67.474343,+45.291887,0 -67.466145,+45.294014,0 -67.465747,+45.297109,0 -67.468524,+45.298204,0 -67.466765,+45.299778,0 -67.460673,+45.300332,0 -67.458439,+45.308882,0 -67.456378,+45.311622,0 -67.452209,+45.317162,0 -67.453959,+45.320485,0 -67.456680,+45.325652,0 -67.452021,+45.327694,0 -67.451988,+45.327708,0 -67.443773,+45.331308,0 -67.441146,+45.335762,0 -67.430805,+45.342015,0 -67.428830,+45.345897,0 -67.431175,+45.350834,0 -67.430822,+45.351273,0 -67.427383,+45.355551,0 -67.425919,+45.357370,0 -67.433452,+45.361031,0 -67.434295,+45.365433,0 -67.430102,+45.371618,0 -67.427009,+45.373542,0 -67.421625,+45.373723,0 -67.421717,+45.372731,0 -67.421301,+45.374034,0 -67.419059,+45.376778,0 -67.420053,+45.377949,0 -67.421118,+45.379205,0 -67.425767,+45.384684,0 -67.427672,+45.391353,0 -67.455250,+45.412326,0 -67.460886,+45.419280,0 -67.460843,+45.421870,0 -67.471265,+45.423482,0 -67.473376,+45.425373,0 -67.479735,+45.440488,0 -67.476594,+45.443006,0 -67.477252,+45.446257,0 -67.484205,+45.451689,0 -67.484826,+45.456118,0 -67.482121,+45.457827,0 -67.482484,+45.460166,0 -67.486826,+45.466913,0 -67.500650,+45.478829,0 -67.503776,+45.488531,0 -67.498844,+45.491037,0 -67.494657,+45.489109,0 -67.489494,+45.489644,0 -67.488696,+45.493652,0 -67.485118,+45.495454,0 -67.484856,+45.495418,0 -67.485175,+45.494674,0 -67.484541,+45.495376,0 -67.480566,+45.494840,0 -67.476924,+45.497212,0 -67.466916,+45.495730,0 -67.463860,+45.496892,0 -67.463548,+45.498086,0 -67.470739,+45.500066,0 -67.470910,+45.504304,0 -67.462868,+45.508695,0 -67.452243,+45.499486,0 -67.449638,+45.499502,0 -67.449186,+45.502230,0 -67.453117,+45.509058,0 -67.449361,+45.510651,0 -67.441330,+45.505831,0 -67.431259,+45.503881,0 -67.428860,+45.501361,0 -67.424278,+45.505919,0 -67.416459,+45.502142,0 -67.420364,+45.510906,0 -67.427275,+45.518141,0 -67.432075,+45.519715,0 -67.431991,+45.521971,0 -67.431963,+45.522727,0 -67.431905,+45.524294,0 -67.435291,+45.529987,0 -67.432214,+45.541036,0 -67.425210,+45.540263,0 -67.423747,+45.547406,0 -67.420878,+45.550568,0 -67.428769,+45.568417,0 -67.423636,+45.572086,0 -67.424699,+45.577273,0 -67.429716,+45.583774,0 -67.455402,+45.604666,0 -67.492760,+45.601897,0 -67.493740,+45.600037,0 -67.488202,+45.596045,0 -67.489657,+45.592254,0 -67.495141,+45.588509,0 -67.502994,+45.587182,0 -67.518570,+45.587926,0 -67.534927,+45.595432,0 -67.546108,+45.598064,0 -67.564179,+45.595877,0 -67.583344,+45.602496,0 -67.588779,+45.607101,0 -67.606166,+45.606531,0 -67.639744,+45.624769,0 -67.644201,+45.623226,0 -67.640195,+45.616146,0 -67.645833,+45.613560,0 -67.663109,+45.625067,0 -67.666461,+45.624453,0 -67.675415,+45.630961,0 -67.680639,+45.639131,0 -67.692628,+45.650358,0 -67.691415,+45.654052,0 -67.697969,+45.659739,0 -67.701327,+45.669426,0 -67.709469,+45.678975,0 -67.715003,+45.681234,0 -67.725275,+45.685427,0 -67.726758,+45.687752,0 -67.727377,+45.688723,0 -67.734011,+45.688775,0 -67.733568,+45.684198,0 -67.729752,+45.678023,0 -67.730620,+45.677153,0 -67.729410,+45.677470,0 -67.727610,+45.674556,0 -67.718059,+45.667981,0 -67.721091,+45.662025,0 -67.723758,+45.663841,0 -67.733311,+45.664146,0 -67.745027,+45.673199,0 -67.754526,+45.667973,0 -67.768660,+45.677581,0 -67.803326,+45.677888,0 -67.817717,+45.693512,0 -67.803158,+45.696132,0 -67.809840,+45.729270,0 -67.804124,+45.729788,0 -67.782248,+45.731770,0 -67.792881,+45.750056,0 -67.794409,+45.750664,0 -67.806341,+45.755408,0 -67.809073,+45.767499,0 -67.805456,+45.769755,0 -67.804347,+45.776992,0 -67.803637,+45.781624,0 -67.805065,+45.787936,0 -67.806602,+45.794726,0 -67.801998,+45.803551,0 -67.780451,+45.816204,0 -67.780034,+45.818206,0 -67.767127,+45.818744,0 -67.765545,+45.818810,0 -67.755078,+45.823685,0 -67.760017,+45.826838,0 -67.763340,+45.828960,0 -67.769147,+45.839303,0 -67.789559,+45.851626,0 -67.796642,+45.860413,0 -67.796273,+45.865570,0 -67.803677,+45.869378,0 -67.803934,+45.882900,0 -67.799038,+45.884188,0 -67.796644,+45.887820,0 -67.785353,+45.895670,0 -67.780101,+45.894507,0 -67.778283,+45.897679,0 -67.777037,+45.896705,0 -67.776357,+45.896174,0 -67.768741,+45.897952,0 -67.766911,+45.903771,0 -67.766723,+45.904367,0 -67.765021,+45.909778,0 -67.758435,+45.911154,0 -67.755270,+45.911815,0 -67.750639,+45.917718,0 -67.751190,+45.918151,0 -67.757433,+45.923055,0 -67.757935,+45.926215,0 -67.765935,+45.928305,0 -67.765579,+45.930471,0 -67.771642,+45.931883,0 -67.773562,+45.934818,0 -67.777655,+45.934206,0 -67.781096,+45.943025,0 -67.783000,+46.293000,0 -67.790526,+47.067925,0 -67.794994,+47.069734,0 -67.810717,+47.076097,0 -67.819296,+47.082397,0 -67.823066,+47.084012,0 -67.836892,+47.087038,0 -67.867717,+47.100558,0 -67.881310,+47.103908,0 -67.888669,+47.111692,0 -67.888815,+47.112397,0 -67.892170,+47.128644,0 -67.897882,+47.132772,0 -67.901168,+47.135146,0 -67.909355,+47.146724,0 -67.910366,+47.148154,0 -67.914131,+47.149638,0 -67.914719,+47.149996,0 -67.926264,+47.154694,0 -67.935804,+47.164830,0 -67.939163,+47.171451,0 -67.951192,+47.183913,0 -67.951669,+47.194334,0 -67.955234,+47.197821,0 -67.958455,+47.200348,0 -67.973528,+47.205442,0 -67.990171,+47.211066,0 -68.000063,+47.220090,0 -68.019735,+47.238034,0 -68.061840,+47.256457,0 -68.064153,+47.257079,0 -68.073918,+47.259710,0 -68.078605,+47.266103,0 -68.082878,+47.271933,0 -68.097822,+47.278164,0 -68.119691,+47.287283,0 -68.125601,+47.292263,0 -68.127490,+47.293855,0 -68.136828,+47.295984,0 -68.152297,+47.309873,0 -68.152467,+47.321512,0 -68.155152,+47.325414,0 -68.161325,+47.327753,0 -68.176060,+47.329240,0 -68.202351,+47.339412,0 -68.202934,+47.339445,0 -68.216052,+47.340189,0 -68.223501,+47.345207,0 -68.223695,+47.345921,0 -68.225210,+47.351475,0 -68.231027,+47.354323,0 -68.251503,+47.353258,0 -68.265136,+47.352549,0 -68.280852,+47.359210,0 -68.285447,+47.360142,0 -68.292666,+47.359479,0 -68.305016,+47.355547,0 -68.323178,+47.359896,0 -68.336188,+47.359800,0 -68.356508,+47.356409,0 -68.361727,+47.355538,0 -68.370396,+47.350956,0 -68.380327,+47.340251,0 -68.380368,+47.340107,0 -68.384414,+47.325881,0 -68.384284,+47.323422,0 -68.381300,+47.309159,0 -68.382038,+47.307934,0 -68.384945,+47.303110,0 -68.384127,+47.302248,0 -68.376157,+47.293843,0 -68.375842,+47.290021,0 -68.378668,+47.287562,0 -68.389764,+47.286654,0 -68.413236,+47.288460,0 -68.428874,+47.281951,0 -68.441385,+47.283973,0 -68.448838,+47.282539,0 -68.458478,+47.284857,0 -68.466289,+47.294879,0 -68.473848,+47.297506,0 -68.491053,+47.294142,0 -68.508147,+47.296927,0 -68.518329,+47.296029,0 -68.529205,+47.292574,0 -68.539584,+47.285185,0 -68.550000,+47.282000,0 -68.579000,+47.288000,0 -68.599000,+47.270000,0 -68.594000,+47.259000,0 -68.613000,+47.246000,0 -68.660000,+47.237000,0 -68.688000,+47.244000,0 -68.718000,+47.241000,0 -68.762000,+47.223000,0 -68.816000,+47.214000,0 -68.861000,+47.190000,0 -68.902000,+47.179000,0 -68.925000,+47.198000,0 -68.961000,+47.206000,0 -69.050000,+47.256000,0 -69.054000,+47.377000,0 -69.040000,+47.384000,0 -69.042000,+47.401000,0 -69.030000,+47.408000,0 -69.037000,+47.408000,0 -69.043000,+47.427000,0 -69.051000,+47.422000,0 -69.062000,+47.434000,0 -69.090000,+47.424000,0 -69.146000,+47.449000,0 -69.178000,+47.457000,0 -69.204000,+47.452000,0 -69.224000,+47.460000,0 -71.500000,+47.320000,0 -71.500000,+52.000000,0 -61.193277,+54.672677,0 -56.105884,+51.476597,0 -53.848326,+44.846180,0 -53.848326,+43.887600,0 -55.750000,+43.583333,0 -57.868056,+43.072222,0 -61.201667,+42.381667,0 -67.000000,+41.616667,0 -67.000000,+44.499922,0
			</coordinates>
		</LinearRing>
	</outerBoundaryIs>
</Polygon>
</Placemark>
<Placemark>
<name>ROGU 12</name>
<description>
	Montreal Service Volume
	SVDD 12
</description>
<Style>
	<LineStyle>
		<color>ff00ff00</color>
		<width>3</width>
	</LineStyle>
	<PolyStyle>
		<color>0000ff00</color>
	</PolyStyle>
</Style>
<Polygon>
	<altitudeMode>clampToGround</altitudeMode>
	
	<outerBoundaryIs>
		<LinearRing>
			<coordinates>
-67.881000,+47.104000,0 -67.791000,+47.068000,0 -67.783000,+46.293000,0 -64.276000,+46.152000,0 -60.319069,+47.345892,0 -53.615000,+50.790000,0 -56.771737,+58.733519,0 -55.597900,+63.500000,0 -60.388529,+67.649562,0 -83.498000,+63.726000,0 -82.661101,+54.166354,0 -87.574270,+50.937527,0 -88.354324,+48.299323,0 -86.310000,+47.489000,0 -80.166260,+45.993566,0 -79.095010,+43.625904,0 -76.787254,+43.643030,0 -76.439000,+44.094000,0 -75.717971,+44.559692,0 -75.436000,+44.762000,0 -75.313000,+44.840000,0 -75.254337,+44.862915,0 -75.055000,+44.993000,0 -74.913000,+44.994000,0 -74.829000,+45.019000,0 -74.751000,+45.002000,0 -74.425911,+44.995696,0 -73.979000,+44.997000,0 -73.064000,+45.016000,0 -72.642000,+45.015000,0 -72.275000,+45.004000,0 -71.502000,+45.013000,0 -71.491000,+45.042000,0 -71.505000,+45.049000,0 -71.497000,+45.068000,0 -71.481000,+45.084000,0 -71.469000,+45.084000,0 -71.448000,+45.113000,0 -71.429000,+45.124000,0 -71.438000,+45.142000,0 -71.398000,+45.204000,0 -71.403000,+45.215000,0 -71.444000,+45.237000,0 -71.420000,+45.233000,0 -71.402000,+45.243000,0 -71.385000,+45.233000,0 -71.377000,+45.245000,0 -71.357000,+45.253000,0 -71.361000,+45.270000,0 -71.336000,+45.273000,0 -71.284000,+45.302000,0 -71.265000,+45.293000,0 -71.259000,+45.272000,0 -71.244000,+45.268000,0 -71.231000,+45.250000,0 -71.198000,+45.254000,0 -71.181000,+45.240000,0 -71.162000,+45.250000,0 -71.147000,+45.240000,0 -71.132000,+45.245000,0 -71.098000,+45.302000,0 -71.008000,+45.319000,0 -71.002000,+45.328000,0 -71.012000,+45.334000,0 -71.011000,+45.348000,0 -70.985000,+45.332000,0 -70.952000,+45.339000,0 -70.939000,+45.320000,0 -70.918000,+45.312000,0 -70.912000,+45.296000,0 -70.921000,+45.279000,0 -70.898000,+45.258000,0 -70.895000,+45.240000,0 -70.858000,+45.229000,0 -70.838000,+45.235000,0 -70.849000,+45.245000,0 -70.849000,+45.263000,0 -70.832000,+45.279000,0 -70.835000,+45.294000,0 -70.816000,+45.298000,0 -70.808000,+45.312000,0 -70.808000,+45.328000,0 -70.820000,+45.340000,0 -70.802000,+45.366000,0 -70.826000,+45.400000,0 -70.798000,+45.427000,0 -70.755000,+45.428000,0 -70.730000,+45.399000,0 -70.712000,+45.390000,0 -70.683000,+45.395000,0 -70.662000,+45.386000,0 -70.661000,+45.378000,0 -70.635000,+45.383000,0 -70.636000,+45.395000,0 -70.621000,+45.403000,0 -70.635000,+45.411000,0 -70.630000,+45.427000,0 -70.651000,+45.445000,0 -70.681000,+45.452000,0 -70.692000,+45.474000,0 -70.718000,+45.490000,0 -70.712000,+45.502000,0 -70.723000,+45.507000,0 -70.722000,+45.514000,0 -70.677000,+45.552000,0 -70.688000,+45.569000,0 -70.659000,+45.587000,0 -70.645000,+45.607000,0 -70.619000,+45.612000,0 -70.592000,+45.630000,0 -70.558000,+45.667000,0 -70.520000,+45.669000,0 -70.465000,+45.706000,0 -70.439000,+45.704000,0 -70.400000,+45.720000,0 -70.384000,+45.735000,0 -70.394000,+45.740000,0 -70.388000,+45.750000,0 -70.407000,+45.763000,0 -70.417000,+45.796000,0 -70.396000,+45.799000,0 -70.397000,+45.808000,0 -70.371000,+45.835000,0 -70.359000,+45.835000,0 -70.342000,+45.852000,0 -70.308000,+45.859000,0 -70.259000,+45.891000,0 -70.266000,+45.894000,0 -70.253000,+45.907000,0 -70.263000,+45.924000,0 -70.239000,+45.944000,0 -70.277000,+45.967000,0 -70.316000,+45.963000,0 -70.307000,+45.983000,0 -70.284000,+45.995000,0 -70.302000,+45.999000,0 -70.318000,+46.019000,0 -70.280000,+46.052000,0 -70.284000,+46.063000,0 -70.311000,+46.064000,0 -70.302000,+46.082000,0 -70.285000,+46.100000,0 -70.253000,+46.100000,0 -70.255000,+46.113000,0 -70.237000,+46.146000,0 -70.293000,+46.192000,0 -70.272000,+46.210000,0 -70.251000,+46.249000,0 -70.253000,+46.260000,0 -70.231000,+46.291000,0 -70.206000,+46.300000,0 -70.209000,+46.329000,0 -70.191000,+46.350000,0 -70.140000,+46.362000,0 -70.095000,+46.410000,0 -70.056000,+46.416000,0 -69.997000,+46.695000,0 -69.224000,+47.460000,0 -69.204000,+47.452000,0 -69.178000,+47.457000,0 -69.146000,+47.449000,0 -69.090000,+47.424000,0 -69.062000,+47.434000,0 -69.051000,+47.422000,0 -69.043000,+47.427000,0 -69.037000,+47.408000,0 -69.030000,+47.408000,0 -69.042000,+47.401000,0 -69.040000,+47.384000,0 -69.054000,+47.377000,0 -69.050000,+47.256000,0 -68.961000,+47.206000,0 -68.925000,+47.198000,0 -68.902000,+47.179000,0 -68.861000,+47.190000,0 -68.816000,+47.214000,0 -68.762000,+47.223000,0 -68.718000,+47.241000,0 -68.688000,+47.244000,0 -68.660000,+47.237000,0 -68.613000,+47.246000,0 -68.594000,+47.259000,0 -68.599000,+47.270000,0 -68.579000,+47.288000,0 -68.550000,+47.282000,0 -68.518000,+47.296000,0 -68.474000,+47.298000,0 -68.449000,+47.283000,0 -68.379000,+47.288000,0 -68.384000,+47.326000,0 -68.370000,+47.351000,0 -68.336000,+47.360000,0 -68.285000,+47.360000,0 -68.231000,+47.354000,0 -68.216000,+47.340000,0 -68.155000,+47.325000,0 -68.152000,+47.310000,0 -68.137000,+47.296000,0 -68.020000,+47.238000,0 -67.990000,+47.211000,0 -67.955000,+47.198000,0 -67.936000,+47.165000,0 -67.892000,+47.129000,0 -67.881000,+47.104000,0
			</coordinates>
		</LinearRing>
	</outerBoundaryIs>
</Polygon>
</Placemark>
<Placemark>
<name>ROGT 12</name>
<description>
	Toronto Service Volume
	SVDD 12
</description>
<Style>
	<LineStyle>
		<color>ff00ff00</color>
		<width>3</width>
	</LineStyle>
	<PolyStyle>
		<color>0000ff00</color>
	</PolyStyle>
</Style>
<Polygon>
	<altitudeMode>clampToGround</altitudeMode>
	
	<outerBoundaryIs>
		<LinearRing>
			<coordinates>
-86.507000,+47.571000,0 -86.999000,+47.775000,0 -87.207000,+47.855000,0 -87.594000,+48.017000,0 -87.984000,+48.178000,0 -88.376000,+48.338000,0 -88.039000,+48.711000,0 -87.698000,+49.082000,0 -87.351000,+49.453000,0 -86.999000,+49.823000,0 -86.641000,+50.191000,0 -86.278000,+50.559000,0 -85.909000,+50.925000,0 -85.535000,+51.290000,0 -85.154000,+51.654000,0 -84.767000,+52.017000,0 -84.374000,+52.378000,0 -83.975000,+52.738000,0 -83.569000,+53.097000,0 -83.156000,+53.454000,0 -82.736000,+53.810000,0 -82.309000,+54.164000,0 -81.874000,+54.517000,0 -81.432000,+54.868000,0 -80.000000,+54.719000,0 -79.412000,+54.662000,0 -78.825000,+54.603000,0 -78.241000,+54.540000,0 -77.658000,+54.475000,0 -77.548000,+54.031000,0 -77.441000,+53.587000,0 -77.335000,+53.142000,0 -77.232000,+52.698000,0 -77.131000,+52.253000,0 -77.128811,+52.243184,0 -77.032000,+51.809000,0 -76.935000,+51.364000,0 -76.840000,+50.919000,0 -76.747000,+50.474000,0 -76.655000,+50.029000,0 -76.565000,+49.584000,0 -76.477000,+49.139000,0 -76.390000,+48.694000,0 -76.008000,+48.346000,0 -75.631000,+47.998000,0 -75.259000,+47.647000,0 -74.893000,+47.296000,0 -74.531000,+46.944000,0 -74.174000,+46.590000,0 -73.821000,+46.236000,0 -73.473000,+45.880000,0 -73.853000,+45.659000,0 -74.230000,+45.437000,0 -74.604000,+45.214000,0 -74.975000,+44.989000,0 -74.984000,+44.988000,0 -74.991000,+44.986000,0 -75.001000,+44.980000,0 -75.010000,+44.971000,0 -75.021000,+44.964000,0 -75.024000,+44.959000,0 -75.069000,+44.932000,0 -75.077000,+44.929000,0 -75.084000,+44.928000,0 -75.091000,+44.926000,0 -75.112000,+44.925000,0 -75.119000,+44.923000,0 -75.125000,+44.920000,0 -75.136000,+44.914000,0 -75.166000,+44.903000,0 -75.171000,+44.898000,0 -75.176000,+44.895000,0 -75.181000,+44.891000,0 -75.210000,+44.879000,0 -75.216000,+44.876000,0 -75.246000,+44.865000,0 -75.278000,+44.857000,0 -75.289000,+44.851000,0 -75.302000,+44.846000,0 -75.306000,+44.842000,0 -75.313000,+44.840000,0 -75.318000,+44.837000,0 -75.338000,+44.823000,0 -75.347000,+44.814000,0 -75.368000,+44.801000,0 -75.374000,+44.799000,0 -75.390000,+44.790000,0 -75.395000,+44.785000,0 -75.396000,+44.786000,0 -75.436000,+44.762000,0 -75.454000,+44.745000,0 -75.475000,+44.732000,0 -75.490000,+44.720000,0 -75.500000,+44.714000,0 -75.510000,+44.707000,0 -75.537000,+44.691000,0 -75.545000,+44.685000,0 -75.552000,+44.680000,0 -75.563000,+44.674000,0 -75.577000,+44.663000,0 -75.583000,+44.660000,0 -75.592000,+44.651000,0 -75.618000,+44.635000,0 -75.622000,+44.631000,0 -75.628000,+44.628000,0 -75.652000,+44.609000,0 -75.658000,+44.606000,0 -75.667000,+44.598000,0 -75.682000,+44.588000,0 -75.707000,+44.568000,0 -75.712000,+44.565000,0 -75.721000,+44.557000,0 -75.736000,+44.546000,0 -75.772000,+44.515000,0 -76.193000,+44.265000,0 -76.191000,+44.220000,0 -76.292000,+44.197000,0 -76.318000,+44.179000,0 -76.331000,+44.171000,0 -76.363000,+44.151000,0 -76.366000,+44.147000,0 -76.369000,+44.147000,0 -76.410000,+44.121000,0 -76.442000,+44.100000,0 -76.439000,+44.094000,0 -76.795000,+43.633000,0 -76.797000,+43.631000,0 -77.555000,+43.631000,0 -78.690000,+43.631000,0 -79.180000,+43.457000,0 -79.199000,+43.450000,0 -79.200000,+43.450000,0 -79.198000,+43.447000,0 -79.171000,+43.407000,0 -79.070000,+43.262000,0 -79.060000,+43.257000,0 -79.056000,+43.255000,0 -79.055000,+43.249000,0 -79.056000,+43.240000,0 -79.056000,+43.239000,0 -79.053000,+43.223000,0 -79.054000,+43.219000,0 -79.055000,+43.217000,0 -79.057000,+43.210000,0 -79.053000,+43.206000,0 -79.051000,+43.203000,0 -79.049000,+43.200000,0 -79.051000,+43.190000,0 -79.052000,+43.188000,0 -79.053000,+43.184000,0 -79.053000,+43.174000,0 -79.051000,+43.168000,0 -79.048000,+43.164000,0 -79.047000,+43.162000,0 -79.045000,+43.156000,0 -79.044000,+43.152000,0 -79.043000,+43.149000,0 -79.042000,+43.144000,0 -79.044000,+43.138000,0 -79.050000,+43.135000,0 -79.053000,+43.132000,0 -79.054000,+43.129000,0 -79.057000,+43.127000,0 -79.058000,+43.127000,0 -79.059000,+43.126000,0 -79.063000,+43.124000,0 -79.065000,+43.123000,0 -79.070000,+43.120000,0 -79.065000,+43.118000,0 -79.063000,+43.116000,0 -79.061000,+43.115000,0 -79.060000,+43.114000,0 -79.059000,+43.111000,0 -79.058000,+43.107000,0 -79.066000,+43.091000,0 -79.070000,+43.089000,0 -79.075000,+43.082000,0 -79.075000,+43.080000,0 -79.074000,+43.078000,0 -79.067000,+43.077000,0 -79.065000,+43.076000,0 -79.007000,+43.066000,0 -79.000000,+43.056000,0 -79.005000,+43.047000,0 -79.012000,+43.029000,0 -79.019000,+43.021000,0 -79.023000,+43.016000,0 -79.020000,+42.995000,0 -79.017000,+42.991000,0 -79.012000,+42.985000,0 -79.003000,+42.981000,0 -78.975000,+42.969000,0 -78.962000,+42.958000,0 -78.933000,+42.956000,0 -78.919000,+42.947000,0 -78.909000,+42.934000,0 -78.906000,+42.924000,0 -78.906000,+42.922000,0 -78.906000,+42.908000,0 -78.906000,+42.904000,0 -78.906000,+42.900000,0 -78.915000,+42.881000,0 -78.916000,+42.879000,0 -78.935000,+42.828000,0 -79.075000,+42.775000,0 -79.107000,+42.763000,0 -79.150000,+42.747000,0 -79.762000,+42.514000,0 -80.080000,+42.394000,0 -80.081000,+42.393000,0 -80.519000,+42.323000,0 -81.180000,+42.218000,0 -81.243000,+42.208000,0 -81.918000,+41.897000,0 -82.399000,+41.677000,0 -82.405000,+41.677000,0 -82.418000,+41.677000,0 -82.464000,+41.677000,0 -82.682000,+41.678000,0 -82.683000,+41.678000,0 -82.695000,+41.684000,0 -82.729000,+41.700000,0 -82.847000,+41.757000,0 -82.904000,+41.784000,0 -83.068000,+41.863000,0 -83.068000,+41.864000,0 -83.148000,+42.037000,0 -83.149000,+42.040000,0 -83.148000,+42.045000,0 -83.122000,+42.125000,0 -83.134000,+42.175000,0 -83.129000,+42.231000,0 -83.128000,+42.234000,0 -83.128000,+42.239000,0 -83.124000,+42.244000,0 -83.115000,+42.256000,0 -83.112000,+42.260000,0 -83.109000,+42.266000,0 -83.102000,+42.280000,0 -83.097000,+42.289000,0 -83.097000,+42.290000,0 -83.088000,+42.299000,0 -83.085000,+42.303000,0 -83.079000,+42.309000,0 -83.065000,+42.317000,0 -83.063000,+42.318000,0 -83.057000,+42.320000,0 -83.056000,+42.320000,0 -83.019000,+42.329000,0 -83.003000,+42.331000,0 -82.989000,+42.332000,0 -82.959000,+42.339000,0 -82.945000,+42.347000,0 -82.828000,+42.373000,0 -82.668000,+42.533000,0 -82.662000,+42.541000,0 -82.654000,+42.547000,0 -82.642000,+42.555000,0 -82.641000,+42.555000,0 -82.633000,+42.557000,0 -82.626000,+42.557000,0 -82.623000,+42.557000,0 -82.617000,+42.555000,0 -82.617000,+42.554000,0 -82.611000,+42.550000,0 -82.606000,+42.549000,0 -82.592000,+42.550000,0 -82.591000,+42.550000,0 -82.584000,+42.554000,0 -82.581000,+42.562000,0 -82.580000,+42.564000,0 -82.579000,+42.565000,0 -82.569000,+42.574000,0 -82.564000,+42.577000,0 -82.563000,+42.578000,0 -82.560000,+42.579000,0 -82.553000,+42.585000,0 -82.551000,+42.589000,0 -82.549000,+42.591000,0 -82.536000,+42.599000,0 -82.536000,+42.600000,0 -82.534000,+42.601000,0 -82.523000,+42.607000,0 -82.519000,+42.614000,0 -82.510000,+42.638000,0 -82.510000,+42.647000,0 -82.510000,+42.652000,0 -82.510000,+42.665000,0 -82.495000,+42.700000,0 -82.492000,+42.705000,0 -82.487000,+42.713000,0 -82.485000,+42.719000,0 -82.484000,+42.722000,0 -82.484000,+42.728000,0 -82.484000,+42.733000,0 -82.479000,+42.742000,0 -82.476000,+42.747000,0 -82.467000,+42.762000,0 -82.468000,+42.770000,0 -82.471000,+42.781000,0 -82.472000,+42.786000,0 -82.473000,+42.788000,0 -82.481000,+42.802000,0 -82.482000,+42.808000,0 -82.481000,+42.815000,0 -82.479000,+42.825000,0 -82.473000,+42.837000,0 -82.470000,+42.848000,0 -82.469000,+42.853000,0 -82.468000,+42.856000,0 -82.470000,+42.887000,0 -82.462000,+42.906000,0 -82.455000,+42.927000,0 -82.448000,+42.938000,0 -82.438000,+42.945000,0 -82.429000,+42.952000,0 -82.417000,+42.967000,0 -82.414000,+42.975000,0 -82.414000,+42.976000,0 -82.415000,+42.979000,0 -82.421000,+42.985000,0 -82.422000,+42.986000,0 -82.425000,+42.992000,0 -82.424000,+42.998000,0 -82.420000,+43.004000,0 -82.410000,+43.020000,0 -82.197000,+43.444000,0 -82.123000,+43.591000,0 -82.127000,+43.612000,0 -82.197000,+43.917000,0 -82.276000,+44.273000,0 -82.356000,+44.628000,0 -82.437000,+44.984000,0 -82.519000,+45.339000,0 -82.997000,+45.553000,0 -83.597000,+45.821000,0 -83.593000,+45.825000,0 -83.551000,+45.871000,0 -83.434000,+45.998000,0 -83.449000,+46.010000,0 -83.499000,+46.049000,0 -83.530000,+46.073000,0 -83.562000,+46.098000,0 -83.572000,+46.106000,0 -83.583000,+46.108000,0 -83.655000,+46.122000,0 -83.760000,+46.103000,0 -83.826000,+46.119000,0 -83.904000,+46.060000,0 -83.955000,+46.057000,0 -83.971000,+46.090000,0 -83.976000,+46.102000,0 -83.982000,+46.106000,0 -84.006000,+46.118000,0 -84.006000,+46.124000,0 -84.006000,+46.149000,0 -84.030000,+46.162000,0 -84.077000,+46.187000,0 -84.086000,+46.210000,0 -84.108000,+46.241000,0 -84.105000,+46.246000,0 -84.098000,+46.256000,0 -84.104000,+46.260000,0 -84.115000,+46.268000,0 -84.117000,+46.284000,0 -84.119000,+46.315000,0 -84.106000,+46.322000,0 -84.116000,+46.334000,0 -84.120000,+46.338000,0 -84.139000,+46.372000,0 -84.140000,+46.376000,0 -84.146000,+46.419000,0 -84.119000,+46.485000,0 -84.111000,+46.504000,0 -84.118000,+46.518000,0 -84.123000,+46.521000,0 -84.129000,+46.530000,0 -84.139000,+46.532000,0 -84.147000,+46.531000,0 -84.154000,+46.528000,0 -84.167000,+46.526000,0 -84.178000,+46.527000,0 -84.194000,+46.540000,0 -84.226000,+46.534000,0 -84.255000,+46.501000,0 -84.265000,+46.494000,0 -84.276000,+46.493000,0 -84.294000,+46.493000,0 -84.325000,+46.500000,0 -84.339000,+46.506000,0 -84.352000,+46.508000,0 -84.374000,+46.509000,0 -84.395000,+46.499000,0 -84.396000,+46.499000,0 -84.421000,+46.501000,0 -84.445000,+46.489000,0 -84.446000,+46.489000,0 -84.463000,+46.468000,0 -84.475000,+46.453000,0 -84.476000,+46.453000,0 -84.492522,+46.454502,0 -84.492663,+46.454515,0 -84.531000,+46.458000,0 -84.557000,+46.461000,0 -84.686000,+46.569000,0 -84.758000,+46.630000,0 -84.762000,+46.634000,0 -84.778233,+46.676239,0 -84.778233,+46.676239,0 -84.860000,+46.889000,0 -84.881000,+46.898000,0 -85.104000,+46.990000,0 -85.973000,+47.350000,0 -86.001000,+47.361000,0 -86.429000,+47.538000,0 -86.507000,+47.571000,0
			</coordinates>
		</LinearRing>
	</outerBoundaryIs>
</Polygon>
</Placemark>
<Placemark>
<name>ROGW 13 DRAFT </name>
<description>
	Winnipeg Service Volume
	SVDD 13 DRAFT
</description>
<Style>
	<LineStyle>
		<color>ff00ff00</color>
		<width>3</width>
	</LineStyle>
	<PolyStyle>
		<color>0000ff00</color>
	</PolyStyle>
</Style>
<Polygon>
	<altitudeMode>clampToGround</altitudeMode>
	
	<outerBoundaryIs>
		<LinearRing>
			<coordinates>
-88.376000,+48.338000,0 -88.685000,+48.242000,0 -89.337000,+47.974000,0 -89.489000,+48.014000,0 -89.582000,+47.996000,0 -89.607000,+48.006000,0 -89.611000,+48.018000,0 -89.637000,+48.010000,0 -89.637000,+48.004000,0 -89.673000,+48.012000,0 -89.702000,+48.006000,0 -89.724000,+48.015000,0 -89.721000,+48.020000,0 -89.749000,+48.024000,0 -89.821000,+48.015000,0 -89.831000,+48.000000,0 -89.845000,+48.003000,0 -89.846000,+47.993000,0 -89.895000,+47.987000,0 -89.922000,+47.997000,0 -89.935000,+48.016000,0 -89.953000,+48.011000,0 -89.994000,+48.028000,0 -89.998000,+48.058000,0 -90.015000,+48.067000,0 -90.023000,+48.085000,0 -90.141000,+48.113000,0 -90.289000,+48.099000,0 -90.310000,+48.106000,0 -90.376000,+48.091000,0 -90.403000,+48.105000,0 -90.438000,+48.099000,0 -90.465000,+48.109000,0 -90.487000,+48.099000,0 -90.557000,+48.096000,0 -90.570000,+48.107000,0 -90.555000,+48.117000,0 -90.559000,+48.122000,0 -90.582000,+48.124000,0 -90.642000,+48.104000,0 -90.748000,+48.092000,0 -90.790000,+48.130000,0 -90.782000,+48.136000,0 -90.798000,+48.137000,0 -90.778000,+48.148000,0 -90.778000,+48.164000,0 -90.796000,+48.159000,0 -90.804000,+48.178000,0 -90.821000,+48.185000,0 -90.823000,+48.178000,0 -90.836000,+48.177000,0 -90.838000,+48.235000,0 -90.848000,+48.245000,0 -90.875000,+48.238000,0 -90.886000,+48.246000,0 -90.917000,+48.231000,0 -90.977000,+48.220000,0 -91.023000,+48.191000,0 -91.082000,+48.181000,0 -91.143000,+48.155000,0 -91.137000,+48.149000,0 -91.267000,+48.079000,0 -91.371000,+48.070000,0 -91.391000,+48.057000,0 -91.430000,+48.049000,0 -91.439000,+48.050000,0 -91.446000,+48.068000,0 -91.488000,+48.068000,0 -91.567000,+48.044000,0 -91.575000,+48.049000,0 -91.575000,+48.067000,0 -91.569000,+48.094000,0 -91.553000,+48.103000,0 -91.559000,+48.109000,0 -91.640000,+48.097000,0 -91.652000,+48.114000,0 -91.665000,+48.107000,0 -91.688000,+48.112000,0 -91.682000,+48.123000,0 -91.712000,+48.115000,0 -91.698000,+48.144000,0 -91.708000,+48.153000,0 -91.705000,+48.171000,0 -91.724000,+48.171000,0 -91.710000,+48.193000,0 -91.715000,+48.200000,0 -91.742000,+48.205000,0 -91.748000,+48.199000,0 -91.756000,+48.206000,0 -91.789000,+48.196000,0 -91.815000,+48.212000,0 -91.864000,+48.207000,0 -91.868000,+48.219000,0 -91.893000,+48.238000,0 -91.958000,+48.233000,0 -91.958000,+48.244000,0 -91.948000,+48.246000,0 -91.959000,+48.254000,0 -91.972000,+48.253000,0 -91.976000,+48.244000,0 -91.991000,+48.261000,0 -92.007000,+48.265000,0 -92.013000,+48.297000,0 -92.000000,+48.321000,0 -92.047000,+48.335000,0 -92.045000,+48.346000,0 -92.055000,+48.359000,0 -92.144000,+48.356000,0 -92.145000,+48.366000,0 -92.214000,+48.345000,0 -92.263000,+48.355000,0 -92.289000,+48.343000,0 -92.295000,+48.324000,0 -92.306000,+48.316000,0 -92.295000,+48.306000,0 -92.301000,+48.288000,0 -92.295000,+48.271000,0 -92.270000,+48.248000,0 -92.337000,+48.236000,0 -92.370000,+48.220000,0 -92.416000,+48.295000,0 -92.439000,+48.311000,0 -92.470000,+48.352000,0 -92.477000,+48.372000,0 -92.456000,+48.401000,0 -92.456000,+48.414000,0 -92.475000,+48.419000,0 -92.507000,+48.448000,0 -92.656000,+48.436000,0 -92.689000,+48.444000,0 -92.713000,+48.463000,0 -92.699000,+48.495000,0 -92.627000,+48.503000,0 -92.635000,+48.543000,0 -92.728000,+48.539000,0 -92.950000,+48.608000,0 -92.955000,+48.632000,0 -92.985000,+48.624000,0 -93.178000,+48.623000,0 -93.208000,+48.643000,0 -93.255000,+48.643000,0 -93.349000,+48.626000,0 -93.355000,+48.612000,0 -93.371000,+48.606000,0 -93.399000,+48.604000,0 -93.403000,+48.610000,0 -93.435000,+48.595000,0 -93.463000,+48.593000,0 -93.458000,+48.560000,0 -93.467000,+48.546000,0 -93.612000,+48.522000,0 -93.628000,+48.532000,0 -93.659000,+48.516000,0 -93.793000,+48.516000,0 -93.818000,+48.531000,0 -93.806000,+48.579000,0 -93.833000,+48.626000,0 -93.844000,+48.630000,0 -93.953000,+48.634000,0 -94.001000,+48.643000,0 -94.224000,+48.649000,0 -94.251000,+48.657000,0 -94.251000,+48.684000,0 -94.261000,+48.697000,0 -94.291000,+48.708000,0 -94.349000,+48.704000,0 -94.416000,+48.711000,0 -94.452000,+48.692000,0 -94.533000,+48.701000,0 -94.549000,+48.715000,0 -94.588000,+48.718000,0 -94.644000,+48.743000,0 -94.652000,+48.756000,0 -94.691000,+48.778000,0 -94.704000,+48.824000,0 -94.686000,+48.840000,0 -94.692000,+48.869000,0 -94.684000,+48.872000,0 -94.683000,+48.884000,0 -94.750000,+49.099000,0 -94.773000,+49.120000,0 -94.798000,+49.198000,0 -94.797000,+49.214000,0 -94.826000,+49.294000,0 -94.816000,+49.321000,0 -94.854000,+49.324000,0 -94.957000,+49.370000,0 -95.058000,+49.353000,0 -95.129000,+49.370000,0 -95.153000,+49.384000,0 -95.154000,+49.000000,0 -113.260000,+49.000000,0 -113.510000,+63.952000,0 -106.000000,63.080000,0 -99.010000,+61.847000,0 -92.000000,+63.960000,0 -84.000000,+65.670000,0 -75.784000,+66.851000,0 -76.090000,+61.820000,0 -76.647000,+52.622000,0 -77.128811,+52.243184,0 -84.557000,+46.461000,0 -84.762000,+46.634000,0 -84.778233,+46.676239,0 -84.860000,+46.889000,0 -84.881000,+46.898000,0 -85.104000,+46.990000,0 -85.271955,+47.059579,0 -86.483141,+47.560906,0 -86.507000,+47.571000,0 -86.999000,+47.775000,0 -87.242200,+47.869735,0 -87.594000,+48.017000,0 -87.984000,+48.178000,0 -88.376000,+48.338000,0
			</coordinates>
		</LinearRing>
	</outerBoundaryIs>
</Polygon>
</Placemark>
<Placemark>
<name>ROGE 13 DRAFT </name>
<description>
	Edmonton Service Volume
	SVDD 13 DRAFT
</description>
<Style>
	<LineStyle>
		<color>ff00ff00</color>
		<width>3</width>
	</LineStyle>
	<PolyStyle>
		<color>0000ff00</color>
	</PolyStyle>
</Style>
<Polygon>
	<altitudeMode>clampToGround</altitudeMode>
	
	<outerBoundaryIs>
		<LinearRing>
			<coordinates>
+0.000000,+88.350000,0 +0.000000,+89.999999,0 -60.001000,+89.999999,0 -141.000000,+89.999999,0 -141.000000,+60.307000,0 -140.990000,+60.306000,0 -140.950000,+60.298000,0 -140.790000,+60.270000,0 -140.520000,+60.222000,0 -140.510000,+60.238000,0 -140.500000,+60.245000,0 -140.490000,+60.258000,0 -140.470000,+60.284000,0 -140.460000,+60.297000,0 -140.450000,+60.307000,0 -139.980000,+60.182000,0 -139.810000,+60.272000,0 -139.790000,+60.280000,0 -139.770000,+60.292000,0 -139.700000,+60.328000,0 -139.690000,+60.335000,0 -139.110000,+60.352000,0 -139.070000,+60.352000,0 -139.070000,+60.319000,0 -139.200000,+60.088000,0 -139.060000,+60.000000,0 -139.050000,+59.995000,0 -138.800000,+59.925000,0 -138.710000,+59.906000,0 -138.680000,+59.845000,0 -138.670000,+59.810000,0 -138.630000,+59.769000,0 -138.090000,+59.496000,0 -137.950000,+59.421000,0 -137.610000,+59.244000,0 -137.540000,+59.106000,0 -137.500000,+58.985000,0 -137.530000,+58.906000,0 -137.450000,+58.908000,0 -137.450000,+58.911000,0 -137.250000,+59.008000,0 -137.230000,+59.015000,0 -137.210000,+59.023000,0 -137.180000,+59.032000,0 -137.080000,+59.063000,0 -137.060000,+59.070000,0 -137.040000,+59.079000,0 -136.970000,+59.101000,0 -136.880000,+59.136000,0 -136.850000,+59.147000,0 -136.830000,+59.160000,0 -136.740000,+59.162000,0 -136.580000,+59.166000,0 -136.580000,+59.170000,0 -136.550000,+59.202000,0 -136.490000,+59.260000,0 -136.490000,+59.266000,0 -136.500000,+59.275000,0 -136.470000,+59.284000,0 -136.470000,+59.322000,0 -136.480000,+59.376000,0 -136.480000,+59.466000,0 -136.460000,+59.464000,0 -136.430000,+59.458000,0 -136.400000,+59.453000,0 -136.370000,+59.450000,0 -136.370000,+59.449000,0 -136.360000,+59.450000,0 -136.360000,+59.451000,0 -136.300000,+59.465000,0 -136.300000,+59.469000,0 -136.290000,+59.471000,0 -136.270000,+59.496000,0 -136.240000,+59.528000,0 -136.240000,+59.559000,0 -136.350000,+59.600000,0 -136.340000,+59.603000,0 -136.290000,+59.616000,0 -136.270000,+59.620000,0 -136.270000,+59.622000,0 -136.250000,+59.626000,0 -136.240000,+59.629000,0 -136.230000,+59.632000,0 -136.170000,+59.642000,0 -135.940000,+59.667000,0 -135.480000,+59.800000,0 -135.360000,+59.739000,0 -135.350000,+59.733000,0 -135.250000,+59.698000,0 -135.230000,+59.696000,0 -135.220000,+59.663000,0 -135.160000,+59.630000,0 -135.160000,+59.626000,0 -135.140000,+59.624000,0 -135.120000,+59.623000,0 -135.110000,+59.620000,0 -135.030000,+59.564000,0 -135.030000,+59.475000,0 -135.080000,+59.452000,0 -135.100000,+59.428000,0 -134.990000,+59.388000,0 -135.000000,+59.382000,0 -135.030000,+59.346000,0 -134.960000,+59.281000,0 -134.950000,+59.280000,0 -134.740000,+59.250000,0 -134.710000,+59.246000,0 -134.700000,+59.244000,0 -134.680000,+59.192000,0 -134.580000,+59.137000,0 -134.570000,+59.131000,0 -134.550000,+59.131000,0 -134.480000,+59.132000,0 -134.450000,+59.089000,0 -134.380000,+59.039000,0 -134.410000,+58.979000,0 -134.310000,+58.962000,0 -134.320000,+58.957000,0 -134.330000,+58.931000,0 -134.340000,+58.923000,0 -134.310000,+58.901000,0 -134.260000,+58.861000,0 -134.240000,+58.856000,0 -134.220000,+58.849000,0 -133.970000,+58.767000,0 -133.840000,+58.729000,0 -133.710000,+58.612000,0 -133.690000,+58.603000,0 -133.680000,+58.596000,0 -133.630000,+58.565000,0 -133.600000,+58.551000,0 -133.580000,+58.540000,0 -133.560000,+58.528000,0 -133.430000,+58.459000,0 -133.430000,+58.456000,0 -133.380000,+58.431000,0 -133.400000,+58.421000,0 -133.460000,+58.388000,0 -133.420000,+58.346000,0 -133.360000,+58.281000,0 -133.350000,+58.277000,0 -133.350000,+58.276000,0 -133.270000,+58.227000,0 -133.220000,+58.190000,0 -133.210000,+58.182000,0 -133.200000,+58.175000,0 -133.170000,+58.154000,0 -133.070000,+58.000000,0 -132.870000,+57.840000,0 -132.750000,+57.696000,0 -132.660000,+57.617000,0 -132.550000,+57.497000,0 -132.370000,+57.350000,0 -132.250000,+57.219000,0 -132.250000,+57.211000,0 -132.370000,+57.091000,0 -132.050000,+57.045000,0 -132.070000,+57.000000,0 -132.120000,+56.874000,0 -131.870000,+56.806000,0 -131.900000,+56.753000,0 -131.860000,+56.704000,0 -131.840000,+56.603000,0 -131.830000,+56.600000,0 -131.580000,+56.612000,0 -131.580000,+56.611000,0 -131.470000,+56.553000,0 -131.320000,+56.500000,0 -131.310000,+56.497000,0 -131.300000,+56.493000,0 -131.300000,+56.492000,0 -131.170000,+56.450000,0 -131.160000,+56.445000,0 -131.140000,+56.435000,0 -131.120000,+56.425000,0 -131.090000,+56.406000,0 -131.070000,+56.404000,0 -130.970000,+56.391000,0 -130.940000,+56.388000,0 -130.920000,+56.385000,0 -130.910000,+56.384000,0 -130.880000,+56.380000,0 -130.860000,+56.377000,0 -130.790000,+56.368000,0 -130.770000,+56.366000,0 -130.760000,+56.353000,0 -130.740000,+56.339000,0 -130.740000,+56.339000,0 -130.730000,+56.335000,0 -130.720000,+56.328000,0 -130.710000,+56.322000,0 -130.690000,+56.307000,0 -130.670000,+56.295000,0 -130.650000,+56.282000,0 -130.650000,+56.281000,0 -130.630000,+56.269000,0 -130.620000,+56.267000,0 -130.620000,+56.265000,0 -130.580000,+56.257000,0 -130.570000,+56.255000,0 -130.540000,+56.248000,0 -130.470000,+56.243000,0 -130.470000,+56.236000,0 -130.460000,+56.215000,0 -130.450000,+56.203000,0 -130.450000,+56.199000,0 -130.440000,+56.175000,0 -130.430000,+56.142000,0 -130.420000,+56.140000,0 -130.350000,+56.129000,0 -130.300000,+56.114000,0 -130.250000,+56.096000,0 -130.240000,+56.097000,0 -130.230000,+56.099000,0 -130.100000,+56.123000,0 -130.100000,+56.116000,0 -130.080000,+56.099000,0 -130.060000,+56.078000,0 -130.060000,+56.070000,0 -130.050000,+56.066000,0 -130.040000,+56.046000,0 -130.040000,+56.044000,0 -130.010000,+56.020000,0 -130.010000,+56.017000,0 -130.000000,+56.008000,0 -130.000000,+56.001000,0 -130.010000,+55.993000,0 -130.010000,+55.947000,0 -130.020000,+55.930000,0 -130.020000,+55.930000,0 -130.010000,+55.912000,0 -130.000000,+55.912000,0 -130.000000,+55.907000,0 -130.080000,+55.822000,0 -130.120000,+55.806000,0 -130.150000,+55.766000,0 -130.150000,+55.715000,0 -130.110000,+55.683000,0 -130.130000,+55.581000,0 -130.090000,+55.498000,0 -130.040000,+55.452000,0 -130.020000,+55.338000,0 -129.980000,+55.300000,0 -129.970000,+55.282000,0 -130.000000,+55.263000,0 -130.000000,+55.263000,0 -129.230000,+55.171000,0 -128.470000,+55.075000,0 -127.710000,+54.974000,0 -126.960000,+54.868000,0 -126.210000,+54.758000,0 -125.460000,+54.643000,0 -124.720000,+54.523000,0 -124.720000,+54.523000,0 -124.200000,+54.233000,0 -123.700000,+53.941000,0 -123.200000,+53.647000,0 -122.700000,+53.351000,0 -122.210000,+53.052000,0 -121.730000,+52.752000,0 -121.260000,+52.450000,0 -121.260000,+52.450000,0 -120.870000,+52.072000,0 -120.490000,+51.693000,0 -120.110000,+51.312000,0 -119.740000,+50.930000,0 -119.380000,+50.547000,0 -119.020000,+50.163000,0 -118.670000,+49.778000,0 -118.320000,+49.392000,0 -117.980000,+49.005000,0 -117.980000,+49.000000,0 -117.000000,+49.000000,0 -116.000000,+49.000000,0 -115.000000,+49.000000,0 -114.000000,+49.000000,0 -113.000000,+49.000000,0 -112.000000,+49.000000,0 -111.000000,+49.000000,0 -110.000000,+49.000000,0 -109.000000,+49.000000,0 -108.000000,+49.000000,0 -107.000000,+49.000000,0 -106.440000,+49.000000,0 -106.440000,+52.730000,0 -101.600000,+50.700000,0 -95.400000,+50.700000,0 -85.085000,+48.280000,0 -76.647000,+52.622000,0 -76.090000,+61.820000,0 -76.203000,+61.806000,0 -67.495000,+63.341389,0 -60.000000,+63.838056,0 -57.143889,+64.170833,0 -53.593000,+65.000000,0 -53.375000,+65.166667,0 -54.108000,+65.649000,0 -55.133000,+67.000000,0 -58.100000,+70.000000,0 -60.650000,+72.000000,0 -62.170000,+73.000000,0 -63.880000,+74.000000,0 -65.860000,+75.000000,0 -68.910000,+76.300000,0 -67.520000,+77.478000,0 -59.820000,+79.500000,0 -51.793000,+80.875000,0 -48.383000,+81.750000,0 -46.600000,+83.000000,0 -44.640000,+84.000000,0 -41.860000,+85.000000,0 -37.600000,+86.000000,0 -30.290000,+87.000000,0 -20.700000,+87.700000,0 -10.600000,+88.100000 +0.000000,+88.350000,0
			</coordinates>
		</LinearRing>
	</outerBoundaryIs>
</Polygon>
</Placemark>
<Placemark>
<name>ROGV 12</name>
<description>
	Vancouver Service Volume
	SVDD 12
</description>
<Style>
	<LineStyle>
		<color>ff00ff00</color>
		<width>3</width>
	</LineStyle>
	<PolyStyle>
		<color>0000ff00</color>
	</PolyStyle>
</Style>
<Polygon>
	<altitudeMode>clampToGround</altitudeMode>
	
	<outerBoundaryIs>
		<LinearRing>
			<coordinates>
-112.050000,+49.000000,0 -112.050000,+49.012000,0 -112.340000,+49.400000,0 -112.640000,+49.787000,0 -112.950000,+50.173000,0 -113.250000,+50.559000,0 -113.570000,+50.943000,0 -113.890000,+51.327000,0 -114.210000,+51.710000,0 -114.540000,+52.092000,0 -114.870000,+52.473000,0 -115.210000,+52.853000,0 -115.560000,+53.232000,0 -115.910000,+53.610000,0 -116.270000,+53.987000,0 -116.640000,+54.363000,0 -116.640000,+54.363000,0 -117.110000,+54.685000,0 -117.590000,+55.006000,0 -118.070000,+55.325000,0 -118.560000,+55.642000,0 -119.060000,+55.956000,0 -119.570000,+56.269000,0 -120.090000,+56.580000,0 -120.610000,+56.888000,0 -121.150000,+57.194000,0 -121.690000,+57.498000,0 -121.690000,+57.498000,0 -122.470000,+57.615000,0 -123.260000,+57.728000,0 -124.050000,+57.835000,0 -124.840000,+57.937000,0 -125.640000,+58.035000,0 -126.450000,+58.127000,0 -127.250000,+58.215000,0 -128.070000,+58.297000,0 -128.880000,+58.374000,0 -129.700000,+58.446000,0 -130.520000,+58.513000,0 -131.350000,+58.574000,0 -132.180000,+58.630000,0 -133.010000,+58.681000,0 -133.840000,+58.726000,0 -133.840000,+58.726000,0 -133.710000,+58.612000,0 -133.690000,+58.603000,0 -133.680000,+58.596000,0 -133.630000,+58.565000,0 -133.600000,+58.551000,0 -133.580000,+58.540000,0 -133.560000,+58.528000,0 -133.430000,+58.459000,0 -133.430000,+58.456000,0 -133.380000,+58.431000,0 -133.400000,+58.421000,0 -133.460000,+58.388000,0 -133.420000,+58.346000,0 -133.360000,+58.281000,0 -133.350000,+58.277000,0 -133.350000,+58.276000,0 -133.270000,+58.227000,0 -133.220000,+58.190000,0 -133.210000,+58.182000,0 -133.200000,+58.175000,0 -133.170000,+58.154000,0 -133.070000,+58.000000,0 -132.870000,+57.840000,0 -132.750000,+57.696000,0 -132.660000,+57.617000,0 -132.550000,+57.497000,0 -132.370000,+57.350000,0 -132.250000,+57.219000,0 -132.250000,+57.211000,0 -132.270000,+57.188000,0 -132.270000,+57.187000,0 -132.180000,+57.064000,0 -132.050000,+57.045000,0 -132.070000,+57.000000,0 -132.090000,+56.944000,0 -132.090000,+56.944000,0 -132.120000,+56.874000,0 -132.020000,+56.845000,0 -131.870000,+56.806000,0 -131.900000,+56.753000,0 -131.860000,+56.704000,0 -131.840000,+56.600000,0 -131.830000,+56.600000,0 -131.580000,+56.612000,0 -131.580000,+56.611000,0 -131.470000,+56.553000,0 -131.320000,+56.500000,0 -131.310000,+56.497000,0 -131.300000,+56.493000,0 -131.300000,+56.492000,0 -131.170000,+56.450000,0 -131.160000,+56.445000,0 -131.140000,+56.435000,0 -131.120000,+56.425000,0 -131.090000,+56.406000,0 -131.070000,+56.404000,0 -130.970000,+56.391000,0 -130.940000,+56.388000,0 -130.920000,+56.385000,0 -130.910000,+56.384000,0 -130.880000,+56.380000,0 -130.860000,+56.377000,0 -130.790000,+56.368000,0 -130.770000,+56.366000,0 -130.760000,+56.353000,0 -130.740000,+56.339000,0 -130.740000,+56.339000,0 -130.730000,+56.335000,0 -130.720000,+56.328000,0 -130.710000,+56.322000,0 -130.690000,+56.307000,0 -130.670000,+56.295000,0 -130.650000,+56.282000,0 -130.650000,+56.281000,0 -130.630000,+56.269000,0 -130.620000,+56.267000,0 -130.620000,+56.265000,0 -130.580000,+56.257000,0 -130.570000,+56.255000,0 -130.540000,+56.248000,0 -130.470000,+56.243000,0 -130.470000,+56.236000,0 -130.460000,+56.215000,0 -130.450000,+56.203000,0 -130.450000,+56.199000,0 -130.440000,+56.175000,0 -130.430000,+56.142000,0 -130.420000,+56.140000,0 -130.350000,+56.129000,0 -130.300000,+56.114000,0 -130.250000,+56.096000,0 -130.240000,+56.097000,0 -130.230000,+56.099000,0 -130.100000,+56.123000,0 -130.100000,+56.116000,0 -130.080000,+56.099000,0 -130.060000,+56.078000,0 -130.060000,+56.070000,0 -130.050000,+56.066000,0 -130.040000,+56.046000,0 -130.040000,+56.044000,0 -130.010000,+56.020000,0 -130.010000,+56.017000,0 -130.000000,+56.008000,0 -130.000000,+56.001000,0 -130.010000,+55.993000,0 -130.010000,+55.947000,0 -130.020000,+55.930000,0 -130.020000,+55.930000,0 -130.010000,+55.912000,0 -130.000000,+55.912000,0 -130.000000,+55.907000,0 -130.080000,+55.822000,0 -130.120000,+55.806000,0 -130.150000,+55.766000,0 -130.150000,+55.715000,0 -130.110000,+55.683000,0 -130.130000,+55.581000,0 -130.020000,+55.338000,0 -130.020000,+55.338000,0 -129.980000,+55.305000,0 -129.980000,+55.289000,0 -129.970000,+55.286000,0 -129.970000,+55.282000,0 -130.030000,+55.242000,0 -130.100000,+55.193000,0 -130.120000,+55.177000,0 -130.120000,+55.177000,0 -130.150000,+55.143000,0 -130.150000,+55.125000,0 -130.180000,+55.091000,0 -130.190000,+55.063000,0 -130.270000,+54.974000,0 -130.350000,+54.918000,0 -130.350000,+54.913000,0 -130.360000,+54.908000,0 -130.370000,+54.905000,0 -130.370000,+54.901000,0 -130.390000,+54.892000,0 -130.420000,+54.873000,0 -130.450000,+54.851000,0 -130.480000,+54.837000,0 -130.570000,+54.792000,0 -130.610000,+54.785000,0 -130.630000,+54.783000,0 -130.660000,+54.763000,0 -130.650000,+54.756000,0 -130.640000,+54.750000,0 -130.630000,+54.738000,0 -130.630000,+54.726000,0 -130.620000,+54.707000,0 -132.080000,+54.546000,0 -132.500000,+54.500000,0 -132.500000,+54.500000,0 -133.090000,+54.437000,0 -133.670000,+54.370000,0 -134.260000,+54.301000,0 -134.840000,+54.229000,0 -134.840000,+54.229000,0 -136.000000,+53.997000,0 -135.960000,+53.945000,0 -135.960000,+53.945000,0 -135.710000,+53.639000,0 -135.470000,+53.332000,0 -135.230000,+53.025000,0 -135.000000,+52.717000,0 -135.000000,+52.717000,0 -134.740000,+52.375000,0 -134.490000,+52.032000,0 -134.240000,+51.688000,0 -133.990000,+51.344000,0 -133.750000,+51.000000,0 -133.750000,+51.000000,0 -133.300000,+50.812000,0 -132.850000,+50.622000,0 -132.410000,+50.430000,0 -132.410000,+50.430000,0 -132.290000,+50.377000,0 -131.460000,+50.005000,0 -130.930000,+49.762000,0 -130.860000,+49.731000,0 -130.860000,+49.731000,0 -130.380000,+49.508000,0 -129.910000,+49.282000,0 -129.440000,+49.055000,0 -129.440000,+49.055000,0 -129.420000,+49.044000,0 -129.420000,+49.044000,0 -128.950000,+48.813000,0 -128.480000,+48.579000,0 -128.020000,+48.344000,0 -128.020000,+48.344000,0 -128.000000,+48.333000,0 -128.000000,+48.333000,0 -127.400000,+48.373000,0 -126.800000,+48.409000,0 -126.200000,+48.443000,0 -125.600000,+48.473000,0 -125.000000,+48.500000,0 -124.770000,+48.500000,0 -124.050000,+48.307000,0 -123.680000,+48.240000,0 -123.540000,+48.226000,0 -123.540000,+48.225000,0 -123.250000,+48.284000,0 -123.130000,+48.403000,0 -123.130000,+48.403000,0 -123.120000,+48.422000,0 -123.160000,+48.455000,0 -123.160000,+48.455000,0 -123.220000,+48.548000,0 -123.220000,+48.549000,0 -123.270000,+48.693000,0 -123.010000,+48.767000,0 -123.010000,+48.831000,0 -123.080000,+48.871000,0 -123.320000,+49.000000,0 -122.940000,+49.000000,0 -112.050000,+49.000000,0
			</coordinates>
		</LinearRing>
	</outerBoundaryIs>
</Polygon>
</Placemark>
<Placemark>
<name>ROGA 13 DRAFT</name>
<description>
	Atlantic Low Service Volume
	SVDD 13 DRAFT
</description>
<Style>
	<LineStyle>
		<color>ff00ff00</color>
		<width>3</width>
	</LineStyle>
	<PolyStyle>
		<color>0000ff00</color>
	</PolyStyle>
</Style>
<Polygon>
	<altitudeMode>clampToGround</altitudeMode>
	
	<outerBoundaryIs>
		<LinearRing>
			<coordinates>
-27.000000,+45.000000,0 -26.687000,+61.000000,0 -30.000000,+61.000000,0 -39.000000,+63.500000,0 -43.000000,+58.500000,0 -46.337000,+58.500000,0 -46.337000,+51.830000,0 -46.337000,+45.000000,0 -27.000000,+45.000000,0
			</coordinates>
		</LinearRing>
	</outerBoundaryIs>
</Polygon>
</Placemark>
<Placemark>
<name>ROGC 13 DRAFT</name>
<description>
	Coast Low Service Volume
	SVDD 13 DRAFT
</description>
<Style>
	<LineStyle>
		<color>ff00ff00</color>
		<width>3</width>
	</LineStyle>
	<PolyStyle>
		<color>0000ff00</color>
	</PolyStyle>
</Style>
<Polygon>
	<altitudeMode>clampToGround</altitudeMode>
	
	<outerBoundaryIs>
		<LinearRing>
			<coordinates>
-50.000000,+58.500000,0 -51.209564,+59.861183,0 -55.597900,+63.500000,0 -56.771737,+58.733519,0 -53.615226,+50.789720,0 -59.989991,+47.514943,0 -60.319071,+47.345892,0 -64.276318,+46.152197,0 -67.783000,+46.293000,0 -67.781683,+46.103408,0 -67.781096,+45.943025,0 -67.777655,+45.934206,0 -67.773562,+45.934818,0 -67.771642,+45.931883,0 -67.765579,+45.930471,0 -67.765935,+45.928305,0 -67.757935,+45.926215,0 -67.757433,+45.923055,0 -67.751190,+45.918151,0 -67.750639,+45.917718,0 -67.755270,+45.911815,0 -67.758435,+45.911154,0 -67.765021,+45.909778,0 -67.766723,+45.904367,0 -67.766911,+45.903771,0 -67.768741,+45.897952,0 -67.776357,+45.896174,0 -67.777037,+45.896705,0 -67.778283,+45.897679,0 -67.780101,+45.894507,0 -67.785353,+45.895670,0 -67.796644,+45.887820,0 -67.799038,+45.884188,0 -67.803934,+45.882900,0 -67.803677,+45.869378,0 -67.796273,+45.865570,0 -67.796642,+45.860413,0 -67.789559,+45.851626,0 -67.769147,+45.839303,0 -67.763340,+45.828960,0 -67.760017,+45.826838,0 -67.755078,+45.823685,0 -67.765545,+45.818810,0 -67.767127,+45.818744,0 -67.780034,+45.818206,0 -67.780451,+45.816204,0 -67.801998,+45.803551,0 -67.806602,+45.794726,0 -67.805065,+45.787936,0 -67.803637,+45.781624,0 -67.804347,+45.776992,0 -67.805456,+45.769755,0 -67.809073,+45.767499,0 -67.806341,+45.755408,0 -67.794409,+45.750664,0 -67.792881,+45.750056,0 -67.782248,+45.731770,0 -67.804124,+45.729788,0 -67.809840,+45.729270,0 -67.803158,+45.696132,0 -67.817717,+45.693512,0 -67.803326,+45.677888,0 -67.768660,+45.677581,0 -67.754526,+45.667973,0 -67.745027,+45.673199,0 -67.733311,+45.664146,0 -67.723758,+45.663841,0 -67.721091,+45.662025,0 -67.718059,+45.667981,0 -67.727610,+45.674556,0 -67.729410,+45.677470,0 -67.730620,+45.677153,0 -67.729752,+45.678023,0 -67.733568,+45.684198,0 -67.734011,+45.688775,0 -67.727377,+45.688723,0 -67.726758,+45.687752,0 -67.725275,+45.685427,0 -67.715003,+45.681234,0 -67.709469,+45.678975,0 -67.701327,+45.669426,0 -67.697969,+45.659739,0 -67.691415,+45.654052,0 -67.692628,+45.650358,0 -67.680639,+45.639131,0 -67.675415,+45.630961,0 -67.666461,+45.624453,0 -67.663109,+45.625067,0 -67.645833,+45.613560,0 -67.640195,+45.616146,0 -67.644201,+45.623226,0 -67.639744,+45.624769,0 -67.606166,+45.606531,0 -67.588779,+45.607101,0 -67.583344,+45.602496,0 -67.564179,+45.595877,0 -67.546108,+45.598064,0 -67.534927,+45.595432,0 -67.518570,+45.587926,0 -67.502994,+45.587182,0 -67.495141,+45.588509,0 -67.489657,+45.592254,0 -67.488202,+45.596045,0 -67.493740,+45.600037,0 -67.492760,+45.601897,0 -67.455402,+45.604666,0 -67.429716,+45.583774,0 -67.424699,+45.577273,0 -67.423636,+45.572086,0 -67.428769,+45.568417,0 -67.420878,+45.550568,0 -67.423747,+45.547406,0 -67.425210,+45.540263,0 -67.432214,+45.541036,0 -67.435291,+45.529987,0 -67.431905,+45.524294,0 -67.431963,+45.522727,0 -67.431991,+45.521971,0 -67.432075,+45.519715,0 -67.427275,+45.518141,0 -67.420364,+45.510906,0 -67.416459,+45.502142,0 -67.424278,+45.505919,0 -67.428860,+45.501361,0 -67.431259,+45.503881,0 -67.441330,+45.505831,0 -67.449361,+45.510651,0 -67.453117,+45.509058,0 -67.449186,+45.502230,0 -67.449638,+45.499502,0 -67.452243,+45.499486,0 -67.462868,+45.508695,0 -67.470910,+45.504304,0 -67.470739,+45.500066,0 -67.463548,+45.498086,0 -67.463860,+45.496892,0 -67.466916,+45.495730,0 -67.476924,+45.497212,0 -67.480566,+45.494840,0 -67.484541,+45.495376,0 -67.485175,+45.494674,0 -67.484856,+45.495418,0 -67.485118,+45.495454,0 -67.488696,+45.493652,0 -67.489494,+45.489644,0 -67.494657,+45.489109,0 -67.498844,+45.491037,0 -67.503776,+45.488531,0 -67.500650,+45.478829,0 -67.486826,+45.466913,0 -67.482484,+45.460166,0 -67.482121,+45.457827,0 -67.484826,+45.456118,0 -67.484205,+45.451689,0 -67.477252,+45.446257,0 -67.476594,+45.443006,0 -67.479735,+45.440488,0 -67.473376,+45.425373,0 -67.471265,+45.423482,0 -67.460843,+45.421870,0 -67.460886,+45.419280,0 -67.455250,+45.412326,0 -67.427672,+45.391353,0 -67.425767,+45.384684,0 -67.421118,+45.379205,0 -67.420053,+45.377949,0 -67.419059,+45.376778,0 -67.421301,+45.374034,0 -67.421717,+45.372731,0 -67.421625,+45.373723,0 -67.427009,+45.373542,0 -67.430102,+45.371618,0 -67.434295,+45.365433,0 -67.433452,+45.361031,0 -67.425919,+45.357370,0 -67.427383,+45.355551,0 -67.430822,+45.351273,0 -67.431175,+45.350834,0 -67.428830,+45.345897,0 -67.430805,+45.342015,0 -67.441146,+45.335762,0 -67.443773,+45.331308,0 -67.451988,+45.327708,0 -67.452021,+45.327694,0 -67.456680,+45.325652,0 -67.453959,+45.320485,0 -67.452209,+45.317162,0 -67.456378,+45.311622,0 -67.458439,+45.308882,0 -67.460673,+45.300332,0 -67.466765,+45.299778,0 -67.468524,+45.298204,0 -67.465747,+45.297109,0 -67.466145,+45.294014,0 -67.474343,+45.291887,0 -67.476992,+45.288831,0 -67.482324,+45.291406,0 -67.486100,+45.291138,0 -67.489339,+45.281321,0 -67.484070,+45.279701,0 -67.482111,+45.276073,0 -67.476572,+45.275372,0 -67.475402,+45.264292,0 -67.471814,+45.261457,0 -67.472507,+45.257202,0 -67.462630,+45.243223,0 -67.453287,+45.240616,0 -67.439436,+45.226161,0 -67.428263,+45.202706,0 -67.428882,+45.193222,0 -67.418000,+45.190068,0 -67.408630,+45.180259,0 -67.400182,+45.177034,0 -67.399046,+45.169367,0 -67.404878,+45.166654,0 -67.404614,+45.159913,0 -67.390585,+45.154108,0 -67.380424,+45.151936,0 -67.370573,+45.142093,0 -67.353441,+45.129483,0 -67.339856,+45.125594,0 -67.330253,+45.131485,0 -67.321021,+45.131809,0 -67.317921,+45.137755,0 -67.319905,+45.142447,0 -67.296589,+45.147562,0 -67.294321,+45.152280,0 -67.295829,+45.154664,0 -67.301395,+45.156936,0 -67.301636,+45.157034,0 -67.301906,+45.158643,0 -67.302458,+45.161942,0 -67.298980,+45.169162,0 -67.294170,+45.170349,0 -67.291557,+45.170994,0 -67.291017,+45.174152,0 -67.292470,+45.176195,0 -67.293733,+45.177970,0 -67.291045,+45.181099,0 -67.290000,+45.190000,0 -67.267000,+45.191000,0 -67.235000,+45.173000,0 -67.160000,+45.164000,0 -67.112000,+45.112000,0 -67.023596,+44.964987,0 -66.979475,+44.921373,0 -66.977985,+44.857550,0 -66.963364,+44.841333,0 -66.914907,+44.819143,0 -66.901022,+44.802134,0 -66.903082,+44.777136,0 -67.116667,+44.500000,0 -67.000000,+44.500000,0 -67.000000,+41.866667,0 -60.000000,+43.600000,0 -58.827129,+43.851510,0 -57.778011,+44.076481,0 -56.051700,+44.446670,0 -56.051669,+44.446676,0 -53.000000,+45.000000,0 -46.337000,+45.000000,0 -46.337000,+51.830000,0 -46.337000,+58.500000,0 -50.000000,+58.500000,0
			</coordinates>
		</LinearRing>
	</outerBoundaryIs>
</Polygon>
</Placemark>
</Document>
</kml>

