<?xml version="1.0" encoding="utf-8" ?>
<kml xmlns="http://www.opengis.net/kml/2.2">
<Document id="root_doc">
<Schema name="Montreal_req" id="Montreal_req">
	<SimpleField name="id" type="string"></SimpleField>
	<SimpleField name="featureVersion" type="int"></SimpleField>
	<SimpleField name="featureBirthDate" type="string"></SimpleField>
	<SimpleField name="featureEffectiveDate" type="string"></SimpleField>
	<SimpleField name="featureEndDate" type="string"></SimpleField>
	<SimpleField name="customerID" type="string"></SimpleField>
	<SimpleField name="volumeName" type="string"></SimpleField>
	<SimpleField name="icaoID" type="string"></SimpleField>
	<SimpleField name="sac" type="string"></SimpleField>
	<SimpleField name="sic" type="string"></SimpleField>
	<SimpleField name="sid" type="string"></SimpleField>
	<SimpleField name="featureID" type="string"></SimpleField>
	<SimpleField name="featureType" type="string"></SimpleField>
	<SimpleField name="serviceFeatureProperties" type="string"></SimpleField>
	<SimpleField name="geometryType" type="string"></SimpleField>
	<SimpleField name="centerPoint" type="string"></SimpleField>
	<SimpleField name="floorFeet" type="int"></SimpleField>
	<SimpleField name="ceilingFeet" type="int"></SimpleField>
	<SimpleField name="billingFeatureProperties" type="string"></SimpleField>
</Schema>
<Folder><name>Montreal_req</name>
  <Placemark>
	<Style><LineStyle><color>ff0000ff</color></LineStyle><PolyStyle><fill>0</fill></PolyStyle></Style>
	<ExtendedData><SchemaData schemaUrl="#Montreal_req">
		<SimpleData name="id">d2-64-01-01</SimpleData>
		<SimpleData name="featureVersion">1</SimpleData>
		<SimpleData name="featureBirthDate">1999/12/31 23:59:59</SimpleData>
		<SimpleData name="featureEffectiveDate">1999/12/31 23:59:59</SimpleData>
		<SimpleData name="featureEndDate">2099/12/31 23:59:59</SimpleData>
		<SimpleData name="customerID">CUS-navcan</SimpleData>
		<SimpleData name="volumeName">Montreal FIR</SimpleData>
		<SimpleData name="icaoID">ROGU</SimpleData>
		<SimpleData name="sac">0xd2</SimpleData>
		<SimpleData name="sic">0x64</SimpleData>
		<SimpleData name="sid">0x01</SimpleData>
		<SimpleData name="featureID">0x01</SimpleData>
		<SimpleData name="featureType">billing</SimpleData>
		<SimpleData name="geometryType">polygon</SimpleData>
		<SimpleData name="centerPoint">(2:-70.220333,55.576492)</SimpleData>
		<SimpleData name="floorFeet">18000</SimpleData>
		<SimpleData name="ceilingFeet">60000</SimpleData>
		<SimpleData name="billingFeatureProperties">{ &quot;billingType&quot;: &quot;usage&quot;, &quot;billingPriority&quot;: 0, &quot;billingEffectiveDate&quot;: &quot;1999-12-31T23:59:59.999Z&quot;, &quot;failedStateThresholdSecs&quot;: 86400 }</SimpleData>
	</SchemaData></ExtendedData>
      <Polygon><outerBoundaryIs><LinearRing><coordinates>-67.749512,47.019588 -67.803145,46.317488 -64.276316,46.152197 -60.319069,47.345892 -53.615226,50.78972 -56.771737,58.733519 -56.264907,63.95567 -57.757935,64.998994 -60.387272,67.649776 -83.498176,63.725589 -82.661101,54.166354 -87.575268,50.936871 -88.356815,48.290889 -86.344301,47.497448 -80.16626,45.993566 -79.09501,43.625904 -77.186329,43.644875 -76.784825,43.643019 -76.441656,44.086391 -75.054844,44.993388 -71.495583,45.006447 -71.349504,45.266193 -70.851229,45.248238 -70.022524,46.687765 -69.243091,47.452254 -68.868986,47.173228 -68.303806,47.395164 -67.749512,47.019588</coordinates></LinearRing></outerBoundaryIs></Polygon>
  </Placemark>
</Folder>
</Document></kml>
