"shapeid","x","y"
"0.0","72.00000190800006","15.000001907000069"
"0.0","72.00000190800006","7.500001907000069"
"0.0","70.00000190700018","7.500001907000183"
"0.0","70.00000190700018","5.490198135000128"
"0.0","70.00000190700018","3.083333968999966"
"0.0","68.00000190700001","1.71e-13"
"0.0","68.00000190700001","-5.999999999999886"
"0.0","60.00000190700018","-5.999999999999886"
"0.0","60.00000190700018","1.977700995000134"
"0.0","60.00000190700018","10.700002670000117"
"0.0","60.00000190700018","12.000001907000183"
"0.0","60.00000190700018","19.800001144000134"
"0.0","64.50000190700018","23.500001907000183"
"0.0","65.8097785107967","23.498955155197844"
"0.0","65.96536912494459","23.223745074910553"
"0.0","66.35938680668153","22.766876529077916"
"0.0","66.75845783516671","22.490802703836387"
"0.0","67.24638771293918","22.30837739029653"
"0.0","67.39650207641148","21.723142115168322"
"0.0","67.62956399481648","21.31564669327308"
"0.0","68.00860348784167","20.888916866091172"
"0.0","68.52282041093066","20.441744642749722"
"0.0","68.83541250970734","20.082488886994504"
"0.0","69.10726625451767","19.845760274110294"
"0.0","69.68180792658538","19.458163460233855"
"0.0","70.21370830506213","19.23229855007159"
"0.0","70.67139209983145","19.128247822163573"
"0.0","71.106689899995","19.1360842541151"
"0.0","71.11360450812649","18.79489313541457"
"0.0","71.17646797523955","18.48755145939394"
"0.0","71.55814735497668","17.0977492098403"
"0.0","71.67403715159236","16.296341213684638"
"0.0","71.89292969246395","15.482650698591469"
"0.0","72.00000190800006","15.000001907000069"
"0.0","72.00000190800006","15.000001907000069"
