{
"type": "FeatureCollection",
"name": "mumbai_internal",
"crs": { "type": "name", "properties": { "name": "urn:ogc:def:crs:OGC:1.3:CRS84" } },
"features": [
{ "type": "Feature", "properties": { }, "geometry": { "type": "MultiPolygon", "coordinates": [ [ [ [ 72.000001908000058, 15.000001907000069 ], [ 72.000001908000058, 7.500001907000069 ], [ 70.000001907000183, 7.500001907000183 ], [ 70.000001907000183, 5.490198135000128 ], [ 70.000001907000183, 3.083333968999966 ], [ 68.000001907000012, 0.000000000000171 ], [ 68.000001907000012, -5.999999999999886 ], [ 60.000001907000183, -5.999999999999886 ], [ 60.000001907000183, 1.977700995000134 ], [ 60.000001907000183, 10.700002670000117 ], [ 60.000001907000183, 12.000001907000183 ], [ 60.000001907000183, 19.800001144000134 ], [ 64.500001907000183, 23.500001907000183 ], [ 65.809778510796704, 23.498955155197844 ], [ 65.965369124944587, 23.223745074910553 ], [ 66.359386806681528, 22.766876529077916 ], [ 66.758457835166709, 22.490802703836387 ], [ 67.246387712939182, 22.308377390296531 ], [ 67.39650207641148, 21.723142115168322 ], [ 67.629563994816479, 21.315646693273081 ], [ 68.008603487841668, 20.888916866091172 ], [ 68.522820410930663, 20.441744642749722 ], [ 68.835412509707339, 20.082488886994504 ], [ 69.107266254517668, 19.845760274110294 ], [ 69.681807926585378, 19.458163460233855 ], [ 70.213708305062127, 19.23229855007159 ], [ 70.671392099831451, 19.128247822163573 ], [ 71.106689899995004, 19.136084254115101 ], [ 71.113604508126485, 18.794893135414569 ], [ 71.176467975239547, 18.487551459393941 ], [ 71.558147354976683, 17.097749209840298 ], [ 71.674037151592358, 16.296341213684638 ], [ 71.892929692463952, 15.482650698591469 ], [ 72.000001908000058, 15.000001907000069 ], [ 72.000001908000058, 15.000001907000069 ] ] ] ] } }
]
}
