# Input file for Beam Configurations for an HPL.
#
# BeamId,[repeat the following 22 times]:PhaseCenterNumber,BeamWeight_real_part,BeamWeight_imag_part
# Each Beam ID should be a number from 1 to 40.
# Each Phase Center Number should be a whole number between 1 and 22.
# Each Beam Weight can have a floating point value.
# NOTE: Beam ID and Phase Center Number values are not used in parsing, and each row is parsed as if in numerical order
#       The Beam ID and Phase Center Number values are simply to assist in editing this input file.
1,1,-0.100700,0.067105,2,-0.114177,0.010210,3,-0.031902,0.013674,4,0.031584,-0.077478,5,-0.046726,-0.162709,6,0.034510,0.068311,7,0.087762,0.163863,8,-0.080633,-0.155330,9,-0.253247,-0.080126,10,0.161118,-0.083708,11,0.053408,-0.152055,12,-0.543851,-0.450730,13,0.187012,0.028666,14,0.160132,-0.109120,15,0.010476,0.153627,16,0.115770,0.159271,17,-0.179770,-0.083377,18,-0.047972,-0.020049,19,-0.115386,-0.006371,20,-0.084774,-0.161575,21,0.088461,-0.022029,22,0.048380,0.028127
2,1,0.088827,0.182893,2,-0.021827,0.107318,3,-0.040855,0.092365,4,-0.079732,-0.135464,5,-0.170178,0.002554,6,0.028547,0.079477,7,0.195043,0.078029,8,-0.223248,-0.104260,9,-0.176668,0.067599,10,0.121555,-0.151183,11,-0.006489,-0.210764,12,-0.501906,-0.423431,13,0.186367,-0.033419,14,0.097698,-0.163082,15,0.096812,0.212060,16,0.090131,0.118667,17,-0.147015,-0.138497,18,-0.046427,0.001138,19,-0.080251,-0.005694,20,0.081368,-0.117848,21,0.028834,0.032712,22,0.004947,-0.036650
3,1,0.161402,-0.119354,2,0.067040,0.079234,3,0.125990,0.165197,4,-0.198364,0.084399,5,-0.101642,0.041508,6,0.171520,-0.010964,7,0.191177,-0.174744,8,-0.144324,0.088500,9,-0.089489,0.146961,10,0.064446,-0.226212,11,-0.124318,-0.171747,12,-0.204261,-0.495824,13,0.135983,-0.249564,14,-0.113739,-0.240832,15,0.101753,0.160577,16,0.116046,0.182248,17,-0.170026,-0.151627,18,-0.006437,-0.041471,19,-0.048148,-0.067827,20,0.063821,0.018188,21,0.041458,-0.032954,22,0.044561,-0.014385
4,1,-0.045397,-0.155794,2,0.254552,0.056084,3,0.226524,-0.117976,4,-0.172252,0.075657,5,-0.253599,0.153248,6,0.044607,-0.184188,7,-0.038521,-0.221018,8,-0.127547,0.144677,9,-0.106712,0.262558,10,0.013416,-0.162347,11,-0.024001,-0.240058,12,0.101691,-0.344727,13,0.067504,-0.294940,14,-0.001545,-0.150353,15,-0.020448,0.248608,16,0.103224,0.215581,17,-0.018833,-0.227965,18,-0.064888,-0.011775,19,-0.052791,-0.002026,20,0.035092,-0.017521,21,0.026676,0.043653,22,-0.001919,0.049816
5,1,-0.100162,-0.133363,2,0.005655,-0.334836,3,0.155472,-0.054028,4,-0.142978,0.288229,5,-0.174499,0.129701,6,-0.236520,0.055266,7,-0.190101,-0.005211,8,-0.000771,0.329966,9,0.093180,0.132381,10,0.060005,-0.306072,11,-0.020447,-0.180467,12,0.182005,-0.150119,13,-0.186017,-0.151684,14,-0.079254,-0.216918,15,0.150340,0.129879,16,-0.020559,0.244562,17,0.012184,-0.202342,18,-0.020213,0.063132,19,-0.025989,0.011089,20,-0.047551,-0.044193,21,0.024021,0.060921,22,-0.022689,-0.005349
6,1,-0.279239,0.209343,2,0.007529,-0.164176,3,0.091199,-0.231637,4,-0.197781,0.197263,5,-0.306865,0.065659,6,-0.014642,0.069033,7,-0.261117,-0.000724,8,0.107265,0.152523,9,-0.001056,0.267164,10,0.151369,-0.183191,11,0.156629,-0.131881,12,0.091722,0.084596,13,-0.175030,-0.224868,14,-0.124749,-0.164610,15,-0.046748,0.274393,16,-0.155945,0.153291,17,0.230939,-0.018661,18,0.017293,-0.062536,19,0.009772,-0.060153,20,0.029737,0.007168,21,-0.072752,-0.009202,22,-0.037218,-0.031273
7,1,0.187222,0.111311,2,-0.242273,-0.044928,3,-0.002002,-0.176872,4,-0.098980,0.191126,5,-0.293682,-0.141876,6,0.036188,-0.007347,7,0.196343,0.278209,8,0.284778,-0.001455,9,0.169983,0.106288,10,0.047796,-0.300979,11,0.175486,-0.058875,12,0.001648,0.055941,13,-0.187439,0.302278,14,-0.193768,-0.053500,15,0.158341,0.187165,16,-0.119352,0.197954,17,0.214205,0.052048,18,-0.047082,0.026334,19,-0.016418,0.032600,20,0.033551,0.022663,21,-0.013765,0.033647,22,0.044862,-0.026882
8,1,0.250117,-0.086871,2,-0.148628,0.096139,3,-0.091467,-0.205931,4,-0.205730,0.117411,5,-0.073158,-0.278224,6,0.037528,-0.088315,7,0.225718,-0.029812,8,0.153810,-0.246908,9,0.257655,0.186142,10,0.165163,-0.211375,11,0.229397,0.070275,12,-0.038797,0.028681,13,0.145214,0.226347,14,-0.188544,0.192691,15,0.137442,0.219223,16,-0.209136,0.096288,17,0.068839,0.215105,18,0.054811,0.041671,19,0.053920,-0.001664,20,-0.008746,-0.032877,21,-0.013475,-0.058492,22,0.021423,0.039148
9,1,0.087367,-0.358885,2,-0.176446,0.174972,3,-0.045732,-0.187405,4,-0.234919,0.037311,5,0.196342,-0.202232,6,-0.119094,-0.006785,7,0.187982,-0.181458,8,0.035858,-0.197457,9,0.235153,0.063180,10,0.249052,-0.165057,11,0.090892,0.212627,12,-0.039506,-0.037786,13,0.212129,0.076883,14,-0.058891,0.218582,15,0.178003,0.148033,16,-0.227413,0.062923,17,-0.157045,0.229682,18,-0.020701,-0.041467,19,-0.048379,-0.021948,20,-0.038836,-0.006315,21,-0.024153,0.050734,22,0.022051,0.042225
10,1,-0.192371,-0.246997,2,-0.127007,0.276341,3,-0.011480,-0.202423,4,-0.225010,-0.065369,5,0.263908,0.069389,6,-0.037597,0.170680,7,-0.098275,-0.269312,8,-0.053905,-0.210166,9,0.209766,0.077222,10,0.260477,-0.079938,11,-0.058716,0.247223,12,-0.006850,-0.050155,13,0.147959,-0.168986,14,0.023798,0.239432,15,0.174084,0.110838,16,-0.209354,0.001867,17,-0.238114,0.129703,18,-0.076620,-0.001173,19,-0.050166,0.083845,20,0.021293,-0.003481,21,0.048380,0.028170,22,-0.000771,-0.023946
11,1,-0.278005,-0.073984,2,-0.035170,0.276202,3,0.018950,-0.200710,4,-0.173034,-0.154999,5,0.128261,0.211479,6,0.135122,0.117651,7,-0.292559,-0.133316,8,-0.164375,-0.212689,9,0.204152,0.073642,10,0.236486,-0.000362,11,-0.144180,0.190893,12,0.035865,-0.038426,13,-0.035854,-0.228989,14,0.152182,0.222470,15,0.216011,0.077000,16,-0.196344,-0.047569,17,-0.273738,0.007285,18,-0.041273,0.053273,19,0.062565,0.062977,20,0.027983,-0.062273,21,0.025256,-0.025254,22,0.001358,0.008484
12,1,-0.211434,0.119040,2,0.012454,0.247722,3,0.011998,-0.220926,4,0.020087,-0.206524,5,-0.113904,0.161741,6,0.142234,-0.268765,7,-0.228948,0.223385,8,-0.211822,-0.043405,9,0.280792,0.090012,10,0.249010,0.098389,11,-0.205282,-0.017681,12,0.037751,0.041599,13,-0.231663,0.092288,14,0.256184,-0.091752,15,0.187694,-0.046292,16,-0.238929,-0.027739,17,-0.215118,-0.075056,18,0.077180,0.001192,19,0.023793,-0.091418,20,-0.035516,0.016296,21,-0.039357,0.003181,22,0.000400,0.036687
13,1,-0.200203,0.059185,2,0.006628,0.211771,3,0.132816,-0.178710,4,0.166670,-0.151910,5,-0.213336,-0.008070,6,-0.263871,-0.305133,7,0.047426,0.264780,8,-0.189178,0.016043,9,0.251779,0.030124,10,0.135019,0.113968,11,-0.128571,-0.136558,12,-0.038856,0.054246,13,0.042255,0.282060,14,0.018619,-0.280392,15,0.130419,-0.169266,16,-0.220920,0.123081,17,-0.229191,-0.021080,18,-0.011489,-0.081885,19,-0.119738,-0.001160,20,-0.020451,0.006260,21,0.059505,0.099747,22,0.030391,0.016827
14,1,-0.102412,0.026194,2,-0.075259,0.086705,3,0.123332,-0.000113,4,0.103684,0.050414,5,0.021841,-0.153409,6,-0.523364,-0.028772,7,0.057212,0.253268,8,-0.232127,0.009470,9,0.234340,0.105708,10,0.056870,0.214694,11,-0.033816,-0.240517,12,-0.026499,-0.001731,13,0.245918,0.168915,14,-0.132534,-0.209157,15,0.069687,-0.218336,16,-0.175486,0.153504,17,-0.176509,-0.098442,18,-0.069826,-0.008181,19,-0.021758,0.124806,20,-0.030900,0.099915,21,0.095024,-0.059498,22,0.053981,-0.080135
15,1,-0.063553,-0.013020,2,-0.089984,0.063159,3,0.083341,0.001011,4,0.068992,0.088025,5,-0.039502,-0.084187,6,-0.486336,0.208969,7,0.126844,0.274254,8,-0.198581,0.111731,9,0.222125,0.044809,10,0.168958,0.165313,11,-0.038341,-0.156617,12,0.016780,0.011752,13,0.286548,-0.075951,14,-0.210285,-0.082748,15,-0.139571,-0.190815,16,-0.040026,0.206966,17,-0.244770,0.107749,18,-0.047695,0.027823,19,0.155275,-0.022464,20,0.156152,0.009852,21,-0.037678,-0.095714,22,-0.128526,-0.092247
16,1,-0.048017,-0.062458,2,-0.036542,-0.008496,3,0.065799,0.053890,4,-0.004889,0.036987,5,0.078284,-0.022195,6,-0.452934,0.219225,7,0.144161,0.282400,8,-0.205118,0.090085,9,0.249667,-0.020527,10,0.157669,0.166167,11,-0.124817,-0.219942,12,0.043138,-0.014746,13,0.226272,-0.149222,14,-0.244640,0.018019,15,-0.171423,-0.120687,16,0.086809,0.237892,17,-0.144074,0.175409,18,-0.001527,0.109683,19,0.072337,-0.105680,20,0.087443,-0.152937,21,-0.072616,-0.077118,22,-0.126920,0.109123
17,1,-0.005168,-0.080381,2,-0.044175,-0.011606,3,0.015728,0.075346,4,0.017606,0.045836,5,0.070090,0.001575,6,-0.458949,0.116358,7,0.057132,0.325376,8,-0.224255,0.032478,9,0.243035,0.068324,10,0.121574,0.190273,11,-0.039581,-0.240419,12,0.043539,-0.006941,13,0.235289,-0.132934,14,-0.265154,0.003094,15,-0.155283,-0.126073,16,0.072241,0.243879,17,-0.154120,0.189735,18,0.034733,0.116274,19,0.074952,-0.101848,20,0.061751,-0.176633,21,-0.099991,-0.088869,22,-0.080744,0.139800
18,1,-0.002703,0.000713,2,-0.026217,-0.054520,3,-0.019047,-0.007896,4,-0.031314,-0.007376,5,0.043593,-0.023419,6,-0.338617,-0.133920,7,-0.149587,0.268604,8,-0.228079,-0.030122,9,0.199989,0.166521,10,0.111381,0.193424,11,-0.083924,-0.271027,12,0.005274,-0.041809,13,0.265891,-0.140660,14,-0.252108,0.020277,15,-0.223776,-0.084706,16,0.134597,0.171086,17,-0.002318,0.253950,18,0.077949,0.116536,19,0.062849,-0.181741,20,-0.113993,-0.200410,21,-0.223338,0.066310,22,0.037226,0.153339
19,1,0.023141,-0.008781,2,0.021493,-0.008371,3,-0.032896,0.010232,4,-0.006844,0.002232,5,-0.027164,-0.011205,6,-0.086617,-0.248157,7,-0.250128,0.142803,8,-0.206726,-0.073103,9,0.210333,0.076627,10,0.165033,0.142374,11,-0.272605,-0.082127,12,-0.040054,0.010026,13,0.267299,-0.062309,14,-0.243421,0.077317,15,-0.185661,0.013130,16,0.257971,0.020780,17,0.193401,0.030409,18,0.189168,0.182238,19,-0.058961,-0.209577,20,-0.282705,-0.110739,21,0.036440,0.281074,22,0.214501,-0.028559
20,1,-0.004359,0.020843,2,0.025744,0.014140,3,0.013446,0.000468,4,-0.009039,0.011352,5,-0.000063,-0.016836,6,0.099551,-0.046715,7,-0.219158,-0.108979,8,-0.120532,-0.188327,9,0.248829,0.122908,10,0.187225,0.000371,11,-0.163073,0.182140,12,0.008766,0.015315,13,0.195573,0.094548,14,-0.226766,-0.001656,15,-0.166861,0.136929,16,0.112875,-0.164208,17,0.046077,-0.205781,18,0.136168,0.203602,19,-0.121273,-0.321641,20,-0.349265,0.188591,21,0.292008,0.071343,22,-0.137291,-0.171942
21,1,-0.011186,0.010290,2,0.018940,0.004180,3,0.014602,0.001902,4,0.000842,0.012492,5,0.008173,-0.033680,6,0.088690,0.006759,7,-0.121894,-0.202555,8,-0.099746,-0.219749,9,0.250007,0.081407,10,0.168164,-0.041944,11,-0.044813,0.259489,12,0.010948,-0.003190,13,0.114596,0.158967,14,-0.242175,0.002972,15,-0.117902,0.161783,16,0.046054,-0.192022,17,-0.109477,-0.222805,18,0.024141,0.257730,19,-0.125280,-0.351914,20,-0.285873,0.228256,21,0.280542,-0.067793,22,-0.212590,-0.022793
22,1,-0.031479,0.020154,2,-0.012745,-0.011764,3,0.012277,-0.001011,4,-0.016123,-0.009566,5,-0.000455,-0.010215,6,-0.000730,0.060542,7,0.119290,-0.316649,8,-0.031356,-0.213608,9,0.187542,0.014989,10,0.082680,-0.176883,11,0.233070,0.036499,12,-0.029387,-0.045233,13,-0.018420,0.260152,14,-0.250539,-0.012155,15,-0.084482,0.156363,16,-0.118753,-0.177297,17,-0.208279,0.131199,18,-0.272660,0.215441,19,-0.031683,-0.305019,20,-0.171615,0.272487,21,0.119045,-0.235790,22,-0.080761,0.193372
23,1,-0.013597,0.017848,2,0.005470,-0.026374,3,0.041143,0.006093,4,-0.001670,-0.022820,5,0.042602,0.051267,6,-0.061809,-0.025422,7,0.272524,0.071952,8,0.122478,-0.113656,9,0.179637,0.057859,10,-0.018321,-0.233383,11,0.154043,-0.163545,12,-0.048625,0.028098,13,-0.207820,0.008348,14,-0.089899,-0.197672,15,-0.142415,0.109930,16,-0.181582,-0.072032,17,-0.007793,0.229042,18,-0.300481,-0.265340,19,0.183899,-0.265313,20,-0.270507,0.225856,21,0.100141,-0.208121,22,0.107807,0.262058
24,1,-0.009951,0.002620,2,-0.012800,0.051522,3,-0.006719,0.003888,4,0.016153,0.005633,5,0.038229,-0.078993,6,0.085385,-0.119793,7,0.239665,0.121816,8,0.115535,-0.221351,9,0.243413,-0.086704,10,-0.280592,-0.096814,11,-0.238687,-0.157156,12,0.019934,0.044581,13,-0.242403,-0.064034,14,-0.178232,-0.204006,15,-0.007823,0.230530,16,-0.190120,0.161608,17,0.274063,-0.019997,18,-0.015746,-0.316804,19,0.234973,-0.106617,20,-0.136869,0.133875,21,-0.043889,-0.184266,22,0.163902,-0.004028
25,1,-0.042474,-0.113874,2,0.011552,-0.022661,3,-0.033628,0.047648,4,-0.010598,-0.002779,5,-0.062957,-0.050019,6,0.064126,0.017376,7,0.273162,0.254569,8,0.145427,-0.187061,9,0.201068,-0.183135,10,-0.284672,0.090657,11,-0.246782,0.098954,12,0.132791,0.027767,13,-0.204808,-0.147199,14,-0.071032,-0.264020,15,0.029190,0.215707,16,-0.111977,0.238779,17,0.176865,-0.167743,18,0.199776,-0.112797,19,0.170750,-0.009144,20,-0.179191,0.090896,21,-0.085722,-0.101390,22,0.156863,-0.207596
26,1,0.017656,0.011032,2,0.024194,-0.040537,3,0.021160,0.009057,4,-0.032244,-0.029947,5,-0.067743,0.036671,6,-0.057035,-0.050728,7,0.150515,0.279064,8,0.029289,-0.225845,9,0.118498,-0.303965,10,-0.141434,0.278063,11,-0.025155,0.257955,12,0.208467,-0.082668,13,-0.100834,-0.235031,14,-0.066446,-0.221041,15,0.132548,0.234460,16,0.011604,0.239955,17,0.034612,-0.273285,18,0.143271,-0.010834,19,0.173097,0.040057,20,-0.130365,0.061940,21,-0.205810,-0.029934,22,0.051347,-0.256400
27,1,0.031606,0.020303,2,0.031559,0.041141,3,0.077003,-0.012505,4,-0.041091,0.028414,5,-0.028703,0.035911,6,0.156286,-0.008957,7,0.003188,0.251945,8,0.139365,-0.278215,9,0.046330,-0.295042,10,-0.063639,0.299711,11,0.116365,0.187434,12,0.201754,-0.290052,13,0.083644,-0.168852,14,-0.005308,-0.219872,15,0.045407,0.215624,16,0.069485,0.244374,17,-0.025522,-0.264783,18,0.088041,0.117094,19,0.042919,0.111847,20,-0.132445,0.065414,21,-0.204573,-0.113783,22,0.044852,-0.248237
28,1,-0.058060,-0.079073,2,-0.014870,-0.102233,3,-0.015001,-0.064030,4,0.040886,0.057149,5,0.113637,-0.014297,6,0.050393,0.118489,7,0.035544,0.271883,8,0.037620,-0.200293,9,-0.117370,-0.247401,10,0.187500,0.109802,11,0.187620,-0.012085,12,-0.194143,-0.565664,13,0.163693,-0.074614,14,0.155575,-0.174848,15,0.022990,0.242659,16,0.088783,0.164883,17,-0.121172,-0.144040,18,-0.121159,0.063229,19,0.015777,0.134455,20,-0.110588,-0.033336,21,-0.059500,-0.135237,22,0.048205,-0.131414
29,1,0.043990,-0.027627,2,0.037398,0.065047,3,0.022533,0.072465,4,-0.012100,-0.036311,5,-0.008427,-0.086775,6,-0.118097,0.043828,7,-0.306060,-0.074222,8,0.149555,0.216243,9,0.166325,0.228947,10,-0.095486,-0.304082,11,-0.174150,-0.185636,12,-0.019623,-0.398056,13,-0.137499,0.249683,14,-0.073464,0.257999,15,0.110533,-0.194162,16,0.143854,-0.209020,17,-0.186556,0.167483,18,0.065681,0.014104,19,0.110412,0.057167,20,-0.066963,0.025038,21,-0.092360,-0.134318,22,0.059765,-0.042369
30,1,-0.056134,-0.009760,2,-0.002953,0.073648,3,-0.022541,-0.052841,4,-0.023124,-0.037424,5,-0.016642,0.074907,6,-0.535832,-0.118055,7,0.179538,0.112768,8,0.129820,0.171940,9,-0.158879,-0.182455,10,-0.157241,-0.220646,11,0.228879,0.154904,12,-0.005077,-0.024428,13,0.174599,-0.195525,14,-0.094138,0.193233,15,-0.119284,0.247927,16,0.103664,-0.222476,17,0.210235,-0.188087,18,-0.084933,-0.009918,19,0.161801,-0.014702,20,0.041183,0.016012,21,-0.085299,-0.033169,22,0.038039,0.054045
31,1,-0.022254,-0.069826,2,0.083541,0.011918,3,0.028855,0.030531,4,-0.018846,-0.065927,5,-0.006040,-0.041661,6,0.096261,0.113891,7,0.056059,0.336531,8,0.235138,-0.093427,9,0.282247,0.076000,10,-0.234282,-0.237381,11,-0.088272,-0.205847,12,0.227537,-0.157226,13,0.307352,0.173048,14,0.188334,0.180080,15,-0.018809,-0.288654,16,0.101757,-0.261553,17,-0.249162,0.112464,18,-0.015700,-0.041132,19,0.083310,0.019762,20,-0.055381,0.031017,21,-0.017360,-0.052039,22,0.085784,0.011695
32,1,-0.048689,0.010385,2,0.024654,-0.065189,3,0.056205,0.034463,4,-0.047990,-0.047195,5,0.054663,-0.030754,6,0.095281,-0.179200,7,0.332317,-0.168412,8,-0.047872,-0.242228,9,0.272661,-0.240079,10,-0.210436,-0.151191,11,-0.108965,-0.280712,12,0.158817,0.084158,13,0.039862,-0.337389,14,0.232054,-0.033038,15,-0.201722,-0.186611,16,0.127703,-0.245998,17,-0.294156,-0.001649,18,-0.058771,0.015003,19,0.027778,-0.030239,20,0.034680,0.003008,21,-0.030443,-0.007892,22,-0.000835,-0.000126
33,1,0.078184,-0.083590,2,-0.095017,0.058602,3,-0.037391,-0.058581,4,-0.062669,0.092876,5,-0.002873,-0.139590,6,-0.221916,0.173701,7,-0.269915,-0.135731,8,-0.235279,0.037223,9,-0.101953,-0.280723,10,-0.253763,0.026904,11,-0.109386,-0.261323,12,0.045683,0.093779,13,-0.252743,-0.095186,14,0.148534,-0.315531,15,-0.249554,-0.133895,16,0.151852,-0.245175,17,-0.193317,-0.197008,18,-0.043175,0.007909,19,-0.069287,-0.041183,20,-0.055809,0.089364,21,-0.041412,-0.025489,22,0.092901,-0.005314
34,1,-0.007257,-0.044662,2,0.002607,0.050347,3,-0.021223,0.003229,4,-0.023570,0.001388,5,0.022065,-0.056575,6,0.241594,-0.369254,7,0.225367,0.196148,8,0.194316,0.203744,9,-0.268903,0.010825,10,-0.091868,0.209914,11,-0.275490,-0.150769,12,0.043300,0.038774,13,0.190917,-0.136777,14,-0.025569,0.304780,15,0.207901,0.167837,16,-0.234506,0.073817,17,-0.176805,0.239306,18,-0.066564,-0.077780,19,0.064917,-0.053558,20,-0.046970,-0.082690,21,0.012481,0.065990,22,0.014679,0.011125
35,1,-0.023205,-0.011445,2,-0.030949,0.007749,3,0.009100,-0.038031,4,-0.024182,0.002443,5,0.033107,-0.017280,6,-0.123299,-0.437328,7,0.151134,0.154217,8,0.175172,0.187333,9,-0.345394,0.039896,10,-0.203621,0.195308,11,-0.129416,-0.245158,12,0.055996,-0.007508,13,0.147937,-0.220810,14,0.145849,0.226153,15,0.230548,0.036010,16,-0.209152,0.127724,17,-0.114093,0.228548,18,-0.101367,0.140108,19,-0.013775,-0.045200,20,-0.057962,-0.018638,21,0.109385,-0.014547,22,-0.129813,-0.087778
36,1,0.029760,-0.038800,2,0.026176,0.042220,3,-0.035635,0.015828,4,0.043565,0.000212,5,-0.020925,0.026854,6,0.095115,0.196982,7,-0.080283,0.403645,8,0.203675,0.143424,9,0.116218,0.316567,10,0.206489,-0.221641,11,0.260612,-0.091279,12,0.146808,0.140562,13,0.250423,0.031607,14,0.133778,0.170379,15,0.050471,-0.230622,16,0.215193,-0.091881,17,-0.231873,-0.159900,18,-0.050880,-0.088061,19,0.070330,-0.135995,20,-0.001987,0.139603,21,-0.110141,-0.086934,22,0.119905,-0.021096
37,1,0.081027,-0.013197,2,-0.086274,0.041542,3,-0.034836,-0.071144,4,-0.076190,0.036823,5,0.022742,-0.063798,6,-0.223343,0.166383,7,-0.274410,-0.132257,8,-0.230385,0.015711,9,-0.098470,-0.259073,10,-0.279035,0.030409,11,-0.141481,-0.266346,12,0.077102,0.094254,13,-0.324402,0.043283,14,0.019862,-0.340926,15,-0.252995,0.063777,16,0.025930,-0.317622,17,-0.226898,-0.063535,18,-0.035780,0.000606,19,-0.079472,0.007663,20,0.051655,0.084393,21,-0.086047,0.038136,22,0.029049,-0.070486
38,1,0.007896,0.112972,2,-0.057004,-0.084391,3,0.038656,-0.055280,4,-0.072215,0.050705,5,-0.056583,-0.055253,6,0.117901,-0.126293,7,0.301367,-0.057258,8,-0.077892,-0.254172,9,0.228161,-0.243208,10,-0.282509,0.000822,11,-0.246819,-0.177078,12,0.197905,-0.060276,13,0.290307,-0.236431,14,0.232210,0.067089,15,-0.143792,-0.263797,16,0.120830,-0.195154,17,-0.286912,0.015192,18,0.036305,-0.006536,19,0.069614,-0.022368,20,-0.053435,0.041000,21,-0.028466,-0.012520,22,0.001228,-0.034416
39,1,-0.024547,-0.046336,2,-0.008725,0.060553,3,-0.022423,-0.039565,4,-0.036056,-0.039723,5,0.044356,-0.006471,6,-0.191599,-0.475904,7,0.202546,0.134904,8,0.207029,0.167938,9,-0.305137,-0.100234,10,-0.265318,0.042854,11,0.080356,-0.249984,12,-0.039002,0.035829,13,0.159113,-0.171721,14,-0.017184,0.249088,15,0.084261,0.260550,16,-0.165750,-0.144708,17,-0.239943,-0.125105,18,-0.067752,-0.059228,19,0.103378,-0.042736,20,-0.024108,-0.015378,21,-0.029205,0.080454,22,0.054083,0.021937
40,1,0.065562,-0.007679,2,0.000092,-0.012878,3,0.002022,-0.012243,4,-0.041364,-0.050961,5,0.030464,-0.018364,6,-0.254431,0.198966,7,-0.311480,-0.085383,8,-0.264884,-0.007796,9,-0.048868,-0.275127,10,-0.312250,-0.013480,11,-0.100146,-0.265027,12,0.068670,0.089197,13,-0.237574,0.220459,14,-0.126111,-0.276102,15,-0.179549,0.154262,16,-0.112937,-0.275598,17,-0.279794,0.071401,18,0.081834,0.039659,19,-0.037774,0.044625,20,0.015358,0.046778,21,0.003417,0.029284,22,0.043219,-0.005724
