# Input file for Beam Configurations for an HPL.
#
# BeamId,[repeat the following 22 times]:PhaseCenterNumber,BeamWeight_real_part,BeamWeight_imag_part
# Each Beam ID should be a number from 1 to 40.
# Each Phase Center Number should be a whole number between 1 and 22.
# Each Beam Weight can have a floating point value.
# NOTE: Beam ID and Phase Center Number values are not used in parsing, and each row is parsed as if in numerical order
#       The Beam ID and Phase Center Number values are simply to assist in editing this input file.
1,1,-0.086352,0.057543,2,-0.108403,0.011945,3,-0.029953,0.014493,4,0.041939,-0.046418,5,-0.042765,-0.135336,6,-0.001621,0.083510,7,-0.047935,0.171688,8,-0.035410,-0.191117,9,-0.136870,-0.226465,10,0.163292,0.015491,11,0.127173,-0.093583,12,-0.282852,-0.671895,13,0.128943,0.130743,14,0.204818,0.010118,15,-0.095963,0.136247,16,0.007310,0.199950,17,-0.049649,-0.165449,18,-0.040860,-0.040878,19,-0.089192,-0.055219,20,0.039447,-0.153476,21,0.080580,0.022706,22,0.024193,0.043279
2,1,0.076364,0.157232,2,-0.018711,0.102766,3,-0.035170,0.090476,4,-0.021594,-0.115831,5,-0.142937,0.005923,6,-0.013110,0.091463,7,0.083505,0.183888,8,-0.203971,-0.183467,9,-0.177121,-0.065718,10,0.166783,-0.055244,11,0.111388,-0.174611,12,-0.258131,-0.628499,13,0.164856,0.082254,14,0.187041,-0.075475,15,-0.063419,0.244850,16,0.008736,0.151556,17,0.005253,-0.176432,18,-0.048342,-0.018486,19,-0.061641,-0.039511,20,0.121356,-0.028637,21,0.008124,0.039316,22,0.020363,-0.025776
3,1,0.140492,-0.103892,2,0.066301,0.075171,3,0.129825,0.154994,4,-0.163370,0.008929,5,-0.085541,0.037598,6,0.173593,0.078224,7,0.252050,0.005912,8,-0.184714,0.048043,9,-0.166064,0.051935,10,0.162230,-0.142147,11,-0.005889,-0.210771,12,0.050225,-0.559546,13,0.254322,-0.117148,14,0.058605,-0.280042,15,-0.024358,0.207416,16,-0.005569,0.222791,17,0.000494,-0.201579,18,0.011061,-0.046046,19,-0.009033,-0.076111,20,0.030996,0.049616,21,0.048792,-0.007519,22,0.041077,0.009281
4,1,-0.039976,-0.137190,2,0.249765,0.049669,3,0.217472,-0.126214,4,-0.144136,0.009554,5,-0.214783,0.137663,6,0.140815,-0.159004,7,0.123175,-0.183404,8,-0.187227,0.115467,9,-0.259277,0.129760,10,0.092201,-0.119738,11,0.116148,-0.213130,12,0.264392,-0.274221,13,0.229566,-0.195555,14,0.097222,-0.131334,15,-0.191747,0.200223,16,-0.036146,0.246785,17,0.141442,-0.148053,18,-0.063410,-0.040578,19,-0.042302,-0.025216,20,0.033697,0.009388,21,0.001438,0.048223,22,-0.024589,0.038114
5,1,-0.088631,-0.118011,2,-0.001206,-0.328767,3,0.151206,-0.060421,4,-0.179484,0.171495,5,-0.147957,0.116162,6,-0.264516,-0.069703,7,-0.132270,-0.133860,8,-0.111013,0.361499,9,-0.017841,0.165459,10,0.201852,-0.209278,11,0.085734,-0.162375,12,0.245776,-0.052228,13,-0.058655,-0.233130,14,0.073861,-0.241141,15,0.038974,0.218426,16,-0.160991,0.200777,17,0.143411,-0.112609,18,-0.048965,0.058178,19,-0.026347,-0.002534,20,-0.005067,-0.057956,21,-0.008852,0.061422,22,-0.015360,-0.014774
6,1,-0.253872,0.190325,2,0.004188,-0.165720,3,0.081844,-0.239433,4,-0.200684,0.093601,5,-0.271140,0.065548,6,-0.052366,0.062653,7,-0.191190,-0.184187,8,0.068504,0.208601,9,-0.187058,0.211270,10,0.217003,-0.068672,11,0.211598,-0.021490,12,0.046240,0.128466,13,-0.006209,-0.293165,14,-0.000229,-0.231737,15,-0.240044,0.210677,16,-0.231575,0.043295,17,0.154562,0.148192,18,0.046858,-0.060432,19,0.035971,-0.046326,20,0.015891,0.023254,21,-0.057074,-0.042898,22,-0.015122,-0.043088
7,1,0.167784,0.099755,2,-0.241753,-0.039710,3,-0.010101,-0.176935,4,-0.123600,0.114060,5,-0.260525,-0.117476,6,0.040396,0.011919,7,-0.050797,0.337458,8,0.316692,0.094680,9,0.059935,0.199931,10,0.192138,-0.214168,11,0.182406,0.051449,12,-0.026302,0.054333,13,-0.335641,0.132312,14,-0.135233,-0.176463,15,0.005671,0.277229,16,-0.222488,0.103721,17,0.094057,0.177430,18,-0.062220,0.007516,19,-0.028480,0.019697,20,0.008805,0.035678,21,-0.027482,0.021495,22,0.048425,-0.000262
8,1,0.222282,-0.077203,2,-0.144566,0.097784,3,-0.100132,-0.200242,4,-0.180879,0.031223,5,-0.069931,-0.239993,6,0.084272,-0.068397,7,0.182481,0.133793,8,0.252153,-0.220292,9,0.073034,0.319943,10,0.237293,-0.082280,11,0.152213,0.190200,12,-0.050977,0.008033,13,-0.018871,0.269849,14,-0.292412,0.043822,15,-0.035235,0.288069,16,-0.239353,-0.038754,17,-0.104072,0.175498,18,0.040170,0.068402,19,0.045286,0.022909,20,0.013997,-0.027234,21,0.016461,-0.054704,22,-0.001381,0.040953
9,1,0.079479,-0.326482,2,-0.174418,0.180221,3,-0.055171,-0.188277,4,-0.185275,-0.035662,5,0.169827,-0.184427,6,-0.118167,-0.071494,7,0.265798,-0.001002,8,0.108192,-0.210248,9,0.142653,0.214175,10,0.286330,-0.003303,11,-0.046489,0.235803,12,-0.019245,-0.056676,13,0.127874,0.193967,14,-0.200760,0.155844,15,0.051596,0.260754,16,-0.241289,-0.080512,17,-0.255261,0.032353,18,-0.004001,-0.054511,19,-0.030786,-0.040860,20,-0.022648,-0.028305,21,-0.044940,0.031259,22,-0.002380,0.044711
10,1,-0.173551,-0.222833,2,-0.121412,0.279150,3,-0.020895,-0.203427,4,-0.148891,-0.108650,5,0.234324,0.055038,6,-0.129893,0.152964,7,0.116369,-0.264787,8,0.011288,-0.253265,9,0.111767,0.205896,10,0.249165,0.070565,11,-0.193592,0.176411,12,0.018566,-0.051734,13,0.224246,-0.048127,14,-0.139669,0.228601,15,0.074390,0.222895,16,-0.186843,-0.123236,17,-0.233911,-0.084383,18,-0.082367,-0.035317,19,-0.080396,0.047368,20,0.016568,0.010683,21,0.027101,0.046810,22,0.010751,-0.019574
11,1,-0.248048,-0.066012,2,-0.029188,0.274072,3,0.009736,-0.200868,4,-0.085478,-0.159236,5,0.116725,0.181471,6,0.073042,0.189891,7,-0.118764,-0.297995,8,-0.110107,-0.290458,9,0.108614,0.197002,10,0.186883,0.120371,11,-0.231077,0.077938,12,0.053222,-0.018800,13,0.109109,-0.207085,14,-0.014115,0.296463,15,0.134243,0.220604,16,-0.144205,-0.157580,17,-0.169735,-0.181318,18,-0.067571,0.038858,19,0.023408,0.080513,20,0.056488,-0.024801,21,0.032921,-0.008993,22,-0.002907,0.007369
12,1,-0.186111,0.104783,2,0.017132,0.241620,3,0.001862,-0.217725,4,0.068499,-0.143772,5,-0.094320,0.141740,6,0.281761,-0.191464,7,-0.314853,0.002874,8,-0.216594,-0.117688,9,0.154987,0.258648,10,0.144416,0.201965,11,-0.160530,-0.131024,12,0.015106,0.057563,13,-0.240022,-0.064142,14,0.282084,0.088374,15,0.194316,0.091457,16,-0.190667,-0.163081,17,-0.077527,-0.188548,18,0.080947,0.034721,19,0.060243,-0.064176,20,-0.033232,-0.010447,21,-0.033706,-0.015789,22,-0.016683,0.028898
13,1,-0.174391,0.051554,2,0.010611,0.204485,3,0.121257,-0.179765,4,0.158325,-0.065345,5,-0.181812,-0.002073,6,-0.100131,-0.435870,7,-0.145071,0.218205,8,-0.209439,-0.044863,9,0.171310,0.191048,10,0.047296,0.155092,11,-0.029124,-0.184376,12,-0.062404,0.031615,13,-0.132717,0.247904,14,0.197783,-0.228334,15,0.228588,-0.054148,16,-0.260129,-0.021821,17,-0.120740,-0.164183,18,0.023133,-0.090460,19,-0.096426,-0.053794,20,-0.017089,-0.007998,21,0.002077,0.108328,22,0.015823,0.026964
14,1,-0.086776,0.022195,2,-0.069059,0.082947,3,0.116707,-0.005445,4,0.059330,0.061118,5,0.014732,-0.127527,6,-0.484207,-0.291644,7,-0.126875,0.210796,8,-0.246719,-0.064271,9,0.104642,0.230413,10,-0.061387,0.188517,11,0.104162,-0.210802,12,-0.023151,-0.014052,13,0.092365,0.270808,14,0.021394,-0.258043,15,0.204994,-0.134344,16,-0.232228,0.029579,17,-0.037490,-0.169996,18,-0.067532,-0.037455,19,-0.070726,0.088944,20,-0.077158,0.045841,21,0.101651,-0.004140,22,0.076403,-0.036301
15,1,-0.054122,-0.011088,2,-0.083774,0.061409,3,0.079309,-0.002664,4,0.025895,0.078906,5,-0.034731,-0.069204,6,-0.571814,-0.046632,7,-0.093456,0.272164,8,-0.245426,0.054080,9,0.135851,0.178331,10,0.046809,0.206841,11,0.055050,-0.146907,12,0.009688,0.018629,13,0.265233,0.106287,14,-0.123809,-0.202672,15,0.012748,-0.253772,16,-0.150066,0.150779,17,-0.210409,-0.096577,18,-0.060375,0.008406,19,0.132593,0.049230,20,0.094232,0.096595,21,0.013433,-0.092844,22,-0.055974,-0.127450
16,1,-0.040784,-0.053050,2,-0.034592,-0.007296,3,0.064755,0.048266,4,-0.012737,0.024520,5,0.064502,-0.020142,6,-0.543602,-0.019809,7,-0.086688,0.288419,8,-0.244726,0.029065,9,0.198460,0.147363,10,0.037788,0.201459,11,0.020208,-0.244578,12,0.046074,0.007007,13,0.260149,0.014903,14,-0.215923,-0.139620,15,-0.061168,-0.216251,16,-0.061106,0.247452,17,-0.195846,0.007480,18,-0.047443,0.111074,19,0.102592,-0.052290,20,0.144012,-0.047186,21,-0.022587,-0.093667,22,-0.144629,0.025675
17,1,-0.004406,-0.068536,2,-0.042004,-0.010117,3,0.018258,0.071064,4,0.000696,0.036497,5,0.058445,-0.000230,6,-0.499201,-0.121580,7,-0.175289,0.261711,8,-0.247351,-0.037836,9,0.136207,0.209718,10,-0.001051,0.202821,11,0.100122,-0.215208,12,0.042916,0.014327,13,0.258737,0.032764,14,-0.224496,-0.165704,15,-0.044265,-0.210639,16,-0.076932,0.245210,17,-0.211666,0.009238,18,-0.013321,0.133468,19,0.103403,-0.048324,20,0.141823,-0.077423,21,-0.039063,-0.115737,22,-0.123944,0.069751
18,1,-0.002335,0.000616,2,-0.026198,-0.051729,3,-0.018726,-0.006778,4,-0.020284,-0.013261,5,0.036287,-0.020747,6,-0.260063,-0.304417,7,-0.283876,0.087407,8,-0.234311,-0.106589,9,0.040509,0.258028,10,-0.010412,0.202878,11,0.082313,-0.267677,12,0.024949,-0.036020,13,0.290671,0.045015,14,-0.227423,-0.144894,15,-0.131261,-0.225461,16,0.016609,0.222236,17,-0.168162,0.146504,18,0.031161,0.153895,19,0.130030,-0.118412,20,0.043553,-0.196972,21,-0.209865,-0.049161,22,-0.041123,0.134710
19,1,0.020149,-0.007646,2,0.020592,-0.008511,3,-0.031534,0.011413,4,-0.005463,-0.000177,5,-0.023369,-0.008925,6,0.043924,-0.287944,7,-0.272063,-0.068082,8,-0.198999,-0.146780,9,0.108699,0.198645,10,0.056258,0.191859,11,-0.177998,-0.220312,12,-0.042081,-0.010077,13,0.247945,0.108124,14,-0.258741,-0.091518,15,-0.167518,-0.117359,16,0.208919,0.166324,17,0.093489,0.145903,18,0.119352,0.271407,19,0.044760,-0.195619,20,-0.119508,-0.239595,21,-0.100427,0.244465,22,0.179150,0.076183
20,1,-0.003873,0.018519,2,0.025658,0.013414,3,0.013364,-0.000145,4,-0.009580,0.005883,5,-0.000441,-0.014619,6,0.124206,0.006022,7,-0.082332,-0.228833,8,-0.069550,-0.247725,9,0.109248,0.264818,10,0.147001,0.095415,11,-0.240946,0.059464,12,0.000746,0.018856,13,0.100927,0.193746,14,-0.197225,-0.151438,15,-0.242047,0.001325,16,0.195098,-0.077154,17,0.166639,-0.092236,18,0.055972,0.276517,19,0.044676,-0.320213,20,-0.346970,-0.084786,21,0.207648,0.196704,22,-0.028059,-0.200031
21,1,-0.009921,0.009126,2,0.018717,0.003729,3,0.014549,0.001222,4,-0.002679,0.009304,5,0.006313,-0.029382,6,0.084890,0.053608,7,0.051679,-0.228696,8,-0.036068,-0.274844,9,0.138178,0.233009,10,0.153234,0.052368,11,-0.185677,0.191628,12,0.011937,0.002380,13,-0.003075,0.196691,14,-0.213372,-0.157295,15,-0.216581,0.057456,16,0.152777,-0.140458,17,0.084733,-0.207148,18,-0.086915,0.284638,19,0.054897,-0.346382,20,-0.327973,-0.020023,21,0.263326,0.076179,22,-0.156999,-0.117199
22,1,-0.027630,0.017690,2,-0.012644,-0.011199,3,0.011990,-0.001541,4,-0.009107,-0.011087,5,-0.000622,-0.008753,6,-0.032383,0.059381,7,0.299567,-0.143431,8,0.036644,-0.242681,9,0.133592,0.137687,10,0.152991,-0.095875,11,0.172462,0.161944,12,-0.005454,-0.056722,13,-0.169070,0.196336,14,-0.208512,-0.174206,15,-0.181817,0.075529,16,0.000405,-0.221954,17,-0.210905,-0.061300,18,-0.380121,0.108873,19,0.109826,-0.262921,20,-0.275587,0.077451,21,0.207062,-0.137008,22,-0.152352,0.113605
23,1,-0.011977,0.015722,2,0.004815,-0.025880,3,0.040750,0.004143,4,0.004766,-0.016916,5,0.037846,0.043171,6,-0.047890,-0.057626,7,0.144819,0.236899,8,0.171448,-0.083335,9,0.099041,0.165803,10,0.103277,-0.191132,11,0.220825,-0.048615,12,-0.059483,0.002599,13,-0.171140,-0.117105,14,0.051676,-0.230345,15,-0.199953,-0.004869,16,-0.115333,-0.168166,17,-0.158036,0.130911,18,-0.202267,-0.410652,19,0.268994,-0.135122,20,-0.314147,-0.012286,21,0.179377,-0.123672,22,-0.037051,0.255227
24,1,-0.008619,0.002270,2,-0.011280,0.049754,3,-0.006327,0.004058,4,0.010020,0.008157,5,0.030598,-0.067731,6,0.145001,-0.072628,7,0.086004,0.245803,8,0.196332,-0.199788,9,0.241606,0.096094,10,-0.167096,-0.213177,11,-0.107500,-0.261588,12,-0.003044,0.050819,13,-0.153082,-0.192314,14,-0.020413,-0.288857,15,-0.165441,0.190299,16,-0.254501,0.028758,17,0.173339,0.168807,18,0.118809,-0.335770,19,0.235961,0.017309,20,-0.167823,0.006644,21,0.049383,-0.168627,22,0.128065,0.071613
25,1,-0.037187,-0.099698,2,0.010766,-0.022237,3,-0.030751,0.048094,4,-0.006883,-0.004751,5,-0.055004,-0.041379,6,0.054076,0.050560,7,0.020697,0.364992,8,0.219543,-0.154870,9,0.276576,-0.004984,10,-0.265911,-0.072289,11,-0.259705,-0.057331,12,0.110575,0.090600,13,-0.075622,-0.238220,14,0.110863,-0.273818,15,-0.125144,0.205401,16,-0.234642,0.140747,17,0.216140,0.018646,18,0.258376,-0.032268,19,0.142998,0.068316,20,-0.171925,-0.046720,21,-0.022672,-0.122405,22,0.217760,-0.089323
26,1,0.015489,0.009679,2,0.022733,-0.039931,3,0.021138,0.007926,4,-0.015384,-0.029941,5,-0.057256,0.032978,6,-0.029756,-0.079862,7,-0.082771,0.299848,8,0.106593,-0.235785,9,0.295182,-0.153053,10,-0.249278,0.144892,11,-0.166524,0.199387,12,0.235540,0.024291,13,0.059120,-0.246972,14,0.086980,-0.234268,15,-0.049621,0.294053,16,-0.129190,0.213739,17,0.202777,-0.138676,18,0.155400,0.050514,19,0.123330,0.109616,20,-0.122839,-0.036820,21,-0.153983,-0.120285,22,0.158432,-0.176291
27,1,0.027383,0.017590,2,0.031141,0.038913,3,0.073955,-0.015508,4,-0.036497,0.009605,5,-0.023502,0.031051,6,0.156901,0.071949,7,-0.166636,0.178399,8,0.240544,-0.253083,9,0.231008,-0.192337,10,-0.197265,0.198225,11,-0.009392,0.218177,12,0.326317,-0.171025,13,0.164692,-0.083788,14,0.137280,-0.190925,15,-0.110012,0.214361,16,-0.080802,0.248004,17,0.159502,-0.171592,18,0.041496,0.159218,19,-0.014546,0.108904,20,-0.124708,-0.035324,21,-0.112501,-0.185782,22,0.147736,-0.170771
28,1,-0.049608,-0.067562,2,-0.016085,-0.096602,3,-0.017109,-0.060446,4,0.014132,0.050406,5,0.094584,-0.014446,6,-0.011898,0.139513,7,-0.155192,0.211082,8,0.104397,-0.199904,9,0.074532,-0.261388,10,0.088104,0.174620,11,0.157955,0.093461,12,0.091713,-0.608133,13,0.170060,0.036701,14,0.242054,-0.048096,15,-0.145636,0.218810,16,-0.018561,0.188697,17,0.023720,-0.161757,18,-0.150745,0.013792,19,-0.045689,0.113604,20,-0.051665,-0.085560,21,0.014066,-0.134458,22,0.095713,-0.078158
29,1,0.037983,-0.023855,2,0.037099,0.061563,3,0.024925,0.068887,4,0.000749,-0.028806,5,-0.009046,-0.073045,6,-0.137228,-0.018197,7,-0.163821,-0.256196,8,0.089542,0.280061,9,-0.026209,0.282652,10,0.077187,-0.279463,11,-0.038732,-0.248099,12,0.173047,-0.376288,13,-0.253537,0.115415,14,-0.228274,0.172053,15,0.226859,-0.088396,16,0.241487,-0.095340,17,-0.218639,-0.024903,18,0.062007,0.042538,19,0.063592,0.094189,20,-0.058128,-0.023013,21,-0.012595,-0.150206,22,0.065136,-0.005369
30,1,-0.047309,-0.008225,2,-0.001345,0.068906,3,-0.023492,-0.048766,4,-0.006606,-0.031645,5,-0.012078,0.062065,6,-0.448592,-0.380964,7,0.048661,0.193803,8,0.080880,0.220819,9,0.001019,-0.236873,10,-0.010921,-0.240315,11,0.098015,0.247409,12,0.006882,-0.024354,13,0.244987,-0.050080,14,-0.199325,0.101236,15,-0.264691,0.124821,16,0.209897,-0.126607,17,0.240073,0.027764,18,-0.081716,-0.045280,19,0.133017,0.057587,20,0.016919,0.033707,21,-0.052018,-0.064167,22,0.004533,0.057370
31,1,-0.019249,-0.060398,2,0.080388,0.009787,3,0.029223,0.028219,4,0.003578,-0.051590,5,-0.006037,-0.035086,6,0.034944,0.160400,7,-0.186038,0.272569,8,0.282481,-0.023382,9,0.162690,0.244549,10,-0.061893,-0.297554,11,0.042566,-0.217210,12,0.285701,-0.035713,13,0.140104,0.315620,14,0.044392,0.274587,15,0.182616,-0.257621,16,0.236151,-0.164268,17,-0.219376,-0.098230,18,0.001241,-0.049351,19,0.058312,0.052404,20,-0.054213,-0.012364,21,0.009932,-0.049835,22,0.060649,0.048044
32,1,-0.042045,0.008968,2,0.022331,-0.062928,3,0.055726,0.030758,4,-0.021865,-0.045721,5,0.045451,-0.027175,6,0.184735,-0.125009,7,0.344237,0.104569,8,0.027706,-0.274757,9,0.364455,-0.000438,10,-0.086131,-0.219432,11,0.067251,-0.289375,12,0.105973,0.153836,13,0.228240,-0.241182,14,0.218480,0.121092,15,-0.042557,-0.296454,16,0.248910,-0.135972,17,-0.170304,-0.194096,18,-0.067238,-0.009463,19,0.035527,-0.012113,20,0.020741,0.022285,21,-0.020831,-0.020296,22,-0.000584,-0.000476
33,1,0.067300,-0.071953,2,-0.089573,0.057819,3,-0.038522,-0.054673,4,-0.067972,0.049512,5,-0.005519,-0.117377,6,-0.303917,0.054339,7,-0.097229,-0.274089,8,-0.263012,-0.036717,9,0.108661,-0.278196,10,-0.206517,-0.104415,11,0.055949,-0.272933,12,-0.002917,0.108031,13,-0.142077,-0.221474,14,0.328039,-0.172162,15,-0.118858,-0.283783,16,0.268089,-0.121097,17,0.016663,-0.240941,18,-0.047918,-0.010142,19,-0.037467,-0.063171,20,-0.088329,0.025187,21,-0.021505,-0.039332,22,0.073509,0.038018
34,1,-0.006127,-0.037707,2,0.003411,0.047099,3,-0.019872,0.003960,4,-0.016661,-0.004951,5,0.016974,-0.047166,6,0.415142,-0.229074,7,0.025531,0.280924,8,0.138357,0.275023,9,-0.205164,-0.166079,10,-0.169968,0.112459,11,-0.137579,-0.269886,12,0.020816,0.055272,13,0.224388,0.004168,14,-0.212803,0.237209,15,0.059324,0.278456,16,-0.235903,-0.069635,17,-0.254333,0.022824,18,-0.035044,-0.106425,19,0.073853,-0.014251,20,0.017602,-0.079387,21,-0.019779,0.057412,22,0.006076,0.014874
35,1,-0.019603,-0.009668,2,-0.028852,0.007857,3,0.006945,-0.036275,4,-0.017360,-0.004377,5,0.026960,-0.014990,6,0.102986,-0.477567,7,0.002312,0.203980,8,0.123637,0.251916,9,-0.280525,-0.194289,10,-0.246554,0.047627,11,0.030147,-0.265870,12,0.054021,0.019536,13,0.239572,-0.084820,14,-0.020947,0.279780,15,0.166679,0.184706,16,-0.245102,-0.010733,17,-0.211837,0.056988,18,-0.160989,0.099753,19,0.008535,-0.041387,20,-0.026106,-0.045080,21,0.092470,0.037632,22,-0.058481,-0.123649
36,1,0.025895,-0.033761,2,0.026102,0.040230,3,-0.033926,0.016966,4,0.031021,0.011413,5,-0.017193,0.023309,6,-0.009048,0.242076,7,-0.328128,0.229575,8,0.172489,0.221492,9,-0.122919,0.317958,10,0.269258,-0.067901,11,0.265171,0.071029,12,0.068336,0.201588,13,0.179194,0.172299,14,0.004214,0.232581,15,0.202627,-0.161734,16,0.236997,0.045200,17,-0.030342,-0.247281,18,-0.015346,-0.113690,19,0.116844,-0.078969,20,-0.083777,0.090109,21,-0.048972,-0.121236,22,0.102426,0.038587
37,1,0.069554,-0.011328,2,-0.081334,0.041243,3,-0.036516,-0.066677,4,-0.063005,0.006483,5,0.017667,-0.054030,6,-0.300712,0.046394,7,-0.102383,-0.273907,8,-0.250113,-0.057910,9,0.096721,-0.258914,10,-0.226862,-0.113869,11,0.032567,-0.293986,12,0.025652,0.123166,13,-0.277887,-0.154562,14,0.234640,-0.275367,15,-0.256367,-0.119059,16,0.202178,-0.253392,17,-0.089947,-0.184888,18,-0.037086,-0.014505,19,-0.066738,-0.028457,20,-0.015868,0.084545,21,-0.086077,-0.008769,22,0.054014,-0.040673
38,1,0.006832,0.097746,2,-0.056374,-0.079867,3,0.034911,-0.055126,4,-0.064254,0.017402,5,-0.049085,-0.045462,6,0.179832,-0.062110,7,0.248884,0.161718,8,-0.000522,-0.297898,9,0.333636,-0.032321,10,-0.216685,-0.139144,11,-0.102924,-0.282098,12,0.211774,0.039555,13,0.366314,-0.015848,14,0.154548,0.206701,15,0.059591,-0.322621,16,0.214459,-0.096911,17,-0.177488,-0.179878,18,0.040452,0.008691,19,0.065788,0.012536,20,-0.058829,-0.004734,21,-0.017155,-0.023151,22,0.016616,-0.025916
39,1,-0.020629,-0.038942,2,-0.006973,0.056615,3,-0.022744,-0.036173,4,-0.014923,-0.036368,5,0.036294,-0.006277,6,0.057213,-0.545743,7,0.049746,0.223239,8,0.162315,0.240513,9,-0.159247,-0.270130,10,-0.217886,-0.095636,11,0.198998,-0.154815,12,-0.051731,0.013913,13,0.218957,-0.040580,14,-0.170050,0.195299,15,-0.104741,0.270905,16,-0.056561,-0.211701,17,-0.056115,-0.224260,18,-0.043760,-0.087733,19,0.098948,0.010647,20,-0.006450,-0.023468,21,-0.058725,0.049853,22,0.030710,0.040312
40,1,0.056188,-0.006581,2,-0.000164,-0.012244,3,0.001399,-0.011806,4,-0.016086,-0.046334,5,0.025111,-0.016056,6,-0.346825,0.061849,7,-0.158949,-0.265602,8,-0.278738,-0.093931,9,0.144217,-0.237912,10,-0.230172,-0.163243,11,0.065222,-0.269635,12,0.020307,0.114322,13,-0.312561,0.033830,14,0.069767,-0.313366,15,-0.255937,0.007188,16,0.061005,-0.296263,17,-0.208314,-0.141031,18,0.067357,0.075301,19,-0.049469,0.019139,20,-0.017329,0.039063,21,-0.010601,0.024896,22,0.035514,0.015131
