# Input file for Beam Configurations for an HPL.
#
# BeamId,[repeat the following 22 times]:PhaseCenterNumber,BeamWeight_real_part,BeamWeight_imag_part
# Each Beam ID should be a number from 1 to 40.
# Each Phase Center Number should be a whole number between 1 and 22.
# Each Beam Weight can have a floating point value.
# NOTE: Beam ID and Phase Center Number values are not used in parsing, and each row is parsed as if in numerical order
#       The Beam ID and Phase Center Number values are simply to assist in editing this input file.
1,1,-0.088114,0.085355,2,-0.131537,-0.004823,3,-0.027563,0.028180,4,-0.027702,-0.096824,5,-0.131380,-0.157880,6,0.053913,0.055533,7,0.073634,0.162679,8,-0.130021,-0.115873,9,-0.198396,-0.078245,10,0.130704,-0.077823,11,0.064679,-0.134371,12,-0.587142,-0.458471,13,0.178883,0.028251,14,0.141036,-0.093241,15,0.006456,0.146119,16,0.114866,0.137705,17,-0.162126,-0.066733,18,-0.056668,0.001067,19,-0.102999,0.040984,20,-0.096250,-0.134391,21,0.074674,-0.053054,22,0.052456,0.010131
2,1,0.121257,0.164982,2,-0.040062,0.118314,3,-0.002840,0.113905,4,-0.175014,-0.068500,5,-0.186505,0.085399,6,0.051181,0.067657,7,0.180745,0.086691,8,-0.242918,-0.017730,9,-0.144295,0.044039,10,0.093715,-0.131461,11,0.015500,-0.193198,12,-0.538479,-0.428111,13,0.177347,-0.030972,14,0.086647,-0.140143,15,0.086531,0.202213,16,0.088510,0.101683,17,-0.134409,-0.115944,18,-0.045516,0.021384,19,-0.071665,0.027223,20,0.057902,-0.115136,21,0.038713,0.019892,22,-0.007025,-0.034359
3,1,0.139769,-0.149321,2,0.065278,0.100425,3,0.204885,0.119417,4,-0.125663,0.228515,5,-0.093076,0.096236,6,0.163081,-0.062622,7,0.195407,-0.156042,8,-0.103370,0.134111,9,-0.080244,0.113312,10,0.043157,-0.193301,11,-0.097239,-0.171531,12,-0.231700,-0.519032,13,0.131909,-0.239496,14,-0.096771,-0.212565,15,0.093443,0.155575,16,0.117099,0.159368,17,-0.156945,-0.128078,18,-0.024761,-0.038743,19,-0.069608,-0.039820,20,0.059838,0.008390,21,0.026831,-0.046267,22,0.035819,-0.027122
4,1,-0.072907,-0.145238,2,0.278471,0.099350,3,0.184404,-0.219326,4,-0.105517,0.197255,5,-0.204277,0.290517,6,-0.012334,-0.188927,7,-0.022503,-0.211710,8,-0.066527,0.177550,9,-0.098842,0.201896,10,0.003313,-0.134783,11,0.002467,-0.220515,12,0.095455,-0.362075,13,0.065095,-0.278600,14,0.000484,-0.129598,15,-0.024763,0.232749,16,0.105585,0.187334,17,-0.025167,-0.198329,18,-0.069063,0.016549,19,-0.046198,0.019288,20,0.028944,-0.019861,21,0.040469,0.030675,22,0.013775,0.044952
5,1,-0.122286,-0.112770,2,0.053809,-0.374453,3,0.137532,-0.122087,4,0.077655,0.373004,5,-0.128328,0.225581,6,-0.208219,0.122656,7,-0.178933,-0.016882,8,0.114320,0.302141,9,0.066193,0.109409,10,0.034783,-0.254718,11,-0.000328,-0.165337,12,0.184230,-0.161182,13,-0.174524,-0.143635,14,-0.065415,-0.187133,15,0.137544,0.124695,16,-0.003780,0.219863,17,0.002885,-0.176416,18,0.007439,0.070702,19,-0.017855,0.019806,20,-0.047407,-0.033168,21,0.044091,0.047399,22,-0.021774,0.002280
6,1,-0.238262,0.257918,2,0.031992,-0.184532,3,-0.004615,-0.280555,4,-0.040267,0.331252,5,-0.306401,0.221147,6,0.006634,0.070516,7,-0.248343,-0.017273,8,0.152630,0.103042,9,-0.015566,0.212318,10,0.116839,-0.159346,11,0.156350,-0.104458,12,0.098537,0.085714,13,-0.165304,-0.214371,14,-0.106015,-0.144037,15,-0.050245,0.257535,16,-0.131405,0.147635,17,0.201864,-0.025247,18,-0.010136,-0.069460,19,-0.015632,-0.055872,20,0.027369,0.002697,21,-0.070894,0.017940,22,-0.043057,-0.016353
7,1,0.207208,0.076744,2,-0.269699,-0.086153,3,-0.078811,-0.184935,4,0.048427,0.254688,5,-0.395751,-0.014110,6,0.032740,-0.018017,7,0.170509,0.279421,8,0.264487,-0.102330,9,0.130340,0.094641,10,0.025408,-0.254234,11,0.167526,-0.036209,12,0.003456,0.058962,13,-0.180854,0.288727,14,-0.168510,-0.049077,15,0.146204,0.181452,16,-0.096510,0.187253,17,0.191481,0.037734,18,-0.035433,0.046985,19,-0.001145,0.035020,20,0.032959,0.016156,21,-0.000536,0.036550,22,0.031999,-0.038371
8,1,0.236916,-0.134385,2,-0.185865,0.089398,3,-0.187999,-0.179143,4,-0.109046,0.267988,5,-0.220370,-0.277291,6,0.009734,-0.097991,7,0.221476,-0.014339,8,0.056362,-0.288294,9,0.198929,0.165815,10,0.129786,-0.187526,11,0.206776,0.089405,12,-0.040610,0.031888,13,0.140051,0.220493,14,-0.169305,0.168248,15,0.127381,0.214409,16,-0.186916,0.101665,17,0.070197,0.190226,18,0.074065,0.017760,19,0.046942,-0.023533,20,-0.012131,-0.028827,21,-0.034562,-0.050510,22,0.032093,0.028965
9,1,0.021496,-0.376019,2,-0.227533,0.174907,3,-0.129980,-0.177943,4,-0.195778,0.211192,5,0.119962,-0.322387,6,-0.117689,0.029537,7,0.192910,-0.162841,8,-0.036835,-0.197469,9,0.185921,0.064037,10,0.201478,-0.151000,11,0.062187,0.206038,12,-0.043055,-0.038847,13,0.203898,0.074948,14,-0.054364,0.191083,15,0.166629,0.145458,16,-0.204015,0.071392,17,-0.130670,0.210314,18,-0.039094,-0.032468,19,-0.051256,0.000408,20,-0.035844,-0.000820,21,-0.004009,0.056648,22,0.033353,0.031303
10,1,-0.236642,-0.210671,2,-0.184184,0.295979,3,-0.099606,-0.207163,4,-0.261146,0.105218,5,0.326431,-0.051770,6,0.015152,0.175789,7,-0.076829,-0.263965,8,-0.124380,-0.176031,9,0.163446,0.073376,10,0.213621,-0.079347,11,-0.079163,0.220964,12,-0.008744,-0.052571,13,0.142113,-0.160832,14,0.017805,0.208813,15,0.162505,0.109017,16,-0.189797,0.014376,17,-0.205085,0.123651,18,-0.076826,0.032426,19,-0.009836,0.093045,20,0.018639,-0.005773,21,0.055495,0.008593,22,-0.008214,-0.021303
11,1,-0.291952,-0.022938,2,-0.080198,0.310854,3,-0.067371,-0.219821,4,-0.280191,-0.018162,5,0.246780,0.172929,6,0.166601,0.073123,7,-0.273014,-0.147113,8,-0.229166,-0.140119,9,0.160094,0.070616,10,0.198603,-0.011812,11,-0.152764,0.161465,12,0.036781,-0.041780,13,-0.033464,-0.220254,14,0.130587,0.196762,15,0.204214,0.078351,16,-0.182057,-0.031442,17,-0.242674,0.017113,18,-0.017854,0.071575,19,0.080183,0.029707,20,0.017402,-0.059619,21,0.014423,-0.033025,22,0.003910,0.007250
12,1,-0.192778,0.160560,2,-0.021940,0.289650,3,-0.084808,-0.241848,4,-0.137205,-0.214631,5,-0.048437,0.239966,6,0.057369,-0.308357,7,-0.238400,0.203439,8,-0.216590,0.035385,9,0.224293,0.089441,10,0.217290,0.071626,11,-0.190704,-0.038014,12,0.041891,0.043546,13,-0.226576,0.089073,14,0.229099,-0.078448,15,0.182856,-0.040483,16,-0.223160,-0.010922,17,-0.196895,-0.059165,18,0.079072,-0.033361,19,-0.016478,-0.090940,20,-0.030427,0.019439,21,-0.036361,0.017758,22,0.012140,0.033598
13,1,-0.190421,0.096518,2,-0.023168,0.244305,3,0.062515,-0.247301,4,0.045230,-0.270044,5,-0.242975,0.096085,6,-0.349751,-0.216842,7,0.028762,0.259063,8,-0.171718,0.082664,9,0.201739,0.038445,10,0.119486,0.089554,11,-0.105171,-0.139952,12,-0.039640,0.058886,13,0.039564,0.272524,14,0.019842,-0.246520,15,0.128802,-0.159141,16,-0.194965,0.126341,17,-0.205166,-0.009839,18,-0.047840,-0.077319,19,-0.105598,0.047687,20,-0.017721,0.008243,21,0.093055,0.072108,22,0.032971,0.005654
14,1,-0.100815,0.046491,2,-0.101760,0.091089,3,0.134077,-0.055497,4,0.140509,-0.030415,5,-0.052510,-0.187560,6,-0.532365,0.134733,7,0.040020,0.255283,8,-0.220148,0.094333,9,0.188372,0.101199,10,0.060057,0.183177,11,-0.006716,-0.232733,12,-0.028995,-0.001048,13,0.243101,0.168608,14,-0.117136,-0.190716,15,0.073695,-0.213145,16,-0.155551,0.155539,17,-0.165576,-0.083059,18,-0.075895,0.023316,19,0.032519,0.121626,20,-0.015794,0.096876,21,0.069482,-0.093769,22,0.024285,-0.092421
15,1,-0.068556,-0.001397,2,-0.116367,0.061496,3,0.091676,-0.036553,4,0.136327,0.033402,5,-0.088623,-0.077366,6,-0.423773,0.363235,7,0.108466,0.282544,8,-0.151260,0.181696,9,0.182910,0.050284,10,0.155698,0.135629,11,-0.020051,-0.154265,12,0.018820,0.012380,13,0.286323,-0.074503,14,-0.190225,-0.077949,15,-0.133663,-0.192228,16,-0.024828,0.198623,17,-0.221223,0.109184,18,-0.036873,0.050785,19,0.131467,-0.085672,20,0.147372,-0.011120,21,-0.073354,-0.078948,22,-0.151044,-0.044528
16,1,-0.062417,-0.056274,2,-0.042514,-0.015725,3,0.097259,0.029522,4,0.024065,0.040668,5,0.080077,-0.066179,6,-0.390497,0.366401,7,0.126382,0.294532,8,-0.167122,0.164628,9,0.211628,-0.002710,10,0.147241,0.138206,11,-0.097099,-0.226280,12,0.047375,-0.017749,13,0.228587,-0.149265,14,-0.224814,0.013395,15,-0.168399,-0.124690,16,0.098196,0.221926,17,-0.126850,0.169015,18,0.049089,0.115856,19,0.021408,-0.127483,20,0.062460,-0.155893,21,-0.101245,-0.047886,22,-0.084247,0.145513
17,1,-0.020972,-0.083566,2,-0.051331,-0.020667,3,0.051875,0.076265,4,0.053540,0.031972,5,0.082947,-0.034282,6,-0.430422,0.264545,7,0.035810,0.332924,8,-0.207894,0.115709,9,0.201395,0.071985,10,0.117021,0.161704,11,-0.012444,-0.237564,12,0.048204,-0.009129,13,0.238243,-0.133181,14,-0.244119,-0.000572,15,-0.152559,-0.130041,16,0.084879,0.229206,17,-0.135981,0.183249,18,0.090449,0.106308,19,0.025499,-0.125425,20,0.035184,-0.175368,21,-0.133089,-0.049021,22,-0.030380,0.159757
18,1,-0.002723,0.001281,2,-0.023371,-0.069963,3,-0.024867,-0.000036,4,-0.037301,0.017307,5,0.039263,-0.050234,6,-0.389983,-0.028838,7,-0.170506,0.263227,8,-0.236557,0.056074,9,0.160281,0.153430,10,0.108881,0.166063,11,-0.052501,-0.273797,12,0.004542,-0.046975,13,0.270913,-0.141748,14,-0.233821,0.015513,15,-0.223601,-0.090815,16,0.140903,0.156416,17,0.008269,0.238451,18,0.136937,0.087110,19,-0.019735,-0.194888,20,-0.135199,-0.175836,21,-0.196034,0.152859,22,0.086860,0.134325
19,1,0.022670,-0.013724,2,0.027132,-0.006800,3,-0.031788,0.026401,4,-0.005090,0.007606,5,-0.037643,0.000872,6,-0.167342,-0.225406,7,-0.262856,0.127655,8,-0.230386,0.005566,9,0.173435,0.077159,10,0.153072,0.117321,11,-0.255896,-0.109234,12,-0.044270,0.012460,13,0.270507,-0.061764,14,-0.225284,0.068097,15,-0.186512,0.008711,16,0.248910,0.003410,17,0.181784,0.020475,18,0.283865,0.104279,19,-0.143456,-0.167541,20,-0.282517,-0.067647,21,0.144885,0.263583,22,0.194698,-0.098462
20,1,-0.000562,0.022974,2,0.029051,0.021097,3,0.015243,-0.005680,4,-0.000125,0.018595,5,-0.008831,-0.019873,6,0.087305,-0.079966,7,-0.216206,-0.126133,8,-0.190365,-0.140973,9,0.204913,0.119517,10,0.166730,-0.009329,11,-0.179501,0.160554,12,0.010337,0.016902,13,0.198856,0.097250,14,-0.210591,-0.004489,15,-0.171994,0.134385,16,0.098586,-0.166145,17,0.034871,-0.195534,18,0.239832,0.152587,19,-0.250451,-0.245970,20,-0.308554,0.226596,21,0.318668,-0.042972,22,-0.189327,-0.119000
21,1,-0.009849,0.013079,2,0.022285,0.007960,3,0.017163,-0.004603,4,0.010715,0.011900,5,-0.007838,-0.043988,6,0.093134,-0.021486,7,-0.110371,-0.214581,8,-0.181294,-0.179577,9,0.207973,0.084038,10,0.147293,-0.045937,11,-0.072010,0.248693,12,0.012159,-0.003930,13,0.115819,0.162210,14,-0.224534,-0.000391,15,-0.122867,0.160388,16,0.032087,-0.188376,17,-0.111988,-0.204748,18,0.145872,0.261960,19,-0.266650,-0.271781,20,-0.242262,0.255567,21,0.252437,-0.176723,22,-0.211219,0.049241
22,1,-0.029060,0.027136,2,-0.013455,-0.015989,3,0.013064,-0.006697,4,-0.023477,0.003076,5,-0.005766,-0.011671,6,0.018418,0.061553,7,0.141238,-0.310458,8,-0.110015,-0.196771,9,0.156748,0.023527,10,0.063568,-0.159444,11,0.220988,0.060250,12,-0.033962,-0.049089,13,-0.019685,0.261208,14,-0.229193,-0.014341,15,-0.087906,0.153783,16,-0.124519,-0.161490,17,-0.187837,0.130146,18,-0.186156,0.351202,19,-0.157999,-0.265164,20,-0.125864,0.279045,21,0.026106,-0.277266,22,-0.012541,0.209544
23,1,-0.010737,0.021173,2,0.010470,-0.030535,3,0.047834,-0.011934,4,-0.019357,-0.021250,5,0.075522,0.037705,6,-0.070274,-0.006158,7,0.267825,0.090182,8,0.076840,-0.155605,9,0.146820,0.058783,10,-0.027799,-0.202809,11,0.165326,-0.140522,12,-0.052601,0.032471,13,-0.207657,0.007398,14,-0.079336,-0.181137,15,-0.143753,0.105571,16,-0.176778,-0.056817,17,0.002070,0.211610,18,-0.434532,-0.138560,19,0.055394,-0.318416,20,-0.223887,0.246782,21,0.018102,-0.241539,22,0.187470,0.211122
24,1,-0.010022,0.004708,2,-0.023358,0.060340,3,-0.005698,0.007423,4,0.020677,-0.007087,5,0.004106,-0.112947,6,0.049142,-0.150075,7,0.235562,0.140216,8,0.030789,-0.261943,9,0.212063,-0.059366,10,-0.254095,-0.071519,11,-0.215926,-0.179340,12,0.023757,0.049235,13,-0.245994,-0.066178,14,-0.162402,-0.191230,15,-0.013447,0.232172,16,-0.172971,0.168125,17,0.256306,-0.030029,18,-0.164373,-0.328166,19,0.171450,-0.199078,20,-0.112608,0.145655,21,-0.115321,-0.165884,22,0.155464,-0.058591
25,1,-0.067595,-0.113099,2,0.017564,-0.025825,3,-0.015668,0.069076,4,-0.012937,0.005612,5,-0.100903,-0.026517,6,0.071799,-0.002743,7,0.262570,0.279627,8,0.073737,-0.241126,9,0.183103,-0.144923,10,-0.249925,0.095841,11,-0.253529,0.070306,12,0.150609,0.026947,13,-0.208961,-0.151626,14,-0.062818,-0.247246,15,0.024399,0.219752,16,-0.093319,0.239300,17,0.160226,-0.165879,18,0.160169,-0.214180,19,0.154986,-0.082144,20,-0.159801,0.111155,21,-0.125524,-0.067806,22,0.081348,-0.252871
26,1,0.021090,0.008345,2,0.035895,-0.045876,3,0.028088,0.000363,4,-0.056726,-0.004704,5,-0.061599,0.079329,6,-0.075603,-0.034138,7,0.135843,0.297792,8,-0.056728,-0.236841,9,0.120138,-0.254565,10,-0.112643,0.257296,11,-0.053231,0.252162,12,0.233436,-0.100521,13,-0.102624,-0.242230,14,-0.059391,-0.208104,15,0.129530,0.242489,16,0.026979,0.233562,17,0.021501,-0.261018,18,0.148497,-0.079238,19,0.179262,-0.037544,20,-0.117389,0.077225,21,-0.218696,0.051030,22,-0.036956,-0.265705
27,1,0.037241,0.015279,2,0.031733,0.054345,3,0.079715,-0.049150,4,-0.018787,0.060721,5,-0.015152,0.056977,6,0.156606,-0.058955,7,-0.013812,0.255470,8,0.032785,-0.325661,9,0.056545,-0.247073,10,-0.040910,0.268231,11,0.092837,0.194787,12,0.215405,-0.329737,13,0.085402,-0.170454,14,-0.002054,-0.202823,15,0.040395,0.217514,16,0.082415,0.230264,17,-0.034685,-0.246333,18,0.147207,0.082612,19,0.087158,0.084605,20,-0.116979,0.079528,21,-0.246395,-0.033197,22,-0.039822,-0.251412
28,1,-0.073687,-0.069443,2,-0.002247,-0.120753,3,-0.044286,-0.061816,4,0.082662,0.024132,5,0.121385,-0.072686,6,0.085906,0.100979,7,0.016973,0.267640,8,-0.036640,-0.203205,9,-0.081725,-0.208392,10,0.165088,0.084253,11,0.176931,0.008235,12,-0.226036,-0.601061,13,0.159857,-0.071992,14,0.140363,-0.153370,15,0.016612,0.235133,16,0.092327,0.147060,17,-0.114724,-0.124844,18,-0.094799,0.118408,19,0.069183,0.112672,20,-0.105268,-0.016390,21,-0.107173,-0.106585,22,0.002141,-0.136035
29,1,0.041023,-0.037644,2,0.035132,0.084041,3,0.058214,0.070105,4,-0.040652,-0.026831,5,-0.054715,-0.097542,6,-0.106555,0.082385,7,-0.305141,-0.095924,8,0.228052,0.156580,9,0.127411,0.203654,10,-0.100022,-0.264014,11,-0.149242,-0.199344,12,-0.034779,-0.443025,13,-0.140299,0.252056,14,-0.071097,0.237028,15,0.115639,-0.192277,16,0.124798,-0.210047,17,-0.167481,0.164156,18,0.075834,-0.015623,19,0.125979,0.005534,20,-0.060221,0.032597,21,-0.143439,-0.097033,22,0.042860,-0.060257
30,1,-0.060793,0.000580,2,-0.014711,0.087858,3,-0.049011,-0.048104,4,-0.052325,-0.019194,5,0.019063,0.096122,6,-0.581895,0.050134,7,0.173536,0.125862,8,0.191194,0.119876,9,-0.123281,-0.163112,10,-0.149686,-0.186230,11,0.204863,0.174601,12,-0.006422,-0.026941,13,0.176804,-0.196195,14,-0.088931,0.176229,15,-0.125154,0.244946,16,0.084941,-0.219411,17,0.187922,-0.183556,18,-0.093777,0.028849,19,0.141990,-0.082145,20,0.041000,0.009708,21,-0.096795,0.000271,22,0.053986,0.038675
31,1,-0.037533,-0.070330,2,0.100270,0.027485,3,0.046700,0.020972,4,-0.071733,-0.051931,5,-0.029036,-0.046480,6,0.136556,0.086816,7,0.034547,0.349959,8,0.199098,-0.182620,9,0.238047,0.082137,10,-0.222604,-0.200858,11,-0.064499,-0.212818,12,0.252199,-0.185331,13,0.314866,0.179164,14,0.173938,0.171043,15,-0.012125,-0.294566,16,0.082187,-0.261648,17,-0.231632,0.117016,18,-0.036191,-0.036635,19,0.086356,-0.017592,20,-0.049163,0.037285,21,-0.037906,-0.045402,22,0.086911,-0.017649
32,1,-0.050346,0.020803,2,0.040453,-0.076319,3,0.079807,0.012758,4,-0.086906,-0.009713,5,0.049311,-0.065689,6,0.040945,-0.217723,7,0.355435,-0.151279,8,-0.140691,-0.224819,9,0.250120,-0.191214,10,-0.197888,-0.125486,11,-0.077151,-0.290680,12,0.183494,0.090501,13,0.042765,-0.348391,14,0.218951,-0.028049,15,-0.202175,-0.196213,16,0.109141,-0.249643,17,-0.280702,0.010725,18,-0.056178,0.044018,19,0.012935,-0.040499,20,0.033993,-0.001763,21,-0.033863,0.004083,22,-0.000855,0.000161
33,1,0.066902,-0.104308,2,-0.124617,0.056672,3,-0.069035,-0.048371,4,0.010385,0.143655,5,-0.076236,-0.164071,6,-0.172835,0.250544,7,-0.267025,-0.157390,8,-0.219578,0.126003,9,-0.070563,-0.246187,10,-0.225287,0.037167,11,-0.078871,-0.268619,12,0.054504,0.104085,13,-0.257931,-0.098477,14,0.142513,-0.292051,15,-0.249831,-0.141845,16,0.131480,-0.247778,17,-0.190636,-0.177974,18,-0.042294,0.028680,19,-0.082142,-0.008442,20,-0.041559,0.093082,21,-0.051359,-0.009243,22,0.087641,-0.036331
34,1,-0.016426,-0.046030,2,-0.004566,0.061508,3,-0.022247,0.013411,4,-0.022673,0.020070,5,-0.003338,-0.078431,6,0.129833,-0.457397,7,0.216780,0.215681,8,0.269446,0.128508,9,-0.230126,-0.006674,10,-0.071031,0.191811,11,-0.253496,-0.177771,12,0.049901,0.042136,13,0.195341,-0.138610,14,-0.027736,0.282969,15,0.206277,0.174842,16,-0.222273,0.086630,17,-0.156629,0.232662,18,-0.107158,-0.051532,19,0.037191,-0.077559,20,-0.055909,-0.072803,21,0.038229,0.060896,22,0.017826,0.005763
35,1,-0.026982,-0.007657,2,-0.038893,0.004670,3,-0.007409,-0.046908,4,-0.022536,0.021697,5,0.030291,-0.037816,6,-0.268292,-0.411650,7,0.144349,0.168403,8,0.245164,0.119906,9,-0.298197,0.013658,10,-0.171993,0.185232,11,-0.100435,-0.255247,12,0.062875,-0.010300,13,0.152444,-0.225321,14,0.133104,0.212881,15,0.233221,0.042168,16,-0.194942,0.137678,17,-0.098368,0.220737,18,-0.042342,0.197084,19,-0.032311,-0.036128,20,-0.058103,-0.010141,21,0.103714,-0.057453,22,-0.154644,-0.040927
36,1,0.024292,-0.047514,2,0.025550,0.055835,3,-0.032886,0.034512,4,0.044565,-0.034650,5,-0.010895,0.043111,6,0.162786,0.173816,7,-0.110645,0.410962,8,0.258600,0.065886,9,0.081284,0.279912,10,0.174360,-0.210338,11,0.268064,-0.061653,12,0.171243,0.154667,13,0.257896,0.033739,14,0.123397,0.161775,15,0.057235,-0.234513,16,0.204505,-0.103937,17,-0.227296,-0.142478,18,-0.096284,-0.070525,19,0.006861,-0.157954,20,0.016853,0.135115,21,-0.145244,-0.044058,22,0.109196,-0.061081
37,1,0.084175,-0.030073,2,-0.111985,0.037473,3,-0.072393,-0.063998,4,-0.048061,0.098275,5,-0.006346,-0.088033,6,-0.177664,0.244839,7,-0.273403,-0.155013,8,-0.224121,0.103368,9,-0.069258,-0.228749,10,-0.249084,0.041842,11,-0.110467,-0.278630,12,0.090402,0.104177,13,-0.333708,0.042985,14,0.023087,-0.319190,15,-0.259581,0.058869,16,0.004606,-0.311682,17,-0.218043,-0.050876,18,-0.038055,0.017528,19,-0.070973,0.041584,20,0.061103,0.074401,21,-0.071431,0.072214,22,0.004303,-0.078050
38,1,0.030629,0.119223,2,-0.056586,-0.111882,3,0.017823,-0.080183,4,-0.032879,0.109028,5,-0.096320,-0.036158,6,0.081191,-0.168832,7,0.313641,-0.038166,8,-0.174226,-0.223830,9,0.210428,-0.195281,10,-0.253310,0.015417,11,-0.223940,-0.201690,12,0.221707,-0.074637,13,0.299043,-0.241299,14,0.216330,0.065799,15,-0.139971,-0.272084,16,0.105028,-0.198001,17,-0.271274,0.026313,18,0.035759,-0.024088,19,0.055295,-0.050973,20,-0.045917,0.046601,21,-0.033475,-0.001363,22,-0.010423,-0.033673
39,1,-0.035015,-0.044301,2,-0.019828,0.071938,3,-0.043219,-0.033798,4,-0.067626,-0.011470,5,0.048972,-0.030651,6,-0.348913,-0.426611,7,0.197055,0.151124,8,0.267716,0.087966,9,-0.253710,-0.103285,10,-0.233524,0.051733,11,0.105678,-0.235472,12,-0.042507,0.041392,13,0.162576,-0.173870,14,-0.019159,0.230614,15,0.078703,0.264849,16,-0.169321,-0.128998,17,-0.230432,-0.107590,18,-0.099438,-0.031161,19,0.077274,-0.083795,20,-0.025019,-0.011459,21,0.002325,0.091327,22,0.059113,0.002928
40,1,0.068951,-0.021199,2,0.002113,-0.015800,3,-0.003431,-0.014799,4,-0.083049,-0.018853,5,0.026801,-0.038027,6,-0.200070,0.289745,7,-0.315940,-0.109706,8,-0.268502,0.093361,9,-0.025723,-0.240478,10,-0.282236,0.004158,11,-0.070040,-0.273782,12,0.080983,0.099091,13,-0.246167,0.226364,14,-0.114961,-0.261318,15,-0.187568,0.153506,16,-0.128655,-0.262575,17,-0.263605,0.079713,18,0.106789,0.003908,19,-0.016044,0.058289,20,0.021154,0.043178,21,0.015025,0.028180,22,0.040050,-0.020220
