# Input file for Beam Configurations for an HPL.
#
# BeamId,[repeat the following 22 times]:PhaseCenterNumber,BeamWeight_real_part,BeamWeight_imag_part
# Each Beam ID should be a number from 1 to 40.
# Each Phase Center Number should be a whole number between 1 and 22.
# Each Beam Weight can have a floating point value.
# NOTE: Beam ID and Phase Center Number values are not used in parsing, and each row is parsed as if in numerical order
#       The Beam ID and Phase Center Number values are simply to assist in editing this input file.
1,1,-0.107330,0.071522,2,-0.109818,-0.005421,3,-0.033997,0.020958,4,0.043788,-0.076446,5,0.023388,-0.179891,6,0.079132,0.048770,7,0.135746,0.151042,8,-0.124995,-0.148152,9,-0.263814,-0.063362,10,0.138332,-0.107902,11,0.074926,-0.124695,12,-0.509409,-0.501288,13,0.191018,0.005719,14,0.151355,-0.147095,15,0.017019,0.156330,16,0.094946,0.164425,17,-0.158492,-0.084626,18,-0.044308,-0.018637,19,-0.084605,-0.026209,20,0.005810,-0.116395,21,0.073734,-0.012814,22,0.033253,0.025417
2,1,0.093452,0.192416,2,-0.034496,0.097780,3,-0.030481,0.110589,4,-0.063453,-0.150547,5,-0.166239,-0.069098,6,0.079022,0.063289,7,0.224318,0.031646,8,-0.263178,-0.057445,9,-0.172865,0.080573,10,0.087715,-0.162910,11,0.032249,-0.185091,12,-0.463413,-0.464080,13,0.180370,-0.055717,14,0.073294,-0.190793,15,0.106134,0.209656,16,0.073495,0.121311,17,-0.124408,-0.131141,18,-0.042370,0.000942,19,-0.057851,-0.018919,20,0.081937,-0.037920,21,0.021399,0.028120,22,0.007023,-0.026383
3,1,0.167771,-0.124065,2,0.051877,0.082066,3,0.167097,0.162592,4,-0.213399,0.058872,5,-0.114715,-0.002436,6,0.166338,-0.117376,7,0.153505,-0.229328,8,-0.131019,0.127575,9,-0.078579,0.152332,10,0.020862,-0.220669,11,-0.076663,-0.170174,12,-0.159132,-0.504666,13,0.102997,-0.260337,14,-0.163042,-0.231209,15,0.107712,0.155711,16,0.090593,0.181874,17,-0.142581,-0.142303,18,-0.005719,-0.037405,19,-0.022603,-0.057921,20,0.028481,0.029959,21,0.035004,-0.023928,22,0.033564,-0.006325
4,1,-0.047081,-0.161573,2,0.228073,0.084643,3,0.231459,-0.167933,4,-0.185208,0.053410,5,-0.306164,0.041472,6,-0.068977,-0.213082,7,-0.095714,-0.218444,8,-0.099753,0.182360,9,-0.087357,0.267799,10,-0.015416,-0.152382,11,0.021920,-0.210762,12,0.128677,-0.329628,13,0.030525,-0.295807,14,-0.029038,-0.156687,15,-0.010337,0.247661,16,0.075149,0.211305,17,-0.005299,-0.201733,18,-0.058348,-0.010726,19,-0.037826,-0.011024,20,0.024317,0.001705,21,0.018746,0.036313,22,-0.005941,0.035790
5,1,-0.103319,-0.137567,2,0.048114,-0.307124,3,0.162416,-0.084960,4,-0.183391,0.271789,5,-0.219537,0.051462,6,-0.202929,0.200837,7,-0.196530,0.042507,8,0.077074,0.345197,9,0.101131,0.124031,10,0.003008,-0.291657,11,0.014334,-0.158016,12,0.190106,-0.131280,13,-0.198560,-0.125016,14,-0.121649,-0.210868,15,0.153647,0.122269,16,-0.042973,0.224975,17,0.020642,-0.176673,18,-0.018215,0.056446,19,-0.020698,0.003299,20,-0.011433,-0.038464,21,0.015554,0.049650,22,-0.015806,-0.005904
6,1,-0.288060,0.215956,2,0.027965,-0.149988,3,0.062551,-0.270100,4,-0.226457,0.172509,5,-0.319106,-0.064070,6,0.027795,0.078161,7,-0.268345,0.064996,8,0.148166,0.134171,9,0.017621,0.263539,10,0.107967,-0.194254,11,0.157283,-0.085220,12,0.082437,0.090198,13,-0.196631,-0.197347,14,-0.159412,-0.148306,15,-0.035229,0.272860,16,-0.159721,0.127047,17,0.203259,-0.004973,18,0.015602,-0.055922,19,0.017867,-0.041527,20,0.013580,0.013158,21,-0.057131,-0.011450,22,-0.023883,-0.025844
7,1,0.193815,0.115231,2,-0.217763,-0.072617,3,-0.031266,-0.195198,4,-0.126269,0.180303,5,-0.221748,-0.257033,6,0.031844,-0.029723,7,0.272638,0.237115,8,0.298487,-0.068981,9,0.175669,0.093269,10,-0.007376,-0.285913,11,0.161106,-0.019494,12,-0.003071,0.054914,13,-0.146380,0.316755,14,-0.211667,-0.020474,15,0.164419,0.179162,16,-0.130577,0.172682,17,0.185764,0.056352,18,-0.042331,0.023550,19,-0.017749,0.020575,20,0.010781,0.022686,21,-0.012877,0.025970,22,0.034784,-0.015278
8,1,0.258332,-0.089724,2,-0.149160,0.069429,3,-0.134630,-0.212140,4,-0.223959,0.090886,5,0.045176,-0.295300,6,-0.016750,-0.111689,7,0.224575,-0.087550,8,0.102680,-0.294849,9,0.267415,0.165767,10,0.115988,-0.222792,11,0.184116,0.100714,12,-0.040298,0.024777,13,0.168079,0.202579,14,-0.161030,0.234593,15,0.144657,0.211285,16,-0.203770,0.069024,17,0.049778,0.192090,18,0.049020,0.037445,19,0.039149,0.008525,20,0.005678,-0.020276,21,-0.007345,-0.047183,22,0.011838,0.030098
9,1,0.090861,-0.373240,2,-0.186167,0.139390,3,-0.081713,-0.200582,4,-0.244314,0.005967,5,0.272454,-0.112390,6,-0.124484,0.067001,7,0.148571,-0.235586,8,-0.009187,-0.216691,9,0.238236,0.046253,10,0.202519,-0.195811,11,0.040599,0.199582,12,-0.035682,-0.040494,13,0.216751,0.049732,14,-0.021673,0.239609,15,0.183183,0.140237,16,-0.218999,0.036482,17,-0.150124,0.195080,18,-0.018589,-0.037450,19,-0.031113,-0.024708,20,-0.018845,-0.015689,21,-0.022221,0.039143,22,0.012093,0.032593
10,1,-0.199730,-0.256445,2,-0.153180,0.239341,3,-0.046075,-0.222540,4,-0.219855,-0.097083,5,0.223968,0.176001,6,0.067758,0.195360,7,-0.169820,-0.253463,8,-0.106659,-0.208379,9,0.213627,0.061897,10,0.227355,-0.118666,11,-0.094452,0.202484,12,-0.002514,-0.049830,13,0.124236,-0.182776,14,0.068594,0.245899,15,0.177488,0.103187,16,-0.195757,-0.018841,17,-0.216404,0.102569,18,-0.069000,-0.001214,19,-0.051532,0.051632,20,0.012510,0.004867,21,0.036969,0.025252,22,0.001635,-0.017378
11,1,-0.286967,-0.076369,2,-0.067781,0.249604,3,-0.011985,-0.224345,4,-0.153917,-0.180079,5,0.034865,0.254309,6,0.207859,0.034765,7,-0.334226,-0.063297,8,-0.222225,-0.183719,9,0.206599,0.058398,10,0.217535,-0.040666,11,-0.157138,0.137997,12,0.038225,-0.034522,13,-0.062111,-0.218063,14,0.198521,0.203543,15,0.216543,0.067476,16,-0.177706,-0.063375,17,-0.240348,-0.007106,18,-0.037063,0.047614,19,0.033702,0.056623,20,0.034483,-0.024380,21,0.021472,-0.018582,22,0.000204,0.006220
12,1,-0.215671,0.121426,2,-0.020073,0.226798,3,-0.022687,-0.242590,4,0.047680,-0.203590,5,-0.173140,0.105748,6,-0.022580,-0.352733,7,-0.176882,0.283839,8,-0.229147,0.004560,9,0.280021,0.068377,10,0.242995,0.047493,11,-0.170602,-0.050761,12,0.032990,0.043250,13,-0.211404,0.115840,14,0.246596,-0.140172,15,0.181470,-0.052607,16,-0.216607,-0.048540,17,-0.182711,-0.075503,18,0.068285,0.001210,19,0.033211,-0.060812,20,-0.023760,-0.002453,21,-0.031021,0.000269,22,-0.003016,0.026088
13,1,-0.201917,0.059692,2,-0.020580,0.191199,3,0.114446,-0.213728,4,0.184682,-0.127983,5,-0.195235,-0.093526,6,-0.441936,-0.140161,7,0.112792,0.254181,8,-0.189700,0.060058,9,0.244808,0.011849,10,0.140377,0.079961,11,-0.084010,-0.136410,12,-0.041493,0.048578,13,0.072942,0.262665,14,-0.030832,-0.287977,15,0.119331,-0.168523,16,-0.212233,0.090591,17,-0.195311,-0.029095,18,-0.009887,-0.071658,19,-0.084038,-0.021901,20,-0.012568,-0.003022,21,0.040532,0.080610,22,0.019841,0.014517
14,1,-0.102354,0.026179,2,-0.077808,0.067891,3,0.131610,-0.019679,4,0.094862,0.062921,5,0.081432,-0.132714,6,-0.525090,0.283968,7,0.118701,0.238040,8,-0.232998,0.062678,9,0.231047,0.085136,10,0.086118,0.181877,11,0.013066,-0.205166,12,-0.024910,-0.003779,13,0.250686,0.130412,14,-0.170105,-0.187135,15,0.058245,-0.211604,16,-0.172335,0.121429,17,-0.145132,-0.091987,18,-0.060517,-0.007230,19,-0.036948,0.083217,20,-0.046348,0.042133,21,0.076254,-0.040422,22,0.044620,-0.050997
15,1,-0.064032,-0.013118,2,-0.088714,0.045453,3,0.089830,-0.012236,4,0.056438,0.095955,5,-0.002806,-0.094159,6,-0.350291,0.496631,7,0.194667,0.243897,8,-0.177052,0.159890,9,0.216999,0.028003,10,0.179263,0.120343,11,-0.005062,-0.137492,12,0.015034,0.012567,13,0.262730,-0.105324,14,-0.227943,-0.046664,15,-0.142060,-0.178624,16,-0.056033,0.183804,17,-0.214642,0.080428,18,-0.041738,0.024221,19,0.113086,0.011526,20,0.078176,0.053034,21,-0.023822,-0.076189,22,-0.081952,-0.076119
16,1,-0.048778,-0.063448,2,-0.032014,-0.012305,3,0.080065,0.047854,4,-0.009789,0.036140,5,0.082376,0.010993,6,-0.314019,0.490613,7,0.215805,0.249855,8,-0.190275,0.140440,9,0.241042,-0.037108,10,0.170663,0.124004,11,-0.066972,-0.207005,12,0.042661,-0.010623,13,0.198705,-0.169135,14,-0.246953,0.062135,15,-0.171457,-0.110644,16,0.056459,0.225790,17,-0.132815,0.144353,18,-0.001566,0.096644,19,0.070005,-0.062060,20,0.093156,-0.053133,21,-0.052331,-0.064271,22,-0.099530,0.065801
17,1,-0.005286,-0.082223,2,-0.038800,-0.016196,3,0.029409,0.079751,4,0.011488,0.048271,5,0.065496,0.030149,6,-0.384919,0.395512,7,0.139409,0.317083,8,-0.224924,0.086164,9,0.242387,0.049977,10,0.143012,0.152946,11,0.008465,-0.210911,12,0.042700,-0.003113,13,0.210687,-0.155704,14,-0.272478,0.050888,15,-0.157055,-0.117326,16,0.042863,0.231459,17,-0.143166,0.157312,18,0.030583,0.103238,19,0.071673,-0.059289,20,0.087622,-0.074015,21,-0.073541,-0.075503,22,-0.070107,0.092269
18,1,-0.002879,0.000759,2,-0.017672,-0.055223,3,-0.022997,-0.005761,4,-0.031626,-0.012064,5,0.052801,-0.004448,6,-0.435249,0.076533,7,-0.088785,0.323671,8,-0.253565,0.023061,9,0.215620,0.155113,10,0.139776,0.164026,11,-0.024786,-0.254705,12,0.008915,-0.041663,13,0.249065,-0.173617,14,-0.266487,0.068961,15,-0.231654,-0.077157,16,0.111722,0.177520,17,-0.015012,0.229592,18,0.071764,0.107820,19,0.080487,-0.123336,20,0.002340,-0.147128,21,-0.186645,0.041077,22,0.013200,0.117182
19,1,0.025756,-0.009773,2,0.022479,-0.005332,3,-0.037290,0.017971,4,-0.007785,0.001434,5,-0.022905,-0.023591,6,-0.258306,-0.210727,7,-0.238357,0.226172,8,-0.251842,-0.029828,9,0.229563,0.065676,10,0.189913,0.110902,11,-0.236037,-0.127694,12,-0.043069,0.006948,13,0.271831,-0.099591,14,-0.257594,0.134275,15,-0.197267,0.021977,16,0.256149,0.048001,17,0.181205,0.039024,18,0.182224,0.176352,19,-0.005052,-0.174174,20,-0.124859,-0.159429,21,0.013828,0.242578,22,0.168999,-0.001078
20,1,-0.005133,0.024547,2,0.024954,0.018609,3,0.016998,-0.001924,4,-0.012177,0.011696,5,0.007858,-0.018321,6,0.081046,-0.123334,7,-0.288275,-0.064780,8,-0.194638,-0.192342,9,0.289942,0.118530,10,0.196620,-0.036042,11,-0.195976,0.145090,12,0.008305,0.017896,13,0.229513,0.078138,14,-0.269184,0.045006,15,-0.181904,0.161984,16,0.137923,-0.161414,17,0.057661,-0.203243,18,0.138627,0.208306,19,-0.033496,-0.289180,20,-0.279927,-0.010630,21,0.259542,0.083600,22,-0.094704,-0.155225
21,1,-0.013150,0.012096,2,0.019234,0.007146,3,0.018684,-0.000336,4,-0.000956,0.014508,5,0.024691,-0.032682,6,0.105980,-0.054450,7,-0.200759,-0.202073,8,-0.177960,-0.235016,9,0.287423,0.071580,10,0.168063,-0.076612,11,-0.095848,0.244007,12,0.012476,-0.002505,13,0.148293,0.160216,14,-0.285961,0.053584,15,-0.125337,0.187429,16,0.070088,-0.197971,17,-0.096795,-0.228594,18,0.024016,0.262850,19,-0.030506,-0.314289,20,-0.255146,0.036147,21,0.257766,-0.042953,22,-0.171606,-0.040687
22,1,-0.036092,0.023108,2,-0.011349,-0.013838,3,0.014848,-0.003471,4,-0.016663,-0.013163,5,0.004201,-0.011013,6,0.040577,0.067907,7,0.047557,-0.394815,8,-0.092481,-0.240032,9,0.206721,0.001869,10,0.050992,-0.196443,11,0.214501,0.080401,12,-0.027675,-0.051781,13,0.014584,0.283010,14,-0.291620,0.036492,15,-0.085806,0.175382,16,-0.103257,-0.195799,17,-0.210006,0.116359,18,-0.271656,0.213643,19,0.035718,-0.250303,20,-0.196692,0.101324,21,0.119835,-0.200129,22,-0.084010,0.146180
23,1,-0.016002,0.021006,2,0.009595,-0.026866,3,0.052846,-0.000025,4,0.001596,-0.026556,5,0.022132,0.075706,6,-0.088481,0.014321,7,0.339973,0.006026,8,0.115508,-0.168573,9,0.206716,0.050780,10,-0.064604,-0.241278,11,0.183287,-0.128657,12,-0.056805,0.026648,13,-0.228931,0.037489,14,-0.147424,-0.215583,15,-0.155466,0.130342,16,-0.184256,-0.096517,17,-0.020662,0.228510,18,-0.306132,-0.271575,19,0.205498,-0.180033,20,-0.245256,0.040239,21,0.104113,-0.181644,22,0.061133,0.225893
24,1,-0.010977,0.002891,2,-0.019648,0.048904,3,-0.007234,0.005756,4,0.016634,0.008421,5,0.073743,-0.063530,6,0.012672,-0.184496,7,0.296006,0.069258,8,0.073322,-0.276684,9,0.250221,-0.109619,10,-0.293567,-0.044058,11,-0.188766,-0.188823,12,0.016821,0.048296,13,-0.259694,-0.035563,14,-0.237508,-0.191970,15,0.001567,0.243807,16,-0.205594,0.140547,17,0.257837,-0.004299,18,-0.014376,-0.303182,19,0.201359,-0.036790,20,-0.122900,0.030243,21,-0.025935,-0.158847,22,0.126263,0.012849
25,1,-0.046372,-0.124323,2,0.014315,-0.020484,3,-0.030952,0.061377,4,-0.010931,-0.004487,5,-0.041576,-0.077855,6,0.079297,-0.023324,7,0.364724,0.203903,8,0.114210,-0.243342,9,0.196310,-0.205997,10,-0.260685,0.139577,11,-0.241950,0.043544,12,0.134674,0.040402,13,-0.228886,-0.125341,14,-0.128760,-0.276525,15,0.039613,0.224230,16,-0.134685,0.222979,17,0.172745,-0.146321,18,0.189430,-0.106387,19,0.131785,0.025583,20,-0.131187,-0.008358,21,-0.065766,-0.090224,22,0.139204,-0.142677
26,1,0.019345,0.012088,2,0.029146,-0.036293,3,0.026332,0.006919,4,-0.030292,-0.036761,5,-0.084535,0.007392,6,-0.093826,-0.016712,7,0.238803,0.264151,8,-0.024091,-0.258175,9,0.101565,-0.327171,10,-0.087797,0.297183,11,-0.071186,0.229724,12,0.223375,-0.067195,13,-0.133664,-0.229471,14,-0.115883,-0.230998,15,0.148969,0.240330,16,-0.013459,0.237763,17,0.046508,-0.252506,18,0.136188,-0.009986,19,0.124641,0.063730,20,-0.094387,-0.008471,21,-0.171422,-0.037689,22,0.063936,-0.190610
27,1,0.034260,0.022008,2,0.024949,0.043998,3,0.086983,-0.027719,4,-0.047651,0.024319,5,-0.044263,0.023471,6,0.158719,-0.110441,7,0.070090,0.271035,8,0.084125,-0.340257,9,0.026351,-0.309127,10,-0.007812,0.300987,11,0.069887,0.190089,12,0.232288,-0.279691,13,0.064145,-0.182634,14,-0.047708,-0.238906,15,0.056155,0.221863,16,0.042683,0.245471,17,-0.009791,-0.245090,18,0.082527,0.110284,19,0.011286,0.092695,20,-0.095687,-0.007124,21,-0.163523,-0.107036,22,0.057571,-0.183032
28,1,-0.061606,-0.083903,2,-0.000585,-0.098647,3,-0.027778,-0.070027,4,0.034530,0.065064,5,0.117299,0.034210,6,0.126893,0.090208,7,0.107954,0.277998,8,-0.008166,-0.224563,9,-0.136830,-0.242517,10,0.196595,0.070982,11,0.167322,0.023401,12,-0.146292,-0.584387,13,0.154237,-0.094532,14,0.133547,-0.215796,15,0.033307,0.245564,16,0.068194,0.166338,17,-0.101903,-0.135950,18,-0.111646,0.057941,19,-0.013231,0.102445,20,-0.049790,-0.053989,21,-0.040553,-0.113738,22,0.047903,-0.092561
29,1,0.046552,-0.029236,2,0.026721,0.066271,3,0.037631,0.078107,4,-0.007501,-0.039305,5,0.028485,-0.088279,6,-0.093706,0.119559,7,-0.341610,0.000852,8,0.212788,0.195750,9,0.184667,0.219692,10,-0.143242,-0.270148,11,-0.119276,-0.194457,12,0.014436,-0.400116,13,-0.106353,0.265344,14,-0.030242,0.288517,15,0.104044,-0.201234,16,0.157921,-0.184605,17,-0.176140,0.141106,18,0.060261,0.013084,19,0.070945,0.062602,20,-0.044642,-0.007905,21,-0.067213,-0.114613,22,0.047982,-0.025637
30,1,-0.056406,-0.009807,2,-0.011839,0.065592,3,-0.032613,-0.053107,4,-0.017822,-0.039868,5,-0.045518,0.062752,6,-0.593595,0.205855,7,0.207258,0.068779,8,0.171763,0.145284,9,-0.165033,-0.164454,10,-0.177476,-0.171529,11,0.164154,0.168433,12,-0.002839,-0.023630,13,0.142339,-0.205071,14,-0.061075,0.212099,15,-0.105125,0.243143,16,0.114897,-0.191280,17,0.188450,-0.150434,18,-0.074009,-0.008813,19,0.115996,0.018081,20,0.016458,0.020906,21,-0.064001,-0.030354,22,0.021821,0.041176
31,1,-0.023395,-0.073405,2,0.076720,0.022079,3,0.037485,0.029462,4,-0.010313,-0.070460,5,0.011651,-0.042941,6,0.169660,0.055927,7,0.145011,0.337817,8,0.228092,-0.156116,9,0.289055,0.056284,10,-0.260773,-0.181751,11,-0.039972,-0.195360,12,0.239621,-0.136985,13,0.324933,0.133802,14,0.232599,0.155749,15,-0.030659,-0.289751,16,0.122289,-0.237266,17,-0.228113,0.087907,18,-0.014230,-0.037539,19,0.057468,0.029783,20,-0.039977,-0.000901,21,-0.010989,-0.043038,22,0.061695,0.016510
32,1,-0.050870,0.010850,2,0.031421,-0.057505,3,0.068422,0.029133,4,-0.042631,-0.054855,5,0.065531,-0.006809,6,-0.014968,-0.241171,7,0.302708,-0.259905,8,-0.108606,-0.245088,9,0.255341,-0.259074,10,-0.222082,-0.104480,11,-0.044286,-0.262734,12,0.149834,0.096591,13,-0.001536,-0.336383,14,0.237990,-0.077387,15,-0.209310,-0.178513,16,0.144389,-0.218617,17,-0.260943,-0.016139,18,-0.053293,0.013475,19,0.025761,-0.016972,20,0.017743,0.012656,21,-0.023978,-0.008097,22,-0.000595,-0.000168
33,1,0.081173,-0.086786,2,-0.095486,0.041972,3,-0.051106,-0.058789,4,-0.076351,0.085889,5,0.055187,-0.134888,6,-0.116204,0.312508,7,-0.313374,-0.071899,8,-0.238766,0.095067,9,-0.120924,-0.271450,10,-0.230234,0.068430,11,-0.047812,-0.244462,12,0.036985,0.095930,13,-0.258240,-0.062652,14,0.097624,-0.356896,15,-0.253424,-0.123074,16,0.165960,-0.214101,17,-0.160699,-0.183306,18,-0.038898,0.007034,19,-0.042716,-0.042386,20,-0.058158,0.030240,21,-0.031565,-0.022712,22,0.067632,0.004664
34,1,-0.007374,-0.045382,2,-0.003995,0.045926,3,-0.022508,0.006925,4,-0.023635,-0.001759,5,0.043665,-0.044068,6,0.014664,-0.510729,7,0.276617,0.142530,8,0.247513,0.164675,9,-0.260456,0.029017,10,-0.047968,0.205553,11,-0.205997,-0.174933,12,0.038428,0.040825,13,0.166424,-0.153134,14,0.028313,0.316320,15,0.208837,0.155107,16,-0.221501,0.044921,17,-0.164196,0.197946,18,-0.058512,-0.068687,19,0.055516,-0.026446,20,0.000955,-0.057898,21,0.006029,0.052216,22,0.009386,0.009185
35,1,-0.023713,-0.011695,2,-0.029173,0.003128,3,0.003764,-0.042978,4,-0.024525,-0.000795,5,0.038271,-0.002764,6,-0.388840,-0.358859,7,0.192219,0.119200,8,0.225259,0.153093,9,-0.334657,0.062876,10,-0.152507,0.212292,11,-0.066864,-0.230418,12,0.054746,-0.002628,13,0.116143,-0.229713,14,0.190683,0.206435,15,0.226981,0.026125,16,-0.204672,0.097198,17,-0.110179,0.192800,18,-0.090137,0.123989,19,-0.001755,-0.034680,20,-0.024770,-0.027868,21,0.086699,-0.005228,22,-0.084440,-0.074143
36,1,0.031482,-0.041046,2,0.019131,0.043249,3,-0.037599,0.023862,4,0.045098,0.006261,5,-0.031778,0.017358,6,0.221965,0.142361,7,0.019662,0.445830,8,0.253123,0.104497,9,0.140208,0.311816,10,0.155976,-0.245097,11,0.245191,-0.032958,12,0.134868,0.153212,13,0.253053,0.000855,14,0.174162,0.156551,15,0.041687,-0.235636,16,0.214034,-0.065896,17,-0.200258,-0.155382,18,-0.046504,-0.080912,19,0.077019,-0.087369,20,-0.046058,0.075581,21,-0.084418,-0.077107,22,0.090271,-0.004352
37,1,0.084362,-0.013740,2,-0.085436,0.027390,3,-0.050485,-0.073345,4,-0.082701,0.027141,5,0.048399,-0.051810,6,-0.122520,0.306880,7,-0.318037,-0.067358,8,-0.239402,0.071466,9,-0.116274,-0.250915,10,-0.253737,0.076224,11,-0.074771,-0.255205,12,0.067991,0.099316,13,-0.312500,0.081397,14,-0.041611,-0.360960,15,-0.249616,0.073753,16,0.055609,-0.294991,17,-0.197486,-0.067465,18,-0.032315,0.000473,19,-0.059114,-0.008881,20,0.000999,0.061727,21,-0.071025,0.025541,22,0.027526,-0.048421
38,1,0.008295,0.118682,2,-0.042361,-0.086460,3,0.034152,-0.068459,4,-0.081269,0.042213,5,-0.031631,-0.077312,6,0.041168,-0.202694,7,0.300505,-0.137150,8,-0.144043,-0.251941,9,0.211834,-0.260478,10,-0.264412,0.049807,11,-0.183268,-0.198637,12,0.201775,-0.043075,13,0.258188,-0.268858,14,0.257965,0.028045,15,-0.155333,-0.259480,16,0.133629,-0.172445,17,-0.256762,-0.000838,18,0.033096,-0.005880,19,0.055119,-0.003623,20,-0.042089,0.005135,21,-0.022245,-0.011761,22,0.004086,-0.025055
39,1,-0.024615,-0.046464,2,-0.015343,0.053032,3,-0.030306,-0.038800,4,-0.030180,-0.043742,5,0.043626,0.011796,6,-0.471122,-0.348856,7,0.235212,0.085104,8,0.248966,0.123198,9,-0.299307,-0.075363,10,-0.230054,0.082263,11,0.109695,-0.194147,12,-0.039899,0.030819,13,0.130192,-0.180398,14,0.026583,0.254467,15,0.090990,0.246866,16,-0.135803,-0.146301,17,-0.198362,-0.118038,18,-0.058813,-0.051650,19,0.079796,-0.011795,20,-0.007781,-0.015320,21,-0.026968,0.060356,22,0.035814,0.020095
40,1,0.067719,-0.007931,2,0.001737,-0.011845,3,0.000224,-0.013835,4,-0.034935,-0.057142,5,0.036611,-0.004919,6,-0.132661,0.356273,7,-0.341817,-0.009279,8,-0.279178,0.054441,9,-0.067497,-0.268246,10,-0.289796,0.040878,11,-0.038997,-0.244750,12,0.059636,0.092883,13,-0.204524,0.242535,14,-0.181284,-0.264176,15,-0.171394,0.159715,16,-0.078001,-0.267179,17,-0.248979,0.048838,18,0.073238,0.035699,19,-0.035265,0.025342,20,-0.006527,0.029768,21,0.001036,0.023433,22,0.031598,-0.000180
