# Input file for Beam Configurations for an HPL.
#
# BeamId,[repeat the following 22 times]:PhaseCenterNumber,BeamWeight_real_part,BeamWeight_imag_part
# Each Beam ID should be a number from 1 to 40.
# Each Phase Center Number should be a whole number between 1 and 22.
# Each Beam Weight can have a floating point value.
# NOTE: Beam ID and Phase Center Number values are not used in parsing, and each row is parsed as if in numerical order
#       The Beam ID and Phase Center Number values are simply to assist in editing this input file.
1,1,-0.132384,0.088218,2,-0.143727,0.016642,3,-0.044605,0.009480,4,0.060787,-0.084106,5,0.040458,-0.186361,6,0.044197,0.062498,7,0.087595,0.171357,8,-0.117052,-0.146470,9,-0.231033,-0.085605,10,0.143535,-0.065356,11,0.066207,-0.150537,12,-0.478371,-0.531434,13,0.182845,-0.019246,14,0.154563,-0.075109,15,0.008199,0.146848,16,0.111929,0.141928,17,-0.161916,-0.092258,18,-0.049054,-0.020809,19,-0.095351,-0.013063,20,-0.060033,-0.152393,21,0.084489,-0.037636,22,0.048750,0.019547
2,1,0.114099,0.234926,2,-0.023457,0.133007,3,-0.074482,0.106123,4,-0.055061,-0.182359,5,-0.166302,-0.086245,6,0.039025,0.072717,7,0.195753,0.082696,8,-0.250434,-0.061685,9,-0.162894,0.053445,10,0.109682,-0.122789,11,0.009622,-0.210017,12,-0.430283,-0.486510,13,0.163080,-0.075663,14,0.104290,-0.127509,15,0.087905,0.199002,16,0.084955,0.103185,17,-0.123981,-0.138099,18,-0.046496,0.000892,19,-0.064713,-0.009901,20,0.082086,-0.095074,21,0.033794,0.026956,22,-0.000377,-0.033912
3,1,0.206439,-0.152659,2,0.084835,0.095119,3,0.116958,0.238430,4,-0.256665,0.042350,5,-0.119661,-0.012698,6,0.163518,-0.035119,7,0.195903,-0.172295,8,-0.129659,0.119699,9,-0.087084,0.128562,10,0.064305,-0.188093,11,-0.110018,-0.179449,12,-0.128062,-0.512378,13,0.064377,-0.260881,14,-0.066901,-0.219847,15,0.092713,0.150374,16,0.109949,0.158581,17,-0.143431,-0.151242,18,-0.006198,-0.041385,19,-0.034438,-0.057934,20,0.053703,0.021796,21,0.034635,-0.039158,22,0.038360,-0.018888
4,1,-0.056520,-0.193967,2,0.305925,0.059080,3,0.305006,-0.089242,4,-0.217610,0.038500,5,-0.315723,0.015845,6,0.016113,-0.178786,7,-0.033613,-0.217389,8,-0.098446,0.169124,9,-0.104796,0.225839,10,0.017948,-0.132801,11,-0.005382,-0.233084,12,0.144487,-0.312806,13,-0.008902,-0.278316,14,0.017064,-0.125125,15,-0.021265,0.224638,16,0.097024,0.183758,17,0.000248,-0.203721,18,-0.062919,-0.011764,19,-0.041372,-0.004961,20,0.031264,-0.011595,21,0.032544,0.036841,22,0.004723,0.044060
5,1,-0.123557,-0.164514,2,-0.003648,-0.396606,3,0.200959,-0.028102,4,-0.241010,0.286583,5,-0.227391,0.033381,6,-0.211925,0.083975,7,-0.184547,-0.008597,8,0.063647,0.325545,9,0.075430,0.119012,10,0.061780,-0.246600,11,-0.006304,-0.173789,12,0.191769,-0.115952,13,-0.199204,-0.090663,14,-0.039022,-0.188175,15,0.133298,0.118055,16,-0.009433,0.211195,17,0.025631,-0.177030,18,-0.019762,0.060608,19,-0.020944,0.006994,20,-0.035810,-0.041322,21,0.032618,0.053131,22,-0.020453,-0.001768
6,1,-0.339212,0.254304,2,0.003783,-0.191643,3,0.163241,-0.254349,4,-0.273709,0.166063,5,-0.313700,-0.091102,6,-0.003994,0.065098,7,-0.249742,-0.005476,8,0.133484,0.127499,9,-0.011987,0.228678,10,0.128958,-0.140540,11,0.156765,-0.112691,12,0.073384,0.090759,13,-0.203327,-0.155347,14,-0.081542,-0.148313,15,-0.044238,0.241650,16,-0.127079,0.135119,17,0.201333,0.000607,18,0.016693,-0.059134,19,0.011241,-0.045531,20,0.023882,0.008568,21,-0.068666,0.003380,22,-0.035864,-0.022163
7,1,0.234206,0.139245,2,-0.292288,-0.046353,3,0.040502,-0.217397,4,-0.166848,0.191547,5,-0.205227,-0.283052,6,0.033037,-0.011985,7,0.188144,0.277733,8,0.284500,-0.057824,9,0.145318,0.100966,10,0.052354,-0.246393,11,0.174268,-0.043967,12,-0.006261,0.053544,13,-0.096594,0.314389,14,-0.155219,-0.068427,15,0.141806,0.171868,16,-0.097394,0.176873,17,0.187121,0.062427,18,-0.046052,0.025436,19,-0.015059,0.024697,20,0.026407,0.022333,21,-0.007430,0.034302,22,0.036167,-0.029556
8,1,0.312770,-0.108631,2,-0.175371,0.120039,3,-0.062134,-0.274663,4,-0.268591,0.077193,5,0.072168,-0.299701,6,0.022947,-0.088361,7,0.222807,-0.025097,8,0.104904,-0.277261,9,0.219118,0.175047,10,0.145340,-0.167338,11,0.216791,0.085042,12,-0.040975,0.021894,13,0.182998,0.168241,14,-0.180978,0.137711,15,0.122410,0.200696,16,-0.179180,0.091177,17,0.045288,0.196889,18,0.053216,0.040908,19,0.042681,0.002142,20,-0.004401,-0.028714,21,-0.022635,-0.053323,22,0.023984,0.031812
9,1,0.106624,-0.437988,2,-0.201328,0.210341,3,-0.010310,-0.235054,4,-0.272975,-0.022224,5,0.281010,-0.089009,6,-0.110302,0.010045,7,0.183977,-0.170909,8,-0.003147,-0.199568,9,0.199618,0.064141,10,0.207462,-0.122505,11,0.070442,0.207414,12,-0.031570,-0.040528,13,0.202711,0.018444,14,-0.074116,0.170996,15,0.156205,0.133193,16,-0.191549,0.061183,17,-0.153374,0.188360,18,-0.019485,-0.039557,19,-0.035907,-0.019939,20,-0.031608,-0.008718,21,-0.014082,0.051016,22,0.024336,0.033621
10,1,-0.234902,-0.301606,2,-0.140398,0.327748,3,0.034248,-0.245043,4,-0.234060,-0.134474,5,0.208814,0.194739,6,-0.011209,0.161977,7,-0.089529,-0.260742,8,-0.093227,-0.194741,9,0.177296,0.075202,10,0.213222,-0.053510,11,-0.073412,0.229377,12,0.000481,-0.047594,13,0.090401,-0.181466,14,-0.009262,0.197980,15,0.153221,0.100228,16,-0.178310,0.008593,17,-0.216729,0.095522,18,-0.072931,-0.001506,19,-0.043926,0.061506,20,0.017963,-0.000973,21,0.049519,0.018204,22,-0.003687,-0.020558
11,1,-0.342262,-0.091084,2,-0.033041,0.327448,3,0.070847,-0.237717,4,-0.152707,-0.222458,5,0.013499,0.260580,6,0.141404,0.090370,7,-0.281122,-0.134664,8,-0.203209,-0.177306,9,0.174034,0.072478,10,0.192129,0.009683,11,-0.151329,0.171346,12,0.038932,-0.031099,13,-0.084520,-0.193256,14,0.098198,0.201165,15,0.192354,0.071249,16,-0.170267,-0.034242,17,-0.240769,-0.013747,18,-0.039885,0.050918,19,0.044662,0.052903,20,0.029026,-0.049512,21,0.019452,-0.027807,22,0.002261,0.007206
12,1,-0.265687,0.149585,2,0.022816,0.298373,3,0.068681,-0.269233,4,0.081040,-0.232267,5,-0.190510,0.095293,6,0.096679,-0.274161,7,-0.230757,0.216682,8,-0.221416,-0.001485,9,0.244802,0.091763,10,0.202235,0.092303,11,-0.198320,-0.032510,12,0.030289,0.045132,13,-0.186333,0.137598,14,0.226156,-0.045396,15,0.171867,-0.040150,16,-0.210444,-0.016098,17,-0.187055,-0.083386,18,0.075600,0.001571,19,0.024766,-0.071002,20,-0.031803,0.010619,21,-0.037048,0.009683,22,0.005120,0.032514
13,1,-0.252785,0.074729,2,0.014728,0.256426,3,0.208215,-0.188655,4,0.235709,-0.128877,5,-0.199154,-0.117018,6,-0.293864,-0.252617,7,0.042108,0.264142,8,-0.187747,0.053989,9,0.222746,0.037663,10,0.107561,0.100795,11,-0.115401,-0.143081,12,-0.045042,0.046690,13,0.105051,0.244591,14,0.050393,-0.233985,15,0.121545,-0.153794,16,-0.190375,0.116076,17,-0.204696,-0.036267,18,-0.010879,-0.080661,19,-0.095387,-0.008674,20,-0.018111,0.003467,21,0.074023,0.085619,22,0.029303,0.011043
14,1,-0.135231,0.034588,2,-0.092512,0.112375,3,0.159685,0.031472,4,0.110653,0.091571,5,0.103982,-0.141173,6,-0.524308,0.048799,7,0.054441,0.264464,8,-0.243056,0.058498,9,0.213309,0.108939,10,0.039838,0.189639,11,-0.015703,-0.248445,12,-0.026402,-0.005657,13,0.274058,0.098456,14,-0.089731,-0.201485,15,0.069431,-0.208627,16,-0.156132,0.147778,17,-0.158376,-0.106591,18,-0.071833,-0.008805,19,-0.026588,0.102586,20,-0.037403,0.086562,21,0.084801,-0.076569,22,0.039416,-0.082116
15,1,-0.084915,-0.017396,2,-0.113280,0.084005,3,0.108903,0.022943,4,0.058262,0.128382,5,0.005821,-0.106312,6,-0.457723,0.282874,7,0.127918,0.291079,8,-0.188486,0.161326,9,0.207114,0.052328,10,0.141392,0.153483,11,-0.027223,-0.164992,12,0.015324,0.014472,13,0.254653,-0.144478,14,-0.176684,-0.101330,15,-0.133197,-0.186888,16,-0.029741,0.194414,17,-0.241732,0.083079,18,-0.049833,0.028716,19,0.132537,-0.008319,20,0.140666,0.024282,21,-0.055444,-0.090425,22,-0.134047,-0.069317
16,1,-0.064473,-0.083863,2,-0.047377,-0.009720,3,0.072564,0.088090,4,-0.017098,0.044061,5,0.091422,0.020171,6,-0.424687,0.289609,7,0.146691,0.301478,8,-0.201031,0.140276,9,0.237194,-0.007976,10,0.132048,0.154477,11,-0.112171,-0.238503,12,0.046342,-0.008602,13,0.179565,-0.200321,14,-0.221605,-0.016049,15,-0.165767,-0.119785,16,0.090078,0.219681,17,-0.151974,0.156328,18,-0.002210,0.114800,19,0.068601,-0.084619,20,0.094808,-0.130766,21,-0.088013,-0.065591,22,-0.105239,0.121116
17,1,-0.006947,-0.108061,2,-0.057388,-0.013488,3,0.001062,0.103408,4,0.007949,0.061768,5,0.070252,0.039842,6,-0.446781,0.186806,7,0.053879,0.345575,8,-0.234100,0.082608,9,0.227124,0.075890,10,0.099081,0.174388,11,-0.021992,-0.253299,12,0.045636,-0.000558,13,0.192566,-0.187190,14,-0.238318,-0.032164,15,-0.150143,-0.124999,16,0.076744,0.226105,17,-0.162939,0.169443,18,0.035751,0.122053,19,0.070641,-0.081289,20,0.073821,-0.155093,21,-0.118213,-0.072732,22,-0.057255,0.143982
18,1,-0.003666,0.000967,2,-0.035982,-0.070086,3,-0.023249,-0.015515,4,-0.036704,-0.018648,5,0.057517,0.000026,6,-0.365971,-0.085261,7,-0.165252,0.283808,8,-0.253777,0.016289,9,0.183459,0.168443,10,0.090699,0.178295,11,-0.066273,-0.291267,12,0.011796,-0.042403,13,0.221996,-0.204156,14,-0.230924,-0.015162,15,-0.219482,-0.086186,16,0.133741,0.156919,17,-0.022827,0.245353,18,0.081767,0.123665,19,0.066461,-0.151283,20,-0.084970,-0.195907,21,-0.218137,0.109060,22,0.057166,0.141704
19,1,0.031522,-0.011961,2,0.027814,-0.011677,3,-0.046636,0.004964,4,-0.009225,0.000708,5,-0.021730,-0.026537,6,-0.126642,-0.241166,7,-0.271209,0.148026,8,-0.240872,-0.035048,9,0.198354,0.083346,10,0.141693,0.135675,11,-0.280747,-0.108627,12,-0.043095,0.004298,13,0.244367,-0.129085,14,-0.231629,0.037791,15,-0.183893,0.010731,16,0.245967,0.010125,17,0.185320,0.045272,18,0.199849,0.194594,19,-0.036081,-0.184376,20,-0.250328,-0.130727,21,0.089173,0.284305,22,0.202383,-0.057681
20,1,-0.006040,0.028883,2,0.034730,0.017912,3,0.018141,0.004254,4,-0.014993,0.011626,5,0.009403,-0.017643,6,0.096562,-0.064163,7,-0.236848,-0.123487,8,-0.174819,-0.182199,9,0.237191,0.131808,10,0.171179,0.009229,11,-0.189875,0.181922,12,0.006879,0.017528,13,0.218369,0.042755,14,-0.209505,-0.032333,15,-0.169682,0.135782,16,0.102906,-0.163057,17,0.062557,-0.199457,18,0.145928,0.220734,19,-0.083268,-0.290045,20,-0.347781,0.141813,21,0.320808,0.020759,22,-0.159021,-0.148650
21,1,-0.015505,0.014262,2,0.025341,0.004903,3,0.019329,0.006514,4,-0.002794,0.016132,5,0.027496,-0.030633,6,0.093555,-0.006716,7,-0.128794,-0.223604,8,-0.158717,-0.221612,9,0.240357,0.091353,10,0.155792,-0.030375,11,-0.069424,0.274665,12,0.012055,-0.001670,13,0.154949,0.127683,14,-0.224433,-0.030153,15,-0.120727,0.161445,16,0.037250,-0.187455,17,-0.089710,-0.229206,18,0.024599,0.278622,19,-0.084642,-0.316886,20,-0.292253,0.185627,21,0.282885,-0.123662,22,-0.211414,0.008138
22,1,-0.043040,0.027556,2,-0.017128,-0.015001,3,0.016725,0.001904,4,-0.017290,-0.016908,5,0.005199,-0.010793,6,0.008518,0.062404,7,0.134952,-0.338432,8,-0.080486,-0.226694,9,0.180012,0.023200,10,0.082881,-0.155710,11,0.243664,0.057541,12,-0.023689,-0.051613,13,0.048819,0.259028,14,-0.226998,-0.044669,15,-0.085830,0.154283,16,-0.119931,-0.164696,17,-0.213718,0.110854,18,-0.291848,0.228085,19,-0.005978,-0.265549,20,-0.186690,0.235657,21,0.080377,-0.266879,22,-0.050676,0.198180
23,1,-0.018699,0.024546,2,0.006312,-0.035001,3,0.053844,0.019201,4,0.004897,-0.029282,5,0.015601,0.076991,6,-0.067883,-0.016791,7,0.293615,0.083566,8,0.109922,-0.151609,9,0.171391,0.064515,10,-0.005628,-0.212654,11,0.177311,-0.161494,12,-0.055271,0.021955,13,-0.202176,0.061902,14,-0.055870,-0.193559,15,-0.143643,0.108081,16,-0.176959,-0.062282,17,-0.026465,0.223901,18,-0.320637,-0.286196,19,0.178395,-0.217429,20,-0.275394,0.183499,21,0.066204,-0.236030,22,0.141985,0.239266
24,1,-0.013609,0.003584,2,-0.015037,0.068068,3,-0.010040,0.003428,4,0.018533,0.011992,5,0.083307,-0.060313,6,0.069531,-0.136368,7,0.255575,0.136123,8,0.078417,-0.267014,9,0.238666,-0.072202,10,-0.248686,-0.100520,11,-0.239883,-0.185726,12,0.013946,0.049501,13,-0.253470,-0.000328,14,-0.135342,-0.210111,15,-0.010594,0.228958,16,-0.175375,0.161342,17,0.268825,0.002905,18,-0.014987,-0.337865,19,0.210389,-0.075600,20,-0.140541,0.110528,21,-0.079483,-0.183458,22,0.157781,-0.027060
25,1,-0.057541,-0.154267,2,0.014251,-0.029856,3,-0.057194,0.054437,4,-0.012321,-0.006654,5,-0.036865,-0.085756,6,0.068010,0.007986,7,0.286174,0.277123,8,0.117398,-0.233759,9,0.200439,-0.165543,10,-0.258681,0.067825,11,-0.266698,0.083900,12,0.132840,0.048790,13,-0.235824,-0.090441,14,-0.029166,-0.248150,15,0.026114,0.212651,16,-0.096987,0.229862,17,0.184378,-0.147670,18,0.211619,-0.118000,19,0.146693,0.004034,20,-0.173851,0.065738,21,-0.106713,-0.088782,22,0.121048,-0.220628
26,1,0.024120,0.015072,2,0.030336,-0.053978,3,0.025936,0.017743,4,-0.031253,-0.047332,5,-0.090176,0.000246,6,-0.066394,-0.043425,7,0.156155,0.303279,8,-0.016833,-0.252979,9,0.128268,-0.287122,10,-0.140512,0.244038,11,-0.047518,0.270691,12,0.229604,-0.054166,13,-0.158804,-0.203671,14,-0.030985,-0.210439,15,0.128686,0.234317,16,0.020040,0.228294,17,0.056018,-0.263308,18,0.152645,-0.010724,19,0.146509,0.046673,20,-0.127124,0.044344,21,-0.219172,0.006704,22,0.013348,-0.254687
27,1,0.042652,0.027399,2,0.042266,0.052220,3,0.105150,0.003631,4,-0.059388,0.022779,5,-0.048901,0.020852,6,0.157357,-0.032713,7,-0.001740,0.267772,8,0.090940,-0.329901,9,0.057659,-0.278465,10,-0.070528,0.263940,11,0.106515,0.205081,12,0.251227,-0.267730,13,0.037890,-0.184112,14,0.024303,-0.198736,15,0.041913,0.211945,16,0.074461,0.227536,17,-0.003197,-0.256772,18,0.091964,0.123680,19,0.028835,0.098272,20,-0.127826,0.046780,21,-0.230439,-0.079596,22,0.008133,-0.242898
28,1,-0.076900,-0.104732,2,-0.022294,-0.129467,3,-0.003013,-0.086999,4,0.032754,0.081469,5,0.121275,0.046797,6,0.067801,0.110625,7,0.031638,0.284251,8,-0.002144,-0.219960,9,-0.098366,-0.236241,10,0.158886,0.104473,11,0.193272,0.002366,12,-0.112051,-0.599557,13,0.136437,-0.111385,14,0.160226,-0.134367,15,0.019246,0.233767,16,0.088031,0.149157,17,-0.103003,-0.145586,18,-0.125449,0.064619,19,0.004067,0.113517,20,-0.096185,-0.040747,21,-0.083961,-0.125537,22,0.027112,-0.129553
29,1,0.059235,-0.037202,2,0.050527,0.082806,3,0.010800,0.101553,4,-0.004027,-0.048458,5,0.038862,-0.092791,6,-0.113061,0.062220,7,-0.322997,-0.084909,8,0.207067,0.200915,9,0.147314,0.224918,10,-0.070813,-0.274595,11,-0.166648,-0.207382,12,0.039856,-0.411309,13,-0.069206,0.275153,14,-0.100077,0.222175,15,0.110471,-0.188611,16,0.127451,-0.201694,17,-0.192551,0.145752,18,0.068870,0.015173,19,0.089932,0.056227,20,-0.063692,0.016256,21,-0.118822,-0.120744,22,0.050953,-0.048621
30,1,-0.075697,-0.013161,2,-0.001334,0.095419,3,-0.015965,-0.075758,4,-0.017325,-0.053220,5,-0.057934,0.067124,6,-0.561574,-0.038884,7,0.188337,0.123386,8,0.176636,0.157654,9,-0.142589,-0.180714,10,-0.129720,-0.203599,11,0.226465,0.179988,12,-0.001529,-0.025861,13,0.118793,-0.232734,14,-0.110267,0.161469,15,-0.119851,0.241448,16,0.089322,-0.213160,17,0.217249,-0.163858,18,-0.089230,-0.010902,19,0.138784,-0.001336,20,0.036112,0.018743,21,-0.093427,-0.018536,22,0.043768,0.046181
31,1,-0.030152,-0.094608,2,0.109041,0.012664,3,0.030296,0.048144,4,-0.003478,-0.087581,5,0.016733,-0.045921,6,0.115426,0.101517,7,0.052929,0.360162,8,0.234655,-0.151604,9,0.265990,0.085628,10,-0.198435,-0.223103,11,-0.076002,-0.222949,12,0.258705,-0.127788,13,0.341764,0.089389,14,0.146391,0.187855,15,-0.015015,-0.284355,16,0.086492,-0.251042,17,-0.249753,0.088445,18,-0.016351,-0.043534,19,0.069900,0.022692,20,-0.054029,0.023010,21,-0.027350,-0.050423,22,0.083742,-0.000819
32,1,-0.065583,0.013988,2,0.029673,-0.085108,3,0.065207,0.060208,4,-0.045073,-0.072697,5,0.072380,-0.001379,6,0.069549,-0.196013,7,0.355868,-0.171864,8,-0.103175,-0.250626,9,0.269874,-0.215359,10,-0.180058,-0.144092,11,-0.091142,-0.301344,12,0.150287,0.110301,13,-0.046991,-0.334988,14,0.212977,0.000937,15,-0.195149,-0.185041,16,0.110946,-0.235912,17,-0.282308,-0.025262,18,-0.061797,0.015424,19,0.025713,-0.023800,20,0.031413,0.006186,21,-0.032592,-0.002569,22,-0.000812,-0.000004
33,1,0.104980,-0.112240,2,-0.120480,0.078717,3,-0.033948,-0.086861,4,-0.104962,0.095545,5,0.073162,-0.143019,6,-0.198113,0.208880,7,-0.282616,-0.148966,8,-0.244641,0.089944,9,-0.083604,-0.270320,10,-0.226073,0.012162,11,-0.092839,-0.280280,12,0.032639,0.102795,13,-0.266633,-0.027618,14,0.174639,-0.263219,15,-0.241827,-0.133610,16,0.133251,-0.235286,17,-0.169224,-0.204079,18,-0.045238,0.008038,19,-0.055910,-0.039684,20,-0.059696,0.075945,21,-0.046858,-0.018538,22,0.087380,-0.017933
34,1,-0.009779,-0.060189,2,0.005072,0.065032,3,-0.028884,-0.001287,4,-0.029535,-0.005372,5,0.053385,-0.045471,6,0.189282,-0.410928,7,0.235151,0.212713,8,0.252789,0.178064,9,-0.255888,-0.002095,10,-0.091387,0.182422,11,-0.275265,-0.179289,12,0.038607,0.046339,13,0.149312,-0.180116,14,-0.063257,0.270754,15,0.201521,0.166828,16,-0.217784,0.078067,17,-0.189121,0.215650,18,-0.069495,-0.082087,19,0.058939,-0.041090,20,-0.034774,-0.080304,21,0.024733,0.065325,22,0.015523,0.008547
35,1,-0.031477,-0.015525,2,-0.040030,0.011140,3,0.022118,-0.048178,4,-0.030810,-0.004280,5,0.043407,0.000538,6,-0.192292,-0.427688,7,0.158267,0.167806,8,0.230167,0.165546,9,-0.332040,0.022140,10,-0.191336,0.165353,11,-0.116120,-0.267795,12,0.059008,0.000742,13,0.087196,-0.251840,14,0.101974,0.224140,15,0.226763,0.038285,16,-0.193215,0.128660,17,-0.128851,0.211748,18,-0.107984,0.147590,19,-0.008656,-0.039672,20,-0.051515,-0.022946,21,0.110113,-0.034935,22,-0.136697,-0.065912
36,1,0.040248,-0.052474,2,0.035406,0.053916,3,-0.051403,0.011629,4,0.053947,0.013408,5,-0.036098,0.015923,6,0.126633,0.186069,7,-0.093724,0.428194,8,0.250898,0.111478,9,0.096150,0.307095,10,0.194543,-0.188224,11,0.280106,-0.074615,12,0.129985,0.167045,13,0.250161,-0.033067,14,0.098166,0.171525,15,0.052380,-0.225981,16,0.199664,-0.094675,17,-0.210616,-0.172895,18,-0.053148,-0.093130,19,0.069485,-0.111258,20,-0.015711,0.127972,21,-0.129003,-0.069336,22,0.111603,-0.036915
37,1,0.109567,-0.017845,2,-0.110563,0.056836,3,-0.027503,-0.103458,4,-0.105553,0.022659,5,0.058223,-0.052625,6,-0.202075,0.203127,7,-0.289472,-0.146411,8,-0.245684,0.066278,9,-0.081877,-0.251438,10,-0.250384,0.014204,11,-0.126680,-0.290096,12,0.065165,0.108766,13,-0.302618,0.124254,14,0.063113,-0.305054,15,-0.249309,0.059592,16,0.012701,-0.300641,17,-0.213578,-0.079579,18,-0.037721,0.000438,19,-0.068386,0.001035,20,0.039024,0.082607,21,-0.081497,0.054826,22,0.017897,-0.071389
38,1,0.010577,0.151340,2,-0.076124,-0.106591,3,0.065145,-0.062545,4,-0.103838,0.040683,5,-0.027164,-0.086626,6,0.099910,-0.145001,7,0.319035,-0.054307,8,-0.137293,-0.255687,9,0.226532,-0.219174,10,-0.249763,-0.012241,11,-0.241810,-0.203219,12,0.211013,-0.031846,13,0.218533,-0.299500,14,0.198807,0.090475,15,-0.136780,-0.258457,16,0.105782,-0.186848,17,-0.275199,-0.008462,18,0.037951,-0.006623,19,0.060420,-0.014140,20,-0.052634,0.032020,21,-0.031234,-0.007622,22,-0.003603,-0.032738
39,1,-0.033097,-0.062477,2,-0.009247,0.078655,3,-0.019282,-0.058169,4,-0.032615,-0.059944,5,0.048677,0.017689,6,-0.266259,-0.453942,7,0.212289,0.147339,8,0.258982,0.136847,9,-0.285335,-0.109295,10,-0.238033,0.025869,11,0.103863,-0.254426,12,-0.045469,0.030918,13,0.109879,-0.205835,14,-0.048384,0.221882,15,0.079395,0.256237,16,-0.161280,-0.130019,17,-0.220538,-0.139578,18,-0.070883,-0.062635,19,0.090965,-0.029240,20,-0.020541,-0.016466,21,-0.015350,0.087732,22,0.054570,0.013357
40,1,0.089023,-0.010426,2,-0.000318,-0.016787,3,0.005919,-0.015764,4,-0.036048,-0.075964,5,0.041338,-0.002030,6,-0.229725,0.241991,7,-0.331267,-0.097664,8,-0.289204,0.048450,9,-0.034006,-0.265547,10,-0.279142,-0.026606,11,-0.083876,-0.286583,12,0.057481,0.102706,13,-0.174389,0.274617,14,-0.077540,-0.267003,15,-0.178992,0.149992,16,-0.117250,-0.256911,17,-0.276614,0.046406,18,0.086400,0.042443,19,-0.035492,0.035631,20,0.009485,0.044653,21,0.008870,0.029596,22,0.040652,-0.011556
