# Input file for Beam Configurations for an HPL.
#
# BeamId,[repeat the following 22 times]:PhaseCenterNumber,BeamWeight_real_part,BeamWeight_imag_part
# Each Beam ID should be a number from 1 to 40.
# Each Phase Center Number should be a whole number between 1 and 22.
# Each Beam Weight can have a floating point value.
# NOTE: Beam ID and Phase Center Number values are not used in parsing, and each row is parsed as if in numerical order
#       The Beam ID and Phase Center Number values are simply to assist in editing this input file.
1,1,-0.102665,0.099451,2,-0.126233,0.011811,3,-0.035358,0.023127,4,0.055651,-0.075405,5,-0.029859,-0.179038,6,0.074918,0.038396,7,0.138096,0.145039,8,-0.158434,-0.090429,9,-0.237016,-0.042578,10,0.104276,-0.142083,11,0.009994,-0.163129,12,-0.603933,-0.393525,13,0.171782,-0.053904,14,0.123934,-0.131283,15,0.048952,0.132396,16,0.156933,0.109326,17,-0.186777,-0.041900,18,-0.045562,-0.014037,19,-0.094418,0.015469,20,-0.067865,-0.139914,21,0.076562,-0.051933,22,0.039871,0.015363
2,1,0.140166,0.190708,2,-0.023310,0.117070,3,-0.029051,0.117623,4,-0.048495,-0.166598,5,-0.178955,-0.017845,6,0.075731,0.051429,7,0.221661,0.024792,8,-0.250753,0.034422,9,-0.148787,0.080153,10,0.040258,-0.181150,11,-0.063759,-0.200859,12,-0.550127,-0.365364,13,0.143099,-0.105126,14,0.055523,-0.165487,15,0.137963,0.159110,16,0.118733,0.079058,17,-0.164718,-0.099181,18,-0.041657,0.005087,19,-0.064938,0.009597,20,0.071431,-0.096771,21,0.038348,0.020769,22,-0.000686,-0.027818
3,1,0.158614,-0.169453,2,0.072933,0.085485,3,0.181993,0.167826,4,-0.233587,0.036154,5,-0.110959,0.031104,6,0.142348,-0.118260,7,0.145353,-0.231273,8,-0.074732,0.155742,9,-0.062024,0.139536,10,-0.040226,-0.219847,11,-0.165278,-0.130311,12,-0.259321,-0.468745,13,0.011312,-0.264505,14,-0.148404,-0.192306,15,0.128257,0.112472,16,0.161026,0.127575,17,-0.187511,-0.106037,18,-0.009356,-0.036489,19,-0.049967,-0.045253,20,0.052738,0.016847,21,0.027374,-0.044928,22,0.031185,-0.015884
4,1,-0.083603,-0.166547,2,0.273965,0.059182,3,0.239808,-0.184002,4,-0.202094,0.033680,5,-0.280873,0.128534,6,-0.077388,-0.187314,7,-0.100462,-0.212441,8,-0.029059,0.193288,9,-0.063582,0.241582,10,-0.056460,-0.142991,11,-0.087399,-0.221226,12,0.061143,-0.351317,13,-0.064136,-0.272485,14,-0.030561,-0.132728,15,0.045038,0.217709,16,0.158804,0.160416,17,-0.062666,-0.205479,18,-0.058592,-0.004845,19,-0.041844,0.007580,20,0.029521,-0.013592,21,0.039554,0.031356,22,0.004443,0.036739
5,1,-0.139620,-0.128756,2,0.004563,-0.357042,3,0.168689,-0.094085,4,-0.226260,0.263662,5,-0.194501,0.112605,6,-0.168256,0.195020,7,-0.191777,0.047291,8,0.179210,0.278980,9,0.095615,0.104294,10,-0.076420,-0.281689,11,-0.067411,-0.164269,12,0.161008,-0.167187,13,-0.214503,-0.049753,14,-0.111296,-0.175050,15,0.159851,0.072625,16,0.056842,0.222684,17,-0.028853,-0.186553,18,-0.012379,0.057276,19,-0.018344,0.013120,20,-0.037903,-0.037525,21,0.042608,0.047846,22,-0.017113,-0.001246
6,1,-0.268590,0.290747,2,0.007279,-0.174383,3,0.058024,-0.285127,4,-0.258399,0.153270,5,-0.321584,0.031095,6,0.030419,0.068045,7,-0.260595,0.071112,8,0.172998,0.070011,9,0.028934,0.230764,10,0.050938,-0.215551,11,0.111650,-0.165186,12,0.098762,0.072079,13,-0.234089,-0.114009,14,-0.140574,-0.119917,15,0.028676,0.243319,16,-0.090579,0.182734,17,0.205663,-0.062319,18,0.009821,-0.056276,19,-0.002736,-0.048370,20,0.024137,0.006631,21,-0.069637,0.016022,22,-0.030569,-0.018323
7,1,0.234995,0.087036,2,-0.261193,-0.047328,3,-0.038709,-0.206120,4,-0.155996,0.175524,5,-0.287798,-0.182214,6,0.026710,-0.029187,7,0.276261,0.226645,8,0.242098,-0.158075,9,0.160907,0.073819,10,-0.085430,-0.275176,11,0.150869,-0.103280,12,0.007983,0.055054,13,-0.032550,0.328065,14,-0.182164,-0.009730,15,0.182791,0.120432,16,-0.045328,0.213948,17,0.207342,0.005137,18,-0.039575,0.027482,19,-0.007254,0.028528,20,0.027244,0.019683,21,-0.001306,0.035911,22,0.029781,-0.025018
8,1,0.265883,-0.150816,2,-0.160240,0.104586,3,-0.149667,-0.222422,4,-0.249944,0.069144,5,-0.042886,-0.298423,6,-0.023277,-0.100505,7,0.220779,-0.093472,8,-0.004804,-0.296328,9,0.247589,0.134279,10,0.051751,-0.249184,11,0.237755,0.004916,12,-0.035175,0.032843,13,0.213993,0.129503,14,-0.130092,0.208197,15,0.173565,0.153689,16,-0.157645,0.151421,17,0.106565,0.184696,18,0.052510,0.032413,19,0.042314,-0.010732,20,-0.006417,-0.027602,21,-0.032548,-0.049853,22,0.020407,0.026318
9,1,0.023913,-0.418296,2,-0.186643,0.186610,3,-0.090643,-0.206480,4,-0.254799,-0.023303,5,0.224618,-0.183798,6,-0.105916,0.068261,7,0.137561,-0.232703,8,-0.077060,-0.185519,9,0.210096,0.028278,10,0.140078,-0.240724,11,0.141699,0.175027,12,-0.042695,-0.032363,13,0.204984,-0.022319,14,-0.009546,0.202320,15,0.187104,0.080804,16,-0.181195,0.124956,17,-0.097207,0.239101,18,-0.021680,-0.034578,19,-0.041325,-0.008737,20,-0.031606,-0.006169,21,-0.005050,0.054527,22,0.020862,0.028014
10,1,-0.265046,-0.235958,2,-0.133591,0.293842,3,-0.054215,-0.230543,4,-0.217119,-0.127637,5,0.261616,0.101924,6,0.073972,0.169000,7,-0.171988,-0.241384,8,-0.159328,-0.147359,9,0.189604,0.043207,10,0.184610,-0.174159,11,0.010731,0.247043,12,-0.012278,-0.048027,13,0.053321,-0.198054,14,0.066668,0.204531,15,0.174426,0.050327,16,-0.183801,0.065578,17,-0.190219,0.164283,18,-0.067202,0.005503,19,-0.024539,0.073646,20,0.017495,-0.002296,21,0.053683,0.009509,22,-0.003333,-0.017234
11,1,-0.326371,-0.025642,2,-0.036266,0.294460,3,-0.018937,-0.235670,4,-0.139809,-0.208084,5,0.106693,0.232156,6,0.189150,0.016497,7,-0.329531,-0.052640,8,-0.254534,-0.089896,9,0.185094,0.040906,10,0.198164,-0.098190,11,-0.084581,0.217884,12,0.030712,-0.041562,13,-0.121989,-0.173992,14,0.176231,0.165771,15,0.202210,0.011409,16,-0.188186,0.018139,17,-0.247524,0.060626,18,-0.031731,0.050372,19,0.059571,0.038278,20,0.024579,-0.050380,21,0.014667,-0.031690,22,0.001974,0.006004
12,1,-0.213301,0.177653,2,0.014431,0.265311,3,-0.031243,-0.258978,4,0.076275,-0.211798,5,-0.136691,0.153370,6,-0.046057,-0.320674,7,-0.168314,0.288241,8,-0.203427,0.079187,9,0.254665,0.046744,10,0.250871,-0.020673,11,-0.198710,0.038355,12,0.041768,0.036583,13,-0.154219,0.170421,14,0.208059,-0.130426,15,0.148278,-0.086455,16,-0.220930,0.048989,17,-0.211574,-0.025964,18,0.068325,-0.005586,19,0.002807,-0.075698,20,-0.029727,0.012519,21,-0.035235,0.016271,22,0.004583,0.026742
13,1,-0.212698,0.107810,2,0.008019,0.226465,3,0.117488,-0.234292,4,0.215481,-0.115041,5,-0.218800,-0.033562,6,-0.417956,-0.097153,7,0.120991,0.252785,8,-0.151425,0.117020,9,0.222298,-0.002135,10,0.160997,0.039833,11,-0.157862,-0.094395,12,-0.031975,0.057564,13,0.149246,0.215891,14,-0.037765,-0.250348,15,0.068573,-0.176573,16,-0.158182,0.177218,17,-0.213398,0.026138,18,-0.017172,-0.071280,19,-0.093806,0.019785,20,-0.017009,0.004625,21,0.088562,0.071755,22,0.024121,0.008718
14,1,-0.111242,0.051300,2,-0.081277,0.094419,3,0.145035,-0.025679,4,0.096798,0.081745,5,0.041246,-0.157702,6,-0.474857,0.307376,7,0.129488,0.241984,8,-0.194174,0.136903,9,0.218779,0.066497,10,0.139062,0.159370,11,-0.097714,-0.221015,12,-0.026555,0.001311,13,0.275588,0.040440,14,-0.159313,-0.160776,15,0.004718,-0.206069,16,-0.110078,0.193004,17,-0.183253,-0.055716,18,-0.063234,-0.001241,19,0.004624,0.102802,20,-0.028462,0.082685,21,0.068388,-0.088223,22,0.030433,-0.065668
15,1,-0.075772,-0.001544,2,-0.098149,0.069494,3,0.099028,-0.016204,4,0.050076,0.113333,5,-0.031427,-0.093477,6,-0.293889,0.495241,7,0.208012,0.245772,8,-0.109508,0.207821,9,0.202682,0.014286,10,0.215701,0.070522,11,-0.079892,-0.140614,12,0.018182,0.009848,13,0.210631,-0.182979,14,-0.205617,-0.032943,15,-0.170218,-0.130266,16,0.028812,0.200459,17,-0.206717,0.150173,18,-0.040608,0.029304,19,0.120183,-0.045406,20,0.131295,0.012456,21,-0.068619,-0.077143,22,-0.106854,-0.053432
16,1,-0.068666,-0.061909,2,-0.040192,-0.009171,3,0.089674,0.050385,4,-0.015406,0.038556,5,0.085548,-0.013970,6,-0.259112,0.485053,7,0.229140,0.250360,8,-0.127850,0.193601,9,0.220650,-0.047195,10,0.207279,0.076398,11,-0.181493,-0.178835,12,0.041742,-0.019851,13,0.129907,-0.220894,14,-0.217616,0.064833,15,-0.180797,-0.061396,16,0.154369,0.189462,17,-0.099444,0.193826,18,0.008294,0.099588,19,0.039337,-0.097724,20,0.078092,-0.127094,21,-0.095533,-0.047748,22,-0.081973,0.096964
17,1,-0.023087,-0.091993,2,-0.048758,-0.012596,3,0.034654,0.086736,4,0.006455,0.054447,5,0.074237,0.010224,6,-0.331721,0.399393,7,0.152085,0.320560,8,-0.177460,0.154754,9,0.225758,0.033051,10,0.186985,0.113033,11,-0.104866,-0.222887,12,0.043196,-0.012077,13,0.144833,-0.211538,14,-0.239935,0.055596,15,-0.168648,-0.070488,16,0.143463,0.200203,17,-0.106310,0.210016,18,0.041895,0.102712,19,0.042261,-0.095432,20,0.057175,-0.148336,21,-0.125951,-0.049521,22,-0.043853,0.114790
18,1,-0.003041,0.001430,2,-0.029762,-0.061246,3,-0.024935,-0.005541,4,-0.032529,-0.016937,5,0.050176,-0.019959,6,-0.394682,0.101950,7,-0.079789,0.327524,8,-0.220596,0.104398,9,0.202712,0.128691,10,0.183239,0.122641,11,-0.159708,-0.245432,12,0.000479,-0.043764,13,0.171169,-0.235729,14,-0.229370,0.070020,15,-0.222583,-0.016905,16,0.181123,0.116201,17,0.050692,0.244462,18,0.082933,0.101193,19,0.018656,-0.160955,20,-0.093333,-0.176858,21,-0.192914,0.143806,22,0.047409,0.113075
19,1,0.025963,-0.015717,2,0.024637,-0.009712,3,-0.038696,0.019944,4,-0.008353,0.000557,5,-0.028614,-0.015842,6,-0.246763,-0.170849,7,-0.227203,0.228360,8,-0.230834,0.054885,9,0.205572,0.046117,10,0.212623,0.055042,11,-0.299688,-0.004803,12,-0.040941,0.015401,13,0.209944,-0.171579,14,-0.213935,0.123509,15,-0.165975,0.061842,16,0.252637,-0.065428,17,0.195995,-0.011309,18,0.196024,0.155215,19,-0.088360,-0.164945,20,-0.246898,-0.105821,21,0.138119,0.264724,22,0.164296,-0.049244
20,1,-0.000659,0.026930,2,0.030563,0.016624,3,0.017370,-0.002439,4,-0.013863,0.010530,5,0.002135,-0.019216,6,0.062410,-0.113526,7,-0.277216,-0.053970,8,-0.227087,-0.103637,9,0.254924,0.087348,10,0.174707,-0.085804,11,-0.116362,0.238673,12,0.011431,0.015535,13,0.221392,-0.001295,14,-0.221374,0.046889,15,-0.119231,0.175199,16,0.054977,-0.199873,17,0.001458,-0.218159,18,0.152464,0.186058,19,-0.166559,-0.255274,20,-0.324072,0.161989,21,0.324655,-0.036626,22,-0.133094,-0.121075
21,1,-0.011563,0.015356,2,0.022449,0.004858,3,0.019173,-0.000859,4,-0.002709,0.014769,5,0.013735,-0.037343,6,0.089127,-0.055054,7,-0.197688,-0.187853,8,-0.226559,-0.145653,9,0.250819,0.047226,10,0.137430,-0.116449,11,0.030133,0.284338,12,0.011486,-0.004830,13,0.176174,0.093976,14,-0.235340,0.054681,15,-0.066213,0.184995,16,-0.020176,-0.204382,17,-0.159504,-0.201205,18,0.048099,0.249554,19,-0.175775,-0.280642,20,-0.267310,0.199948,21,0.260753,-0.174238,22,-0.174555,0.009091
22,1,-0.034063,0.031809,2,-0.014936,-0.013674,3,0.015312,-0.004015,4,-0.015693,-0.015655,5,0.000808,-0.011545,6,0.040697,0.057328,7,0.035014,-0.383237,8,-0.156480,-0.178743,9,0.179839,-0.008806,10,-0.004253,-0.200025,11,0.250691,-0.030548,12,-0.037020,-0.044791,13,0.098508,0.242764,14,-0.243245,0.041141,15,-0.035734,0.168230,16,-0.174608,-0.131869,17,-0.179197,0.175763,18,-0.242483,0.233120,19,-0.084577,-0.254322,20,-0.162056,0.240147,21,0.032631,-0.281076,22,-0.039621,0.164190
23,1,-0.012889,0.025417,2,0.006377,-0.031394,3,0.054422,-0.001485,4,0.004816,-0.027136,5,0.042053,0.064332,6,-0.076803,0.018729,7,0.326530,-0.003606,8,0.046229,-0.181493,9,0.180918,0.033466,10,-0.124973,-0.209982,11,0.112896,-0.217442,12,-0.049487,0.036730,13,-0.187155,0.101348,14,-0.130427,-0.174136,15,-0.104104,0.143574,16,-0.203851,-0.008947,17,0.042521,0.234225,18,-0.320234,-0.231706,19,0.108885,-0.265981,20,-0.254319,0.199056,21,0.024285,-0.250870,22,0.121433,0.198451
24,1,-0.011475,0.005391,2,-0.014522,0.059498,3,-0.007545,0.006341,4,0.016672,0.011025,5,0.052561,-0.082889,6,-0.001713,-0.168779,7,0.296038,0.060342,8,-0.025015,-0.270322,9,0.217758,-0.110853,10,-0.298141,0.037847,11,-0.288281,-0.090971,12,0.026503,0.044718,13,-0.244007,0.048929,14,-0.211682,-0.156523,15,0.055023,0.213583,16,-0.128351,0.217813,17,0.265594,-0.078224,18,-0.044339,-0.300125,19,0.178266,-0.133702,20,-0.125367,0.115109,21,-0.110854,-0.167079,22,0.128383,-0.023815
25,1,-0.076223,-0.127535,2,0.013116,-0.025993,3,-0.031313,0.066467,4,-0.011115,-0.006146,5,-0.063072,-0.063119,6,0.070659,-0.026983,7,0.369105,0.192633,8,0.022337,-0.254634,9,0.165049,-0.194624,10,-0.216137,0.208250,11,-0.220806,0.170642,12,0.142684,0.013105,13,-0.244949,-0.041295,14,-0.121473,-0.233987,15,0.084316,0.188520,16,-0.027713,0.263680,17,0.137253,-0.201369,18,0.178329,-0.124906,19,0.141172,-0.039230,20,-0.160507,0.075144,21,-0.121227,-0.068924,22,0.096447,-0.181586
26,1,0.023784,0.009412,2,0.027641,-0.046747,3,0.028374,0.006648,4,-0.027822,-0.043064,5,-0.079725,0.032006,6,-0.086916,-0.008505,7,0.245759,0.256606,8,-0.106143,-0.222931,9,0.074033,-0.298602,10,-0.003788,0.314949,11,0.048778,0.268995,12,0.209800,-0.112463,13,-0.192078,-0.164882,14,-0.108811,-0.195427,15,0.184328,0.178807,16,0.090505,0.225212,17,-0.024218,-0.275710,18,0.135002,-0.023519,19,0.152996,0.001509,20,-0.117238,0.051231,21,-0.214818,0.045234,22,0.008056,-0.207509
27,1,0.042133,0.017285,2,0.036015,0.046553,3,0.092035,-0.032071,4,-0.053826,0.020032,5,-0.035891,0.035655,6,0.136677,-0.112035,7,0.077484,0.267618,8,-0.036195,-0.330919,9,0.007522,-0.277789,10,0.075305,0.295806,11,0.169784,0.154595,12,0.175207,-0.325954,13,0.000694,-0.184037,14,-0.050025,-0.204273,15,0.098228,0.182568,16,0.145266,0.207482,17,-0.080372,-0.251178,18,0.093139,0.101653,19,0.056123,0.084928,20,-0.117597,0.053531,21,-0.240866,-0.037790,22,0.003936,-0.197635
28,1,-0.084908,-0.080019,2,-0.017028,-0.113781,3,-0.031719,-0.074101,4,0.028828,0.073822,5,0.123645,-0.001330,6,0.122370,0.073232,7,0.115604,0.274064,8,-0.080858,-0.198020,9,-0.135236,-0.210221,10,0.211829,0.015121,11,0.180926,-0.064187,12,-0.264611,-0.554632,13,0.109315,-0.133275,14,0.107395,-0.191500,15,0.083559,0.208888,16,0.134875,0.123913,17,-0.144873,-0.111931,18,-0.105682,0.068938,19,0.037035,0.106606,20,-0.093947,-0.031588,21,-0.104710,-0.108756,22,0.020612,-0.105618
29,1,0.045696,-0.041932,2,0.042107,0.072547,3,0.042768,0.083003,4,-0.003158,-0.043219,5,0.001661,-0.094475,6,-0.077460,0.116687,7,-0.342795,0.010719,8,0.255964,0.105933,9,0.178082,0.188509,10,-0.216066,-0.226070,11,-0.223691,-0.134306,12,-0.067037,-0.405601,13,-0.012940,0.273871,14,-0.015496,0.252155,15,0.047492,-0.201498,16,0.066209,-0.240171,17,-0.143349,0.198425,18,0.061857,0.007114,19,0.100549,0.026771,20,-0.058338,0.019737,21,-0.136433,-0.096673,22,0.040372,-0.039583
30,1,-0.066553,0.000635,2,-0.002899,0.080568,3,-0.037757,-0.057941,4,-0.014622,-0.046486,5,-0.026598,0.076896,6,-0.546796,0.239308,7,0.216357,0.064953,8,0.208568,0.076311,9,-0.162263,-0.143953,10,-0.229104,-0.123123,11,0.263242,0.086765,12,-0.007908,-0.023906,13,0.066457,-0.237575,14,-0.046559,0.192500,15,-0.040322,0.246143,16,0.024067,-0.234545,17,0.158186,-0.218167,18,-0.077528,-0.001491,19,0.126759,-0.040348,20,0.034267,0.014585,21,-0.091836,-0.001736,22,0.034816,0.035752
31,1,-0.041433,-0.077638,2,0.093985,0.013014,3,0.041719,0.031016,4,-0.002320,-0.078044,5,-0.001358,-0.045866,6,0.161985,0.039589,7,0.157207,0.338985,8,0.155622,-0.218325,9,0.266968,0.036082,10,-0.310987,-0.107724,11,-0.145495,-0.179297,12,0.215866,-0.189022,13,0.340675,0.019312,14,0.210796,0.128363,15,-0.092720,-0.253121,16,0.010318,-0.276941,17,-0.215706,0.159794,18,-0.018280,-0.036744,19,0.072057,0.001106,20,-0.048806,0.025344,21,-0.035320,-0.044221,22,0.067182,-0.001568
32,1,-0.054987,0.022720,2,0.027288,-0.073060,3,0.075534,0.029796,4,-0.039547,-0.065227,5,0.062720,-0.026376,6,-0.031677,-0.223638,7,0.300373,-0.273295,8,-0.180980,-0.187222,9,0.219770,-0.250486,10,-0.251041,-0.041673,11,-0.186202,-0.246538,12,0.172834,0.067582,13,-0.108638,-0.308528,14,0.206984,-0.077307,15,-0.228325,-0.113250,16,0.039369,-0.269532,17,-0.281292,0.059363,18,-0.052919,0.019134,19,0.017253,-0.029755,20,0.029806,0.003536,21,-0.032135,0.003169,22,-0.000652,0.000006
33,1,0.073682,-0.114878,2,-0.105818,0.065865,3,-0.057736,-0.062927,4,-0.094534,0.084345,5,0.014157,-0.150461,6,-0.085661,0.300979,7,-0.322248,-0.064239,8,-0.186740,0.167198,9,-0.125507,-0.242821,10,-0.211310,0.133701,11,-0.180782,-0.226777,12,0.057796,0.090599,13,-0.258252,0.024864,14,0.072842,-0.319819,15,-0.256516,-0.053706,16,0.061918,-0.275928,17,-0.224949,-0.147786,18,-0.039068,0.011158,19,-0.063974,-0.021110,20,-0.050418,0.075329,21,-0.048827,-0.009886,22,0.070056,-0.015370
34,1,-0.017903,-0.050169,2,0.003102,0.055486,3,-0.024679,0.008324,4,-0.025884,-0.004975,5,0.030326,-0.057372,6,-0.024188,-0.483154,7,0.289289,0.138680,8,0.284405,0.068318,9,-0.239707,0.040881,10,0.010188,0.221440,11,-0.309471,-0.070555,12,0.048259,0.034145,13,0.105412,-0.196223,14,0.037473,0.281524,15,0.225494,0.093512,16,-0.191083,0.141898,17,-0.117512,0.261235,18,-0.067431,-0.064855,19,0.042766,-0.054714,20,-0.037658,-0.071461,21,0.034860,0.058301,22,0.012368,0.006593
35,1,-0.029619,-0.008405,2,-0.034449,0.008776,3,0.002902,-0.047867,4,-0.027128,-0.004045,5,0.037660,-0.014462,6,-0.395737,-0.311337,7,0.202647,0.117735,8,0.261247,0.065484,9,-0.308180,0.076622,10,-0.094020,0.259400,11,-0.195591,-0.204840,12,0.056310,-0.014248,13,0.034074,-0.252521,14,0.179218,0.177997,15,0.213647,-0.028175,16,-0.152427,0.185146,17,-0.061362,0.240895,18,-0.080664,0.137891,19,-0.019356,-0.034333,20,-0.049236,-0.017566,21,0.099850,-0.052515,22,-0.109275,-0.050875
36,1,0.026636,-0.052098,2,0.029522,0.047184,3,-0.039893,0.026844,4,0.047855,0.012402,5,-0.025911,0.026385,6,0.214893,0.115052,7,0.032689,0.447992,8,0.262837,0.010570,9,0.143168,0.274643,10,0.085612,-0.285313,11,0.231953,-0.163325,12,0.167387,0.127019,13,0.230155,-0.078991,14,0.157803,0.130011,15,-0.015468,-0.218692,16,0.170447,-0.154800,17,-0.254917,-0.104821,18,-0.054965,-0.076839,19,0.032979,-0.124108,20,-0.005520,0.120415,21,-0.137103,-0.044860,22,0.088996,-0.030782
37,1,0.092330,-0.032987,2,-0.096288,0.046852,3,-0.057412,-0.078800,4,-0.093900,0.019180,5,0.032390,-0.065899,6,-0.091872,0.295814,7,-0.326475,-0.059390,8,-0.195004,0.145620,9,-0.119994,-0.223935,10,-0.232365,0.147977,11,-0.214135,-0.223106,12,0.090151,0.087525,13,-0.261872,0.174885,14,-0.050567,-0.317713,15,-0.208285,0.122880,16,-0.078141,-0.303075,17,-0.229728,-0.013669,18,-0.032963,0.003772,19,-0.063576,0.020623,20,0.042193,0.074092,21,-0.069389,0.067170,22,0.013537,-0.057277
38,1,0.033751,0.131377,2,-0.064320,-0.094383,3,0.035158,-0.075476,4,-0.093677,0.035629,5,-0.054262,-0.066705,6,0.023386,-0.191289,7,0.300749,-0.147857,8,-0.214894,-0.181038,9,0.179325,-0.248654,10,-0.248994,0.123804,11,-0.293892,-0.105863,12,0.196326,-0.085372,13,0.150992,-0.328222,14,0.227872,0.014885,15,-0.197425,-0.197533,16,0.049469,-0.220606,17,-0.271496,0.074115,18,0.033010,-0.009318,19,0.053014,-0.030951,20,-0.047275,0.033957,21,-0.031939,-0.001996,22,-0.003276,-0.026461
39,1,-0.038127,-0.048238,2,-0.009307,0.066522,3,-0.034977,-0.042387,4,-0.027986,-0.052679,5,0.047691,-0.001453,6,-0.475031,-0.296932,7,0.247195,0.081478,8,0.274231,0.029785,9,-0.283924,-0.054221,10,-0.210977,0.150187,11,0.009097,-0.264186,12,-0.035104,0.040575,13,0.063481,-0.211845,14,0.033858,0.228433,15,0.140467,0.205830,16,-0.196721,-0.079472,17,-0.250287,-0.068468,18,-0.066604,-0.047686,19,0.075382,-0.052635,20,-0.019975,-0.013648,21,0.000324,0.086225,22,0.043106,0.009934
40,1,0.075067,-0.023079,2,0.000043,-0.014347,3,-0.000162,-0.015213,4,-0.031079,-0.067213,5,0.034949,-0.015947,6,-0.098113,0.344139,7,-0.350477,0.000570,8,-0.238073,0.143976,9,-0.076496,-0.243430,10,-0.279589,0.123306,11,-0.172331,-0.232485,12,0.080601,0.083017,13,-0.111347,0.290013,14,-0.171135,-0.227714,15,-0.118854,0.183426,16,-0.192737,-0.218556,17,-0.251315,0.125596,18,0.078773,0.029136,19,-0.022726,0.043135,20,0.011909,0.040551,21,0.013598,0.026894,22,0.032123,-0.009604
