# Input file for Beam Configurations for an HPL.
#
# BeamId,[repeat the following 22 times]:PhaseCenterNumber,BeamWeight_real_part,BeamWeight_imag_part
# Each Beam ID should be a number from 1 to 40.
# Each Phase Center Number should be a whole number between 1 and 22.
# Each Beam Weight can have a floating point value.
# NOTE: Beam ID and Phase Center Number values are not used in parsing, and each row is parsed as if in numerical order
#       The Beam ID and Phase Center Number values are simply to assist in editing this input file.
1,1,-0.134402,0.089563,2,-0.158149,0.022424,3,-0.041396,0.019061,4,0.054688,-0.104681,5,-0.048624,-0.211420,6,0.079725,0.051795,7,0.083721,0.165561,8,-0.135397,-0.135798,9,-0.272875,-0.038229,10,0.141621,-0.090210,11,0.066894,-0.129439,12,-0.613256,-0.347488,13,0.170207,0.005488,14,0.145274,-0.102834,15,0.045021,0.154107,16,0.096265,0.144068,17,-0.161792,-0.074915,18,-0.044209,0.010764,19,-0.072535,0.039949,20,-0.091781,-0.097343,21,0.055316,-0.055541,22,0.040724,0.002706
2,1,0.115013,0.236808,2,-0.021975,0.146400,3,-0.048896,0.118995,4,-0.091224,-0.194968,5,-0.211434,-0.008162,6,0.077896,0.065493,7,0.187019,0.079972,8,-0.259639,-0.034422,9,-0.163984,0.096674,10,0.096711,-0.144697,11,0.020015,-0.183854,12,-0.550314,-0.318218,13,0.158079,-0.048433,14,0.084452,-0.146846,15,0.141646,0.188501,16,0.072885,0.104263,17,-0.128398,-0.120806,18,-0.031166,0.024149,19,-0.049406,0.026210,20,0.033152,-0.096322,21,0.034697,0.010921,22,-0.008382,-0.024787
3,1,0.207110,-0.153155,2,0.095172,0.101368,3,0.164535,0.204243,4,-0.278803,0.088671,5,-0.127790,0.044359,6,0.170488,-0.114321,7,0.187341,-0.163317,8,-0.117011,0.134597,9,-0.063607,0.159381,10,0.039400,-0.205391,11,-0.086297,-0.162833,12,-0.276459,-0.433890,13,0.091007,-0.228491,14,-0.104216,-0.210852,15,0.134147,0.135344,16,0.092018,0.157945,17,-0.147160,-0.131069,18,-0.025050,-0.024886,19,-0.052895,-0.022046,20,0.046781,0.000226,21,0.015251,-0.041039,22,0.023514,-0.022916
4,1,-0.055360,-0.189984,2,0.327332,0.054572,3,0.267900,-0.148707,4,-0.230365,0.076215,5,-0.306118,0.163272,6,-0.061352,-0.206162,7,-0.030377,-0.202318,8,-0.078285,0.176508,9,-0.058306,0.262214,10,-0.000765,-0.137644,11,0.007882,-0.199128,12,0.036082,-0.325701,13,0.026111,-0.247456,14,-0.003545,-0.126137,15,0.031766,0.235497,16,0.076088,0.176472,17,-0.015599,-0.187392,18,-0.047362,0.023182,19,-0.030013,0.017193,20,0.019477,-0.017638,21,0.035670,0.018520,22,0.013599,0.030309
5,1,-0.118463,-0.157731,2,-0.014376,-0.413254,3,0.179164,-0.067649,4,-0.212018,0.342088,5,-0.205766,0.136463,6,-0.194466,0.183502,7,-0.167976,-0.008562,8,0.095528,0.305814,9,0.104716,0.105733,10,0.026938,-0.254181,11,0.003840,-0.145454,12,0.135131,-0.158947,13,-0.161774,-0.102376,14,-0.067644,-0.175381,15,0.161406,0.087416,16,-0.023547,0.189927,17,0.009613,-0.161332,18,0.016407,0.048718,19,-0.010263,0.014718,20,-0.037490,-0.019328,21,0.039667,0.030270,22,-0.014673,0.003416
6,1,-0.331621,0.248613,2,-0.001189,-0.203765,3,0.099321,-0.273365,4,-0.270657,0.223264,5,-0.353420,0.056020,6,0.024378,0.074096,7,-0.231812,-0.006098,8,0.144421,0.110423,9,0.040088,0.243321,10,0.110828,-0.161111,11,0.139502,-0.087580,12,0.093367,0.059645,13,-0.160713,-0.162043,14,-0.104338,-0.132696,15,0.012235,0.257941,16,-0.126749,0.115116,17,0.184876,-0.015056,18,-0.018030,-0.047197,19,-0.015043,-0.035827,20,0.019943,-0.000724,21,-0.051286,0.022753,22,-0.030654,-0.007455
7,1,0.229938,0.136708,2,-0.313204,-0.041490,3,-0.008098,-0.213564,4,-0.151384,0.235044,5,-0.336861,-0.185614,6,0.031535,-0.028059,7,0.174263,0.259681,8,0.273432,-0.087652,9,0.176883,0.073033,10,0.018004,-0.258716,11,0.151375,-0.028248,12,0.010510,0.050304,13,-0.124196,0.267135,14,-0.164554,-0.042293,15,0.186892,0.142810,16,-0.102898,0.156355,17,0.177373,0.042981,18,-0.017957,0.039557,19,0.002212,0.023966,20,0.025920,0.008626,21,0.004442,0.028419,22,0.018960,-0.029537
8,1,0.305690,-0.106172,2,-0.183058,0.132300,3,-0.116518,-0.244594,4,-0.279046,0.126042,5,-0.068239,-0.330625,6,-0.013614,-0.108304,7,0.206878,-0.022387,8,0.072782,-0.282658,9,0.270769,0.133611,10,0.123595,-0.190607,11,0.180003,0.083970,12,-0.030299,0.032027,13,0.141142,0.170912,14,-0.155671,0.164873,15,0.173059,0.176291,16,-0.171457,0.070878,17,0.056828,0.177190,18,0.055171,0.000847,19,0.029425,-0.019677,20,-0.011603,-0.019676,21,-0.032894,-0.033937,22,0.024432,0.017069
9,1,0.104236,-0.428180,2,-0.208233,0.229002,3,-0.059504,-0.218460,4,-0.299548,0.018946,5,0.237007,-0.219289,6,-0.118103,0.059985,7,0.171476,-0.157904,8,-0.024598,-0.195023,9,0.224766,0.021472,10,0.193099,-0.154020,11,0.048900,0.180368,12,-0.040612,-0.026994,13,0.176855,0.041007,14,-0.045148,0.180305,15,0.191632,0.099179,16,-0.180705,0.042398,17,-0.126193,0.184809,18,-0.032275,-0.016520,19,-0.033730,0.004502,20,-0.025629,0.002872,21,0.004271,0.042978,22,0.025108,0.018278
10,1,-0.229042,-0.294082,2,-0.139925,0.351195,3,-0.019743,-0.236662,4,-0.274329,-0.108643,5,0.297018,0.095372,6,0.059090,0.184443,7,-0.081835,-0.241773,8,-0.111966,-0.180115,9,0.203302,0.038151,10,0.208264,-0.084581,11,-0.074564,0.190886,12,-0.013844,-0.042883,13,0.101727,-0.148922,14,0.022993,0.195808,15,0.180259,0.065967,16,-0.164276,-0.005022,17,-0.191052,0.104224,18,-0.048710,0.034729,19,0.001212,0.062446,20,0.012799,-0.005945,21,0.042938,-0.000691,22,-0.007369,-0.013735
11,1,-0.334750,-0.089085,2,-0.026224,0.349035,3,0.016121,-0.238271,4,-0.200784,-0.217274,5,0.134979,0.252093,6,0.197198,0.037830,7,-0.260533,-0.126205,8,-0.218143,-0.151729,9,0.199866,0.036153,10,0.196519,-0.017643,11,-0.138066,0.137875,12,0.025711,-0.039726,13,-0.051142,-0.181135,14,0.129373,0.182077,15,0.213994,0.027166,16,-0.154266,-0.043889,17,-0.222195,0.006053,18,-0.001301,0.053190,19,0.055877,0.013088,20,0.006727,-0.044658,21,0.006641,-0.026899,22,0.003280,0.004605
12,1,-0.257139,0.144773,2,0.032033,0.313295,3,0.007326,-0.264615,4,0.050748,-0.262028,5,-0.142934,0.181473,6,-0.013802,-0.343925,7,-0.212936,0.198202,8,-0.214740,0.022195,9,0.275875,0.039714,10,0.216314,0.064147,11,-0.165454,-0.037892,12,0.040435,0.031210,13,-0.179591,0.097870,14,0.213013,-0.080601,15,0.164738,-0.081200,16,-0.190559,-0.029788,17,-0.176402,-0.061423,18,0.050123,-0.035727,19,-0.018461,-0.058852,20,-0.019918,0.016879,21,-0.025107,0.018077,22,0.011068,0.021726
13,1,-0.241912,0.071515,2,0.022145,0.266364,3,0.152182,-0.216561,4,0.230342,-0.173207,5,-0.246656,-0.022607,6,-0.429071,-0.147415,7,0.037214,0.240194,8,-0.174216,0.071552,9,0.237868,-0.011464,10,0.120996,0.085116,11,-0.088707,-0.125293,12,-0.025952,0.054411,13,0.061672,0.224083,14,0.011325,-0.233404,15,0.085976,-0.182460,16,-0.179737,0.091034,17,-0.186702,-0.017053,18,-0.045797,-0.046845,19,-0.066271,0.040531,20,-0.011954,0.007660,21,0.079798,0.042516,22,0.022913,0.001041
14,1,-0.127791,0.032685,2,-0.092079,0.117866,3,0.151343,-0.004163,4,0.129959,0.079128,5,0.035975,-0.182135,6,-0.542211,0.276746,7,0.047812,0.237518,8,-0.223898,0.080685,9,0.241167,0.063257,10,0.065297,0.180589,11,-0.000096,-0.205295,12,-0.024622,0.002752,13,0.222460,0.116380,14,-0.116995,-0.177556,15,0.020704,-0.222446,16,-0.149248,0.120494,17,-0.148528,-0.082714,18,-0.049973,0.028484,19,0.031952,0.078629,20,-0.001945,0.071667,21,0.040658,-0.080438,22,0.008706,-0.065304
15,1,-0.080544,-0.016501,2,-0.114587,0.089604,3,0.103906,-0.001502,4,0.080950,0.126176,5,-0.042512,-0.104872,6,-0.371937,0.501522,7,0.114066,0.262672,8,-0.162151,0.172947,9,0.223092,0.007101,10,0.160557,0.131568,11,-0.013939,-0.137718,12,0.017609,0.008170,13,0.235392,-0.093736,14,-0.184664,-0.068892,15,-0.175481,-0.154883,16,-0.040246,0.171486,17,-0.209062,0.092187,18,-0.018206,0.042118,19,0.081494,-0.068958,20,0.106548,-0.022687,21,-0.066739,-0.050988,22,-0.108122,-0.017699
16,1,-0.062108,-0.080786,2,-0.049872,-0.008909,3,0.085520,0.066325,4,-0.011425,0.049744,5,0.098560,-0.022317,6,-0.338629,0.502303,7,0.132974,0.276353,8,-0.179015,0.156671,9,0.244054,-0.062128,10,0.153852,0.135929,11,-0.081561,-0.206013,12,0.038565,-0.021364,13,0.180396,-0.152835,14,-0.217445,0.019918,15,-0.195334,-0.081960,16,0.065966,0.205640,17,-0.125529,0.153026,18,0.054114,0.075674,19,0.003703,-0.088858,20,0.030557,-0.121397,21,-0.085022,-0.023721,22,-0.046112,0.108947
17,1,-0.006752,-0.105023,2,-0.060994,-0.012698,3,0.022783,0.096277,4,0.018254,0.065349,5,0.087697,0.006683,6,-0.411283,0.402941,7,0.048327,0.319130,8,-0.218971,0.105486,9,0.254906,0.027332,10,0.124778,0.161918,11,-0.005165,-0.215581,12,0.040680,-0.014144,13,0.191828,-0.141084,14,-0.238330,0.007030,15,-0.182402,-0.091693,16,0.053891,0.212383,17,-0.135641,0.167201,18,0.083024,0.062570,19,0.006722,-0.088450,20,0.008525,-0.134038,21,-0.110721,-0.020514,22,-0.007314,0.115030
18,1,-0.003694,0.000974,2,-0.041374,-0.075755,3,-0.025882,-0.009931,4,-0.044057,-0.014878,5,0.058768,-0.027623,6,-0.457974,0.069329,7,-0.159292,0.270839,8,-0.254236,0.044635,9,0.238911,0.139051,10,0.121167,0.173188,11,-0.042124,-0.259256,12,-0.002197,-0.043004,13,0.227805,-0.158019,14,-0.236739,0.023294,15,-0.252745,-0.037092,16,0.115103,0.158830,17,-0.001989,0.233966,18,0.118167,0.042674,19,-0.031569,-0.137525,20,-0.122963,-0.121845,21,-0.138136,0.151645,22,0.075773,0.090248
19,1,0.033250,-0.012617,2,0.031550,-0.014205,3,-0.046099,0.015695,4,-0.010675,0.002398,5,-0.036594,-0.017443,6,-0.267000,-0.228623,7,-0.272291,0.147075,8,-0.258496,-0.008998,9,0.245859,0.045280,10,0.176131,0.126758,11,-0.251665,-0.115978,12,-0.040470,0.018159,13,0.249938,-0.090918,14,-0.239302,0.080731,15,-0.200386,0.059089,16,0.243424,0.029317,17,0.187349,0.029337,18,0.245315,0.032582,19,-0.124257,-0.112995,20,-0.238457,-0.024055,21,0.163398,0.205273,22,0.140929,-0.094898
20,1,-0.006558,0.031359,2,0.041529,0.020092,3,0.019914,0.000164,4,-0.016021,0.016629,5,0.001211,-0.024291,6,0.087607,-0.126640,7,-0.243618,-0.128375,8,-0.211876,-0.177150,9,0.310834,0.093283,10,0.194460,-0.016770,11,-0.190342,0.160767,12,0.012732,0.015229,13,0.208485,0.071516,14,-0.234788,0.002469,15,-0.157036,0.199250,16,0.118311,-0.158343,17,0.046601,-0.208739,18,0.227262,0.082089,19,-0.220767,-0.168403,20,-0.236006,0.227894,21,0.278027,-0.087147,22,-0.163915,-0.076512
21,1,-0.016867,0.015514,2,0.030114,0.005032,3,0.021727,0.002245,4,-0.000540,0.019959,5,0.014427,-0.048055,6,0.112356,-0.054384,7,-0.132027,-0.231553,8,-0.199478,-0.222361,9,0.304773,0.045300,10,0.171158,-0.059094,11,-0.082103,0.256111,12,0.011519,-0.005707,13,0.135020,0.146551,14,-0.251198,0.007561,15,-0.094772,0.215907,16,0.053283,-0.188938,17,-0.111418,-0.226396,18,0.170300,0.191028,19,-0.236985,-0.187831,20,-0.177098,0.245881,21,0.199217,-0.197266,22,-0.165269,0.060977
22,1,-0.047053,0.030126,2,-0.020811,-0.017307,3,0.018008,-0.001966,4,-0.023951,-0.017457,5,0.000134,-0.014675,6,0.041474,0.073318,7,0.141629,-0.350710,8,-0.115443,-0.238464,9,0.217740,-0.019097,10,0.069200,-0.190021,11,0.228577,0.069345,12,-0.041210,-0.043999,13,0.012925,0.262589,14,-0.257908,-0.007909,15,-0.057195,0.199493,16,-0.110048,-0.179217,17,-0.209790,0.132336,18,-0.089991,0.328485,19,-0.151296,-0.194104,20,-0.075426,0.253456,21,-0.019270,-0.253634,22,0.011057,0.170810
23,1,-0.020676,0.027141,2,0.006510,-0.042264,3,0.061770,0.007476,4,0.000783,-0.036791,5,0.058104,0.078078,6,-0.093710,0.012885,7,0.307888,0.089086,8,0.103218,-0.181266,9,0.220732,0.032088,10,-0.040844,-0.243261,11,0.180513,-0.144813,12,-0.048815,0.041157,13,-0.210572,0.033985,14,-0.097752,-0.205155,15,-0.137234,0.163832,16,-0.179064,-0.079350,17,-0.007841,0.234797,18,-0.398125,-0.035396,19,0.012520,-0.263258,20,-0.166788,0.242590,21,-0.021441,-0.225249,22,0.176983,0.155303
24,1,-0.014260,0.003755,2,-0.015145,0.077971,3,-0.009323,0.005731,4,0.023570,0.010807,5,0.058350,-0.105721,6,0.018103,-0.195384,7,0.253698,0.136551,8,0.051422,-0.289228,9,0.251264,-0.140357,10,-0.285999,-0.071274,11,-0.208293,-0.183234,12,0.029415,0.043274,13,-0.239996,-0.033428,14,-0.179338,-0.198035,15,0.046796,0.253955,16,-0.185527,0.145491,17,0.264754,-0.019485,18,-0.188425,-0.230942,19,0.109836,-0.165381,20,-0.075373,0.130535,21,-0.122645,-0.124673,22,0.113593,-0.059838
25,1,-0.060309,-0.161688,2,0.015367,-0.034431,3,-0.045189,0.067783,4,-0.015451,-0.005654,5,-0.082055,-0.072692,6,0.084800,-0.022763,7,0.283601,0.277045,8,0.096190,-0.258905,9,0.185155,-0.236219,10,-0.271151,0.113465,11,-0.248264,0.061316,12,0.143957,0.004264,13,-0.211565,-0.116490,14,-0.073996,-0.256711,15,0.082938,0.226750,16,-0.113571,0.219226,17,0.169190,-0.160666,18,0.087504,-0.194844,19,0.106688,-0.074898,20,-0.115504,0.105941,21,-0.115074,-0.038847,22,0.037497,-0.198368
26,1,0.025003,0.015623,2,0.032628,-0.061699,3,0.029804,0.011831,4,-0.043854,-0.049204,5,-0.094650,0.044857,6,-0.098601,-0.019996,7,0.152398,0.299192,8,-0.046395,-0.260670,9,0.072915,-0.351604,10,-0.114263,0.283992,11,-0.058233,0.241703,12,0.201924,-0.124929,13,-0.122451,-0.211338,14,-0.068585,-0.214234,15,0.198850,0.221892,16,0.001983,0.224299,17,0.032878,-0.260912,18,0.101161,-0.086981,19,0.127746,-0.043924,20,-0.084687,0.073733,21,-0.174845,0.073706,22,-0.052533,-0.195412
27,1,0.043888,0.028193,2,0.048770,0.057200,3,0.104700,-0.019872,4,-0.064010,0.035859,5,-0.040778,0.045760,6,0.168775,-0.111568,7,-0.002845,0.261619,8,0.056263,-0.350235,9,-0.003701,-0.322301,10,-0.035648,0.292634,11,0.083929,0.189781,12,0.153324,-0.333234,13,0.058858,-0.166354,14,-0.008816,-0.209988,15,0.098272,0.217890,16,0.054736,0.226068,17,-0.024046,-0.247841,18,0.127761,0.038320,19,0.071325,0.053752,20,-0.083853,0.075277,21,-0.209278,0.007492,22,-0.053174,-0.183871
28,1,-0.078139,-0.106420,2,-0.028284,-0.142375,3,-0.022108,-0.084219,4,0.050275,0.086467,5,0.147625,-0.010583,6,0.129195,0.096557,7,0.029326,0.274394,8,-0.026831,-0.223568,9,-0.164136,-0.234740,10,0.183176,0.086630,11,0.170917,0.012824,12,-0.292274,-0.526046,13,0.139409,-0.085003,14,0.141185,-0.164487,15,0.078324,0.244001,16,0.072946,0.149304,17,-0.110017,-0.130613,18,-0.053012,0.108326,19,0.061157,0.076345,20,-0.085382,-0.001706,21,-0.104785,-0.073696,22,-0.011167,-0.102334
29,1,0.060246,-0.037837,2,0.058204,0.090121,3,0.032944,0.096795,4,-0.012494,-0.054014,5,-0.004954,-0.114540,6,-0.102034,0.123986,7,-0.311578,-0.083366,8,0.233424,0.181395,9,0.215143,0.210833,10,-0.115627,-0.279485,11,-0.136099,-0.192969,12,-0.091359,-0.397738,13,-0.098510,0.244146,14,-0.064897,0.244366,15,0.070955,-0.228259,16,0.137247,-0.183469,17,-0.172141,0.154737,18,0.055005,-0.024774,19,0.091125,-0.007381,20,-0.043444,0.031717,21,-0.131030,-0.059310,22,0.025988,-0.048276
30,1,-0.071234,-0.012385,2,0.001132,0.097645,3,-0.029885,-0.065197,4,-0.026166,-0.052929,5,-0.025137,0.090053,6,-0.617171,0.197696,7,0.167810,0.110990,8,0.182810,0.130228,9,-0.184472,-0.151361,10,-0.154780,-0.181111,11,0.176363,0.159168,12,-0.008812,-0.021971,13,0.128343,-0.184001,14,-0.079193,0.170193,15,-0.062788,0.265420,16,0.094015,-0.182575,17,0.179748,-0.161015,18,-0.061801,0.035258,19,0.088173,-0.066919,20,0.030657,0.003015,21,-0.073713,0.012844,22,0.040280,0.021860
31,1,-0.030406,-0.095404,2,0.119884,0.010824,3,0.039862,0.039993,4,-0.018137,-0.097410,5,-0.004985,-0.054999,6,0.178638,0.063641,7,0.049173,0.345090,8,0.220089,-0.179184,9,0.308977,0.029687,10,-0.240693,-0.204368,11,-0.054469,-0.200004,12,0.200620,-0.198934,13,0.300238,0.124442,14,0.180076,0.166142,15,-0.085683,-0.296616,16,0.100895,-0.231815,17,-0.229426,0.103729,18,-0.033174,-0.021333,19,0.059507,-0.020096,20,-0.033759,0.033621,21,-0.036763,-0.031308,22,0.061259,-0.020625
32,1,-0.065841,0.014043,2,0.030007,-0.093708,3,0.075965,0.043845,4,-0.061972,-0.073665,5,0.073012,-0.036072,6,-0.009747,-0.255260,7,0.339960,-0.162351,8,-0.131471,-0.240530,9,0.240572,-0.296511,10,-0.208868,-0.123787,11,-0.063165,-0.268495,12,0.173019,0.055568,13,-0.000702,-0.309829,14,0.215374,-0.034589,15,-0.250415,-0.146843,16,0.122427,-0.214665,17,-0.268153,-0.001335,18,-0.034075,0.041610,19,0.005467,-0.029306,20,0.025413,-0.004790,21,-0.026257,0.007827,22,-0.000594,0.000191
33,1,0.103591,-0.110755,2,-0.127074,0.087742,3,-0.050751,-0.075037,4,-0.099690,0.121298,5,0.005862,-0.177525,6,-0.128849,0.322766,7,-0.264196,-0.140737,8,-0.231942,0.115498,9,-0.151648,-0.267578,10,-0.229901,0.045082,11,-0.064679,-0.245891,12,0.060866,0.083510,13,-0.234390,-0.057437,14,0.130290,-0.290080,15,-0.282012,-0.079966,16,0.141006,-0.208779,17,-0.172779,-0.175857,18,-0.026130,0.027773,19,-0.057323,0.001279,20,-0.021594,0.073587,21,-0.041508,-0.000347,22,0.058553,-0.033324
34,1,-0.009462,-0.058238,2,0.007084,0.068265,3,-0.027106,0.004864,4,-0.032541,-0.001156,5,0.031380,-0.069252,6,0.028115,-0.534808,7,0.215195,0.196380,8,0.263929,0.145550,9,-0.266898,0.056182,10,-0.066014,0.196224,11,-0.222499,-0.165647,12,0.048197,0.029802,13,0.152302,-0.139494,14,-0.018067,0.273869,15,0.243514,0.121569,16,-0.203962,0.055456,17,-0.155285,0.210456,18,-0.085260,-0.019805,19,0.018668,-0.055883,20,-0.048363,-0.047979,21,0.037638,0.042031,22,0.012892,0.002456
35,1,-0.030334,-0.014961,2,-0.041636,0.012742,3,0.010399,-0.049203,4,-0.033603,0.000213,5,0.042657,-0.019432,6,-0.397225,-0.384512,7,0.144154,0.154188,8,0.239704,0.135288,9,-0.339284,0.098385,10,-0.168176,0.192436,11,-0.083365,-0.230887,12,0.052591,-0.016835,13,0.106207,-0.208865,14,0.134816,0.201085,15,0.237844,-0.014575,16,-0.184473,0.102884,17,-0.100416,0.201469,18,0.001242,0.148223,19,-0.025012,-0.021778,20,-0.043693,-0.001675,21,0.072520,-0.058117,22,-0.110930,-0.014988
36,1,0.040751,-0.053130,2,0.040487,0.058345,3,-0.047421,0.022591,4,0.062784,0.006249,5,-0.029364,0.033783,6,0.231018,0.156056,7,-0.091908,0.411276,8,0.266825,0.085007,9,0.178046,0.311626,10,0.176678,-0.226703,11,0.251141,-0.050304,12,0.173238,0.115278,13,0.233090,0.001325,14,0.128908,0.158287,15,-0.000176,-0.252535,16,0.197407,-0.075220,17,-0.214133,-0.147468,18,-0.083667,-0.036581,19,-0.009142,-0.112187,20,0.026856,0.101538,21,-0.122823,-0.015410,22,0.073371,-0.053995
37,1,0.109262,-0.017795,2,-0.118276,0.064677,3,-0.048705,-0.093118,4,-0.113125,0.042046,5,0.033828,-0.080906,6,-0.137301,0.321452,7,-0.273495,-0.139836,8,-0.238042,0.093203,9,-0.146961,-0.250556,10,-0.257213,0.051219,11,-0.094222,-0.258864,12,0.093214,0.079900,13,-0.288188,0.074357,14,0.012791,-0.316659,15,-0.245896,0.122776,16,0.034182,-0.281261,17,-0.206294,-0.057626,18,-0.025157,0.019189,19,-0.045851,0.035198,20,0.053696,0.049897,21,-0.046857,0.067008,22,-0.003892,-0.056040
38,1,0.010627,0.152047,2,-0.086114,-0.114284,3,0.049220,-0.074528,4,-0.109137,0.062171,5,-0.069191,-0.075216,6,0.048116,-0.211012,7,0.304581,-0.050476,8,-0.166452,-0.242017,9,0.192990,-0.290588,10,-0.262373,0.023921,11,-0.200438,-0.191099,12,0.185401,-0.094683,13,0.235948,-0.244569,14,0.216153,0.058297,15,-0.207146,-0.238476,16,0.113974,-0.168808,17,-0.260304,0.013947,18,0.022379,-0.023641,19,0.034091,-0.040366,20,-0.029880,0.039839,21,-0.026740,0.003469,22,-0.010433,-0.023078
39,1,-0.031199,-0.058893,2,-0.007413,0.080839,3,-0.029342,-0.048709,4,-0.043221,-0.057725,5,0.054475,-0.004986,6,-0.478992,-0.372668,7,0.189438,0.132711,8,0.258682,0.102247,9,-0.313703,-0.047458,10,-0.229437,0.058132,11,0.098377,-0.203537,12,-0.030508,0.040027,13,0.117803,-0.162443,14,-0.011146,0.218106,15,0.137195,0.234731,16,-0.134002,-0.126652,17,-0.205650,-0.107061,18,-0.074733,-0.006268,19,0.044365,-0.062117,20,-0.019104,-0.005805,21,0.013591,0.068754,22,0.040420,-0.003034
40,1,0.088168,-0.010326,2,-0.000805,-0.018064,3,0.002244,-0.016262,4,-0.051742,-0.077702,5,0.040549,-0.021571,6,-0.150055,0.375395,7,-0.311129,-0.093208,8,-0.281519,0.079638,9,-0.098233,-0.275052,10,-0.290938,0.013061,11,-0.056843,-0.251745,12,0.083721,0.076166,13,-0.190008,0.224271,14,-0.121248,-0.253407,15,-0.149478,0.198741,16,-0.090414,-0.248125,17,-0.253609,0.064889,18,0.078841,-0.014626,19,-0.006052,0.041777,20,0.020238,0.030224,21,0.015652,0.020187,22,0.026586,-0.017876
