# Input file for Beam Configurations for an HPL.
#
# BeamId,[repeat the following 22 times]:PhaseCenterNumber,BeamWeight_real_part,BeamWeight_imag_part
# Each Beam ID should be a number from 1 to 40.
# Each Phase Center Number should be a whole number between 1 and 22.
# Each Beam Weight can have a floating point value.
# NOTE: Beam ID and Phase Center Number values are not used in parsing, and each row is parsed as if in numerical order
#       The Beam ID and Phase Center Number values are simply to assist in editing this input file.
1,1,-0.083690,0.081069,2,-0.107840,0.049277,3,-0.031296,0.016454,4,0.030528,-0.074384,5,-0.062112,-0.178107,6,0.032775,0.077235,7,0.069863,0.178044,8,-0.074148,-0.158515,9,-0.216742,-0.101293,10,0.169071,-0.057992,11,0.096110,-0.129179,12,-0.490116,-0.561723,13,0.152329,0.029154,14,0.170014,-0.081886,15,-0.008374,0.161155,16,0.100999,0.158982,17,-0.137946,-0.121078,18,-0.049145,-0.000159,19,-0.079264,0.023080,20,-0.035314,-0.111060,21,0.059140,-0.036322,22,0.036163,0.012769
2,1,0.115058,0.156546,2,0.015550,0.111329,3,-0.033794,0.096348,4,-0.075733,-0.129368,5,-0.187726,0.013333,6,0.025245,0.088336,7,0.188413,0.102524,8,-0.217075,-0.112514,9,-0.164442,0.039318,10,0.139327,-0.128469,11,0.055984,-0.201427,12,-0.447615,-0.522169,13,0.152513,-0.021559,14,0.116812,-0.141807,15,0.073557,0.231010,16,0.078349,0.117780,17,-0.093713,-0.160265,18,-0.039827,0.017650,19,-0.055005,0.015086,20,0.063812,-0.064554,21,0.028230,0.016984,22,-0.001333,-0.025116
3,1,0.132912,-0.141995,2,0.093249,0.054529,3,0.142130,0.158606,4,-0.192013,0.081162,5,-0.111187,0.052835,6,0.189596,0.000500,7,0.217826,-0.156411,8,-0.148769,0.082979,9,-0.097781,0.121485,10,0.096342,-0.212152,11,-0.067994,-0.202010,12,-0.129527,-0.554580,13,0.119710,-0.201571,14,-0.075111,-0.249954,15,0.086259,0.180964,16,0.100514,0.182069,17,-0.112145,-0.180299,18,-0.020750,-0.034101,19,-0.048839,-0.034498,20,0.038350,0.018665,21,0.022655,-0.033657,22,0.028347,-0.015466
4,1,-0.070447,-0.140339,2,0.268914,-0.033127,3,0.221645,-0.138734,4,-0.166533,0.072677,5,-0.273955,0.187210,6,0.062516,-0.199217,7,-0.012702,-0.231643,8,-0.134067,0.139976,9,-0.126758,0.223044,10,0.036928,-0.156879,11,0.048652,-0.237297,12,0.165195,-0.343570,13,0.064565,-0.240762,14,0.020394,-0.145739,15,-0.052728,0.257378,16,0.086081,0.213052,17,0.043069,-0.208526,18,-0.061231,0.013252,19,-0.036234,0.011214,20,0.024142,-0.007145,21,0.029542,0.025678,22,0.005087,0.033957
5,1,-0.118743,-0.109503,2,-0.110430,-0.330417,3,0.154427,-0.067774,4,-0.138856,0.278268,5,-0.187138,0.156059,6,-0.264268,0.043482,7,-0.194737,-0.028472,8,-0.014470,0.331544,9,0.068057,0.129909,10,0.103667,-0.290908,11,0.034298,-0.179253,12,0.216292,-0.126252,13,-0.148641,-0.130654,14,-0.045159,-0.221653,15,0.140939,0.154888,16,-0.034457,0.233604,17,0.064088,-0.177638,18,0.005211,0.062807,19,-0.014968,0.013717,20,-0.025127,-0.033283,21,0.031620,0.038918,22,-0.016052,-0.000712
6,1,-0.232072,0.251217,2,-0.050069,-0.165602,3,0.075280,-0.246883,4,-0.193898,0.192479,5,-0.343297,0.093788,6,-0.021417,0.075768,7,-0.271456,-0.032884,8,0.102664,0.159595,9,-0.032891,0.242692,10,0.177185,-0.159044,11,0.191929,-0.080684,12,0.082648,0.105515,13,-0.138989,-0.192885,14,-0.097998,-0.179728,15,-0.084540,0.284593,16,-0.160860,0.139454,17,0.213817,0.044563,18,-0.007649,-0.061949,19,-0.007821,-0.043613,20,0.018221,0.007960,21,-0.055893,0.010223,22,-0.029565,-0.016600
7,1,0.199896,0.074036,2,-0.255891,0.040264,3,-0.016540,-0.182401,4,-0.097121,0.186457,5,-0.341067,-0.141846,6,0.040778,-0.005490,7,0.169725,0.313065,8,0.289247,0.010468,9,0.141602,0.116764,10,0.091924,-0.290747,11,0.187916,-0.004102,12,-0.007894,0.059514,13,-0.165387,0.245910,14,-0.181785,-0.080897,15,0.143582,0.218123,16,-0.127853,0.184834,17,0.179634,0.103920,18,-0.032111,0.040683,19,-0.003384,0.026287,20,0.018881,0.018286,21,-0.002293,0.028037,22,0.027218,-0.024214
8,1,0.226251,-0.128336,2,-0.114118,0.147888,3,-0.111686,-0.205858,4,-0.201989,0.114645,5,-0.100714,-0.311164,6,0.048444,-0.095776,7,0.238994,-0.003236,8,0.167183,-0.245212,9,0.212455,0.200471,10,0.195522,-0.185382,11,0.201962,0.137916,12,-0.046196,0.023772,13,0.114368,0.193678,14,-0.213733,0.161461,15,0.117841,0.250312,16,-0.209593,0.081028,17,0.005042,0.213376,18,0.064216,0.016904,19,0.036668,-0.014195,20,-0.001875,-0.022090,21,-0.023697,-0.040154,22,0.019812,0.024107
9,1,0.020621,-0.360717,2,-0.113610,0.235092,3,-0.062507,-0.189600,4,-0.229432,0.035885,5,0.209118,-0.240984,6,-0.131842,-0.016349,7,0.217421,-0.165272,8,0.044673,-0.198910,9,0.205796,0.085372,10,0.270787,-0.126341,11,0.023918,0.233475,12,-0.035300,-0.046792,13,0.174170,0.070520,14,-0.089782,0.205176,15,0.169280,0.179158,16,-0.224391,0.047208,17,-0.202760,0.165634,18,-0.033603,-0.029183,19,-0.038408,-0.003366,20,-0.024098,-0.008430,21,-0.005961,0.043048,22,0.020555,0.026027
10,1,-0.227744,-0.202749,2,-0.029036,0.316858,3,-0.028276,-0.206998,4,-0.218573,-0.064059,5,0.301353,0.061466,6,-0.054170,0.186079,7,-0.068637,-0.290367,8,-0.045702,-0.214641,9,0.180308,0.094671,10,0.268309,-0.040286,11,-0.130932,0.220897,12,0.001383,-0.054023,13,0.127787,-0.135487,14,-0.011902,0.236716,15,0.169145,0.138742,16,-0.202287,-0.010865,17,-0.248315,0.053620,18,-0.068113,0.026995,19,-0.014074,0.069187,20,0.013938,0.000185,21,0.042068,0.009432,22,-0.003614,-0.016210
11,1,-0.279567,-0.021965,2,0.061568,0.284975,3,0.003124,-0.207894,4,-0.167988,-0.151195,5,0.157789,0.230104,6,0.140961,0.140248,7,-0.286317,-0.173717,8,-0.157372,-0.221993,9,0.175813,0.090848,10,0.233141,0.034569,11,-0.196638,0.140989,12,0.044418,-0.034368,13,-0.022704,-0.191010,14,0.115740,0.239211,15,0.217751,0.108543,16,-0.186892,-0.057868,17,-0.248179,-0.065887,18,-0.016984,0.062212,19,0.057807,0.027936,20,0.024840,-0.036493,21,0.012680,-0.024433,22,0.002021,0.005608
12,1,-0.181881,0.151485,2,0.098736,0.240434,3,-0.005675,-0.228284,4,0.020032,-0.201032,5,-0.118186,0.189491,6,0.177457,-0.287363,7,-0.264376,0.203209,8,-0.212596,-0.052792,9,0.243338,0.114847,10,0.231076,0.133851,11,-0.193070,-0.078865,12,0.032697,0.050387,13,-0.195108,0.069477,14,0.263416,-0.051920,15,0.203738,-0.024939,16,-0.229427,-0.041312,17,-0.173786,-0.124541,18,0.068725,-0.027227,19,-0.005729,-0.068130,20,-0.024469,0.006375,21,-0.028199,0.011505,22,0.005013,0.024976
13,1,-0.181136,0.091812,2,0.080206,0.206350,3,0.121725,-0.194147,4,0.162159,-0.147099,5,-0.240281,0.004347,6,-0.269149,-0.356603,7,0.016615,0.279115,8,-0.191610,0.008305,9,0.223572,0.057047,10,0.116002,0.131992,11,-0.082921,-0.170177,12,-0.050182,0.050433,13,0.026328,0.234725,14,0.059148,-0.270061,15,0.158539,-0.161387,16,-0.220515,0.105361,17,-0.200176,-0.079447,18,-0.040056,-0.068046,19,-0.081790,0.027907,20,-0.013698,0.001676,21,0.066794,0.059318,22,0.022841,0.007531
14,1,-0.092982,0.042879,2,-0.043802,0.111143,3,0.125988,-0.010104,4,0.100122,0.048975,5,0.014836,-0.173061,6,-0.573809,-0.069998,7,0.028005,0.267297,8,-0.233698,-0.000118,9,0.198035,0.122649,10,0.024192,0.218620,11,0.039419,-0.240907,12,-0.027474,-0.006333,13,0.197509,0.146707,14,-0.097915,-0.221941,15,0.100497,-0.219733,16,-0.177780,0.136870,17,-0.131896,-0.134414,18,-0.064322,0.018219,19,0.015035,0.089797,20,-0.030748,0.059750,21,0.055622,-0.065416,22,0.026284,-0.061208
15,1,-0.063478,-0.001294,2,-0.067096,0.094109,3,0.086109,-0.005776,4,0.067188,0.086142,5,-0.049997,-0.092699,6,-0.556193,0.196345,7,0.098036,0.300425,8,-0.206347,0.105134,9,0.196272,0.067186,10,0.142685,0.188643,11,0.010111,-0.163426,12,0.015743,0.015335,13,0.240938,-0.054408,14,-0.193650,-0.111960,15,-0.123269,-0.219596,16,-0.051426,0.198407,17,-0.249703,0.032283,18,-0.032108,0.042232,19,0.100935,-0.052828,20,0.098704,0.023981,21,-0.050159,-0.061806,22,-0.099923,-0.046473
16,1,-0.057437,-0.051784,2,-0.039316,0.004382,3,0.072545,0.050392,4,-0.004875,0.036226,5,0.087381,-0.030142,6,-0.521371,0.210849,7,0.115363,0.311945,8,-0.212713,0.083127,9,0.229757,0.011203,10,0.131780,0.188377,11,-0.054779,-0.251685,12,0.048361,-0.008204,13,0.193586,-0.117627,14,-0.242841,-0.018439,15,-0.166395,-0.149942,16,0.069985,0.236837,17,-0.177261,0.120508,18,0.039084,0.098217,19,0.024135,-0.090095,20,0.073436,-0.088125,21,-0.071803,-0.040045,22,-0.072937,0.091412
17,1,-0.019370,-0.077180,2,-0.048305,0.003995,3,0.022611,0.077207,4,0.017253,0.045235,5,0.080106,-0.002679,6,-0.523777,0.096302,7,0.019533,0.348202,8,-0.231254,0.023797,9,0.214447,0.091884,10,0.092961,0.208260,11,0.034532,-0.247362,12,0.047742,0.000155,13,0.201898,-0.104410,14,-0.262447,-0.036353,15,-0.149538,-0.154574,16,0.055795,0.243326,17,-0.191398,0.131647,18,0.074270,0.091296,19,0.027031,-0.088659,20,0.060037,-0.106916,21,-0.095419,-0.042595,22,-0.037488,0.107149
18,1,-0.002581,0.001214,2,-0.046990,-0.046779,3,-0.021170,-0.006872,4,-0.031870,-0.007587,5,0.049847,-0.030485,6,-0.382162,-0.181355,7,-0.196378,0.271666,8,-0.240147,-0.041864,9,0.168525,0.182463,10,0.085007,0.216764,11,0.000477,-0.300368,12,0.013332,-0.045204,13,0.235331,-0.113557,14,-0.260377,-0.018008,15,-0.235456,-0.123141,16,0.125322,0.181614,17,-0.072525,0.238475,18,0.116798,0.077969,19,-0.000810,-0.145571,20,-0.052308,-0.147015,21,-0.155614,0.105398,22,0.047285,0.104378
19,1,0.022397,-0.013558,2,0.019861,-0.017099,3,-0.035794,0.014325,4,-0.007231,0.002340,5,-0.033965,-0.011836,6,-0.084235,-0.305131,7,-0.299735,0.127075,8,-0.223579,-0.089606,9,0.196457,0.102308,10,0.153691,0.178721,11,-0.258866,-0.175015,12,-0.047704,0.004013,13,0.242628,-0.047168,14,-0.269824,0.043057,15,-0.214020,-0.010582,16,0.269197,0.038747,17,0.180058,0.085221,18,0.253893,0.099675,19,-0.098265,-0.139776,20,-0.181764,-0.111109,21,0.100032,0.214904,22,0.154666,-0.051180
20,1,-0.000581,0.023733,2,0.034709,0.005702,3,0.015854,-0.000703,4,-0.010088,0.012608,5,-0.001295,-0.021683,6,0.130024,-0.050773,7,-0.244030,-0.159612,8,-0.130433,-0.223618,9,0.240575,0.160920,10,0.210990,0.032042,11,-0.242753,0.145085,12,0.007566,0.020193,13,0.182184,0.096549,14,-0.252573,-0.039883,15,-0.220909,0.140719,16,0.136149,-0.173702,17,0.109689,-0.197774,18,0.222954,0.148854,19,-0.182969,-0.217642,20,-0.278659,0.092276,21,0.264381,-0.017765,22,-0.132430,-0.113778
21,1,-0.010143,0.013469,2,0.022941,-0.002817,3,0.017261,0.000871,4,0.000899,0.013833,5,0.008060,-0.043756,6,0.111205,0.015959,7,-0.115282,-0.255432,8,-0.104367,-0.257688,9,0.246208,0.117582,10,0.195675,-0.018784,11,-0.138051,0.269842,12,0.013762,-0.001690,13,0.102602,0.154039,14,-0.269189,-0.037122,15,-0.164717,0.176890,16,0.063891,-0.208040,17,-0.044977,-0.261068,18,0.131686,0.249258,19,-0.193446,-0.238969,20,-0.236435,0.128694,21,0.216633,-0.130985,22,-0.168271,0.013557
22,1,-0.029559,0.027603,2,-0.018521,-0.007961,3,0.013919,-0.002264,4,-0.017387,-0.010371,5,-0.001283,-0.012739,6,-0.005852,0.074360,7,0.179995,-0.347381,8,-0.025298,-0.241276,9,0.186224,0.039791,10,0.119453,-0.179965,11,0.237653,0.116921,12,-0.025784,-0.058549,13,-0.025823,0.238860,14,-0.269148,-0.053939,15,-0.120822,0.170909,16,-0.115487,-0.198197,17,-0.246515,0.069828,18,-0.180020,0.322249,19,-0.105306,-0.222525,20,-0.155400,0.171089,21,0.036186,-0.223061,22,-0.033394,0.157894
23,1,-0.011152,0.021991,2,-0.004277,-0.031507,3,0.048246,0.003282,4,-0.001773,-0.025033,5,0.057737,0.062069,6,-0.075052,-0.036875,7,0.307885,0.121515,8,0.145011,-0.123830,9,0.175332,0.083047,10,0.018499,-0.262375,11,0.223147,-0.125828,12,-0.063247,0.023997,13,-0.194592,0.000611,14,-0.066126,-0.232123,15,-0.184856,0.110147,16,-0.192939,-0.090886,17,-0.076234,0.229959,18,-0.409026,-0.140434,19,0.069597,-0.253836,20,-0.222883,0.127718,21,0.028351,-0.198669,22,0.120996,0.185697
24,1,-0.009637,0.004527,2,0.005652,0.058738,3,-0.006996,0.004824,4,0.016669,0.005857,5,0.040421,-0.097001,6,0.109747,-0.134139,7,0.247344,0.164904,8,0.133865,-0.232536,9,0.244543,-0.052489,10,-0.278397,-0.145282,11,-0.194516,-0.237294,12,0.014193,0.053539,13,-0.211315,-0.064274,14,-0.152694,-0.238874,15,-0.039830,0.256709,16,-0.205452,0.153587,17,0.267328,0.057893,18,-0.137915,-0.291206,19,0.142977,-0.137112,20,-0.108533,0.074094,21,-0.079752,-0.132881,22,0.118051,-0.025380
25,1,-0.064240,-0.107485,2,0.003705,-0.027905,3,-0.032437,0.054673,4,-0.010891,-0.002883,5,-0.078278,-0.055350,6,0.073703,0.025334,7,0.265725,0.313669,8,0.163728,-0.193555,9,0.215142,-0.149728,10,-0.310708,0.050006,11,-0.283337,0.022566,12,0.142978,0.055039,13,-0.174749,-0.135675,14,-0.032269,-0.283067,15,0.003539,0.244066,16,-0.129676,0.236761,17,0.215082,-0.110022,18,0.143030,-0.182720,19,0.120795,-0.049937,20,-0.131421,0.039806,21,-0.091511,-0.057656,22,0.084687,-0.170979
26,1,0.019940,0.007891,2,0.010309,-0.051207,3,0.023767,0.008017,4,-0.033076,-0.030865,5,-0.078181,0.048155,6,-0.062789,-0.063803,7,0.128432,0.324508,8,0.041274,-0.240089,9,0.151390,-0.275497,10,-0.190698,0.267531,11,-0.107636,0.255235,12,0.247305,-0.054316,13,-0.080740,-0.209242,14,-0.034197,-0.238013,15,0.116063,0.278754,16,-0.003504,0.245815,17,0.109322,-0.250101,18,0.129659,-0.065555,19,0.134946,-0.015053,20,-0.095090,0.026135,21,-0.167157,0.027368,22,0.002002,-0.191697
27,1,0.035279,0.014473,2,0.047385,0.030844,3,0.081378,-0.019924,4,-0.041698,0.028689,5,-0.031307,0.044002,6,0.180913,0.001669,7,-0.028679,0.271803,8,0.158893,-0.286972,9,0.080144,-0.272029,10,-0.111411,0.297828,11,0.058326,0.224927,12,0.273405,-0.282476,13,0.077635,-0.143150,14,0.028190,-0.224031,15,0.021286,0.242519,16,0.054525,0.250342,17,0.049059,-0.255075,18,0.125704,0.074236,19,0.058462,0.068721,20,-0.095496,0.027814,21,-0.184101,-0.037486,22,-0.001539,-0.182245
28,1,-0.069376,-0.065381,2,-0.050169,-0.095461,3,-0.020578,-0.064406,4,0.039524,0.055521,5,0.126695,-0.023193,6,0.046925,0.134512,7,0.003479,0.284714,8,0.046275,-0.200393,9,-0.076460,-0.236885,10,0.168067,0.135494,11,0.184247,0.044610,12,-0.107325,-0.627920,13,0.137621,-0.056678,14,0.176768,-0.147192,15,-0.006585,0.257720,16,0.075592,0.164231,17,-0.070667,-0.161142,18,-0.083708,0.099955,19,0.042921,0.087663,20,-0.066444,-0.033594,21,-0.074957,-0.085257,22,0.015843,-0.095510
29,1,0.037891,-0.034770,2,0.060534,0.051987,3,0.029526,0.073799,4,-0.011871,-0.035907,5,-0.015194,-0.098721,6,-0.136104,0.040451,7,-0.312319,-0.116024,8,0.144455,0.228482,9,0.125074,0.230299,10,-0.049974,-0.318714,11,-0.114108,-0.235255,12,0.048368,-0.429766,13,-0.123600,0.206017,14,-0.111169,0.244517,15,0.143293,-0.193451,16,0.154067,-0.196332,17,-0.215457,0.102878,18,0.064222,-0.011761,19,0.090442,0.012677,20,-0.046169,0.008520,21,-0.100669,-0.078405,22,0.035821,-0.037171
30,1,-0.054942,0.000524,2,0.022517,0.072957,3,-0.027187,-0.051926,4,-0.022171,-0.036072,5,-0.013872,0.084501,6,-0.578412,-0.168409,7,0.170077,0.137142,8,0.122794,0.177411,9,-0.120639,-0.181871,10,-0.121083,-0.238118,11,0.172578,0.216077,12,-0.001149,-0.026347,13,0.149189,-0.155115,14,-0.118829,0.172711,15,-0.155453,0.243362,16,0.112450,-0.206516,17,0.236339,-0.112348,18,-0.077879,0.022091,19,0.105703,-0.048365,20,0.024153,0.014681,21,-0.069640,-0.004473,22,0.032557,0.031588
31,1,-0.034345,-0.064356,2,0.088469,-0.017724,3,0.032832,0.029650,4,-0.018567,-0.065538,5,-0.009628,-0.047524,6,0.100276,0.136030,7,0.017153,0.362473,8,0.246834,-0.086460,9,0.251328,0.104422,10,-0.199989,-0.274236,11,-0.023836,-0.230085,12,0.272577,-0.129433,13,0.254851,0.156180,14,0.160519,0.207472,15,0.017207,-0.312902,16,0.116601,-0.251841,17,-0.259262,0.035977,18,-0.029552,-0.031263,19,0.062879,-0.006665,20,-0.039577,0.013787,21,-0.025390,-0.034918,22,0.061253,-0.003170
32,1,-0.045708,0.018886,2,0.001646,-0.074355,3,0.061751,0.031440,4,-0.047471,-0.046905,5,0.060767,-0.038810,6,0.120992,-0.195079,7,0.371336,-0.136087,8,-0.039032,-0.251720,9,0.280301,-0.188158,10,-0.188619,-0.183537,11,-0.021212,-0.309655,12,0.155968,0.118227,13,0.044248,-0.283907,14,0.235495,0.001857,15,-0.192384,-0.226429,16,0.140969,-0.234425,17,-0.269228,-0.080842,18,-0.047355,0.035448,19,0.011911,-0.027821,20,0.022156,0.005938,21,-0.024668,0.001310,22,-0.000596,0.000022
33,1,0.060989,-0.095089,2,-0.074305,0.092128,3,-0.043757,-0.057895,4,-0.061949,0.091344,5,-0.012184,-0.159005,6,-0.261791,0.178201,7,-0.265885,-0.175615,8,-0.242528,0.028169,9,-0.059534,-0.269243,10,-0.257270,-0.011097,11,-0.027390,-0.288824,12,0.032484,0.108076,13,-0.209274,-0.087787,14,0.193477,-0.289416,15,-0.248934,-0.174895,16,0.163641,-0.230625,17,-0.123294,-0.231243,18,-0.035717,0.023087,19,-0.057874,-0.011597,20,-0.046183,0.051236,21,-0.036815,-0.009205,22,0.063427,-0.015814
34,1,-0.014756,-0.041351,2,0.020035,0.048578,3,-0.021458,0.005026,4,-0.022829,0.001290,5,0.021188,-0.064812,6,0.293410,-0.389309,7,0.208162,0.229433,8,0.187168,0.213215,9,-0.243274,-0.022081,10,-0.120992,0.192443,11,-0.219691,-0.227393,12,0.038831,0.048102,13,0.161789,-0.107079,14,-0.069307,0.292045,15,0.196764,0.202264,16,-0.230069,0.056883,17,-0.221360,0.167716,18,-0.086930,-0.044190,19,0.031279,-0.051889,20,-0.020484,-0.057680,21,0.024415,0.045374,22,0.011390,0.005663
35,1,-0.024471,-0.006944,2,-0.028095,0.018599,3,0.006310,-0.040183,4,-0.023734,0.002342,5,0.036510,-0.021734,6,-0.105198,-0.497618,7,0.138642,0.179554,8,0.170805,0.198485,9,-0.319723,-0.005037,10,-0.231508,0.163822,11,-0.051695,-0.278030,12,0.060860,0.001707,13,0.130580,-0.180116,14,0.109961,0.243948,15,0.240313,0.067790,16,-0.211688,0.111733,17,-0.164517,0.176911,18,-0.038648,0.162371,19,-0.020427,-0.027763,20,-0.035100,-0.018562,21,0.077648,-0.036454,22,-0.100681,-0.043444
36,1,0.022272,-0.043564,2,0.041638,0.033423,3,-0.036282,0.019685,4,0.043506,0.000314,5,-0.022454,0.032400,6,0.093213,0.231109,7,-0.135961,0.418513,8,0.205311,0.157642,9,0.069219,0.307957,10,0.242509,-0.192935,11,0.286510,-0.010039,12,0.134158,0.178024,13,0.212186,0.034799,14,0.108227,0.190643,15,0.084638,-0.242771,16,0.219208,-0.077779,17,-0.170676,-0.210637,18,-0.079273,-0.060795,19,0.015722,-0.112568,20,-0.017461,0.091007,21,-0.103837,-0.039258,22,0.081104,-0.030654
37,1,0.076785,-0.027433,2,-0.072039,0.072441,3,-0.042401,-0.071634,4,-0.075614,0.036325,5,0.022002,-0.074675,6,-0.264508,0.170964,7,-0.272738,-0.173624,8,-0.238102,0.006384,9,-0.059325,-0.250580,10,-0.284805,-0.011450,11,-0.057605,-0.305427,12,0.066368,0.114765,13,-0.275484,0.026426,14,0.070675,-0.335700,15,-0.279784,0.035707,16,0.045135,-0.311201,17,-0.190845,-0.119418,18,-0.032007,0.013895,19,-0.053366,0.024775,20,0.023812,0.060686,21,-0.055378,0.048955,22,0.010904,-0.052780
38,1,0.028122,0.109466,2,-0.087746,-0.064961,3,0.036076,-0.061411,4,-0.072050,0.050335,5,-0.068812,-0.060062,6,0.143203,-0.134287,7,0.326342,-0.022874,8,-0.069788,-0.266534,9,0.240785,-0.197339,10,-0.285201,-0.041886,11,-0.189510,-0.251062,12,0.224270,-0.030305,13,0.253926,-0.191622,14,0.221703,0.101830,15,-0.120762,-0.303178,16,0.131666,-0.185621,17,-0.268362,-0.063742,18,0.030412,-0.019526,19,0.043121,-0.032739,20,-0.039566,0.020555,21,-0.024397,-0.002636,22,-0.003692,-0.024181
39,1,-0.031390,-0.039715,2,0.012375,0.062224,3,-0.026024,-0.038475,4,-0.034650,-0.038355,5,0.049073,-0.009986,6,-0.175387,-0.535923,7,0.191149,0.162758,8,0.200434,0.176790,9,-0.261404,-0.125672,10,-0.265252,0.003025,11,0.151300,-0.215151,12,-0.046825,0.030792,13,0.135908,-0.136203,14,-0.052770,0.238006,15,0.055124,0.282398,16,-0.149979,-0.148458,17,-0.180980,-0.174343,18,-0.080801,-0.027291,19,0.059679,-0.053462,20,-0.013483,-0.012390,21,-0.002710,0.065276,22,0.039317,0.007894
40,1,0.062268,-0.019144,2,-0.004454,-0.012906,3,0.001094,-0.012910,4,-0.040623,-0.050290,5,0.033565,-0.022883,6,-0.300100,0.204079,7,-0.315624,-0.128017,8,-0.270911,-0.019187,9,-0.011613,-0.257701,10,-0.309564,-0.060138,11,-0.017226,-0.289599,12,0.057818,0.107166,13,-0.206326,0.177717,14,-0.083479,-0.291242,15,-0.211307,0.141416,16,-0.093614,-0.276603,17,-0.273950,-0.009933,18,0.087950,0.005163,19,-0.015239,0.040005,20,0.004558,0.031906,21,0.009441,0.020979,22,0.029079,-0.009600
