# Input file for Beam Configurations for an HPL.
#
# BeamId,[repeat the following 22 times]:PhaseCenterNumber,BeamWeight_real_part,BeamWeight_imag_part
# Each Beam ID should be a number from 1 to 40.
# Each Phase Center Number should be a whole number between 1 and 22.
# Each Beam Weight can have a floating point value.
# NOTE: Beam ID and Phase Center Number values are not used in parsing, and each row is parsed as if in numerical order
#       The Beam ID and Phase Center Number values are simply to assist in editing this input file.
1,1,-0.096497,0.093475,2,-0.121110,0.039622,3,-0.030194,0.022988,4,0.027804,-0.093812,5,-0.076766,-0.165422,6,0.061906,0.044455,7,0.113816,0.154320,8,-0.129130,-0.122734,9,-0.258130,-0.040950,10,0.100404,-0.127992,11,0.024475,-0.159964,12,-0.588653,-0.396773,13,0.177325,-0.020696,14,0.129142,-0.133048,15,0.034643,0.150117,16,0.157331,0.126413,17,-0.204175,-0.038101,18,-0.062656,-0.000452,19,-0.106035,0.015910,20,-0.064707,-0.137764,21,0.071215,-0.049683,22,0.043976,0.017476
2,1,0.132316,0.180029,2,0.003174,0.120452,3,-0.018561,0.107708,4,-0.107329,-0.146915,5,-0.178864,0.030674,6,0.061145,0.056477,7,0.208502,0.050316,8,-0.246887,-0.026003,9,-0.160367,0.090663,10,0.042685,-0.166649,11,-0.045065,-0.204665,12,-0.538432,-0.369817,13,0.159561,-0.076235,14,0.059636,-0.169883,15,0.127856,0.192208,16,0.119817,0.092192,17,-0.183298,-0.101519,18,-0.050733,0.022242,19,-0.073229,0.009817,20,0.071403,-0.094244,21,0.036404,0.019102,22,-0.000439,-0.030949
3,1,0.150345,-0.160619,2,0.091247,0.068161,3,0.175284,0.139855,4,-0.218256,0.119582,5,-0.099992,0.060283,6,0.144565,-0.087457,7,0.167179,-0.204004,8,-0.108128,0.131344,9,-0.064754,0.154078,10,-0.030863,-0.205736,11,-0.152580,-0.144524,12,-0.250259,-0.469491,13,0.060516,-0.257734,14,-0.150920,-0.201287,15,0.124303,0.140721,16,0.161681,0.147154,17,-0.209245,-0.108530,18,-0.025783,-0.042754,19,-0.055777,-0.051898,20,0.051843,0.017279,21,0.025350,-0.042863,22,0.035014,-0.017374
4,1,-0.078630,-0.156639,2,0.281868,-0.002858,3,0.203171,-0.180346,4,-0.186510,0.105015,5,-0.237832,0.199675,6,-0.044110,-0.178223,7,-0.070038,-0.213978,8,-0.072721,0.176619,9,-0.063681,0.263718,10,-0.047886,-0.133671,11,-0.066398,-0.226125,12,0.065642,-0.345223,13,-0.012019,-0.277496,14,-0.029508,-0.136823,15,0.018592,0.242087,16,0.155716,0.180448,17,-0.076067,-0.220489,18,-0.075633,0.016053,19,-0.047034,0.007868,20,0.029077,-0.012949,21,0.037533,0.028959,22,0.004496,0.040764
5,1,-0.131794,-0.121538,2,-0.075171,-0.352492,3,0.145716,-0.095520,4,-0.128854,0.340746,5,-0.158964,0.161729,6,-0.177633,0.152611,7,-0.188650,0.022052,8,0.105269,0.307696,9,0.106518,0.111528,10,-0.062432,-0.263257,11,-0.051973,-0.168747,12,0.161801,-0.162854,13,-0.200600,-0.088573,14,-0.112273,-0.182127,15,0.163686,0.101214,16,0.043971,0.239559,17,-0.038776,-0.202018,18,0.006088,0.077105,19,-0.020843,0.014487,20,-0.036793,-0.037349,21,0.040751,0.044570,22,-0.019019,-0.001585
6,1,-0.253085,0.273964,2,-0.031687,-0.172981,3,0.033778,-0.259819,4,-0.199619,0.242973,5,-0.303910,0.116348,6,0.018124,0.065175,7,-0.256714,0.036436,8,0.148078,0.107040,9,0.036601,0.250389,10,0.053505,-0.197844,11,0.125215,-0.153265,12,0.096386,0.072674,13,-0.207441,-0.154805,14,-0.143004,-0.125463,15,-0.002690,0.268062,16,-0.108809,0.186312,17,0.221116,-0.075839,18,-0.008926,-0.074737,19,-0.002342,-0.054379,20,0.023601,0.006802,21,-0.065322,0.015935,22,-0.033725,-0.020698
7,1,0.221653,0.082094,2,-0.267475,0.011679,3,-0.048070,-0.182822,4,-0.091005,0.228584,5,-0.328586,-0.099916,6,0.027937,-0.022616,7,0.236123,0.249263,8,0.267413,-0.093716,9,0.176858,0.076805,10,-0.070919,-0.257294,11,0.158584,-0.088633,12,0.007040,0.054525,13,-0.092795,0.314660,14,-0.187586,-0.012635,15,0.181834,0.156265,16,-0.063372,0.222752,17,0.225823,-0.002579,18,-0.039569,0.049723,19,-0.008589,0.031970,20,0.026515,0.019666,21,-0.000786,0.033838,22,0.033388,-0.027456
8,1,0.249390,-0.141461,2,-0.133554,0.137829,3,-0.148048,-0.189275,4,-0.220287,0.156455,5,-0.121036,-0.276992,6,-0.007302,-0.092919,7,0.220468,-0.062224,8,0.064480,-0.281538,9,0.271072,0.139930,10,0.055002,-0.227879,11,0.233522,0.026102,12,-0.035068,0.031735,13,0.184093,0.165445,14,-0.136280,0.211505,15,0.166253,0.190047,16,-0.176518,0.147737,17,0.122550,0.195684,18,0.078184,0.020914,19,0.047479,-0.011365,20,-0.005931,-0.027037,21,-0.031096,-0.046291,22,0.022248,0.029322
9,1,0.022589,-0.395130,2,-0.142197,0.225504,3,-0.094926,-0.180068,4,-0.259689,0.068101,5,0.169271,-0.239230,6,-0.104529,0.047097,7,0.159339,-0.205608,8,-0.029919,-0.194882,9,0.229747,0.026160,10,0.137035,-0.219024,11,0.124662,0.186220,12,-0.041752,-0.032686,13,0.204838,0.016304,14,-0.012752,0.208668,15,0.192316,0.113982,16,-0.200768,0.119077,17,-0.096499,0.264400,18,-0.040559,-0.035509,19,-0.046407,-0.010466,20,-0.031011,-0.006457,21,-0.004088,0.051493,22,0.022892,0.031422
10,1,-0.250312,-0.222841,2,-0.065978,0.319223,3,-0.063664,-0.204038,4,-0.259759,-0.048283,5,0.281961,0.028938,6,0.043695,0.162025,7,-0.135117,-0.251098,8,-0.117248,-0.177774,9,0.207687,0.042887,10,0.176305,-0.155949,11,-0.011614,0.245738,12,-0.011407,-0.047708,13,0.089048,-0.183934,14,0.065858,0.211996,15,0.182727,0.079039,16,-0.199179,0.056051,17,-0.200769,0.186494,18,-0.082907,0.032477,19,-0.028745,0.082549,20,0.017232,-0.002043,21,0.050742,0.008303,22,-0.003507,-0.019216
11,1,-0.307965,-0.024196,2,0.029989,0.297851,3,-0.032209,-0.210747,4,-0.212082,-0.155126,5,0.166025,0.197105,6,0.167778,0.040376,7,-0.307942,-0.089822,8,-0.221250,-0.145229,9,0.202544,0.040445,10,0.186450,-0.085053,11,-0.103336,0.208086,12,0.031002,-0.040613,13,-0.086951,-0.192842,14,0.179309,0.173425,15,0.218184,0.040539,16,-0.200209,0.005548,17,-0.267065,0.075753,18,-0.020989,0.075694,19,0.066436,0.043963,20,0.024769,-0.049199,21,0.013427,-0.030040,22,0.002124,0.006699
12,1,-0.202361,0.168541,2,0.073773,0.259255,3,-0.045021,-0.232167,4,-0.000474,-0.237229,5,-0.092256,0.186803,6,0.001929,-0.296033,7,-0.196230,0.256034,8,-0.213367,0.027865,9,0.279969,0.045501,10,0.234223,-0.011756,11,-0.201249,0.020199,12,0.040947,0.037007,13,-0.183497,0.138739,14,0.217536,-0.132193,15,0.174124,-0.073726,16,-0.238332,0.035975,17,-0.232595,-0.020033,18,0.084680,-0.033158,19,0.004327,-0.085576,20,-0.029521,0.012000,21,-0.033176,0.015852,22,0.004810,0.029947
13,1,-0.202195,0.102486,2,0.058836,0.222707,3,0.091255,-0.219915,4,0.172533,-0.191732,5,-0.223396,0.026263,6,-0.365226,-0.144843,7,0.085627,0.257525,8,-0.172854,0.076483,9,0.243915,-0.007325,10,0.149026,0.041985,11,-0.148882,-0.108451,12,-0.032738,0.056833,13,0.106604,0.240661,14,-0.035611,-0.260557,15,0.099837,-0.183720,16,-0.181352,0.177158,17,-0.232993,0.037138,18,-0.049105,-0.084183,19,-0.106615,0.020992,20,-0.016893,0.004367,21,0.084957,0.067006,22,0.026915,0.010048
14,1,-0.106849,0.049274,2,-0.059977,0.113030,3,0.131101,-0.033017,4,0.126813,0.046811,5,-0.002245,-0.167348,6,-0.476706,0.215927,7,0.096089,0.250760,8,-0.220822,0.086348,9,0.244105,0.068783,10,0.126283,0.154454,11,-0.078224,-0.231666,12,-0.026743,0.000902,13,0.266693,0.092417,14,-0.164841,-0.171043,15,0.034410,-0.227310,16,-0.132650,0.199531,17,-0.205299,-0.054387,18,-0.081820,0.022823,19,0.003711,0.117792,20,-0.029500,0.082341,21,0.064479,-0.085475,22,0.035220,-0.073957
15,1,-0.072667,-0.001481,2,-0.082408,0.091750,3,0.089462,-0.021293,4,0.091286,0.095331,5,-0.056544,-0.083804,6,-0.336443,0.412040,7,0.171586,0.263634,8,-0.155450,0.174994,9,0.224722,0.011235,10,0.200908,0.072894,11,-0.067522,-0.148781,12,0.018113,0.010179,13,0.243932,-0.142067,14,-0.214961,-0.037510,15,-0.169598,-0.167965,16,0.016200,0.217446,17,-0.222690,0.174427,18,-0.040855,0.053294,19,0.138107,-0.050065,20,0.130954,0.014078,21,-0.066679,-0.073008,22,-0.120107,-0.061641
16,1,-0.065652,-0.059191,2,-0.042147,-0.000061,3,0.085011,0.040066,4,-0.001431,0.044072,5,0.080484,-0.037019,6,-0.302356,0.406272,7,0.190923,0.269842,8,-0.169295,0.156391,9,0.242487,-0.057067,10,0.192218,0.077934,11,-0.165746,-0.195930,12,0.042121,-0.019233,13,0.170344,-0.194415,14,-0.228261,0.064566,15,-0.190444,-0.093104,16,0.151416,0.214220,17,-0.101948,0.217764,18,0.048902,0.124328,19,0.046338,-0.110788,20,0.079327,-0.125557,21,-0.091801,-0.044386,22,-0.093490,0.108264
17,1,-0.021986,-0.087606,2,-0.051258,-0.001534,3,0.037093,0.076480,4,0.026043,0.051822,5,0.075617,-0.010068,6,-0.355343,0.317063,7,0.107484,0.326989,8,-0.207100,0.106715,9,0.248944,0.031269,10,0.171388,0.111260,11,-0.084532,-0.232207,12,0.043284,-0.011378,13,0.182645,-0.181609,14,-0.250445,0.054377,15,-0.175086,-0.101001,16,0.138398,0.224031,17,-0.108444,0.234961,18,0.092757,0.114954,19,0.049438,-0.107702,20,0.058535,-0.146382,21,-0.120384,-0.045517,22,-0.050556,0.128285
18,1,-0.002857,0.001344,2,-0.042763,-0.053401,3,-0.022686,-0.003363,4,-0.037939,-0.005052,5,0.043246,-0.032727,6,-0.366924,0.038156,7,-0.114976,0.301463,8,-0.233464,0.047487,9,0.222728,0.135099,10,0.165353,0.118519,11,-0.135437,-0.256233,12,0.001143,-0.043070,13,0.210321,-0.197857,14,-0.236450,0.068605,15,-0.238532,-0.049135,16,0.182231,0.135342,17,0.064540,0.262988,18,0.142578,0.096001,19,0.023322,-0.180009,20,-0.089146,-0.174166,21,-0.179211,0.137288,22,0.051170,0.125726
19,1,0.023916,-0.014478,2,0.021553,-0.014694,3,-0.032723,0.019944,4,-0.007841,0.003448,5,-0.031310,-0.007542,6,-0.193986,-0.182443,7,-0.238331,0.185938,8,-0.227083,-0.001800,9,0.219618,0.044579,10,0.190645,0.055932,11,-0.289202,-0.030965,12,-0.039742,0.014247,13,0.231581,-0.125702,14,-0.217036,0.121311,15,-0.184501,0.043067,16,0.265289,-0.049652,17,0.207850,-0.019559,18,0.299310,0.118883,19,-0.094601,-0.182450,20,-0.235549,-0.104463,21,0.130237,0.241824,22,0.178880,-0.051578
20,1,-0.000598,0.024446,2,0.032499,0.009179,3,0.014878,-0.003186,4,-0.009524,0.014745,5,-0.002963,-0.018525,6,0.068714,-0.090049,7,-0.248089,-0.081578,8,-0.184607,-0.146106,9,0.269020,0.086083,10,0.158112,-0.071456,11,-0.131474,0.217226,12,0.010640,0.014943,13,0.208519,0.038382,14,-0.220197,0.043452,15,-0.148115,0.167217,16,0.069818,-0.199390,17,-0.006744,-0.228517,18,0.253251,0.170544,19,-0.176536,-0.278686,20,-0.308229,0.149282,21,0.293830,-0.037061,22,-0.140993,-0.130988
21,1,-0.010432,0.013853,2,0.022156,-0.000217,3,0.016433,-0.001919,4,0.002490,0.014840,5,0.003190,-0.038236,6,0.083694,-0.035797,7,-0.158651,-0.194000,8,-0.173570,-0.183324,9,0.262225,0.043850,10,0.124995,-0.099207,11,0.004061,0.271700,12,0.010926,-0.004395,13,0.148014,0.119183,14,-0.232704,0.050672,15,-0.093412,0.183413,16,-0.006240,-0.207913,17,-0.173584,-0.203392,18,0.148624,0.284053,19,-0.184987,-0.304377,20,-0.253446,0.184681,21,0.232820,-0.160033,22,-0.185639,0.007718
22,1,-0.030514,0.028494,2,-0.016849,-0.009611,3,0.012829,-0.004365,4,-0.019988,-0.009326,5,-0.002194,-0.010863,6,0.027373,0.054134,7,0.075443,-0.342973,8,-0.101656,-0.196352,9,0.185798,-0.012905,10,0.001902,-0.175990,11,0.238209,-0.007296,12,-0.034087,-0.042577,13,0.048606,0.242775,14,-0.238625,0.036958,15,-0.059094,0.168855,16,-0.166130,-0.144312,17,-0.178613,0.188345,18,-0.206941,0.367000,19,-0.086671,-0.272822,20,-0.153960,0.222109,21,0.025887,-0.251794,22,-0.043635,0.172858
23,1,-0.011340,0.022361,2,-0.000678,-0.030129,3,0.045547,-0.004513,4,-0.004610,-0.026535,5,0.054213,0.047800,6,-0.066717,0.006022,7,0.290740,0.033396,8,0.080685,-0.150989,9,0.184443,0.030238,10,-0.102097,-0.184780,11,0.122440,-0.191222,12,-0.046138,0.033142,13,-0.188216,0.059965,14,-0.123038,-0.169117,15,-0.124117,0.131978,16,-0.200268,-0.022576,17,0.051763,0.236160,18,-0.459253,-0.159726,19,0.117956,-0.277435,20,-0.235250,0.179433,21,0.018440,-0.220655,22,0.123716,0.207026
24,1,-0.010332,0.004854,2,-0.000974,0.058957,3,-0.006086,0.005905,4,0.019433,0.004685,5,0.027545,-0.090357,6,0.020283,-0.144966,7,0.262468,0.088872,8,0.037722,-0.251147,9,0.223995,-0.119847,10,-0.264548,0.024994,11,-0.264499,-0.110681,12,0.024342,0.042571,13,-0.236378,0.002368,14,-0.206092,-0.156864,15,0.028702,0.228801,16,-0.144486,0.210793,17,0.272934,-0.091241,18,-0.162107,-0.345840,19,0.193284,-0.140943,20,-0.118884,0.106447,21,-0.101632,-0.148900,22,0.136460,-0.023836
25,1,-0.069935,-0.117013,2,0.006913,-0.027715,3,-0.023222,0.060089,4,-0.012784,-0.002030,5,-0.076095,-0.043220,6,0.065295,-0.014301,7,0.319753,0.221779,8,0.078696,-0.230615,9,0.170615,-0.209720,10,-0.200656,0.181295,11,-0.227470,0.144937,12,0.136953,0.014735,13,-0.225460,-0.083553,14,-0.118508,-0.236245,15,0.063595,0.210632,16,-0.047041,0.269024,17,0.137562,-0.218405,18,0.173046,-0.219260,19,0.154997,-0.040834,20,-0.154239,0.069872,21,-0.111889,-0.061685,22,0.106321,-0.195208
26,1,0.021900,0.008666,2,0.016369,-0.050906,3,0.025321,0.004051,4,-0.041762,-0.031716,5,-0.067266,0.051241,6,-0.075111,-0.018916,7,0.198610,0.267645,8,-0.047627,-0.231376,9,0.072219,-0.319036,10,-0.012555,0.284540,11,0.023503,0.264145,12,0.204082,-0.105337,13,-0.153393,-0.192207,14,-0.106736,-0.198128,15,0.171216,0.214673,16,0.077434,0.238674,17,-0.036330,-0.291956,18,0.157775,-0.078983,19,0.167936,0.003916,20,-0.113023,0.047715,21,-0.196967,0.044182,22,0.011101,-0.225044
27,1,0.039152,0.016062,2,0.045127,0.037203,3,0.079485,-0.034244,4,-0.045190,0.038370,5,-0.024946,0.043623,6,0.135878,-0.080984,7,0.041085,0.260516,8,0.042435,-0.318594,9,0.001984,-0.298174,10,0.060030,0.272001,11,0.151824,0.165758,12,0.175515,-0.314666,13,0.034367,-0.177118,14,-0.047906,-0.208096,15,0.080116,0.208866,16,0.136405,0.226310,17,-0.095910,-0.266153,18,0.153888,0.091708,19,0.060910,0.094924,20,-0.114434,0.050373,21,-0.223952,-0.032130,22,0.006578,-0.216342
28,1,-0.079289,-0.074723,2,-0.041697,-0.107046,3,-0.032955,-0.063935,4,0.054202,0.061804,5,0.118622,-0.034109,6,0.099055,0.081495,7,0.076498,0.272416,8,-0.030256,-0.205311,9,-0.150421,-0.223655,10,0.193709,0.020087,11,0.182967,-0.046774,12,-0.250414,-0.546637,13,0.130322,-0.108872,14,0.112284,-0.193855,15,0.061107,0.236181,16,0.132194,0.139269,17,-0.160438,-0.114933,18,-0.106284,0.125891,19,0.039634,0.119239,20,-0.090965,-0.031857,21,-0.098966,-0.100126,22,0.023897,-0.115970
29,1,0.042880,-0.039348,2,0.057296,0.061654,3,0.043569,0.071501,4,-0.018444,-0.041231,5,-0.023600,-0.091793,6,-0.084908,0.093890,7,-0.326386,-0.030820,8,0.217637,0.159938,9,0.197089,0.200275,10,-0.192323,-0.214600,11,-0.208199,-0.152234,12,-0.059687,-0.399763,13,-0.063224,0.263958,14,-0.019478,0.258293,15,0.079214,-0.211210,16,0.086880,-0.247663,17,-0.147406,0.220424,18,0.080419,-0.014396,19,0.112083,0.031462,20,-0.057242,0.018572,21,-0.129022,-0.088902,22,0.045095,-0.043296
30,1,-0.063660,0.000608,2,0.015325,0.081024,3,-0.038207,-0.050363,4,-0.031435,-0.041143,5,-0.005303,0.083025,6,-0.530953,0.143165,7,0.201247,0.089163,8,0.183149,0.123189,9,-0.182430,-0.155306,10,-0.211387,-0.122495,11,0.256255,0.111080,12,-0.007551,-0.024080,13,0.110662,-0.222999,14,-0.051452,0.200498,15,-0.079147,0.265496,16,0.042998,-0.249521,17,0.165843,-0.247069,18,-0.099888,0.027905,19,0.145172,-0.044068,20,0.033948,0.014953,21,-0.087734,-0.000507,22,0.038816,0.040704
31,1,-0.038703,-0.072522,2,0.094428,-0.008074,3,0.039122,0.024956,4,-0.029853,-0.075313,5,-0.013488,-0.043787,6,0.138832,0.056883,7,0.108072,0.338743,8,0.197308,-0.169652,9,0.288692,0.033032,10,-0.281959,-0.107913,11,-0.126614,-0.188669,12,0.214133,-0.181686,13,0.326263,0.081403,14,0.213310,0.133991,15,-0.064889,-0.285107,16,0.030644,-0.289015,17,-0.226219,0.180616,18,-0.036667,-0.039101,19,0.080229,0.002312,20,-0.047780,0.024058,21,-0.033485,-0.040813,22,0.073959,-0.000951
32,1,-0.051199,0.021155,2,0.010418,-0.076949,3,0.068931,0.021644,4,-0.061441,-0.049491,5,0.053195,-0.041911,6,0.001713,-0.202567,7,0.315098,-0.221555,8,-0.126721,-0.217728,9,0.230745,-0.274085,10,-0.228209,-0.045446,11,-0.160006,-0.257368,12,0.167570,0.068554,13,-0.048233,-0.317674,14,0.211659,-0.075720,15,-0.229321,-0.152810,16,0.060314,-0.278290,17,-0.299855,0.074708,18,-0.058827,0.043671,19,0.019597,-0.032773,20,0.028856,0.003790,21,-0.029838,0.003339,22,-0.000715,-0.000001
33,1,0.068794,-0.107258,2,-0.088497,0.087485,3,-0.055392,-0.052322,4,-0.062372,0.115645,5,-0.026322,-0.148513,6,-0.116406,0.256219,7,-0.296445,-0.098954,8,-0.214672,0.114196,9,-0.140627,-0.258971,10,-0.197577,0.116313,11,-0.156892,-0.238230,12,0.055152,0.089501,13,-0.254477,-0.023452,14,0.078838,-0.325209,15,-0.268462,-0.093076,16,0.084518,-0.284123,17,-0.248063,-0.150412,18,-0.044662,0.028617,19,-0.070895,-0.024456,20,-0.049932,0.072621,21,-0.045641,-0.008619,22,0.077245,-0.016101
34,1,-0.016921,-0.047419,2,0.015454,0.053999,3,-0.021697,0.009091,4,-0.027329,0.004348,5,0.014118,-0.064027,6,0.043594,-0.438252,7,0.259651,0.167318,8,0.255169,0.131906,9,-0.260654,0.049949,10,0.002862,0.205737,11,-0.300517,-0.097855,12,0.047260,0.034556,13,0.139809,-0.172589,14,0.034658,0.291258,15,0.232453,0.133235,16,-0.212585,0.136367,17,-0.117824,0.289494,18,-0.110001,-0.056471,19,0.049020,-0.061006,20,-0.036183,-0.070795,21,0.033622,0.054591,22,0.013697,0.007486
35,1,-0.027836,-0.007899,2,-0.031813,0.016253,3,-0.000471,-0.043065,4,-0.028063,0.005679,5,0.032605,-0.024067,6,-0.312361,-0.331931,7,0.178382,0.136094,8,0.232416,0.123062,9,-0.332664,0.089958,10,-0.094401,0.236494,11,-0.174487,-0.219490,12,0.055660,-0.013164,13,0.079951,-0.239649,14,0.181476,0.185318,15,0.235167,-0.000887,16,-0.173799,0.183900,17,-0.057072,0.263585,18,-0.049423,0.204026,19,-0.021170,-0.038758,20,-0.047966,-0.017792,21,0.093051,-0.050509,22,-0.120409,-0.057602
36,1,0.024919,-0.048741,2,0.039238,0.039507,3,-0.033860,0.026486,4,0.051146,-0.004827,5,-0.017960,0.032328,6,0.176088,0.131304,7,-0.022493,0.427497,8,0.245629,0.071045,9,0.160688,0.293476,10,0.087018,-0.259471,11,0.242235,-0.139614,12,0.162121,0.127052,13,0.237726,-0.034164,14,0.159451,0.135131,15,0.013506,-0.237791,16,0.189722,-0.149979,17,-0.279231,-0.103173,18,-0.097769,-0.075600,19,0.038646,-0.137931,20,-0.006844,0.117236,21,-0.128626,-0.040225,22,0.098457,-0.032903
37,1,0.086620,-0.030947,2,-0.083816,0.067190,3,-0.056385,-0.066789,4,-0.085188,0.052131,5,0.013733,-0.072345,6,-0.121823,0.252003,7,-0.302460,-0.095338,8,-0.218500,0.092396,9,-0.134916,-0.239886,10,-0.218339,0.129398,11,-0.190804,-0.238748,12,0.087265,0.087406,13,-0.286956,0.121635,14,-0.047306,-0.326373,15,-0.242069,0.103963,16,-0.060297,-0.324099,17,-0.249174,-0.005792,18,-0.039992,0.017173,19,-0.071418,0.022110,20,0.040313,0.072894,21,-0.064175,0.063776,22,0.015627,-0.063156
38,1,0.031456,0.122444,2,-0.083308,-0.077565,3,0.026432,-0.069286,4,-0.078611,0.067720,5,-0.069787,-0.049682,6,0.046281,-0.166694,7,0.300852,-0.103561,8,-0.160160,-0.219968,9,0.187484,-0.271483,10,-0.231407,0.105947,11,-0.277955,-0.129629,12,0.192994,-0.080370,13,0.206127,-0.289315,14,0.231823,0.018381,15,-0.184781,-0.239184,16,0.067417,-0.226755,17,-0.289030,0.090258,18,0.037710,-0.024000,19,0.059368,-0.033598,20,-0.046290,0.032380,21,-0.029747,-0.001467,22,-0.003293,-0.029095
39,1,-0.036298,-0.045924,2,0.005730,0.068141,3,-0.034495,-0.036192,4,-0.046805,-0.042293,5,0.046392,-0.014335,6,-0.390306,-0.334004,7,0.227972,0.108386,8,0.256360,0.093447,9,-0.313279,-0.053222,10,-0.201649,0.134019,11,0.033069,-0.263047,12,-0.035644,0.039924,13,0.102380,-0.197122,14,0.031917,0.238097,15,0.125132,0.245429,16,-0.203970,-0.099115,17,-0.277621,-0.065248,18,-0.103173,-0.035306,19,0.086364,-0.058591,20,-0.019633,-0.013777,21,0.001384,0.081964,22,0.048237,0.011650
40,1,0.070557,-0.021693,2,-0.003145,-0.014073,3,-0.001121,-0.013619,4,-0.054416,-0.054921,5,0.029587,-0.024786,6,-0.134142,0.294903,7,-0.333012,-0.041433,8,-0.259370,0.080958,9,-0.088401,-0.262456,10,-0.261587,0.105483,11,-0.149100,-0.244700,12,0.078094,0.082985,13,-0.162184,0.261897,14,-0.172494,-0.236287,15,-0.154099,0.182104,16,-0.187151,-0.243993,17,-0.267584,0.146058,18,0.110168,0.006907,19,-0.026117,0.047994,20,0.011160,0.039834,21,0.013094,0.025074,22,0.035686,-0.010263
