# Input file for Beam Configurations for an HPL.
#
# BeamId,[repeat the following 22 times]:PhaseCenterNumber,BeamWeight_real_part,BeamWeight_imag_part
# Each Beam ID should be a number from 1 to 40.
# Each Phase Center Number should be a whole number between 1 and 22.
# Each Beam Weight can have a floating point value.
# NOTE: Beam ID and Phase Center Number values are not used in parsing, and each row is parsed as if in numerical order
#       The Beam ID and Phase Center Number values are simply to assist in editing this input file.
1,1,-0.105317,0.070181,2,-0.110537,0.008040,3,-0.032223,0.019544,4,0.033118,-0.085555,5,-0.028357,-0.169668,6,0.055919,0.046340,7,0.126940,0.122197,8,-0.136792,-0.103668,9,-0.217061,-0.081030,10,0.119151,-0.103117,11,0.027757,-0.136673,12,-0.656202,-0.373286,13,0.175025,-0.017038,14,0.123208,-0.149060,15,0.048752,0.153402,16,0.131784,0.127639,17,-0.187559,-0.015233,18,-0.039245,-0.023922,19,-0.076232,-0.029628,20,-0.001783,-0.140904,21,0.066397,-0.010451,22,0.038330,0.025308
2,1,0.092188,0.189813,2,-0.022646,0.102601,3,-0.029675,0.104698,4,-0.089358,-0.145835,5,-0.170782,-0.016970,6,0.054543,0.057867,7,0.197146,0.013393,8,-0.239786,0.001574,9,-0.155697,0.050664,10,0.071609,-0.150942,11,-0.030312,-0.178519,12,-0.602328,-0.349653,13,0.158988,-0.072257,14,0.048007,-0.182049,15,0.149762,0.189852,16,0.100964,0.093755,17,-0.175129,-0.074528,18,-0.040411,-0.005161,19,-0.052338,-0.021291,20,0.096528,-0.052229,21,0.018913,0.025694,22,0.005721,-0.029572
3,1,0.169493,-0.125338,2,0.063796,0.077987,3,0.161191,0.159135,4,-0.216712,0.096783,5,-0.107854,0.030274,6,0.145642,-0.074871,7,0.121963,-0.214229,8,-0.090978,0.139699,9,-0.084819,0.124564,10,0.008875,-0.204777,11,-0.127444,-0.133026,12,-0.308423,-0.485863,13,0.065562,-0.257013,14,-0.176612,-0.200101,15,0.143749,0.138377,16,0.136274,0.149293,17,-0.202120,-0.079567,18,-0.000091,-0.037251,19,-0.017569,-0.056438,20,0.037717,0.035008,21,0.032716,-0.021607,22,0.037339,-0.009746
4,1,-0.048377,-0.166019,2,0.249811,0.059398,3,0.229907,-0.164277,4,-0.190916,0.087929,5,-0.278924,0.127759,6,-0.031614,-0.180487,7,-0.101074,-0.191664,8,-0.053092,0.185274,9,-0.106581,0.228230,10,-0.021779,-0.142395,11,-0.049958,-0.206771,12,0.043754,-0.388953,13,-0.006918,-0.286464,14,-0.044041,-0.146418,15,0.041688,0.262394,16,0.131737,0.184765,17,-0.093398,-0.200649,18,-0.056175,-0.019308,19,-0.035736,-0.013202,20,0.030864,0.000231,21,0.017082,0.034427,22,-0.003973,0.041501
5,1,-0.107098,-0.142598,2,0.011076,-0.330831,3,0.162511,-0.083515,4,-0.154523,0.325906,5,-0.195443,0.113240,6,-0.188930,0.140829,7,-0.176844,0.051874,8,0.141260,0.299170,9,0.076987,0.122126,10,-0.011241,-0.276514,11,-0.039791,-0.155679,12,0.167313,-0.196129,13,-0.206849,-0.096105,14,-0.139243,-0.190095,15,0.189021,0.096703,16,0.020772,0.232866,17,-0.056856,-0.188406,18,-0.026673,0.053645,19,-0.020367,0.001792,20,-0.017645,-0.048123,21,0.014004,0.047334,22,-0.018752,-0.005564
6,1,-0.296571,0.222337,2,0.010063,-0.161045,3,0.063867,-0.266964,4,-0.216297,0.223526,5,-0.322315,0.031279,6,0.013644,0.066621,7,-0.239373,0.076666,8,0.161673,0.091370,9,-0.012964,0.236299,10,0.092292,-0.188005,11,0.120468,-0.133656,12,0.114007,0.073102,13,-0.212443,-0.164961,14,-0.167848,-0.125071,15,0.020925,0.294732,16,-0.120413,0.168260,17,0.202726,-0.093922,18,0.023822,-0.053152,19,0.020093,-0.038919,20,0.018238,0.015584,21,-0.053656,-0.011648,22,-0.029487,-0.027789
7,1,0.202374,0.120320,2,-0.241313,-0.048902,3,-0.029974,-0.196227,4,-0.108309,0.218554,5,-0.289479,-0.183137,6,0.029657,-0.020785,7,0.266878,0.200159,8,0.260098,-0.125188,9,0.148175,0.103487,10,-0.020956,-0.272550,11,0.148258,-0.073661,12,0.012542,0.060536,13,-0.102903,0.325816,14,-0.207328,0.002594,15,0.214172,0.155830,16,-0.080440,0.207557,17,0.214923,-0.024796,18,-0.046156,0.017290,19,-0.018817,0.018942,20,0.015669,0.028265,21,-0.012700,0.024620,22,0.039291,-0.020601
8,1,0.269657,-0.093657,2,-0.149698,0.093348,3,-0.133598,-0.213925,4,-0.230150,0.136820,5,-0.042970,-0.298273,6,-0.000863,-0.093862,7,0.200898,-0.095574,8,0.033350,-0.292194,9,0.222871,0.178936,10,0.099839,-0.218237,11,0.211294,0.034066,12,-0.036597,0.038554,13,0.188316,0.175871,14,-0.131168,0.244374,15,0.199938,0.194328,16,-0.181978,0.125652,17,0.136066,0.174255,18,0.043643,0.045079,19,0.037773,0.011054,20,0.005660,-0.026486,21,-0.006298,-0.045184,22,0.016212,0.034100
9,1,0.093817,-0.385381,2,-0.178011,0.170765,3,-0.079691,-0.199750,4,-0.263692,0.046693,5,0.227535,-0.186316,6,-0.109013,0.040300,7,0.119746,-0.224325,8,-0.052700,-0.195089,9,0.207455,0.067217,10,0.181731,-0.194570,11,0.105876,0.176077,12,-0.049905,-0.033293,13,0.214285,0.021190,14,0.004345,0.231926,15,0.223298,0.108999,16,-0.203968,0.096716,17,-0.066198,0.263083,18,-0.012892,-0.040043,19,-0.028470,-0.026071,20,-0.025178,-0.018425,21,-0.021587,0.036653,22,0.016527,0.036584
10,1,-0.207431,-0.266334,2,-0.131150,0.273322,3,-0.044405,-0.222588,4,-0.255646,-0.069374,5,0.266423,0.103690,6,0.032997,0.167775,7,-0.172359,-0.220882,8,-0.140415,-0.168563,9,0.184873,0.078947,10,0.210107,-0.123667,11,-0.021677,0.225668,12,-0.017047,-0.053112,13,0.097482,-0.191901,14,0.092055,0.229827,15,0.210608,0.071513,16,-0.197812,0.036354,17,-0.174805,0.199791,18,-0.068871,-0.011599,19,-0.053783,0.046800,20,0.016369,0.005216,21,0.034754,0.024561,22,0.000502,-0.020267
11,1,-0.299171,-0.079617,2,-0.039538,0.274152,3,-0.010385,-0.225001,4,-0.198298,-0.171385,5,0.108074,0.234946,6,0.166843,0.052596,7,-0.311508,-0.035934,8,-0.241920,-0.122693,9,0.179635,0.075324,10,0.205341,-0.049327,11,-0.103886,0.185958,12,0.031490,-0.048475,13,-0.087231,-0.203785,14,0.213659,0.175963,15,0.245357,0.025311,16,-0.193280,-0.012554,17,-0.248493,0.099204,18,-0.044427,0.042234,19,0.029081,0.057736,20,0.042255,-0.034027,21,0.020769,-0.017402,22,0.000737,0.007219
12,1,-0.229964,0.129473,2,0.008391,0.249246,3,-0.021459,-0.248912,4,0.018722,-0.235871,5,-0.139040,0.156114,6,0.022705,-0.299219,7,-0.146995,0.278959,8,-0.214135,0.052711,9,0.250232,0.094494,10,0.239216,0.034216,11,-0.185178,0.009545,12,0.049363,0.038234,13,-0.195018,0.141666,14,0.228900,-0.165433,15,0.186266,-0.097312,16,-0.232691,0.013337,17,-0.224962,0.003944,18,0.069974,0.011795,19,0.037527,-0.058529,20,-0.031359,-0.001266,21,-0.030275,-0.000221,22,-0.001441,0.031283
13,1,-0.217186,0.064206,2,0.003125,0.212457,3,0.119981,-0.220213,4,0.186469,-0.176114,5,-0.222436,-0.034041,6,-0.358093,-0.171558,7,0.124462,0.233364,8,-0.166826,0.097315,9,0.226124,0.038801,10,0.142038,0.071585,11,-0.131109,-0.105611,12,-0.031959,0.066715,13,0.106534,0.253498,14,-0.062233,-0.284164,15,0.093811,-0.211849,16,-0.189876,0.153903,17,-0.218996,0.058613,18,0.000921,-0.075814,19,-0.083297,-0.028087,20,-0.016876,-0.002957,21,0.038632,0.079986,22,0.025016,0.015775
14,1,-0.113759,0.029096,2,-0.078746,0.087741,3,0.140816,-0.020013,4,0.121772,0.056560,5,0.042261,-0.161811,6,-0.495132,0.184162,7,0.133251,0.224892,8,-0.214167,0.112657,9,0.211843,0.108841,10,0.096919,0.180328,11,-0.061069,-0.214717,12,-0.029964,0.003298,13,0.276390,0.101744,14,-0.196611,-0.173870,15,0.017626,-0.253840,16,-0.144951,0.179513,17,-0.201377,-0.031573,18,-0.063648,-0.017490,19,-0.044660,0.084108,20,-0.059747,0.061558,21,0.078216,-0.039877,22,0.050956,-0.067065
15,1,-0.071004,-0.014546,2,-0.094006,0.063682,3,0.095884,-0.012353,4,0.082631,0.101658,5,-0.032202,-0.095673,6,-0.367307,0.391160,7,0.207651,0.224723,8,-0.137694,0.195002,9,0.204588,0.052220,10,0.187936,0.112724,11,-0.054942,-0.138561,12,0.021201,0.009881,13,0.257140,-0.143239,14,-0.239881,-0.022371,15,-0.201973,-0.170000,16,-0.003819,0.209787,17,-0.195159,0.188448,18,-0.048490,0.019174,19,0.116870,0.020284,20,0.111142,0.065651,21,-0.022941,-0.077702,22,-0.107904,-0.087162
16,1,-0.054028,-0.070277,2,-0.037858,-0.009466,3,0.084911,0.051590,4,-0.004992,0.043729,5,0.087789,-0.014367,6,-0.334477,0.389917,7,0.228487,0.228794,8,-0.154703,0.178719,9,0.234974,-0.007328,10,0.179206,0.116748,11,-0.143160,-0.186918,12,0.045898,-0.025326,13,0.182490,-0.200404,14,-0.246921,0.091655,15,-0.219491,-0.086094,16,0.126736,0.219954,17,-0.076113,0.219058,18,-0.017184,0.102900,19,0.077331,-0.059403,20,0.122369,-0.080324,21,-0.052006,-0.065995,22,-0.117375,0.089824
17,1,-0.005823,-0.090575,2,-0.045809,-0.012851,3,0.030541,0.084707,4,0.021757,0.053773,5,0.076042,0.010446,6,-0.382617,0.296527,7,0.157751,0.298230,8,-0.199311,0.132672,9,0.224844,0.075738,10,0.151867,0.146675,11,-0.067261,-0.216986,12,0.047982,-0.016592,13,0.195526,-0.187112,14,-0.272930,0.082509,15,-0.203589,-0.096425,16,0.113546,0.228708,17,-0.080795,0.236683,18,0.015983,0.114468,19,0.078431,-0.056092,20,0.112431,-0.107706,21,-0.072923,-0.077299,22,-0.078321,0.119362
18,1,-0.003103,0.000819,2,-0.026861,-0.058315,3,-0.023795,-0.006145,4,-0.037842,-0.008208,5,0.051283,-0.020420,6,-0.379076,0.013044,7,-0.062112,0.313814,8,-0.235699,0.076064,9,0.183136,0.168970,10,0.145978,0.154610,11,-0.114235,-0.244103,12,-0.002439,-0.049380,13,0.227523,-0.205974,14,-0.259104,0.098167,15,-0.272504,-0.033477,16,0.165706,0.148704,17,0.089304,0.249205,18,0.057701,0.123206,19,0.090230,-0.119070,20,-0.009110,-0.195246,21,-0.184771,0.037584,22,0.025623,0.139835
19,1,0.027203,-0.010322,2,0.023504,-0.008708,3,-0.038007,0.017978,4,-0.008385,0.002901,5,-0.029368,-0.016245,6,-0.190441,-0.205728,7,-0.206758,0.226755,8,-0.240412,0.024990,9,0.202130,0.085512,10,0.188824,0.097728,11,-0.273595,-0.042807,12,-0.045290,0.020230,13,0.254582,-0.131942,14,-0.238150,0.159267,15,-0.208246,0.066759,16,0.269888,-0.025025,17,0.204909,-0.040955,18,0.158469,0.207374,19,0.007148,-0.173041,20,-0.175153,-0.196938,21,0.009624,0.234684,22,0.199061,-0.015044
20,1,-0.005284,0.025269,2,0.028585,0.016323,3,0.016840,-0.001782,4,-0.011231,0.014631,5,0.002183,-0.019711,6,0.079854,-0.090856,7,-0.265966,-0.039850,8,-0.215633,-0.134591,9,0.244952,0.136903,10,0.183295,-0.043351,11,-0.137009,0.203391,12,0.013995,0.016796,13,0.229327,0.046767,14,-0.252513,0.071137,15,-0.157032,0.209164,16,0.089595,-0.195679,17,-0.030770,-0.230074,18,0.106437,0.227307,19,-0.012695,-0.281718,20,-0.355233,0.008730,21,0.243248,0.082658,22,-0.121099,-0.170754
21,1,-0.013546,0.012460,2,0.021122,0.005030,3,0.018512,-0.000199,4,0.001350,0.015838,5,0.014063,-0.038276,6,0.092298,-0.032125,7,-0.195689,-0.170369,8,-0.209379,-0.176795,9,0.247994,0.094948,10,0.154588,-0.080217,11,-0.008862,0.263700,12,0.012655,-0.006244,13,0.161705,0.135390,14,-0.267843,0.081147,15,-0.092150,0.224086,16,0.013318,-0.212621,17,-0.197683,-0.188212,18,-0.015399,0.264507,19,-0.008104,-0.306001,20,-0.320386,0.066033,21,0.243654,-0.036616,22,-0.200470,-0.033122
22,1,-0.037394,0.023942,2,-0.013780,-0.013149,3,0.014819,-0.003351,4,-0.020288,-0.011555,5,0.000820,-0.011773,6,0.025350,0.060134,7,0.017318,-0.363898,8,-0.133648,-0.199941,9,0.184813,0.024277,10,0.038809,-0.188519,11,0.231840,0.004155,12,-0.044684,-0.047869,13,0.048875,0.270965,14,-0.276624,0.065770,15,-0.053378,0.204154,16,-0.156075,-0.163228,17,-0.161825,0.210485,18,-0.303291,0.172509,19,0.051877,-0.240995,20,-0.242546,0.144799,21,0.116652,-0.187943,22,-0.085425,0.175694
23,1,-0.016358,0.021473,2,0.006569,-0.029229,3,0.051950,0.000352,4,-0.002617,-0.028743,5,0.042658,0.065208,6,-0.072941,0.001517,7,0.306895,-0.016773,8,0.069793,-0.175113,9,0.177070,0.067146,10,-0.071870,-0.222397,11,0.129600,-0.182279,12,-0.052865,0.044419,13,-0.213149,0.063441,14,-0.162269,-0.189272,15,-0.134989,0.169061,16,-0.205011,-0.042587,17,0.078566,0.237702,18,-0.261331,-0.312871,19,0.209363,-0.158882,20,-0.305179,0.069895,21,0.100113,-0.168380,22,0.087545,0.252821
24,1,-0.011523,0.003034,2,-0.014615,0.054919,3,-0.007345,0.005757,4,0.019730,0.006490,5,0.052848,-0.083406,6,0.031954,-0.151226,7,0.278670,0.044263,8,0.010187,-0.270941,9,0.239041,-0.071680,10,-0.283859,-0.027913,11,-0.247169,-0.117831,12,0.032407,0.047849,13,-0.258014,-0.002354,14,-0.251885,-0.161743,15,0.054530,0.261343,16,-0.164545,0.197973,17,0.263093,-0.119408,18,0.031577,-0.308858,19,0.200967,-0.022284,20,-0.156218,0.048976,21,-0.022479,-0.152993,22,0.148916,0.004821
25,1,-0.048512,-0.130060,2,0.012592,-0.023720,3,-0.031585,0.061520,4,-0.012747,-0.003102,5,-0.063094,-0.063097,6,0.068113,-0.010044,7,0.350125,0.163744,8,0.054723,-0.247795,9,0.200153,-0.164488,10,-0.242496,0.146195,11,-0.218207,0.124580,12,0.158268,0.004955,13,-0.238313,-0.093542,14,-0.154408,-0.254856,15,0.090813,0.231298,16,-0.070459,0.258942,17,0.111914,-0.226662,18,0.207090,-0.078529,19,0.127649,0.034235,20,-0.169461,-0.000187,21,-0.061585,-0.087384,22,0.150961,-0.177770
26,1,0.020142,0.012586,2,0.026221,-0.042321,3,0.026315,0.007119,4,-0.039196,-0.035129,5,-0.079227,0.031838,6,-0.075098,-0.024548,7,0.236851,0.226667,8,-0.075366,-0.231676,9,0.127303,-0.283109,10,-0.069143,0.287123,11,0.009834,0.244450,12,0.222571,-0.137185,13,-0.157833,-0.205727,14,-0.136418,-0.211009,15,0.210268,0.223831,16,0.053560,0.238219,17,-0.064285,-0.278001,18,0.138146,0.010530,19,0.117438,0.070866,20,-0.121544,-0.003281,21,-0.162768,-0.038519,22,0.058958,-0.226563
27,1,0.035487,0.022796,2,0.032044,0.043239,3,0.086842,-0.026982,4,-0.047769,0.034301,5,-0.035567,0.035358,6,0.142307,-0.071975,7,0.081964,0.242950,8,0.006851,-0.327545,9,0.057373,-0.273723,10,0.007135,0.285380,11,0.130938,0.157678,12,0.170076,-0.368005,13,0.039342,-0.183866,14,-0.070995,-0.224691,15,0.106930,0.222968,16,0.110509,0.228850,17,-0.117789,-0.244267,18,0.065819,0.122465,19,0.004628,0.090904,20,-0.122465,-0.001443,21,-0.153390,-0.103936,22,0.051903,-0.216126
28,1,-0.061916,-0.084325,2,-0.012987,-0.101015,3,-0.026356,-0.067874,4,0.046840,0.063074,5,0.118667,-0.001318,6,0.090506,0.085620,7,0.113536,0.239470,8,-0.051961,-0.197062,9,-0.093071,-0.225066,10,0.183947,0.056005,11,0.162531,-0.033241,12,-0.315588,-0.570271,13,0.132915,-0.106786,14,0.102570,-0.214948,15,0.085191,0.245439,16,0.110035,0.139811,17,-0.158331,-0.090272,18,-0.116564,0.039853,19,-0.019287,0.095773,20,-0.065720,-0.062880,21,-0.035630,-0.105207,22,0.046536,-0.107506
29,1,0.048407,-0.030402,2,0.036942,0.066792,3,0.037064,0.078378,4,-0.014702,-0.041638,5,0.001607,-0.093203,6,-0.090610,0.087226,7,-0.313221,0.023478,8,0.235143,0.135338,9,0.141773,0.217613,10,-0.149259,-0.249857,11,-0.180225,-0.145710,12,-0.099597,-0.436982,13,-0.070110,0.269803,14,0.001268,0.281686,15,0.067415,-0.236305,16,0.103689,-0.226120,17,-0.117002,0.221491,18,0.058411,0.022191,19,0.064951,0.065984,20,-0.057725,-0.006535,21,-0.062222,-0.110091,22,0.053611,-0.033593
30,1,-0.062778,-0.010915,2,-0.004314,0.076081,3,-0.034493,-0.057092,4,-0.027888,-0.043392,5,-0.027229,0.078809,6,-0.546299,0.107419,7,0.208322,0.052771,8,0.200345,0.104457,9,-0.139351,-0.177498,10,-0.189466,-0.165310,11,0.229434,0.112978,12,-0.010570,-0.026484,13,0.120262,-0.231125,14,-0.039132,0.226024,15,-0.063752,0.300859,16,0.063627,-0.236126,17,0.134232,-0.253048,18,-0.077951,-0.021388,19,0.119859,0.027422,20,0.024319,0.027206,21,-0.064695,-0.031957,22,0.030633,0.049256
31,1,-0.024553,-0.077039,2,0.084992,0.013566,3,0.037616,0.030008,4,-0.023149,-0.075860,5,-0.001351,-0.045106,6,0.133887,0.066015,7,0.156868,0.302946,8,0.178262,-0.191689,9,0.255825,0.083044,10,-0.259076,-0.161615,11,-0.105564,-0.175104,12,0.221800,-0.219194,13,0.333898,0.090131,14,0.243193,0.126947,15,-0.095695,-0.304289,16,0.054317,-0.270458,17,-0.195216,0.192048,18,-0.008682,-0.040128,19,0.054551,0.033328,20,-0.051672,0.002068,21,-0.009895,-0.041505,22,0.073577,0.014336
32,1,-0.054136,0.011546,2,0.026448,-0.066576,3,0.069805,0.030322,4,-0.056911,-0.054015,5,0.062450,-0.026288,6,0.015888,-0.204131,7,0.266429,-0.264511,8,-0.153450,-0.206706,9,0.263837,-0.209492,10,-0.221234,-0.090626,11,-0.134677,-0.242084,12,0.194341,0.062778,13,-0.044031,-0.332810,14,0.226739,-0.102161,15,-0.266990,-0.148251,16,0.082707,-0.261803,17,-0.279205,0.101166,18,-0.056729,0.005599,19,0.026929,-0.015143,20,0.024260,0.015110,21,-0.023227,-0.008258,22,-0.000721,-0.000151
33,1,0.086402,-0.092377,2,-0.098049,0.058251,3,-0.051875,-0.060555,4,-0.070689,0.108880,5,0.013992,-0.149261,6,-0.134396,0.248566,7,-0.299060,-0.046181,8,-0.203679,0.139460,9,-0.080695,-0.263182,10,-0.220632,0.078008,11,-0.131811,-0.222997,12,0.069229,0.095321,13,-0.263616,-0.029393,14,0.057889,-0.363181,15,-0.302869,-0.078247,16,0.105765,-0.263502,17,-0.250382,-0.118373,18,-0.040982,0.001215,19,-0.039700,-0.045357,20,-0.073655,0.044353,21,-0.030394,-0.022615,22,0.080701,-0.000016
34,1,-0.008069,-0.049660,2,0.001822,0.051788,3,-0.023738,0.007116,4,-0.027443,0.002106,5,0.030638,-0.058010,6,0.074598,-0.438878,7,0.276912,0.118208,8,0.274157,0.104951,9,-0.249556,-0.002651,10,-0.037499,0.208067,11,-0.270063,-0.102681,12,0.056116,0.034829,13,0.149507,-0.177504,14,0.063901,0.318161,15,0.268714,0.126357,16,-0.216264,0.111984,17,-0.083901,0.288427,18,-0.050806,-0.081706,19,0.058940,-0.023151,20,-0.003593,-0.077999,21,0.005203,0.052387,22,0.012235,0.010421
35,1,-0.026119,-0.012882,2,-0.032333,0.007528,3,0.004317,-0.045493,4,-0.028482,0.003389,5,0.038123,-0.014655,6,-0.293881,-0.359127,7,0.195106,0.102261,8,0.251849,0.099267,9,-0.325732,0.020923,10,-0.142659,0.221585,11,-0.150671,-0.209661,12,0.061928,-0.019709,13,0.088954,-0.250556,14,0.218045,0.189742,15,0.261575,-0.022204,16,-0.184585,0.162242,17,-0.028603,0.259492,18,-0.115459,0.117212,19,0.000709,-0.035985,20,-0.035918,-0.035650,21,0.087477,-0.003875,22,-0.110070,-0.083937
36,1,0.033582,-0.043784,2,0.026572,0.044490,3,-0.038746,0.024198,4,0.051538,-0.000664,5,-0.026145,0.026642,6,0.169855,0.145979,7,0.048882,0.418068,8,0.259796,0.044610,9,0.094093,0.303115,10,0.139911,-0.246756,11,0.229365,-0.117758,12,0.194915,0.130178,13,0.251207,-0.031206,14,0.189406,0.136152,15,-0.006436,-0.266191,16,0.197234,-0.128201,17,-0.279583,-0.071534,18,-0.035294,-0.090358,19,0.083281,-0.082057,20,-0.054215,0.102937,21,-0.081208,-0.076587,22,0.107076,-0.012610
37,1,0.090125,-0.014679,2,-0.089406,0.041238,3,-0.051318,-0.075725,4,-0.088073,0.044512,5,0.032265,-0.065703,6,-0.139540,0.243987,7,-0.304237,-0.041754,8,-0.210020,0.117908,9,-0.079014,-0.244669,10,-0.244004,0.087076,11,-0.162561,-0.224979,12,0.104942,0.090260,13,-0.300228,0.120535,14,-0.080414,-0.353439,15,-0.256397,0.135630,16,-0.028817,-0.314476,17,-0.237199,0.019065,18,-0.033339,-0.004515,19,-0.058655,-0.013079,20,0.006390,0.081019,21,-0.069838,0.023862,22,0.028817,-0.059984
38,1,0.008739,0.125038,2,-0.056886,-0.087300,3,0.035103,-0.069107,4,-0.082741,0.060316,5,-0.053692,-0.065957,6,0.057867,-0.163569,7,0.269977,-0.147659,8,-0.186212,-0.203592,9,0.221755,-0.213509,10,-0.252210,0.060954,11,-0.246117,-0.129674,12,0.208576,-0.106075,13,0.219398,-0.295794,14,0.255280,-0.000165,15,-0.223784,-0.245731,16,0.084276,-0.210055,17,-0.265247,0.114066,18,0.034498,-0.000917,19,0.054764,0.000254,20,-0.054118,0.010068,21,-0.021267,-0.011682,22,0.002766,-0.029784
39,1,-0.027374,-0.051673,2,-0.010028,0.062266,3,-0.032109,-0.041728,4,-0.042973,-0.045687,5,0.048546,-0.001496,6,-0.370103,-0.363969,7,0.236735,0.066754,8,0.270903,0.065733,9,-0.278694,-0.107530,10,-0.229613,0.095556,11,0.041849,-0.238644,12,-0.036668,0.047941,13,0.110860,-0.203815,14,0.056172,0.259687,15,0.160158,0.259819,16,-0.186944,-0.113306,17,-0.271770,-0.034809,18,-0.054702,-0.064828,19,0.084169,-0.006449,20,-0.011953,-0.020287,21,-0.028426,0.060989,22,0.046162,0.021860
40,1,0.073024,-0.008553,2,0.000314,-0.013257,3,0.000336,-0.014345,4,-0.049351,-0.058643,5,0.035015,-0.015992,6,-0.155376,0.287059,7,-0.325704,0.014726,8,-0.253390,0.111354,9,-0.032346,-0.257558,10,-0.283615,0.054862,11,-0.124883,-0.229301,12,0.094633,0.086386,13,-0.174100,0.269476,14,-0.210381,-0.244585,15,-0.153413,0.214265,16,-0.157430,-0.250130,17,-0.240510,0.165634,18,0.070522,0.048540,19,-0.037504,0.023139,20,-0.006184,0.040020,21,0.000653,0.023141,22,0.038001,-0.002846
