# Input file for Beam Configurations for an HPL.
#
# BeamId,[repeat the following 22 times]:PhaseCenterNumber,BeamWeight_real_part,BeamWeight_imag_part
# Each Beam ID should be a number from 1 to 40.
# Each Phase Center Number should be a whole number between 1 and 22.
# Each Beam Weight can have a floating point value.
# NOTE: Beam ID and Phase Center Number values are not used in parsing, and each row is parsed as if in numerical order
#       The Beam ID and Phase Center Number values are simply to assist in editing this input file.
1,1,-0.084144,0.056072,2,-0.108810,0.027399,3,-0.032137,0.015791,4,0.020227,-0.073297,5,-0.087017,-0.137570,6,0.024421,0.083866,7,-0.004570,0.187021,8,-0.057861,-0.179233,9,-0.162268,-0.182348,10,0.165463,-0.009080,11,0.112849,-0.133131,12,-0.267606,-0.667506,13,0.202244,0.064599,14,0.204319,-0.053336,15,-0.044116,0.179306,16,0.049992,0.203048,17,-0.098323,-0.152244,18,-0.038518,-0.020063,19,-0.082533,-0.017648,20,0.000198,-0.123045,21,0.064171,-0.001893,22,0.046386,0.009283
2,1,0.073314,0.150952,2,-0.004569,0.105785,3,-0.036704,0.096148,4,-0.085370,-0.112344,5,-0.154464,0.047672,6,0.015205,0.093980,7,0.130350,0.163152,8,-0.215653,-0.148634,9,-0.169174,-0.029340,10,0.155978,-0.079087,11,0.074063,-0.213044,12,-0.240359,-0.615075,13,0.209825,-0.004273,14,0.158049,-0.129977,15,0.032763,0.274169,16,0.040554,0.150965,17,-0.045518,-0.176690,18,-0.038248,-0.002291,19,-0.056557,-0.013024,20,0.084536,-0.044193,21,0.014752,0.026504,22,-0.005982,-0.030294
3,1,0.132292,-0.097828,2,0.075503,0.065040,3,0.135978,0.160349,4,-0.166760,0.095502,5,-0.081039,0.064474,6,0.191019,0.023149,7,0.249282,-0.056892,8,-0.165732,0.066873,9,-0.137093,0.072538,10,0.135961,-0.160805,11,-0.058160,-0.217577,12,0.057031,-0.532504,13,0.190813,-0.247913,14,-0.027972,-0.283325,15,0.056509,0.216356,16,0.040267,0.221446,17,-0.056372,-0.196447,18,-0.002393,-0.034303,19,-0.026551,-0.053347,20,0.031745,0.030319,21,0.032829,-0.016145,22,0.031112,-0.023230
4,1,-0.037119,-0.127385,2,0.249221,0.014814,3,0.222203,-0.130772,4,-0.144209,0.084820,5,-0.188586,0.205346,6,0.086697,-0.193080,7,0.074426,-0.208027,8,-0.157713,0.127978,9,-0.203257,0.153744,10,0.070614,-0.127198,11,0.067130,-0.246677,12,0.252921,-0.253465,13,0.123873,-0.308285,14,0.052341,-0.151553,15,-0.111663,0.270573,16,0.014753,0.247954,17,0.094651,-0.181512,18,-0.052038,-0.014058,19,-0.037048,-0.007273,20,0.025876,0.000563,21,0.011556,0.033306,22,0.011816,0.039508
5,1,-0.082591,-0.109968,2,-0.045330,-0.320280,3,0.155218,-0.063121,4,-0.096949,0.271766,5,-0.124407,0.164582,6,-0.273284,0.012336,7,-0.161649,-0.097677,8,-0.058899,0.345431,9,0.011169,0.146379,10,0.162746,-0.228965,11,0.048494,-0.187931,12,0.232669,-0.045282,13,-0.177179,-0.198125,14,-0.001857,-0.248343,15,0.122674,0.200558,16,-0.116715,0.229201,17,0.106779,-0.148551,18,-0.020986,0.050450,19,-0.019742,0.004995,20,-0.014292,-0.040767,21,0.007296,0.044920,22,-0.019353,0.001895
6,1,-0.234072,0.175481,2,-0.017983,-0.160376,3,0.081849,-0.244290,4,-0.157922,0.199789,5,-0.266359,0.143835,6,-0.030975,0.074625,7,-0.228923,-0.130742,8,0.086902,0.181582,9,-0.126867,0.211107,10,0.195357,-0.095792,11,0.210111,-0.073021,12,0.041095,0.120635,13,-0.155014,-0.280848,14,-0.067952,-0.215323,15,-0.154056,0.297304,16,-0.215504,0.088505,17,0.188307,0.098625,18,0.018853,-0.050995,19,0.013899,-0.042431,20,0.015539,0.013665,21,-0.048834,-0.017295,22,-0.038439,-0.014896
7,1,0.154160,0.091655,2,-0.237591,-0.006149,3,-0.011339,-0.179461,4,-0.067905,0.180393,5,-0.304821,-0.050970,6,0.041525,-0.000658,7,0.033186,0.336067,8,0.298077,0.048544,9,0.082998,0.161461,10,0.150624,-0.228988,11,0.197352,0.008225,12,-0.025330,0.050111,13,-0.257007,0.297724,14,-0.176659,-0.124051,15,0.110899,0.267634,16,-0.193874,0.144677,17,0.138204,0.142715,18,-0.040442,0.018334,19,-0.015307,0.021349,20,0.012708,0.023715,21,-0.014305,0.020780,22,0.028126,-0.033269
8,1,0.207114,-0.071935,2,-0.127761,0.114713,3,-0.104283,-0.205411,4,-0.171567,0.126789,5,-0.141291,-0.234923,6,0.060044,-0.090410,7,0.210468,0.085242,8,0.205419,-0.232485,9,0.114852,0.265710,10,0.214850,-0.112723,11,0.202988,0.158394,12,-0.048209,0.006750,13,0.120125,0.273875,14,-0.261714,0.127542,15,0.076272,0.297877,16,-0.242076,0.010741,17,-0.051310,0.198161,18,0.042305,0.038194,19,0.038741,0.004854,20,0.005068,-0.022163,21,-0.000497,-0.041887,22,0.027583,0.025234
9,1,0.073923,-0.303662,2,-0.145524,0.198710,3,-0.057842,-0.193036,4,-0.210648,0.059510,5,0.128261,-0.242639,6,-0.133867,-0.032950,7,0.257880,-0.066288,8,0.074206,-0.205720,9,0.157917,0.162483,10,0.272563,-0.044250,11,0.009788,0.253380,12,-0.017202,-0.053670,13,0.224413,0.123994,14,-0.142281,0.205321,15,0.151166,0.237024,16,-0.252009,-0.029670,17,-0.236528,0.102232,18,-0.014493,-0.036424,19,-0.032832,-0.021577,20,-0.021454,-0.016174,21,-0.024532,0.031682,22,0.029544,0.028104
10,1,-0.161489,-0.207346,2,-0.080730,0.287972,3,-0.022741,-0.208900,4,-0.211027,-0.035119,5,0.263514,-0.007180,6,-0.078268,0.184480,7,0.047964,-0.285863,8,-0.019804,-0.233741,9,0.129904,0.160349,10,0.247833,0.031537,11,-0.155758,0.228389,12,0.018323,-0.048426,13,0.194554,-0.162074,14,-0.063574,0.255634,15,0.159122,0.191039,16,-0.207591,-0.082485,17,-0.248618,-0.016013,18,-0.063986,-0.006397,19,-0.045891,0.055076,20,0.013862,0.004636,21,0.029200,0.026761,22,-0.007192,-0.019033
11,1,-0.230979,-0.061469,2,0.008355,0.270861,3,0.008756,-0.206614,4,-0.171738,-0.120710,5,0.174432,0.159677,6,0.126256,0.159373,7,-0.188784,-0.260514,8,-0.135726,-0.253598,9,0.125836,0.153266,10,0.195713,0.088060,11,-0.218438,0.136513,12,0.050469,-0.016859,13,0.000455,-0.258617,14,0.074272,0.282460,15,0.217389,0.165862,16,-0.173027,-0.124791,17,-0.214033,-0.127277,18,-0.037885,0.041201,19,0.037803,0.052217,20,0.036061,-0.028200,21,0.021044,-0.013513,22,0.003385,0.006380
12,1,-0.174223,0.098090,2,0.049375,0.234271,3,0.000557,-0.225086,4,-0.003880,-0.185917,5,-0.060647,0.177512,6,0.212844,-0.268006,7,-0.307034,0.080680,8,-0.214048,-0.082692,9,0.176879,0.200289,10,0.167781,0.172972,11,-0.198005,-0.095958,12,0.013377,0.054790,13,-0.269180,0.060768,14,0.292426,-0.000321,15,0.228087,0.015425,16,-0.220742,-0.121371,17,-0.127924,-0.160805,18,0.063266,0.006333,19,0.027126,-0.062392,20,-0.025947,-0.001419,21,-0.027176,-0.003661,22,0.010200,0.028834
13,1,-0.162329,0.047988,2,0.037764,0.197667,3,0.123519,-0.185542,4,0.130212,-0.150311,5,-0.193178,0.048615,6,-0.225306,-0.385795,7,-0.087333,0.247751,8,-0.197596,-0.016229,9,0.179149,0.137965,10,0.067416,0.141215,11,-0.074919,-0.182295,12,-0.059309,0.028778,13,-0.002599,0.310554,14,0.118207,-0.272626,15,0.204516,-0.141415,16,-0.258704,0.031501,17,-0.162008,-0.124393,18,-0.003688,-0.066919,19,-0.083706,-0.013954,20,-0.013749,-0.002612,21,0.025217,0.075257,22,0.028052,0.005005
14,1,-0.081184,0.020764,2,-0.056394,0.090480,3,0.120539,-0.006358,4,0.093882,0.032656,5,-0.020136,-0.139917,6,-0.551360,-0.134549,7,-0.071833,0.237273,8,-0.235315,-0.029754,9,0.128369,0.183720,10,-0.031662,0.189683,11,0.055834,-0.243201,12,-0.021695,-0.013683,13,0.230452,0.218567,14,-0.056360,-0.249709,15,0.151133,-0.212467,16,-0.222112,0.076464,17,-0.083909,-0.153977,18,-0.054590,-0.011121,19,-0.028286,0.083095,20,-0.047280,0.047342,21,0.070493,-0.025322,22,0.020196,-0.074807
15,1,-0.050870,-0.010421,2,-0.074041,0.071720,3,0.082301,-0.003265,4,0.068652,0.069038,5,-0.056679,-0.064224,6,-0.564588,0.127080,7,-0.024131,0.290304,8,-0.220974,0.079650,9,0.147810,0.133944,10,0.075110,0.192529,11,0.020898,-0.165951,12,0.008913,0.017882,13,0.317002,-0.032455,14,-0.177703,-0.155139,15,-0.085989,-0.257594,16,-0.117196,0.179596,17,-0.231719,-0.034646,18,-0.039902,0.018969,19,0.109754,0.001298,20,0.086280,0.052640,21,-0.011087,-0.068499,22,-0.122630,-0.037050
16,1,-0.038541,-0.050133,2,-0.035186,-0.002501,3,0.067882,0.049958,4,-0.000443,0.032567,5,0.063655,-0.039963,6,-0.532227,0.145203,7,-0.013525,0.306226,8,-0.224546,0.056685,9,0.198623,0.097208,10,0.065992,0.189674,11,-0.039528,-0.260080,12,0.043957,0.007459,13,0.266068,-0.120719,14,-0.247527,-0.068317,15,-0.145771,-0.192536,16,-0.009618,0.258162,17,-0.189290,0.062744,18,-0.008634,0.087591,19,0.061618,-0.065386,20,0.096286,-0.061255,21,-0.036889,-0.061431,22,-0.068890,0.117162
17,1,-0.004179,-0.065008,2,-0.043057,-0.004295,3,0.019577,0.074319,4,0.020118,0.038217,5,0.063024,-0.016893,6,-0.521955,0.033381,7,-0.108017,0.303119,8,-0.235959,-0.005363,9,0.154623,0.162823,10,0.028668,0.197390,11,0.051283,-0.250179,12,0.040968,0.014463,13,0.274991,-0.102630,14,-0.264490,-0.090934,15,-0.127130,-0.194248,16,-0.025881,0.260165,17,-0.205015,0.069197,18,0.020062,0.096035,19,0.063492,-0.062919,20,0.089387,-0.083218,21,-0.053694,-0.073695,22,-0.025549,0.129593
18,1,-0.002243,0.000592,2,-0.033485,-0.048350,3,-0.019909,-0.007069,4,-0.028851,-0.003289,5,0.033687,-0.033148,6,-0.349496,-0.219626,7,-0.262551,0.159720,8,-0.235073,-0.072165,9,0.079052,0.223983,10,0.019822,0.201355,11,0.019841,-0.304514,12,0.024862,-0.034609,13,0.317223,-0.108486,14,-0.264365,-0.071052,15,-0.223161,-0.177235,16,0.063335,0.220706,17,-0.124916,0.193937,18,0.056295,0.101784,19,0.065456,-0.123179,20,-0.004996,-0.154342,21,-0.162506,0.012056,22,0.071186,0.111729
19,1,0.020053,-0.007609,2,0.020214,-0.011814,3,-0.034580,0.012754,4,-0.006158,0.002848,5,-0.029134,-0.003126,6,-0.046916,-0.307538,7,-0.300603,0.000790,8,-0.213994,-0.118703,9,0.134847,0.165309,10,0.086868,0.187116,11,-0.252984,-0.195521,12,-0.042216,-0.010879,13,0.318578,-0.022959,14,-0.288454,-0.010177,15,-0.224898,-0.054734,16,0.254451,0.128456,17,0.139714,0.122303,18,0.149984,0.171103,19,-0.019534,-0.163731,20,-0.138830,-0.160656,21,-0.017704,0.206231,22,0.169854,-0.084467
20,1,-0.004007,0.019161,2,0.029768,0.010690,3,0.015269,-0.000259,4,-0.007641,0.012334,5,-0.005061,-0.017077,6,0.133640,-0.034740,7,-0.151498,-0.224705,8,-0.103768,-0.243549,9,0.152554,0.235493,10,0.171171,0.077741,11,-0.258993,0.133266,12,0.000442,0.019761,13,0.220221,0.153062,14,-0.255386,-0.093258,15,-0.264688,0.105062,16,0.194559,-0.127873,17,0.149731,-0.150339,18,0.108931,0.196982,19,-0.056242,-0.270413,20,-0.294471,0.003035,21,0.209285,0.102179,22,-0.172513,-0.110059
21,1,-0.010270,0.009447,2,0.020822,0.001245,3,0.016640,0.001296,4,0.002301,0.012288,5,-0.001694,-0.036576,6,0.107775,0.028728,7,-0.006689,-0.261317,8,-0.073233,-0.275786,9,0.174812,0.199784,10,0.170992,0.031098,11,-0.160106,0.269314,12,0.012465,0.002709,13,0.108891,0.215685,14,-0.274281,-0.094116,15,-0.212857,0.155749,16,0.134352,-0.187190,17,0.026487,-0.248040,18,0.002153,0.237556,19,-0.055580,-0.294546,20,-0.266215,0.050921,21,0.223258,-0.005034,22,-0.193690,0.043782
22,1,-0.028333,0.018140,2,-0.015217,-0.010143,3,0.013567,-0.001828,4,-0.016774,-0.007444,5,-0.003420,-0.010023,6,-0.014532,0.073004,7,0.281885,-0.234730,8,0.005205,-0.250216,9,0.151903,0.107742,10,0.145671,-0.125008,11,0.238716,0.136898,12,-0.004650,-0.058974,13,-0.071181,0.307108,14,-0.272181,-0.112293,15,-0.165433,0.159169,16,-0.049224,-0.239100,17,-0.242499,-0.000233,18,-0.260782,0.172490,19,0.012539,-0.240921,20,-0.202537,0.117028,21,0.126317,-0.155534,22,-0.012682,0.190393
23,1,-0.012575,0.016507,2,0.001371,-0.029150,3,0.047277,0.004517,4,-0.004367,-0.022598,5,0.058830,0.039654,6,-0.070869,-0.045890,7,0.224476,0.219534,8,0.166317,-0.109324,9,0.126869,0.144061,10,0.080203,-0.222478,11,0.242491,-0.117124,12,-0.063265,0.001677,13,-0.256574,-0.030137,14,-0.021980,-0.261005,15,-0.224477,0.081441,16,-0.165686,-0.158992,17,-0.130437,0.191850,18,-0.256160,-0.267850,19,0.180082,-0.188861,20,-0.257208,0.055058,21,0.110809,-0.141886,22,0.174704,0.199433
24,1,-0.008542,0.002250,2,-0.004587,0.053190,3,-0.006898,0.004483,4,0.015596,0.003450,5,0.014358,-0.085499,6,0.124183,-0.119724,7,0.153363,0.231844,8,0.166544,-0.220170,9,0.239332,0.047266,10,-0.202395,-0.191054,11,-0.185560,-0.258183,12,-0.003929,0.050929,13,-0.264478,-0.116632,14,-0.111159,-0.282185,15,-0.095642,0.267601,16,-0.258658,0.084965,17,0.227784,0.121572,18,0.009436,-0.272044,19,0.186570,-0.051727,20,-0.127123,0.037872,21,-0.002640,-0.137023,22,0.133574,-0.049317
25,1,-0.036141,-0.096894,2,0.007829,-0.024113,3,-0.032689,0.051817,4,-0.010042,-0.001401,5,-0.072911,-0.029717,6,0.069561,0.033520,7,0.114721,0.365065,8,0.191148,-0.175737,9,0.249348,-0.050957,10,-0.275798,-0.032146,11,-0.293161,0.004690,12,0.107248,0.090996,13,-0.204844,-0.202745,14,0.024246,-0.302428,15,-0.046234,0.261755,16,-0.209627,0.193400,17,0.222676,-0.044176,18,0.177405,-0.081290,19,0.126508,0.012949,20,-0.137959,-0.002120,21,-0.044582,-0.084131,22,0.070025,-0.212748
26,1,0.014972,0.009355,2,0.017421,-0.043538,3,0.022614,0.008323,4,-0.032779,-0.023932,5,-0.053414,0.052893,6,-0.054166,-0.069875,7,-0.006963,0.323761,8,0.072435,-0.237939,9,0.240003,-0.187002,10,-0.225422,0.180774,11,-0.127105,0.254901,12,0.230048,0.027725,13,-0.071550,-0.282328,14,0.012963,-0.254930,15,0.066790,0.320895,16,-0.086056,0.244201,17,0.162563,-0.197338,18,0.121792,0.001079,19,0.122149,0.049201,20,-0.098691,-0.004073,21,-0.139161,-0.052220,22,-0.029407,-0.222390
27,1,0.026793,0.017212,2,0.037359,0.035434,3,0.079808,-0.017242,4,-0.034543,0.030469,5,-0.017049,0.041481,6,0.179795,0.022992,7,-0.124124,0.225337,8,0.200408,-0.274325,9,0.177863,-0.214224,10,-0.167957,0.228640,11,0.045833,0.238006,12,0.326101,-0.163837,13,0.124123,-0.174969,14,0.076183,-0.230910,15,-0.027238,0.266691,16,-0.030078,0.272076,17,0.111119,-0.220387,18,0.065984,0.105160,19,0.018582,0.086796,20,-0.101026,-0.002632,21,-0.125497,-0.110548,22,-0.032405,-0.213893
28,1,-0.048212,-0.065661,2,-0.029883,-0.095946,3,-0.018757,-0.064760,4,0.042736,0.046914,5,0.100398,-0.043576,6,0.031541,0.142595,7,-0.103281,0.254043,8,0.075188,-0.204572,9,0.023523,-0.248961,10,0.113977,0.160776,11,0.193231,0.059991,12,0.100495,-0.596694,13,0.193316,-0.053629,14,0.222325,-0.121701,15,-0.061935,0.283793,16,0.021070,0.196514,17,-0.023245,-0.169489,18,-0.104637,0.043828,19,-0.003801,0.098181,20,-0.055159,-0.054304,21,-0.020534,-0.101340,22,0.002641,-0.117558
29,1,0.036198,-0.022734,2,0.045436,0.056271,3,0.026671,0.072336,4,-0.014574,-0.030998,5,-0.030711,-0.076633,6,-0.139517,0.024083,7,-0.227513,-0.213679,8,0.118310,0.252274,9,0.023299,0.255029,10,0.034314,-0.284401,11,-0.102730,-0.251253,12,0.173161,-0.360114,13,-0.193238,0.248755,14,-0.167318,0.234260,15,0.194136,-0.178669,16,0.221844,-0.145625,17,-0.222598,0.037864,18,0.052859,0.016111,19,0.072084,0.052918,20,-0.047094,-0.006013,21,-0.042750,-0.104652,22,0.035682,-0.049457
30,1,-0.044274,-0.007698,2,0.007978,0.067632,3,-0.024584,-0.050251,4,-0.023472,-0.029549,5,0.004575,0.069496,6,-0.544145,-0.230888,7,0.095468,0.177344,8,0.101093,0.194104,9,-0.037419,-0.206495,10,-0.045187,-0.229001,11,0.161942,0.231476,12,0.006915,-0.022958,13,0.215062,-0.175627,14,-0.158011,0.154649,15,-0.214043,0.226210,16,0.180427,-0.167284,17,0.240144,-0.040421,18,-0.066069,-0.013432,19,0.111765,0.007262,20,0.018443,0.021234,21,-0.050706,-0.033616,22,0.042661,0.030999
31,1,-0.018021,-0.056543,2,0.080037,-0.001263,3,0.030389,0.028990,4,-0.023308,-0.055708,5,-0.016293,-0.035684,6,0.081562,0.143357,7,-0.114432,0.312445,8,0.257984,-0.055433,9,0.181321,0.186769,10,-0.102395,-0.276651,11,-0.009341,-0.234862,12,0.271315,-0.029193,13,0.300688,0.238154,14,0.123392,0.245963,15,0.081297,-0.326178,16,0.198604,-0.209727,17,-0.239944,-0.033594,18,-0.009859,-0.034247,19,0.056086,0.022950,20,-0.041468,0.001067,21,-0.004014,-0.037222,22,0.069598,-0.013646
32,1,-0.039273,0.008376,2,0.013346,-0.064487,3,0.057674,0.031378,4,-0.046675,-0.036167,5,0.040694,-0.041634,6,0.139401,-0.174832,7,0.361537,0.017033,8,-0.007327,-0.256398,9,0.316786,-0.059207,10,-0.114116,-0.197723,11,-0.001548,-0.314772,12,0.097698,0.147171,13,0.099819,-0.354223,14,0.241586,0.049323,15,-0.156666,-0.276850,16,0.216441,-0.184102,17,-0.218822,-0.139857,18,-0.048239,0.008062,19,0.022649,-0.018028,20,0.019061,0.012253,21,-0.019078,-0.009648,22,-0.000678,0.000123
33,1,0.062935,-0.067287,2,-0.079821,0.068627,3,-0.040123,-0.056217,4,-0.044926,0.087196,5,-0.038829,-0.123367,6,-0.274878,0.142996,7,-0.162652,-0.243599,8,-0.246938,-0.002380,9,0.049623,-0.259697,10,-0.213066,-0.070303,11,-0.009182,-0.295392,12,-0.004517,0.102211,13,-0.253763,-0.144371,14,0.258199,-0.259552,15,-0.227516,-0.235096,16,0.238557,-0.173618,17,-0.051370,-0.237690,18,-0.035154,0.003416,19,-0.043672,-0.036175,20,-0.059132,0.034468,21,-0.023768,-0.022877,22,0.070193,-0.028546
34,1,-0.005752,-0.035402,2,0.009723,0.045791,3,-0.020579,0.004231,4,-0.020038,0.003577,5,0.004841,-0.055180,6,0.330451,-0.345036,7,0.094711,0.269055,8,0.161146,0.238006,9,-0.206228,-0.111844,10,-0.147311,0.132876,11,-0.208990,-0.245770,12,0.018880,0.052866,13,0.223508,-0.112018,14,-0.130801,0.287850,15,0.167153,0.253860,16,-0.246846,-0.020330,17,-0.240536,0.093682,18,-0.047365,-0.065855,19,0.050180,-0.029692,20,-0.001932,-0.060805,21,-0.001239,0.044849,22,0.014022,0.004638
35,1,-0.018641,-0.009194,2,-0.027620,0.011769,3,0.007061,-0.038136,4,-0.020731,0.004604,5,0.024896,-0.023919,6,-0.044995,-0.496537,7,0.053541,0.201944,8,0.146598,0.221182,9,-0.280208,-0.125864,10,-0.233380,0.082614,11,-0.034653,-0.286528,12,0.051674,0.019697,13,0.194901,-0.210323,14,0.064267,0.274511,15,0.240540,0.120459,16,-0.246978,0.040136,17,-0.192099,0.116378,18,-0.090591,0.105257,19,-0.004640,-0.032852,20,-0.027617,-0.028204,21,0.074457,0.006145,22,-0.122892,-0.033411
36,1,0.024720,-0.032229,2,0.031598,0.036579,3,-0.035656,0.018102,4,0.039108,-0.004437,5,-0.011998,0.030251,6,0.065100,0.239495,7,-0.269161,0.311588,8,0.189444,0.187438,9,-0.056767,0.302793,10,0.253527,-0.106126,11,0.297146,0.008457,12,0.062687,0.195928,13,0.270406,0.078525,14,0.074447,0.222548,15,0.141004,-0.243559,16,0.246999,-0.004052,17,-0.100662,-0.235464,18,-0.035940,-0.076422,19,0.065737,-0.089636,20,-0.044793,0.082181,21,-0.062380,-0.075882,22,0.089623,-0.049343
37,1,0.064874,-0.010566,2,-0.073805,0.051171,3,-0.038029,-0.068449,4,-0.062116,0.039642,5,0.003623,-0.062299,6,-0.273476,0.134078,7,-0.167206,-0.241522,8,-0.236964,-0.023407,9,0.042237,-0.240361,10,-0.233330,-0.076233,11,-0.038375,-0.310579,12,0.022222,0.116699,13,-0.351799,-0.008597,14,0.139194,-0.328301,15,-0.299211,-0.018692,16,0.146458,-0.289334,17,-0.138417,-0.153221,18,-0.028576,-0.001929,19,-0.055774,-0.003315,20,0.004118,0.063802,21,-0.062210,0.012781,22,0.003814,-0.061632
38,1,0.006359,0.090990,2,-0.065605,-0.070201,3,0.035543,-0.056885,4,-0.057599,0.051545,5,-0.064705,-0.034443,6,0.152984,-0.112793,7,0.281676,0.095972,8,-0.035971,-0.273401,9,0.283871,-0.081671,10,-0.226788,-0.101666,11,-0.174590,-0.264683,12,0.198904,0.040698,13,0.350150,-0.203468,14,0.206031,0.148358,15,-0.065493,-0.341041,16,0.189958,-0.138291,17,-0.221025,-0.123688,18,0.029570,-0.002781,19,0.050853,-0.007966,20,-0.043150,0.007392,21,-0.017070,-0.012418,22,-0.008116,-0.026860
39,1,-0.019437,-0.036690,2,0.000816,0.056741,3,-0.023893,-0.037493,4,-0.034857,-0.030321,5,0.037141,-0.016998,6,-0.109315,-0.543983,7,0.104508,0.207230,8,0.179814,0.203893,9,-0.183631,-0.210963,10,-0.224377,-0.060700,11,0.168671,-0.210138,12,-0.049564,0.012421,13,0.195681,-0.153891,14,-0.103176,0.236290,15,0.001073,0.311174,16,-0.099482,-0.197830,17,-0.117966,-0.202688,18,-0.049489,-0.051232,19,0.075263,-0.018139,20,-0.009051,-0.015874,21,-0.030474,0.048309,22,0.046677,0.002627
40,1,0.052519,-0.006151,2,-0.001810,-0.011949,3,0.001370,-0.012195,4,-0.041006,-0.039854,5,0.022206,-0.024126,6,-0.313587,0.162953,7,-0.220715,-0.219960,8,-0.268162,-0.053235,9,0.087039,-0.230272,10,-0.244120,-0.123233,11,0.001196,-0.294123,12,0.017355,0.108492,13,-0.289532,0.194268,14,-0.027124,-0.315944,15,-0.250600,0.106087,16,-0.000541,-0.303236,17,-0.240856,-0.078012,18,0.062622,0.037165,19,-0.030967,0.026771,20,-0.005309,0.031383,21,-0.001955,0.019808,22,0.031645,-0.015710
