# Input file for Beam Configurations for an HPL.
#
# BeamId,[repeat the following 22 times]:PhaseCenterNumber,BeamWeight_real_part,BeamWeight_imag_part
# Each Beam ID should be a number from 1 to 40.
# Each Phase Center Number should be a whole number between 1 and 22.
# Each Beam Weight can have a floating point value.
# NOTE: Beam ID and Phase Center Number values are not used in parsing, and each row is parsed as if in numerical order
#       The Beam ID and Phase Center Number values are simply to assist in editing this input file.
1,1,-0.098502,0.065640,2,-0.125985,0.021080,3,-0.035352,0.012937,4,0.035284,-0.088132,5,-0.054715,-0.199790,6,0.045943,0.064034,7,0.048815,0.181921,8,-0.152961,-0.153208,9,-0.241191,-0.082863,10,0.147040,-0.116912,11,0.047618,-0.178334,12,-0.322129,-0.571208,13,0.179196,0.054763,14,0.182471,-0.136700,15,0.016119,0.173752,16,0.108971,0.177452,17,-0.172357,-0.100235,18,-0.056504,-0.026275,19,-0.089175,-0.040192,20,0.000425,-0.184382,21,0.106048,-0.027048,22,0.043405,0.036870
2,1,0.085013,0.175038,2,-0.014775,0.118482,3,-0.048592,0.095525,4,-0.089454,-0.149826,5,-0.203766,0.000543,6,0.040747,0.074692,7,0.170695,0.119330,8,-0.295655,-0.038994,9,-0.167466,0.059419,10,0.091483,-0.173764,11,-0.025383,-0.234925,12,-0.288445,-0.522106,13,0.183372,-0.006043,14,0.103948,-0.192589,15,0.113049,0.232433,16,0.083435,0.129671,17,-0.131518,-0.149124,18,-0.054452,-0.000811,19,-0.060306,-0.028325,20,0.125524,-0.065510,21,0.034086,0.038231,22,0.011293,-0.035049
3,1,0.152994,-0.113137,2,0.078726,0.079769,3,0.122832,0.180535,4,-0.217520,0.094164,5,-0.121125,0.047729,6,0.167434,-0.037161,7,0.221844,-0.124373,8,-0.133047,0.153250,9,-0.086585,0.134655,10,0.020010,-0.234979,11,-0.152206,-0.179462,12,-0.012305,-0.482296,13,0.163636,-0.218230,14,-0.141853,-0.268511,15,0.116013,0.173558,16,0.104050,0.195461,17,-0.151419,-0.162517,18,-0.005573,-0.048423,19,-0.016815,-0.066122,20,0.046963,0.044916,21,0.048013,-0.038611,22,0.045760,-0.006202
4,1,-0.041697,-0.143094,2,0.270052,0.038129,3,0.236854,-0.107492,4,-0.183009,0.081754,5,-0.293534,0.172472,6,0.015199,-0.182613,7,0.012159,-0.213115,8,-0.090691,0.204852,9,-0.101973,0.234279,10,-0.017394,-0.157300,11,-0.045557,-0.255422,12,0.190146,-0.249026,13,0.101614,-0.262384,14,-0.009146,-0.165868,15,-0.015294,0.264990,16,0.085554,0.221406,17,0.002172,-0.216096,18,-0.072446,-0.016118,19,-0.038564,-0.016607,20,0.037207,0.000835,21,0.030349,0.049037,22,-0.010212,0.046531
5,1,-0.089605,-0.119307,2,-0.020365,-0.340675,3,0.156889,-0.045170,4,-0.146489,0.300018,5,-0.197060,0.142729,6,-0.212081,0.085721,7,-0.170451,-0.044788,8,0.111546,0.356249,9,0.078949,0.118212,10,0.000297,-0.295131,11,-0.035868,-0.186831,12,0.189872,-0.063854,13,-0.146950,-0.160220,14,-0.095652,-0.229366,15,0.159052,0.130763,16,-0.038216,0.234286,17,0.028358,-0.184363,18,-0.024865,0.068273,19,-0.021860,0.000766,20,-0.019809,-0.056630,21,0.026753,0.066737,22,-0.019906,-0.008629
6,1,-0.253615,0.190133,2,-0.005231,-0.169961,3,0.104325,-0.227957,4,-0.207058,0.209121,5,-0.349545,0.070292,6,-0.003671,0.067373,7,-0.239072,-0.056564,8,0.170225,0.129971,9,-0.006774,0.238077,10,0.109043,-0.200564,11,0.155305,-0.152621,12,0.047803,0.096356,13,-0.129502,-0.227804,14,-0.144203,-0.173547,15,-0.042125,0.289832,16,-0.164374,0.138167,17,0.216436,0.002564,18,0.021971,-0.068779,19,0.024185,-0.041340,20,0.021538,0.018968,21,-0.081153,-0.009797,22,-0.029396,-0.035297
7,1,0.168380,0.100109,2,-0.251011,-0.026902,3,0.007547,-0.176225,4,-0.102005,0.200029,5,-0.328419,-0.163685,6,0.032783,-0.012148,7,0.119148,0.294019,8,0.308373,-0.099081,9,0.147713,0.097475,10,-0.010173,-0.289724,11,0.179488,-0.076003,12,-0.015743,0.045104,13,-0.208535,0.247809,14,-0.212000,-0.048430,15,0.169690,0.190925,16,-0.130669,0.182882,17,0.192867,0.066243,18,-0.052985,0.026952,19,-0.021054,0.019069,20,0.017744,0.033170,21,-0.014983,0.037225,22,0.045759,-0.017344
8,1,0.224484,-0.077967,2,-0.143994,0.109634,3,-0.079803,-0.209555,4,-0.213409,0.123574,5,-0.078278,-0.313368,6,0.022188,-0.087908,7,0.210661,0.020761,8,0.082116,-0.319801,9,0.222898,0.169492,10,0.115488,-0.226964,11,0.246027,0.055124,12,-0.039596,0.011015,13,0.100968,0.222543,14,-0.194026,0.216933,15,0.148432,0.224387,16,-0.209592,0.077375,17,0.044942,0.203603,18,0.058423,0.048165,19,0.039533,0.013870,20,0.007052,-0.030745,21,-0.015208,-0.064345,22,0.013234,0.039513
9,1,0.079468,-0.326439,2,-0.168422,0.194762,3,-0.035830,-0.191223,4,-0.247607,0.040920,5,0.226234,-0.227340,6,-0.113681,0.011138,7,0.211385,-0.126191,8,-0.029042,-0.229015,9,0.208502,0.061533,10,0.204788,-0.201726,11,0.113902,0.218351,12,-0.020203,-0.042652,13,0.183130,0.098197,14,-0.053657,0.241798,15,0.191327,0.151368,16,-0.227782,0.044306,17,-0.166150,0.200408,18,-0.021233,-0.047088,19,-0.029305,-0.029825,20,-0.029507,-0.022277,21,-0.026642,0.056789,22,0.013482,0.043016
10,1,-0.174035,-0.223455,2,-0.108717,0.293977,3,-0.000514,-0.203376,4,-0.236550,-0.067116,5,0.297681,0.082209,6,-0.010354,0.166129,7,-0.032256,-0.266727,8,-0.131195,-0.210731,9,0.184536,0.073114,10,0.230005,-0.122785,11,-0.041907,0.265880,12,0.009889,-0.042326,13,0.156404,-0.133662,14,0.037541,0.259129,15,0.185238,0.111680,16,-0.204299,-0.014099,17,-0.231780,0.099720,18,-0.084814,-0.004645,19,-0.060268,0.047097,20,0.019119,0.006409,21,0.053895,0.030973,22,0.003267,-0.022312
11,1,-0.250655,-0.066706,2,-0.014310,0.285620,3,0.029771,-0.199331,4,-0.181978,-0.160966,5,0.141711,0.240293,6,0.143917,0.090594,7,-0.237748,-0.183425,8,-0.251733,-0.174841,9,0.179021,0.069577,10,0.221294,-0.043504,11,-0.136287,0.212614,12,0.040412,-0.019750,13,-0.002290,-0.211573,14,0.175684,0.233639,15,0.227528,0.074897,16,-0.187216,-0.061112,17,-0.253408,-0.016716,18,-0.047878,0.057009,19,0.027851,0.063412,20,0.050119,-0.039138,21,0.027788,-0.028104,22,-0.000152,0.008059
12,1,-0.193433,0.108905,2,0.032697,0.256423,3,0.024276,-0.223116,4,0.019942,-0.219292,5,-0.132633,0.183483,6,0.095503,-0.276854,7,-0.259456,0.156780,8,-0.248820,0.025886,9,0.250091,0.086980,10,0.254728,0.047329,11,-0.220701,-0.002001,12,0.017715,0.045447,13,-0.224659,0.053696,14,0.277111,-0.113493,15,0.197676,-0.053905,16,-0.233486,-0.045729,17,-0.195046,-0.089022,18,0.086395,0.004743,19,0.043627,-0.060736,20,-0.036875,-0.002042,21,-0.044170,0.003822,22,-0.005793,0.034438
13,1,-0.182748,0.054025,2,0.023722,0.219039,3,0.144012,-0.173338,4,0.175462,-0.161949,5,-0.243476,-0.012220,6,-0.295687,-0.250685,7,-0.013301,0.254010,8,-0.202677,0.083401,9,0.224858,0.032507,10,0.149012,0.083052,11,-0.148216,-0.134971,12,-0.048230,0.031872,13,0.001111,0.263591,14,0.006634,-0.308472,15,0.133508,-0.182313,16,-0.226815,0.104154,17,-0.212447,-0.039580,18,-0.009231,-0.092018,19,-0.087906,-0.034904,20,-0.019811,-0.003778,21,0.067296,0.111367,22,0.025585,0.020827
14,1,-0.094145,0.024079,2,-0.071634,0.096565,3,0.125532,0.006685,4,0.110895,0.053064,5,0.027291,-0.176095,6,-0.504741,0.050465,7,-0.001826,0.247256,8,-0.254028,0.091736,9,0.209051,0.100532,10,0.094231,0.194315,11,-0.056168,-0.255325,12,-0.021056,-0.009669,13,0.203869,0.188539,14,-0.156763,-0.224483,15,0.068518,-0.234270,16,-0.185752,0.138549,17,-0.157595,-0.108100,18,-0.078225,-0.012306,19,-0.051889,0.086390,20,-0.070233,0.070228,21,0.106828,-0.067736,22,0.064352,-0.066319
15,1,-0.059081,-0.012104,2,-0.089898,0.073983,3,0.085723,0.005687,4,0.074990,0.094453,5,-0.044727,-0.098464,6,-0.438800,0.275349,7,0.058853,0.284979,8,-0.183089,0.195543,9,0.201624,0.045839,10,0.194177,0.127750,11,-0.054699,-0.166768,12,0.010125,0.014974,13,0.277195,-0.031909,14,-0.239053,-0.081905,15,-0.155289,-0.201776,16,-0.056282,0.204267,17,-0.242573,0.080979,18,-0.055533,0.029527,19,0.123038,0.028109,20,0.128220,0.078349,21,-0.043608,-0.108960,22,-0.106596,-0.109771
16,1,-0.044426,-0.057787,2,-0.039087,-0.005981,3,0.064411,0.058855,4,-0.004998,0.039727,5,0.090917,-0.024568,6,-0.403030,0.278902,7,0.072958,0.295004,8,-0.197137,0.172765,9,0.227123,-0.013083,10,0.182571,0.130078,11,-0.153111,-0.227182,12,0.040007,0.001437,13,0.229885,-0.107810,14,-0.271090,0.032228,15,-0.186848,-0.124838,16,0.068075,0.244003,17,-0.151944,0.153560,18,-0.006628,0.124176,19,0.084490,-0.058085,20,0.142134,-0.090285,21,-0.082953,-0.087101,22,-0.138802,0.081811
17,1,-0.004773,-0.074235,2,-0.047273,-0.008618,3,0.011908,0.077913,4,0.019168,0.048983,5,0.080948,0.002819,6,-0.423474,0.180476,7,-0.017606,0.315560,8,-0.238348,0.115019,9,0.218729,0.067312,10,0.152139,0.159702,11,-0.062635,-0.255924,12,0.037820,0.007950,13,0.235618,-0.091329,14,-0.294106,0.016626,15,-0.169386,-0.130794,16,0.052984,0.248390,17,-0.162427,0.165952,18,0.034089,0.133020,19,0.085184,-0.054369,20,0.130747,-0.121554,21,-0.113906,-0.100086,22,-0.100086,0.118512
18,1,-0.002483,0.000655,2,-0.031722,-0.054790,3,-0.018938,-0.009080,4,-0.033417,-0.007651,5,0.050427,-0.026294,6,-0.343518,-0.077554,7,-0.196785,0.216522,8,-0.263221,0.046395,9,0.176602,0.154526,10,0.142201,0.163760,11,-0.112389,-0.283737,12,0.017317,-0.032407,13,0.263578,-0.093860,14,-0.277302,0.034862,15,-0.240292,-0.084311,16,0.120073,0.179812,17,-0.024341,0.238743,18,0.082504,0.134528,19,0.098622,-0.116798,20,-0.006927,-0.218702,21,-0.251384,0.076190,22,0.009137,0.150536
19,1,0.021065,-0.007993,2,0.021558,-0.010360,3,-0.033711,0.008516,4,-0.007212,0.002402,5,-0.030772,-0.013140,6,-0.118626,-0.222191,7,-0.260315,0.077459,8,-0.252270,-0.008611,9,0.186196,0.073047,10,0.182198,0.104134,11,-0.296412,-0.064967,12,-0.035416,-0.004271,13,0.252057,-0.021356,14,-0.262470,0.096510,15,-0.195396,0.018622,16,0.251533,0.040128,17,0.177682,0.045073,18,0.202813,0.211410,19,0.016103,-0.170729,20,-0.186533,-0.216160,21,0.042491,0.313779,22,0.204724,0.009256
20,1,-0.004030,0.019271,2,0.028175,0.012774,3,0.013738,0.001225,4,-0.009618,0.012236,5,0.000167,-0.019472,6,0.088742,-0.059846,7,-0.180651,-0.149403,8,-0.200685,-0.167564,9,0.223020,0.117039,10,0.179783,-0.034688,11,-0.160879,0.210153,12,0.002384,0.015301,13,0.168430,0.113949,14,-0.252025,0.009455,15,-0.175099,0.150990,16,0.125256,-0.154882,17,0.061706,-0.190823,18,0.145053,0.236551,19,0.002124,-0.275006,20,-0.379111,0.003644,21,0.331812,0.079077,22,-0.100777,-0.186120
21,1,-0.010333,0.009505,2,0.020208,0.002861,3,0.014828,0.002754,4,0.000986,0.013379,5,0.009924,-0.038799,6,0.086228,-0.006783,7,-0.069476,-0.215275,8,-0.188389,-0.209716,9,0.224797,0.079338,10,0.153420,-0.071670,11,-0.026777,0.283543,12,0.009964,0.000817,13,0.084651,0.162555,14,-0.268659,0.015350,15,-0.121905,0.176156,16,0.060765,-0.187617,17,-0.084024,-0.220396,18,0.015809,0.292545,19,0.007845,-0.298472,20,-0.342911,0.065345,21,0.317603,-0.078658,22,-0.197221,-0.057642
22,1,-0.028793,0.018435,2,-0.014179,-0.011206,3,0.012489,-0.000350,4,-0.017169,-0.010042,5,-0.000376,-0.011694,6,0.008280,0.057711,7,0.178335,-0.266444,8,-0.108970,-0.224707,9,0.167996,0.017577,10,0.045758,-0.183277,11,0.251877,0.019809,12,-0.009802,-0.045791,13,-0.051571,0.235961,14,-0.275972,-0.001014,15,-0.085451,0.167829,16,-0.103453,-0.183937,17,-0.206521,0.104816,18,-0.314851,0.229223,19,0.063518,-0.234257,20,-0.263575,0.152053,21,0.132136,-0.265451,22,-0.108145,0.167551
23,1,-0.012469,0.016368,2,0.003589,-0.027910,3,0.041439,0.008450,4,-0.001929,-0.024264,5,0.048145,0.059414,6,-0.062741,-0.015064,7,0.236556,0.125472,8,0.095776,-0.168461,9,0.160377,0.056027,10,-0.060773,-0.218799,11,0.151437,-0.187794,12,-0.048268,0.007725,13,-0.192072,-0.020115,14,-0.108836,-0.213393,15,-0.148412,0.120454,16,-0.173948,-0.085204,17,-0.027271,0.214457,18,-0.325631,-0.311222,19,0.211947,-0.143885,20,-0.326514,0.069658,21,0.111383,-0.234884,22,0.057084,0.264269
24,1,-0.009037,0.002380,2,-0.009125,0.054161,3,-0.006967,0.003543,4,0.017054,0.005828,5,0.044537,-0.089202,6,0.063029,-0.125735,7,0.193485,0.162903,8,0.050009,-0.282379,9,0.218813,-0.071953,10,-0.282358,-0.039692,11,-0.265896,-0.147135,12,0.002323,0.042030,13,-0.212096,-0.090362,14,-0.204489,-0.213915,15,-0.002307,0.242680,16,-0.198455,0.143693,17,0.256652,0.005042,18,-0.003620,-0.352946,19,0.202439,-0.011689,20,-0.172186,0.051166,21,-0.050084,-0.205108,22,0.153103,0.023605
25,1,-0.039035,-0.104655,2,0.010243,-0.024580,3,-0.036844,0.046630,4,-0.011316,-0.002891,5,-0.071666,-0.058395,6,0.063891,0.007059,7,0.198093,0.295176,8,0.095734,-0.258207,9,0.185371,-0.160711,10,-0.254744,0.139463,11,-0.256598,0.126557,12,0.099537,0.063997,13,-0.168869,-0.162985,14,-0.091517,-0.288056,15,0.036677,0.228840,16,-0.129376,0.227896,17,0.181125,-0.142456,18,0.229790,-0.118056,19,0.129302,0.042102,20,-0.190740,-0.003064,21,-0.097337,-0.113813,22,0.182684,-0.168883
26,1,0.016342,0.010211,2,0.022165,-0.044569,3,0.021181,0.010456,4,-0.034820,-0.031935,5,-0.078956,0.041489,6,-0.062522,-0.040284,7,0.079649,0.293394,8,-0.046888,-0.262417,9,0.114388,-0.273436,10,-0.083803,0.293699,11,-0.005717,0.280827,12,0.196997,-0.002416,13,-0.061797,-0.231571,14,-0.084925,-0.242536,15,0.148228,0.247869,16,-0.007091,0.240309,17,0.056839,-0.256032,18,0.162841,-0.005876,19,0.117791,0.079843,20,-0.137887,-0.005787,21,-0.233987,-0.032678,22,0.092275,-0.234292
27,1,0.029110,0.018700,2,0.036317,0.040505,3,0.079212,-0.008498,4,-0.043708,0.030631,5,-0.033578,0.040963,6,0.148388,-0.031910,7,-0.051734,0.234763,8,0.057245,-0.357883,9,0.048402,-0.265617,10,-0.004967,0.298440,11,0.140635,0.191896,12,0.255297,-0.173825,13,0.099858,-0.144585,14,-0.016784,-0.243075,15,0.054052,0.228820,16,0.050065,0.247988,17,-0.000911,-0.252006,18,0.094069,0.135949,19,-0.000180,0.095474,20,-0.140498,-0.003758,21,-0.231968,-0.127303,22,0.084312,-0.226533
28,1,-0.055411,-0.075465,2,-0.024625,-0.109585,3,-0.012186,-0.068516,4,0.045658,0.062980,5,0.135871,-0.015393,6,0.068355,0.109833,7,-0.026943,0.269741,8,-0.029473,-0.244195,9,-0.104239,-0.234379,10,0.206991,0.072565,11,0.208001,-0.029562,12,0.018769,-0.541402,13,0.166909,-0.048573,14,0.169426,-0.208519,15,0.031962,0.267597,16,0.078107,0.176743,17,-0.105386,-0.151781,18,-0.144481,0.068299,19,-0.027820,0.108282,20,-0.081095,-0.079948,21,-0.070591,-0.158007,22,0.070156,-0.119979
29,1,0.040949,-0.025717,2,0.044820,0.065741,3,0.019177,0.075942,4,-0.013311,-0.039125,5,-0.008566,-0.101162,6,-0.107738,0.060255,7,-0.271107,-0.136849,8,0.244523,0.189757,9,0.146802,0.212847,10,-0.149583,-0.275872,11,-0.204786,-0.187161,12,0.109430,-0.334679,13,-0.162126,0.214214,14,-0.069237,0.292277,15,0.114055,-0.212237,16,0.160699,-0.198476,17,-0.192674,0.143185,18,0.074222,0.019025,19,0.066394,0.074979,20,-0.068190,-0.008754,21,-0.106388,-0.152854,22,0.064218,-0.030166
30,1,-0.051901,-0.009024,2,0.002835,0.077583,3,-0.020145,-0.055342,4,-0.025051,-0.039981,5,-0.020316,0.086396,6,-0.533030,-0.033243,7,0.142874,0.144304,8,0.205276,0.146024,9,-0.140090,-0.169067,10,-0.192235,-0.182364,11,0.259926,0.148179,12,0.003496,-0.021614,13,0.188102,-0.157597,14,-0.094966,0.219379,15,-0.121251,0.268609,16,0.120607,-0.213672,17,0.215609,-0.159652,18,-0.095701,-0.015017,19,0.125005,0.035630,20,0.027654,0.031883,21,-0.097007,-0.037090,22,0.026835,0.057633
31,1,-0.020691,-0.064921,2,0.089189,0.005815,3,0.028000,0.033037,4,-0.020770,-0.070971,5,-0.006427,-0.048538,6,0.110258,0.095640,7,-0.021175,0.327908,8,0.230579,-0.187982,9,0.255801,0.075644,10,-0.270819,-0.185032,11,-0.113016,-0.216050,12,0.237101,-0.057868,13,0.262858,0.202863,14,0.219432,0.191756,15,-0.027844,-0.310329,16,0.122421,-0.254174,17,-0.247200,0.085090,18,-0.016025,-0.047525,19,0.056807,0.038963,20,-0.060948,0.001527,21,-0.020146,-0.059267,22,0.079676,0.025790
32,1,-0.045124,0.009624,2,0.020686,-0.070615,3,0.055756,0.038487,4,-0.051908,-0.050412,5,0.063810,-0.034870,6,0.064936,-0.187065,7,0.347465,-0.084849,8,-0.138968,-0.253840,9,0.253309,-0.212255,10,-0.230840,-0.105987,11,-0.141281,-0.294636,12,0.104041,0.119045,13,0.082600,-0.307906,14,0.256780,-0.048379,15,-0.221413,-0.195014,16,0.146738,-0.235802,17,-0.279074,-0.027460,18,-0.067357,0.014394,19,0.029513,-0.014604,20,0.028022,0.018041,21,-0.034678,-0.008780,22,-0.000771,-0.000262
33,1,0.071174,-0.076095,2,-0.093597,0.068134,3,-0.034487,-0.061084,4,-0.065559,0.098485,5,-0.001310,-0.158993,6,-0.184508,0.197222,7,-0.218735,-0.182557,8,-0.245397,0.122404,9,-0.084928,-0.252992,10,-0.234869,0.072193,11,-0.137635,-0.268767,12,0.007924,0.089781,13,-0.217894,-0.120361,14,0.147007,-0.352444,15,-0.266556,-0.134743,16,0.167767,-0.228962,17,-0.163209,-0.200402,18,-0.048467,0.006918,19,-0.039240,-0.049914,20,-0.085636,0.049838,21,-0.046429,-0.028215,22,0.087492,0.010586
34,1,-0.006604,-0.040645,2,0.006689,0.051835,3,-0.021560,0.002095,4,-0.024871,0.001621,5,0.025912,-0.064093,6,0.174235,-0.385178,7,0.164811,0.228407,8,0.283849,0.156286,9,-0.240365,0.003784,10,-0.048122,0.215250,11,-0.305018,-0.137640,12,0.022970,0.044641,13,0.192227,-0.099386,14,-0.013018,0.334549,15,0.223445,0.171548,16,-0.235688,0.054473,17,-0.185484,0.207771,18,-0.070748,-0.089585,19,0.062877,-0.020943,20,-0.002778,-0.089363,21,0.014359,0.073626,22,0.011819,0.012823
35,1,-0.021275,-0.010493,2,-0.031610,0.010543,3,0.011329,-0.038104,4,-0.025701,0.002760,5,0.038214,-0.019349,6,-0.182575,-0.398754,7,0.106449,0.175290,8,0.259072,0.145989,9,-0.311616,0.028281,10,-0.157564,0.223697,11,-0.158726,-0.251736,12,0.047847,0.011303,13,0.165412,-0.183068,14,0.171856,0.241954,15,0.245743,0.032260,16,-0.216545,0.110109,17,-0.127042,0.204681,18,-0.119986,0.152786,19,0.002714,-0.037390,20,-0.040318,-0.041232,21,0.122991,-0.017067,22,-0.107090,-0.104282
36,1,0.027687,-0.036097,2,0.031084,0.042492,3,-0.037588,0.014315,4,0.047014,-0.000066,5,-0.024737,0.030951,6,0.121746,0.176283,7,-0.163858,0.361201,8,0.279313,0.088779,9,0.099016,0.291592,10,0.157693,-0.252962,11,0.275415,-0.120934,12,0.076745,0.162233,13,0.229143,0.063427,14,0.158094,0.183768,15,0.048313,-0.249819,16,0.222986,-0.075312,17,-0.206813,-0.172853,18,-0.053999,-0.102588,19,0.092236,-0.081756,20,-0.064300,0.117776,21,-0.126321,-0.098548,22,0.117839,0.000399
37,1,0.074018,-0.012055,2,-0.086209,0.049973,3,-0.031335,-0.073863,4,-0.080486,0.039524,5,0.026887,-0.072579,6,-0.187590,0.191167,7,-0.224387,-0.180959,8,-0.248342,0.097429,9,-0.082578,-0.234390,10,-0.259006,0.080443,11,-0.172754,-0.272424,12,0.033249,0.100208,13,-0.302681,-0.003587,14,0.005024,-0.375215,15,-0.266018,0.074011,16,0.049921,-0.310766,17,-0.206779,-0.079133,18,-0.040044,-0.000900,19,-0.060789,-0.016965,20,0.005949,0.093187,21,-0.096228,0.043303,22,0.039006,-0.061060
38,1,0.007291,0.104324,2,-0.066585,-0.083928,3,0.042584,-0.054377,4,-0.077012,0.054797,5,-0.064573,-0.064631,6,0.094349,-0.138958,7,0.293192,0.012261,8,-0.176101,-0.255676,9,0.212145,-0.215316,10,-0.270689,0.053603,11,-0.280785,-0.170410,12,0.180886,0.012615,13,0.300435,-0.179673,14,0.261012,0.062894,15,-0.160677,-0.278379,16,0.135424,-0.184878,17,-0.272698,-0.010798,18,0.041337,-0.005771,19,0.058332,0.003352,20,-0.063338,0.010805,21,-0.032342,-0.014007,22,0.007001,-0.032336
39,1,-0.022583,-0.042629,2,-0.004262,0.063975,3,-0.020656,-0.041537,4,-0.038741,-0.042147,5,0.051136,-0.006816,6,-0.254311,-0.426850,7,0.158713,0.169116,8,0.288511,0.113813,9,-0.273242,-0.097233,10,-0.245424,0.090344,11,0.065629,-0.275130,12,-0.042984,0.017057,13,0.169696,-0.136946,14,-0.006651,0.276217,15,0.096559,0.275422,16,-0.153178,-0.156319,17,-0.215156,-0.138850,18,-0.073682,-0.069720,19,0.089026,-0.002112,20,-0.013444,-0.023618,21,-0.032460,0.091027,22,0.047243,0.029809
40,1,0.060166,-0.007047,2,-0.000934,-0.013431,3,0.002728,-0.012328,4,-0.044370,-0.053970,5,0.035230,-0.020648,6,-0.213279,0.227770,7,-0.269871,-0.146416,8,-0.295874,0.083913,9,-0.037936,-0.248828,10,-0.299992,0.045168,11,-0.129155,-0.275670,12,0.028114,0.093931,13,-0.247938,0.170922,14,-0.152718,-0.298235,15,-0.186828,0.168616,16,-0.090458,-0.281334,17,-0.269207,0.042722,18,0.090187,0.048184,19,-0.040742,0.022261,20,-0.007817,0.046017,21,0.004036,0.032961,22,0.041580,0.001908
