# Input file for Beam Configurations for an HPL.
#
# BeamId,[repeat the following 22 times]:PhaseCenterNumber,BeamWeight_real_part,BeamWeight_imag_part
# Each Beam ID should be a number from 1 to 40.
# Each Phase Center Number should be a whole number between 1 and 22.
# Each Beam Weight can have a floating point value.
# NOTE: Beam ID and Phase Center Number values are not used in parsing, and each row is parsed as if in numerical order
#       The Beam ID and Phase Center Number values are simply to assist in editing this input file.
1,1,-0.099714,0.066448,2,-0.112635,0.015074,3,-0.032153,0.008299,4,0.044305,-0.066619,5,-0.026598,-0.163797,6,0.052033,0.077203,7,0.017853,0.202552,8,-0.045603,-0.188345,9,-0.244648,-0.103010,10,0.175971,-0.047198,11,0.098771,-0.135728,12,-0.053166,-0.689094,13,0.176189,0.087433,14,0.201502,-0.072535,15,-0.039826,0.174430,16,0.049016,0.197293,17,-0.142019,-0.137316,18,-0.049795,-0.013528,19,-0.098053,0.010800,20,-0.057652,-0.133698,21,0.073563,-0.047049,22,0.049146,0.007672
2,1,0.086761,0.178638,2,-0.016723,0.105776,3,-0.051335,0.080306,4,-0.048349,-0.140157,5,-0.163684,-0.017029,6,0.045900,0.090340,7,0.160447,0.160112,8,-0.209567,-0.168836,9,-0.179543,0.050339,10,0.149724,-0.120210,11,0.055804,-0.209332,12,-0.043221,-0.632307,13,0.192497,0.025383,14,0.147563,-0.145520,15,0.036147,0.264721,16,0.039680,0.146479,17,-0.091878,-0.176081,18,-0.044917,0.007024,19,-0.067443,0.006361,20,0.070909,-0.087623,21,0.035686,0.020592,22,-0.007632,-0.031513
3,1,0.155961,-0.115331,2,0.068151,0.073733,3,0.092861,0.170293,4,-0.197048,0.040451,5,-0.101245,0.027915,6,0.200389,-0.038349,7,0.260953,-0.091348,8,-0.174278,0.055598,9,-0.100081,0.134686,10,0.109339,-0.202714,11,-0.070900,-0.203501,12,0.204559,-0.469393,13,0.208324,-0.199335,14,-0.053851,-0.282151,15,0.057961,0.207610,16,0.039394,0.214087,17,-0.107851,-0.193607,18,-0.011411,-0.039009,19,-0.048836,-0.049152,20,0.048476,0.017898,21,0.026889,-0.041563,22,0.031478,-0.025665
4,1,-0.043726,-0.150059,2,0.247595,0.043269,3,0.225026,-0.076531,4,-0.170997,0.037173,5,-0.257407,0.116467,6,0.025141,-0.222832,7,0.054710,-0.232363,8,-0.170629,0.118490,9,-0.126765,0.244607,10,0.046922,-0.151920,11,0.046559,-0.239952,12,0.303075,-0.158628,13,0.155611,-0.263443,14,0.038792,-0.156919,15,-0.103166,0.262378,16,0.014761,0.239589,17,0.055278,-0.214810,18,-0.063588,-0.003113,19,-0.043516,0.005535,20,0.028193,-0.011490,21,0.036539,0.030609,22,0.014100,0.040730
5,1,-0.095555,-0.127229,2,-0.008622,-0.319728,3,0.149204,-0.027478,4,-0.181803,0.234111,5,-0.178142,0.102120,6,-0.266938,0.098895,7,-0.182076,-0.083768,8,-0.084903,0.341616,9,0.077614,0.135169,10,0.120388,-0.276455,11,0.032357,-0.179361,12,0.221012,0.024873,13,-0.131382,-0.201332,14,-0.023978,-0.244732,15,0.119215,0.187753,16,-0.110321,0.217777,17,0.074817,-0.179741,18,-0.011302,0.062367,19,-0.019587,0.012504,20,-0.033869,-0.036655,21,0.038957,0.046201,22,-0.019766,0.002791
6,1,-0.269606,0.202121,2,0.000314,-0.158859,3,0.116879,-0.200672,4,-0.217241,0.143664,5,-0.298668,0.027591,6,-0.007002,0.083410,7,-0.255804,-0.110139,8,0.073111,0.187574,9,-0.024966,0.259134,10,0.183234,-0.143126,11,0.190835,-0.082610,12,0.002862,0.119011,13,-0.099826,-0.271058,14,-0.085826,-0.205357,15,-0.140369,0.282387,16,-0.203455,0.084057,17,0.218002,0.056517,18,0.008711,-0.062179,19,-0.000193,-0.050723,20,0.022646,0.007319,21,-0.067136,0.013549,22,-0.039897,-0.013534
7,1,0.178876,0.106349,2,-0.233396,-0.032775,3,0.022948,-0.161662,4,-0.124504,0.154707,5,-0.259929,-0.166130,6,0.041065,-0.013862,7,0.075192,0.351446,8,0.295811,0.071185,9,0.153786,0.117127,10,0.107962,-0.274596,11,0.185923,-0.006026,12,-0.036869,0.037847,13,-0.271216,0.231799,14,-0.185808,-0.106886,15,0.109458,0.252113,16,-0.184256,0.138105,17,0.178205,0.114893,18,-0.041417,0.030873,19,-0.008933,0.028706,20,0.024431,0.019362,21,-0.002128,0.033531,22,0.027470,-0.035456
8,1,0.239295,-0.083112,2,-0.138185,0.098235,3,-0.054686,-0.200984,4,-0.207823,0.068594,5,-0.037604,-0.269860,6,0.030795,-0.108498,7,0.231757,0.064759,8,0.222902,-0.217188,9,0.231201,0.201851,10,0.200515,-0.165628,11,0.200820,0.134044,12,-0.044992,-0.007499,13,0.069933,0.260916,14,-0.246371,0.148906,15,0.076763,0.280154,16,-0.229426,0.010664,17,-0.005344,0.217472,18,0.057314,0.032774,19,0.043643,-0.008652,20,-0.004797,-0.025787,21,-0.029101,-0.047319,22,0.029354,0.024639
9,1,0.084234,-0.346017,2,-0.162746,0.176193,3,-0.015617,-0.179018,4,-0.221267,-0.009362,5,0.208933,-0.169478,6,-0.140961,0.009650,7,0.260054,-0.099059,8,0.088404,-0.197483,9,0.222193,0.082260,10,0.272358,-0.105063,11,0.026365,0.233026,12,-0.000307,-0.052081,13,0.180955,0.139356,14,-0.120153,0.211909,15,0.144525,0.218441,16,-0.235634,-0.027240,17,-0.217144,0.160586,18,-0.025052,-0.037125,19,-0.042659,-0.011396,20,-0.029714,-0.007185,21,-0.006241,0.052033,22,0.031055,0.027115
10,1,-0.184696,-0.237143,2,-0.110318,0.270714,3,0.017968,-0.187218,4,-0.192441,-0.100807,5,0.241261,0.095184,6,-0.018848,0.205278,7,0.016380,-0.303623,8,-0.002286,-0.232931,9,0.195516,0.093202,10,0.264233,-0.021357,11,-0.128506,0.222124,12,0.029672,-0.037762,13,0.193829,-0.117006,14,-0.039438,0.254803,15,0.151778,0.176129,16,-0.194936,-0.076982,17,-0.258550,0.042914,18,-0.073249,0.008482,19,-0.029569,0.075269,20,0.016631,-0.001434,21,0.050934,0.010448,22,-0.008115,-0.018986
11,1,-0.264798,-0.070469,2,-0.021960,0.264596,3,0.045265,-0.179925,4,-0.127696,-0.171322,5,0.096481,0.212323,6,0.174072,0.116837,7,-0.227963,-0.249949,8,-0.115880,-0.261806,9,0.188908,0.088539,10,0.222979,0.048830,11,-0.193297,0.141712,12,0.049463,-0.000896,13,0.035377,-0.229067,14,0.097532,0.269437,15,0.206351,0.152034,16,-0.162975,-0.117021,17,-0.250254,-0.079525,18,-0.032443,0.055554,19,0.059163,0.042578,20,0.025049,-0.046028,21,0.014623,-0.029480,22,0.003717,0.006337
12,1,-0.199453,0.112295,2,0.022005,0.233209,3,0.041364,-0.197368,4,0.055274,-0.180762,5,-0.123504,0.137386,6,0.124631,-0.329620,7,-0.310864,0.120325,8,-0.206033,-0.097847,9,0.258313,0.109917,10,0.212191,0.143123,11,-0.190074,-0.075306,12,-0.003391,0.052253,13,-0.246360,0.017412,14,0.285312,-0.026117,15,0.213714,0.010856,16,-0.207553,-0.113551,17,-0.169601,-0.134365,18,0.072496,-0.008385,19,0.006885,-0.076510,20,-0.027862,0.010300,21,-0.033108,0.014217,22,0.011600,0.028820
13,1,-0.186505,0.055135,2,0.014833,0.197045,3,0.142568,-0.140851,4,0.174079,-0.104183,5,-0.194477,-0.030683,6,-0.343247,-0.308746,7,-0.062183,0.269752,8,-0.195356,-0.030857,9,0.233111,0.049972,10,0.101293,0.132521,11,-0.082248,-0.164359,12,-0.060757,0.009025,13,-0.044397,0.275395,14,0.091615,-0.277444,15,0.189871,-0.136051,16,-0.243776,0.030204,17,-0.196565,-0.089201,18,-0.020592,-0.074406,19,-0.095009,0.014863,20,-0.015666,0.003519,21,0.079514,0.068063,22,0.028788,0.003878
14,1,-0.092970,0.023779,2,-0.064878,0.081723,3,0.106937,0.016316,4,0.080315,0.061357,5,0.035812,-0.134572,6,-0.583112,0.041082,7,-0.047035,0.256107,8,-0.231113,-0.046966,9,0.204884,0.116183,10,0.008544,0.204138,11,0.035030,-0.229266,12,-0.015416,-0.018161,13,0.174428,0.224566,14,-0.077052,-0.238759,15,0.138156,-0.201287,16,-0.208513,0.072273,17,-0.122868,-0.137917,18,-0.063960,0.000893,19,-0.000767,0.099141,20,-0.028095,0.071163,21,0.062397,-0.076155,22,0.017261,-0.076817
15,1,-0.057858,-0.011853,2,-0.079411,0.061104,3,0.072322,0.012002,4,0.044088,0.087885,5,-0.026367,-0.079553,6,-0.510462,0.299832,7,0.008937,0.303757,8,-0.223480,0.062149,9,0.199435,0.059764,10,0.119360,0.182506,11,0.007905,-0.154203,12,0.002901,0.018200,13,0.282995,0.014004,14,-0.185870,-0.134817,15,-0.083974,-0.238179,16,-0.108998,0.167803,17,-0.244320,0.019682,18,-0.039842,0.030838,19,0.117316,-0.037391,20,0.113677,0.015913,21,-0.058356,-0.069285,22,-0.125237,-0.032079
16,1,-0.043902,-0.057106,2,-0.033757,-0.006303,3,0.050229,0.055875,4,-0.010712,0.031151,5,0.072736,-0.011559,6,-0.473998,0.307866,7,0.021826,0.319505,8,-0.225646,0.039330,9,0.231146,0.002326,10,0.109490,0.181812,11,-0.054234,-0.237089,12,0.036677,0.018740,13,0.250445,-0.070519,14,-0.246320,-0.044596,15,-0.138756,-0.177021,16,-0.008480,0.241263,17,-0.178250,0.109010,18,0.011702,0.099836,19,0.042572,-0.091524,20,0.072804,-0.107460,21,-0.082639,-0.044132,22,-0.064514,0.121278
17,1,-0.004751,-0.073904,2,-0.041090,-0.008890,3,0.003653,0.068277,4,0.007243,0.042989,5,0.063176,0.008976,6,-0.497903,0.195158,7,-0.076487,0.326699,8,-0.231861,-0.022663,9,0.218728,0.083869,10,0.072424,0.197516,11,0.030110,-0.233709,12,0.032040,0.024038,13,0.255363,-0.053290,14,-0.264250,-0.064936,15,-0.121182,-0.178552,16,-0.023626,0.242686,17,-0.192381,0.119095,18,0.045687,0.102065,19,0.045353,-0.089379,20,0.055565,-0.127013,21,-0.109510,-0.046509,22,-0.020173,0.131700
18,1,-0.002545,0.000671,2,-0.026945,-0.050265,3,-0.016039,-0.009730,4,-0.026578,-0.012225,5,0.042936,-0.016866,6,-0.408004,-0.104770,7,-0.252877,0.195802,8,-0.225629,-0.088181,9,0.174700,0.175061,10,0.064030,0.203134,11,-0.002525,-0.281015,12,0.031368,-0.023529,13,0.292684,-0.052669,14,-0.261879,-0.045594,15,-0.209761,-0.160930,16,0.059386,0.205312,17,-0.081065,0.226697,18,0.087263,0.099467,19,0.026114,-0.153903,20,-0.074693,-0.158210,21,-0.173507,0.122190,22,0.076398,0.109324
19,1,0.022467,-0.008525,2,0.020514,-0.009044,3,-0.031957,0.004805,4,-0.006705,0.000778,5,-0.024649,-0.013784,6,-0.139478,-0.280757,7,-0.306871,0.035437,8,-0.198971,-0.130690,9,0.198315,0.093717,10,0.128382,0.171762,11,-0.242578,-0.160292,12,-0.033635,-0.020923,13,0.278882,0.022225,14,-0.276340,0.015191,15,-0.206840,-0.046679,16,0.234123,0.117576,17,0.168818,0.090099,18,0.205598,0.151849,19,-0.077466,-0.164929,20,-0.213957,-0.103198,21,0.116710,0.239233,22,0.165121,-0.091095
20,1,-0.004405,0.021064,2,0.026648,0.013150,3,0.012908,0.002444,4,-0.010845,0.009108,5,0.001931,-0.016732,6,0.115381,-0.072984,7,-0.177190,-0.208014,8,-0.081416,-0.239206,9,0.241186,0.148166,10,0.187155,0.041674,11,-0.221654,0.135676,12,-0.004902,0.016926,13,0.167245,0.158594,14,-0.247193,-0.065742,15,-0.236296,0.098411,16,0.175217,-0.115689,17,0.112977,-0.182394,18,0.163603,0.186508,19,-0.150210,-0.259076,20,-0.295286,0.131526,21,0.292791,-0.025044,22,-0.172694,-0.100078
21,1,-0.011292,0.010387,2,0.019308,0.003381,3,0.013795,0.003995,4,-0.001613,0.012098,5,0.012095,-0.032453,6,0.110173,-0.005424,7,-0.036248,-0.261123,8,-0.050067,-0.267773,9,0.245998,0.106009,10,0.177228,-0.004843,11,-0.124712,0.250259,12,0.009881,0.005635,13,0.064555,0.197403,14,-0.265029,-0.064959,15,-0.188992,0.143215,16,0.120834,-0.169106,17,-0.030807,-0.250401,18,0.058174,0.255356,19,-0.157804,-0.284199,20,-0.245988,0.167470,21,0.238475,-0.150196,22,-0.186974,0.050734
22,1,-0.031285,0.020031,2,-0.013182,-0.011138,3,0.011800,0.000829,4,-0.013344,-0.012069,5,0.000746,-0.010032,6,0.008350,0.073452,7,0.257034,-0.268235,8,0.022882,-0.238846,9,0.185932,0.032271,10,0.119690,-0.156026,11,0.222431,0.106526,12,0.011850,-0.051632,13,-0.100744,0.252799,14,-0.265720,-0.082520,15,-0.146929,0.146189,16,-0.045045,-0.216493,17,-0.239930,0.055631,18,-0.241337,0.248142,19,-0.069667,-0.253332,20,-0.153633,0.207157,21,0.036086,-0.251363,22,-0.004459,0.186896
23,1,-0.013751,0.018051,2,0.004363,-0.026922,3,0.038835,0.011986,4,0.002825,-0.022168,5,0.036277,0.056019,6,-0.080142,-0.021745,7,0.248412,0.193561,8,0.165219,-0.091722,9,0.177152,0.075671,10,0.033189,-0.237625,11,0.206943,-0.119592,12,-0.053974,-0.015391,13,-0.212944,-0.058566,14,-0.042486,-0.241419,15,-0.199460,0.076174,16,-0.148936,-0.142318,17,-0.084013,0.217699,18,-0.337022,-0.227012,19,0.120200,-0.254499,20,-0.233821,0.166790,21,0.027839,-0.224239,22,0.177609,0.186101
24,1,-0.009626,0.002535,2,-0.010197,0.050393,3,-0.006758,0.002639,4,0.013746,0.008153,5,0.045309,-0.070782,6,0.082894,-0.153928,7,0.184374,0.220345,8,0.178572,-0.202651,9,0.244426,-0.062437,10,-0.248166,-0.151932,11,-0.186719,-0.222933,12,-0.017371,0.043329,13,-0.214821,-0.136727,14,-0.131273,-0.261375,15,-0.083974,0.248005,16,-0.238948,0.079048,17,0.258526,0.069177,18,-0.055137,-0.302559,19,0.178705,-0.119867,20,-0.114320,0.095953,21,-0.093973,-0.150296,22,0.131330,-0.054960
25,1,-0.041034,-0.110013,2,0.010201,-0.022386,3,-0.037775,0.039198,4,-0.009176,-0.004503,5,-0.054124,-0.054629,6,0.078088,0.010953,7,0.161336,0.364384,8,0.200841,-0.158695,9,0.211636,-0.159774,10,-0.291273,0.026636,11,-0.269097,0.024297,12,0.069112,0.109527,13,-0.152587,-0.205337,14,-0.003002,-0.294793,15,-0.038839,0.243686,16,-0.194875,0.180551,17,0.216028,-0.097678,18,0.177568,-0.133480,19,0.139029,-0.030851,20,-0.144479,0.059958,21,-0.106170,-0.064218,22,0.061340,-0.217141
26,1,0.017067,0.010664,2,0.021672,-0.040218,3,0.018250,0.011360,4,-0.023952,-0.033373,5,-0.068524,0.027170,6,-0.074726,-0.051307,7,0.030715,0.337188,8,0.089071,-0.229491,9,0.142386,-0.284654,10,-0.193967,0.236144,11,-0.099828,0.243891,12,0.195223,0.088172,13,-0.025068,-0.258341,14,-0.009803,-0.248829,15,0.067259,0.298006,16,-0.079995,0.228535,17,0.119079,-0.240180,18,0.136258,-0.028483,19,0.147768,0.009254,20,-0.104924,0.040393,21,-0.191313,0.034917,22,-0.039309,-0.223461
27,1,0.030557,0.019630,2,0.032263,0.038444,3,0.072871,-0.000631,4,-0.042867,0.018387,5,-0.031348,0.030876,6,0.182844,-0.033745,7,-0.102598,0.248787,8,0.218175,-0.256077,9,0.071490,-0.282511,10,-0.124140,0.273316,11,0.058610,0.216573,12,0.333167,-0.054207,13,0.132942,-0.137519,14,0.053758,-0.231161,15,-0.021226,0.249086,16,-0.027606,0.254619,17,0.061094,-0.251609,18,0.099361,0.101389,19,0.050585,0.086085,20,-0.106764,0.042975,21,-0.215287,-0.039762,22,-0.041993,-0.214853
28,1,-0.056373,-0.076776,2,-0.018797,-0.098647,3,-0.004795,-0.061507,4,0.026938,0.060127,5,0.110086,-0.000714,6,0.077296,0.132719,7,-0.079523,0.283151,8,0.091622,-0.201410,9,-0.092230,-0.251982,10,0.156883,0.145241,11,0.187091,0.043210,12,0.260447,-0.511281,13,0.182086,-0.021797,14,0.210605,-0.141326,15,-0.054654,0.272276,16,0.020608,0.188460,17,-0.065693,-0.171867,18,-0.108888,0.076361,19,0.031497,0.108848,20,-0.084295,-0.032584,21,-0.093513,-0.102530,22,-0.002463,-0.121971
29,1,0.042004,-0.026380,2,0.038442,0.060555,3,0.010403,0.069235,4,-0.004290,-0.035031,5,0.001801,-0.082392,6,-0.131025,0.068317,7,-0.266119,-0.198844,8,0.099896,0.262362,9,0.139315,0.234438,10,-0.026844,-0.307233,11,-0.113997,-0.228832,12,0.257009,-0.274503,13,-0.207345,0.196630,14,-0.144535,0.246662,15,0.181328,-0.172587,16,0.210895,-0.139073,17,-0.222234,0.093249,18,0.064081,0.005197,19,0.097377,0.031503,20,-0.052842,0.015295,21,-0.120456,-0.090336,22,0.034533,-0.052443
30,1,-0.050615,-0.008800,2,0.000252,0.066535,3,-0.012425,-0.048481,4,-0.013267,-0.035934,5,-0.022666,0.064634,6,-0.605236,-0.055595,7,0.120319,0.173559,8,0.085683,0.199618,9,-0.128699,-0.178628,10,-0.096873,-0.227828,11,0.165740,0.203075,12,0.012494,-0.018387,13,0.213690,-0.126163,14,-0.140338,0.164612,15,-0.196500,0.214773,16,0.168882,-0.157243,17,0.236298,-0.098671,18,-0.077269,0.001109,19,0.122188,-0.031914,20,0.028953,0.013875,21,-0.079743,-0.003664,22,0.044575,0.029570
31,1,-0.020986,-0.065846,2,0.079286,0.007783,3,0.021764,0.031484,4,-0.004905,-0.062248,5,-0.000995,-0.039285,6,0.127126,0.116975,7,-0.084043,0.345325,8,0.264307,-0.036422,9,0.260827,0.096726,10,-0.169760,-0.269743,11,-0.025229,-0.220726,12,0.252726,0.050468,13,0.237897,0.255640,14,0.144554,0.233062,15,0.072190,-0.311835,16,0.189313,-0.200761,17,-0.258481,0.023247,18,-0.019774,-0.036612,19,0.069443,0.004732,20,-0.043754,0.020304,21,-0.030162,-0.039929,22,0.071247,-0.017154
32,1,-0.045601,0.009726,2,0.020415,-0.062078,3,0.045539,0.038542,4,-0.034069,-0.050450,5,0.053700,-0.022313,6,0.083011,-0.218264,7,0.384635,-0.025139,8,0.011928,-0.258317,9,0.277502,-0.202264,10,-0.164123,-0.183148,11,-0.023401,-0.295723,12,0.046250,0.159781,13,0.138089,-0.304185,14,0.243503,0.027192,15,-0.153123,-0.260305,16,0.205799,-0.175798,17,-0.261492,-0.092469,18,-0.052864,0.021147,19,0.018117,-0.027764,20,0.025926,0.004253,21,-0.028420,0.002030,22,-0.000692,0.000156
33,1,0.072799,-0.077834,2,-0.086094,0.058458,3,-0.025252,-0.057196,4,-0.071804,0.070667,5,0.012604,-0.128078,6,-0.227037,0.228852,7,-0.200455,-0.237476,8,-0.247142,-0.020896,9,-0.071142,-0.271497,10,-0.239292,-0.026789,11,-0.029115,-0.275934,12,-0.032771,0.090211,13,-0.207154,-0.163689,14,0.231427,-0.278923,15,-0.218886,-0.218716,16,0.226033,-0.165232,17,-0.110593,-0.233912,18,-0.038988,0.012566,19,-0.060288,-0.023481,20,-0.046851,0.063678,21,-0.042678,-0.009848,22,0.070729,-0.032345
34,1,-0.006601,-0.040629,2,0.004382,0.045704,3,-0.018868,-0.000025,4,-0.020535,-0.002914,5,0.025762,-0.048237,6,0.216325,-0.443157,7,0.130815,0.270249,8,0.142422,0.248482,9,-0.246745,-0.012808,10,-0.124384,0.170722,11,-0.211070,-0.213897,12,0.002023,0.052208,13,0.213398,-0.069093,14,-0.102484,0.293136,15,0.160822,0.235548,16,-0.232440,-0.018651,17,-0.224866,0.153904,18,-0.069407,-0.062408,19,0.043325,-0.049786,20,-0.029726,-0.063059,21,0.028948,0.051524,22,0.014467,0.004110
35,1,-0.021284,-0.010498,2,-0.028081,0.008354,3,0.013086,-0.032090,4,-0.021423,-0.002130,5,0.031709,-0.012021,6,-0.199415,-0.471582,7,0.079428,0.203870,8,0.128561,0.229511,9,-0.321781,0.007372,10,-0.223931,0.136508,11,-0.051672,-0.262431,12,0.040187,0.031738,13,0.200311,-0.159340,14,0.086704,0.261498,15,0.226421,0.108677,16,-0.231264,0.038081,17,-0.168771,0.164799,18,-0.075622,0.139843,19,-0.016611,-0.033469,20,-0.041673,-0.016993,21,0.087856,-0.043218,22,-0.125833,-0.028508
36,1,0.028162,-0.036717,2,0.026528,0.038874,3,-0.034401,0.009361,4,0.038982,0.008091,5,-0.022444,0.022660,6,0.138320,0.213396,7,-0.242977,0.355061,8,0.173027,0.198874,9,0.082721,0.311270,10,0.239155,-0.164902,11,0.274583,-0.012529,12,0.001021,0.190057,13,0.227521,0.105475,14,0.091831,0.209561,15,0.127521,-0.229046,16,0.230836,-0.004273,17,-0.158697,-0.216386,18,-0.058724,-0.076527,19,0.038389,-0.118856,20,-0.009601,0.106037,21,-0.120956,-0.043227,22,0.088384,-0.053696
37,1,0.075449,-0.012288,2,-0.078652,0.042214,3,-0.021266,-0.068021,4,-0.073720,0.018856,5,0.027779,-0.055913,6,-0.229711,0.220759,7,-0.206118,-0.236014,8,-0.236851,-0.041431,9,-0.069757,-0.250946,10,-0.263300,-0.028697,11,-0.057814,-0.289685,12,-0.012981,0.111292,13,-0.315016,-0.055991,14,0.108550,-0.337913,15,-0.284785,-0.013001,16,0.139153,-0.276343,17,-0.181388,-0.126052,18,-0.033034,0.004909,19,-0.061920,0.016538,20,0.033836,0.066089,21,-0.062483,0.057298,22,0.001220,-0.063710
38,1,0.007425,0.106233,2,-0.057096,-0.077017,3,0.042335,-0.044313,4,-0.073411,0.032113,5,-0.046213,-0.057309,6,0.116908,-0.161768,7,0.311253,0.068309,8,-0.015676,-0.279096,9,0.236840,-0.209921,10,-0.263056,-0.057226,11,-0.183546,-0.237888,12,0.168134,0.093191,13,0.343958,-0.135363,14,0.218376,0.129094,15,-0.067972,-0.324470,16,0.181661,-0.132837,17,-0.261300,-0.075531,18,0.033123,-0.010563,19,0.052691,-0.027148,20,-0.042736,0.027901,21,-0.028174,-0.002526,22,-0.009587,-0.027441
39,1,-0.022174,-0.041858,2,-0.005483,0.055055,3,-0.014104,-0.037102,4,-0.023950,-0.040205,5,0.040072,-0.001050,6,-0.276943,-0.497439,7,0.132975,0.203216,8,0.162542,0.214696,9,-0.268608,-0.116578,10,-0.245626,-0.014011,11,0.141358,-0.205600,12,-0.047193,-0.002775,13,0.193236,-0.109347,14,-0.079549,0.238837,15,0.005869,0.290208,16,-0.093496,-0.184955,17,-0.168804,-0.179074,18,-0.067802,-0.045179,19,0.073951,-0.046041,20,-0.016648,-0.012496,21,-0.001740,0.074772,22,0.047320,0.000642
40,1,0.060692,-0.007108,2,-0.000438,-0.011928,3,0.003449,-0.010549,4,-0.027200,-0.051989,5,0.029713,-0.013405,6,-0.258813,0.260647,7,-0.258606,-0.205447,8,-0.264328,-0.073349,9,-0.021824,-0.260151,10,-0.283316,-0.075447,11,-0.019292,-0.275199,12,-0.014946,0.101880,13,-0.285060,0.134029,14,-0.054858,-0.308782,15,-0.235074,0.104198,16,-0.001118,-0.287475,17,-0.268154,-0.022695,18,0.080071,0.026595,19,-0.023892,0.040076,20,0.008772,0.035666,21,0.011272,0.023874,22,0.031731,-0.017477
