# Input file for Beam Configurations for an HPL.
#
# BeamId,[repeat the following 22 times]:PhaseCenterNumber,BeamWeight_real_part,BeamWeight_imag_part
# Each Beam ID should be a number from 1 to 40.
# Each Phase Center Number should be a whole number between 1 and 22.
# Each Beam Weight can have a floating point value.
# NOTE: Beam ID and Phase Center Number values are not used in parsing, and each row is parsed as if in numerical order
#       The Beam ID and Phase Center Number values are simply to assist in editing this input file.
1,1,-0.122434,0.081587,2,-0.135866,0.011445,3,-0.039746,0.013024,4,0.055092,-0.068434,5,-0.019631,-0.182500,6,0.044586,0.077313,7,0.061823,0.183315,8,-0.093802,-0.170465,9,-0.271863,-0.091453,10,0.175047,-0.094275,11,0.075894,-0.168839,12,-0.216429,-0.603418,13,0.161637,0.065340,14,0.179707,-0.099800,15,0.032042,0.176846,16,0.131286,0.190574,17,-0.186696,-0.123992,18,-0.057822,-0.034410,19,-0.103020,-0.041357,20,0.025978,-0.163150,21,0.100763,-0.017072,22,0.036786,0.040668
2,1,0.105622,0.217473,2,-0.026034,0.124706,3,-0.057559,0.104185,4,-0.038567,-0.156744,5,-0.178248,-0.028307,6,0.037519,0.088703,7,0.182624,0.111213,8,-0.245412,-0.107445,9,-0.187839,0.068008,10,0.127757,-0.163825,11,0.012758,-0.236528,12,-0.191968,-0.550329,13,0.170383,0.009316,14,0.116350,-0.159256,15,0.136678,0.228313,16,0.100117,0.138979,17,-0.137546,-0.176044,18,-0.058381,-0.006828,19,-0.069694,-0.029254,20,0.120156,-0.040541,21,0.028791,0.038169,22,0.015193,-0.032020
3,1,0.187508,-0.138659,2,0.075727,0.090442,3,0.127734,0.202265,4,-0.214944,0.024077,5,-0.111125,0.024291,6,0.190152,-0.022765,7,0.216278,-0.139878,8,-0.150992,0.097701,9,-0.095062,0.149945,10,0.063905,-0.237667,11,-0.120013,-0.199358,12,0.066549,-0.460248,13,0.167062,-0.186317,14,-0.092572,-0.253599,15,0.132645,0.165391,16,0.125103,0.207900,17,-0.156817,-0.189788,18,-0.000678,-0.051891,19,-0.021885,-0.073146,20,0.034840,0.045633,21,0.046969,-0.031816,22,0.043843,-0.000148
4,1,-0.050798,-0.174328,2,0.278331,0.062828,3,0.261783,-0.108181,4,-0.180433,0.022330,5,-0.275561,0.107220,6,0.036871,-0.200023,7,-0.001316,-0.214887,8,-0.126879,0.151150,9,-0.110752,0.258980,10,0.011087,-0.163796,11,-0.003822,-0.255003,12,0.219745,-0.204536,13,0.113241,-0.230264,14,0.011869,-0.146316,15,0.007792,0.267840,16,0.105721,0.235938,17,0.016548,-0.237517,18,-0.074548,-0.024742,19,-0.043631,-0.016670,20,0.032167,0.005788,21,0.024013,0.047004,22,-0.015305,0.042274
5,1,-0.110466,-0.147083,2,0.007963,-0.361229,3,0.174492,-0.043844,4,-0.209162,0.223976,5,-0.190978,0.096216,6,-0.246579,0.072204,7,-0.176173,-0.034583,8,0.007287,0.332683,9,0.088915,0.131301,10,0.055077,-0.304875,11,-0.005327,-0.189158,12,0.191890,-0.030044,13,-0.122163,-0.159153,14,-0.056931,-0.214811,15,0.173442,0.119004,16,-0.028508,0.260095,17,0.043784,-0.203300,18,-0.033904,0.070043,19,-0.024550,0.001887,20,-0.009592,-0.052446,21,0.019639,0.063632,22,-0.017768,-0.010660
6,1,-0.306093,0.229475,2,0.008980,-0.176012,3,0.120886,-0.241945,4,-0.232909,0.125239,5,-0.306548,0.011744,6,-0.011358,0.073320,7,-0.241513,-0.041260,8,0.111189,0.150230,9,-0.005729,0.260046,10,0.146736,-0.183059,11,0.173167,-0.122367,12,0.029334,0.097794,13,-0.098553,-0.215257,14,-0.104473,-0.167647,15,-0.016861,0.292419,16,-0.169301,0.158201,17,0.235648,0.016843,18,0.030227,-0.069407,19,0.024730,-0.046628,20,0.015955,0.019207,21,-0.072611,-0.014873,22,-0.022926,-0.036316
7,1,0.208338,0.123865,2,-0.263488,-0.050268,3,0.015000,-0.194509,4,-0.143782,0.148705,5,-0.262956,-0.188731,6,0.038132,-0.009965,7,0.140538,0.292328,8,0.289650,-0.008502,9,0.166076,0.108068,10,0.043413,-0.302328,11,0.189055,-0.046072,12,-0.022488,0.040686,13,-0.212481,0.211752,14,-0.182616,-0.068865,15,0.190282,0.179943,16,-0.133732,0.209623,17,0.211017,0.086825,18,-0.059595,0.023049,19,-0.022868,0.022516,20,0.011051,0.031680,21,-0.016711,0.033348,22,0.045659,-0.010738
8,1,0.274536,-0.095352,2,-0.160126,0.102410,3,-0.079366,-0.231932,4,-0.218741,0.050728,5,-0.023804,-0.280597,6,0.034307,-0.095018,7,0.213788,0.007510,8,0.148325,-0.251484,9,0.247864,0.185977,10,0.160153,-0.211366,11,0.230859,0.092725,12,-0.039325,0.004034,13,0.074262,0.211037,14,-0.196624,0.167321,15,0.169552,0.213507,16,-0.224417,0.096520,17,0.036225,0.227738,18,0.056564,0.057199,19,0.044753,0.013635,20,0.010343,-0.025813,21,-0.009090,-0.060065,22,0.007528,0.038754
9,1,0.094835,-0.389562,2,-0.188325,0.184837,3,-0.031232,-0.205173,4,-0.221011,-0.029616,5,0.220848,-0.160241,6,-0.124193,-0.000197,7,0.200186,-0.137339,8,0.030831,-0.196794,9,0.225571,0.064999,10,0.241056,-0.164967,11,0.074435,0.225143,12,-0.011954,-0.042651,13,0.155296,0.101693,14,-0.074400,0.201073,15,0.201452,0.132730,16,-0.240219,0.059968,17,-0.191856,0.205236,18,-0.016951,-0.050796,19,-0.033259,-0.031140,20,-0.022107,-0.022866,21,-0.027971,0.048790,22,0.007149,0.041057
10,1,-0.209118,-0.268499,2,-0.136578,0.293176,3,0.006909,-0.218335,4,-0.184788,-0.119346,5,0.240502,0.110184,6,-0.029301,0.179852,7,-0.048668,-0.262287,8,-0.058628,-0.207547,9,0.201147,0.078205,10,0.253830,-0.082046,11,-0.081552,0.247879,12,0.015944,-0.037855,13,0.150656,-0.107461,14,0.001791,0.228202,15,0.193375,0.094801,16,-0.219974,-0.003604,17,-0.257861,0.093190,18,-0.087585,-0.013797,19,-0.063912,0.054383,20,0.015500,0.008050,21,0.046202,0.031847,22,0.005734,-0.020192
11,1,-0.303683,-0.080817,2,-0.039104,0.294964,3,0.039596,-0.214648,4,-0.114475,-0.186882,5,0.087734,0.224408,6,0.148170,0.115251,7,-0.249129,-0.168256,8,-0.169287,-0.208405,9,0.196746,0.075015,10,0.232633,-0.003814,11,-0.164915,0.183709,12,0.041125,-0.012070,13,0.014712,-0.191330,14,0.125124,0.224364,15,0.234079,0.055121,16,-0.205993,-0.055460,17,-0.276069,-0.034795,18,-0.056214,0.054586,19,0.033707,0.068804,20,0.048541,-0.026985,21,0.027301,-0.023426,22,-0.001131,0.007480
12,1,-0.231318,0.130235,2,0.011963,0.265199,3,0.034082,-0.237479,4,0.074117,-0.181506,5,-0.136571,0.136390,6,0.133431,-0.289845,7,-0.246104,0.170789,8,-0.212896,-0.038274,9,0.271220,0.092381,10,0.246776,0.093289,11,-0.209866,-0.036151,12,0.009229,0.044938,13,-0.204545,0.030295,14,0.251502,-0.064941,15,0.190519,-0.070184,16,-0.251864,-0.035720,17,-0.204837,-0.108648,18,0.088791,0.014000,19,0.044831,-0.068247,20,-0.031131,-0.006665,21,-0.039831,0.000176,22,-0.009498,0.030925
13,1,-0.218969,0.064733,2,0.005924,0.226626,3,0.160498,-0.180279,4,0.191959,-0.092343,5,-0.203650,-0.043472,6,-0.294086,-0.304303,7,0.002720,0.251827,8,-0.188755,0.020625,9,0.244016,0.033679,10,0.134657,0.110277,11,-0.120441,-0.151829,12,-0.049857,0.021957,13,-0.019685,0.235606,14,0.042068,-0.264842,15,0.116377,-0.191816,16,-0.236792,0.124181,17,-0.227246,-0.056502,18,0.000149,-0.096263,19,-0.097682,-0.034145,20,-0.016399,-0.005876,21,0.052176,0.104871,22,0.021013,0.022275
14,1,-0.112344,0.028734,2,-0.081244,0.092632,3,0.133582,0.011700,4,0.080417,0.073915,5,0.046810,-0.144186,6,-0.551495,0.000219,7,0.013582,0.243438,8,-0.232545,0.015139,9,0.226423,0.107102,10,0.059335,0.211259,11,-0.013842,-0.251328,12,-0.017952,-0.012271,13,0.166684,0.183700,14,-0.108087,-0.210912,15,0.047430,-0.236648,16,-0.190148,0.158020,17,-0.162831,-0.126565,18,-0.079382,-0.020911,19,-0.052565,0.096405,20,-0.069047,0.050318,21,0.100419,-0.052688,22,0.067004,-0.052989
15,1,-0.070265,-0.014395,2,-0.097679,0.067811,3,0.090872,0.009156,4,0.039020,0.099407,5,-0.024123,-0.088461,6,-0.502688,0.249773,7,0.075388,0.275857,8,-0.197965,0.117790,9,0.217291,0.047936,10,0.170672,0.162095,11,-0.026070,-0.166385,12,0.006978,0.015400,13,0.248319,-0.006716,14,-0.194736,-0.097969,15,-0.169687,-0.184844,16,-0.048360,0.220046,17,-0.265612,0.071426,18,-0.060172,0.024534,19,0.134767,0.024929,20,0.098187,0.083393,21,-0.030869,-0.100217,22,-0.084120,-0.113122
16,1,-0.052972,-0.068903,2,-0.039389,-0.009372,3,0.066469,0.065038,4,-0.014564,0.032426,5,0.079623,-0.008292,6,-0.465695,0.258106,7,0.090074,0.285547,8,-0.204651,0.095862,9,0.244952,-0.015688,10,0.159095,0.162754,11,-0.110235,-0.239402,12,0.036755,0.007642,13,0.212816,-0.077914,14,-0.236074,-0.004178,15,-0.194601,-0.106887,16,0.086128,0.255954,17,-0.173397,0.155546,18,-0.019867,0.127266,19,0.089270,-0.067017,20,0.132717,-0.057732,21,-0.067677,-0.083842,22,-0.137000,0.058128
17,1,-0.005715,-0.088898,2,-0.047729,-0.012803,3,0.009891,0.083789,4,0.003561,0.046763,5,0.067837,0.013396,6,-0.479265,0.150155,7,0.002309,0.312736,8,-0.225923,0.038331,9,0.237476,0.071416,10,0.123901,0.187705,11,-0.019965,-0.253789,12,0.033851,0.013375,13,0.217564,-0.063083,14,-0.255066,-0.020334,15,-0.178693,-0.114738,16,0.070612,0.262600,17,-0.186279,0.168940,18,0.021254,0.141263,19,0.090584,-0.063280,20,0.127763,-0.086172,21,-0.094769,-0.098125,22,-0.106444,0.096836
18,1,-0.003023,0.000797,2,-0.028377,-0.059798,3,-0.020259,-0.010579,4,-0.026934,-0.015495,5,0.046843,-0.015549,6,-0.370618,-0.123352,7,-0.183827,0.229868,8,-0.233925,-0.025143,9,0.195632,0.168972,10,0.115076,0.193142,11,-0.064138,-0.292828,12,0.021566,-0.027795,13,0.246762,-0.064201,14,-0.246784,-0.002706,15,-0.248858,-0.063733,16,0.140789,0.188586,17,-0.042382,0.260784,18,0.072385,0.150386,19,0.104121,-0.134288,20,0.023737,-0.190551,21,-0.234850,0.050644,22,-0.010047,0.141874
19,1,0.025919,-0.009835,2,0.023597,-0.009051,3,-0.037377,0.008095,4,-0.006962,0.000171,5,-0.024809,-0.015683,6,-0.107649,-0.261039,7,-0.259182,0.095294,8,-0.213476,-0.069717,9,0.207827,0.079997,10,0.168598,0.141132,11,-0.280070,-0.110982,12,-0.033089,-0.009842,13,0.232995,0.000709,14,-0.243775,0.053574,15,-0.196831,0.036174,16,0.278653,0.029557,17,0.194383,0.061824,18,0.192770,0.246789,19,0.010081,-0.192402,20,-0.133740,-0.215053,21,0.015421,0.292303,22,0.192306,0.034299
20,1,-0.004988,0.023853,2,0.028740,0.015979,3,0.015146,0.001874,4,-0.011775,0.008188,5,0.002886,-0.016939,6,0.106271,-0.057241,7,-0.194041,-0.140851,8,-0.130872,-0.193964,9,0.250623,0.129480,10,0.192963,-0.002486,11,-0.192329,0.181308,12,-0.000219,0.015073,13,0.146229,0.118825,14,-0.225336,-0.022273,15,-0.165501,0.169840,16,0.129428,-0.178444,17,0.081652,-0.209115,18,0.129388,0.268858,19,-0.010557,-0.310640,20,-0.334683,-0.049209,21,0.301509,0.098529,22,-0.072430,-0.189580
21,1,-0.012741,0.011720,2,0.021080,0.004767,3,0.016230,0.003592,4,-0.002729,0.012010,5,0.014051,-0.032278,6,0.097150,0.002016,7,-0.084485,-0.214446,8,-0.109402,-0.226284,9,0.251384,0.086911,10,0.171850,-0.045587,11,-0.071659,0.274140,12,0.009392,0.002407,13,0.064715,0.156304,14,-0.239935,-0.018983,15,-0.108498,0.190104,16,0.056040,-0.210073,17,-0.078915,-0.250904,18,-0.014915,0.313475,19,-0.005182,-0.336125,20,-0.310123,0.010145,21,0.299198,-0.048556,22,-0.179557,-0.079255
22,1,-0.035405,0.022668,2,-0.013957,-0.013016,3,0.013732,0.000084,4,-0.012340,-0.013391,5,0.001309,-0.010172,6,0.002824,0.065255,7,0.163768,-0.281622,8,-0.037563,-0.218842,9,0.187046,0.018357,10,0.081081,-0.180406,11,0.243484,0.059585,12,-0.001892,-0.045248,13,-0.066284,0.212214,14,-0.243752,-0.034275,15,-0.071928,0.177906,16,-0.124197,-0.195971,17,-0.236181,0.102693,18,-0.359418,0.209511,19,0.060292,-0.265762,20,-0.251699,0.096945,21,0.141720,-0.234421,22,-0.123028,0.144740
23,1,-0.015230,0.019992,2,0.006143,-0.028870,3,0.044902,0.010765,4,0.004780,-0.021612,5,0.033135,0.057757,6,-0.067813,-0.023599,7,0.246263,0.111325,8,0.122589,-0.119417,9,0.177644,0.060782,10,-0.021981,-0.235145,11,0.177058,-0.158659,12,-0.046954,-0.000489,13,-0.173332,-0.033679,14,-0.069895,-0.200386,15,-0.139082,0.134464,16,-0.194580,-0.082945,17,-0.044157,0.234671,18,-0.310264,-0.363545,19,0.229479,-0.170180,20,-0.293514,0.016038,21,0.119496,-0.206452,22,0.020805,0.254966
24,1,-0.010982,0.002892,2,-0.014107,0.055557,3,-0.007696,0.003588,4,0.013212,0.009558,5,0.050415,-0.070139,6,0.083238,-0.131615,7,0.204230,0.151007,8,0.111152,-0.226150,9,0.240106,-0.080667,10,-0.280318,-0.092079,11,-0.234124,-0.184320,12,-0.004573,0.039972,13,-0.185018,-0.098763,14,-0.153022,-0.211268,15,0.018855,0.243664,16,-0.207137,0.167234,17,0.281236,0.022305,18,0.033966,-0.371083,19,0.223898,-0.022322,20,-0.155965,0.020906,21,-0.030256,-0.190378,22,0.139984,0.040905
25,1,-0.047667,-0.127796,2,0.012811,-0.024813,3,-0.041932,0.049495,4,-0.009068,-0.005524,5,-0.053483,-0.060133,6,0.069954,0.014858,7,0.218274,0.284647,8,0.144541,-0.195522,9,0.203683,-0.178890,10,-0.286342,0.095900,11,-0.269577,0.082412,12,0.083886,0.076674,13,-0.140742,-0.161914,14,-0.045713,-0.263781,15,0.057032,0.227470,16,-0.127993,0.255886,17,0.209020,-0.145142,18,0.255203,-0.099883,19,0.146002,0.040893,20,-0.165454,-0.028684,21,-0.080458,-0.111368,22,0.192244,-0.135754
26,1,0.019954,0.012468,2,0.026980,-0.044680,3,0.022715,0.012196,4,-0.021773,-0.037024,5,-0.073607,0.024692,6,-0.064770,-0.051485,7,0.098874,0.290363,8,0.024603,-0.234058,9,0.124439,-0.302913,10,-0.139739,0.285142,11,-0.050051,0.272155,12,0.186867,0.029552,13,-0.037756,-0.215788,14,-0.045392,-0.223023,15,0.171134,0.236852,16,0.006042,0.262386,17,0.079464,-0.278481,18,0.172471,0.011307,19,0.134920,0.083465,20,-0.119110,-0.023840,21,-0.211471,-0.047434,22,0.115548,-0.208275
27,1,0.035790,0.022991,2,0.034726,0.045756,3,0.087325,-0.006360,4,-0.046465,0.015103,5,-0.034781,0.030752,6,0.168947,-0.019098,7,-0.037411,0.241354,8,0.137283,-0.291493,9,0.051951,-0.295849,10,-0.060354,0.306601,11,0.107084,0.210323,12,0.271632,-0.124139,13,0.103192,-0.124524,14,0.014566,-0.216809,15,0.075056,0.227477,16,0.069271,0.269342,17,0.015653,-0.279768,18,0.085240,0.154643,19,0.004266,0.107099,20,-0.122502,-0.022588,21,-0.203934,-0.134724,22,0.107865,-0.203390
28,1,-0.068362,-0.093104,2,-0.016522,-0.117846,3,-0.010850,-0.075975,4,0.023173,0.067592,5,0.120131,0.005692,6,0.064222,0.130462,7,-0.010067,0.276176,8,0.035266,-0.216564,9,-0.118046,-0.260899,10,0.200545,0.113472,11,0.209088,0.004253,12,0.106364,-0.514761,13,0.157479,-0.031205,14,0.175522,-0.164318,15,0.056250,0.269707,16,0.096273,0.190165,17,-0.107302,-0.176037,18,-0.161472,0.057128,19,-0.026227,0.123180,20,-0.060231,-0.081419,21,-0.053230,-0.151315,22,0.081488,-0.104900
29,1,0.050343,-0.031617,2,0.041494,0.073040,3,0.018212,0.084129,4,-0.001170,-0.037811,5,0.006728,-0.088725,6,-0.126772,0.055202,7,-0.283636,-0.121376,8,0.161941,0.222432,9,0.164827,0.235729,10,-0.103068,-0.311927,11,-0.170637,-0.215904,12,0.158760,-0.301177,13,-0.165874,0.183337,14,-0.096517,0.249861,15,0.097025,-0.225465,16,0.164942,-0.227135,17,-0.223304,0.146173,18,0.076802,0.028249,19,0.077975,0.080988,20,-0.058499,-0.017030,21,-0.086385,-0.148746,22,0.064395,-0.020474
30,1,-0.061026,-0.010610,2,-0.003544,0.078311,3,-0.019174,-0.058856,4,-0.010728,-0.039886,5,-0.028360,0.068777,6,-0.564675,-0.092019,7,0.147384,0.131171,8,0.133157,0.167746,9,-0.150200,-0.178917,10,-0.157155,-0.213730,11,0.220773,0.178401,12,0.006551,-0.019158,13,0.177060,-0.123702,14,-0.105618,0.174391,15,-0.095021,0.270959,16,0.114822,-0.230972,17,0.238953,-0.155828,18,-0.095695,-0.025168,19,0.135685,0.032626,20,0.018968,0.030330,21,-0.082725,-0.039664,22,0.017358,0.055244
31,1,-0.025229,-0.079159,2,0.092581,0.013695,3,0.029271,0.037030,4,0.000825,-0.067127,5,0.001213,-0.042542,6,0.111355,0.117861,7,-0.000453,0.331073,8,0.241330,-0.102727,9,0.282761,0.081646,10,-0.242785,-0.238790,11,-0.075557,-0.227664,12,0.233467,-0.016435,13,0.222810,0.205436,14,0.169283,0.194348,15,-0.055188,-0.309931,16,0.118728,-0.283717,17,-0.277680,0.077451,18,-0.011784,-0.051802,19,0.064999,0.040705,20,-0.053131,-0.006976,21,-0.013951,-0.055620,22,0.071421,0.034005
32,1,-0.054535,0.011632,2,0.027382,-0.071291,3,0.058779,0.043611,4,-0.031388,-0.057044,5,0.059065,-0.020892,6,0.091560,-0.197880,7,0.340966,-0.106455,8,-0.055028,-0.246827,9,0.275519,-0.233893,10,-0.214530,-0.149348,11,-0.089770,-0.305721,12,0.078437,0.128182,13,0.098803,-0.270958,14,0.228775,-0.011494,15,-0.237820,-0.175356,16,0.144963,-0.262769,17,-0.302690,-0.048099,18,-0.071886,0.007866,19,0.031868,-0.017459,20,0.021683,0.019311,21,-0.030729,-0.010521,22,-0.000683,-0.000337
33,1,0.086606,-0.092595,2,-0.103293,0.062974,3,-0.035221,-0.067685,4,-0.082906,0.067938,5,0.020873,-0.136338,6,-0.225211,0.197302,7,-0.231077,-0.169323,8,-0.237330,0.043468,9,-0.095298,-0.277955,10,-0.252743,0.030602,11,-0.090935,-0.282169,12,-0.006985,0.085971,13,-0.188127,-0.126573,14,0.170738,-0.290610,15,-0.279528,-0.112068,16,0.169192,-0.258336,17,-0.166167,-0.230818,18,-0.051711,0.002083,19,-0.045872,-0.053593,20,-0.080984,0.031546,21,-0.040192,-0.029179,22,0.080457,0.020692
34,1,-0.007937,-0.048851,2,0.002512,0.053887,3,-0.023227,0.001458,4,-0.021706,-0.005126,5,0.030676,-0.050673,6,0.231649,-0.400801,7,0.177666,0.216069,8,0.199229,0.199007,9,-0.261379,0.005793,10,-0.087417,0.208112,11,-0.270475,-0.179306,12,0.014301,0.045250,13,0.180106,-0.073950,14,-0.050795,0.287428,15,0.236500,0.150930,16,-0.249846,0.071752,17,-0.214681,0.213442,18,-0.064008,-0.100543,19,0.067985,-0.025840,20,0.009621,-0.076862,21,0.007484,0.067319,22,0.009346,0.013277
35,1,-0.025376,-0.012515,2,-0.033152,0.008119,3,0.013459,-0.040190,4,-0.022542,-0.004336,5,0.034701,-0.011060,6,-0.154489,-0.450853,7,0.115605,0.165804,8,0.179653,0.183025,9,-0.336118,0.032681,10,-0.197669,0.195323,11,-0.111805,-0.263674,12,0.042459,0.018006,13,0.161419,-0.149911,14,0.118924,0.227560,15,0.244730,0.010724,16,-0.224444,0.129383,17,-0.149922,0.212240,18,-0.139731,0.144895,19,0.001256,-0.040808,20,-0.028753,-0.040395,21,0.111093,-0.006227,22,-0.085481,-0.108482
36,1,0.033465,-0.043630,2,0.028556,0.046593,3,-0.041117,0.014070,4,0.040474,0.012325,5,-0.025296,0.022929,6,0.114175,0.206458,7,-0.140578,0.370365,8,0.212940,0.142357,9,0.110340,0.318217,10,0.205768,-0.227557,11,0.284064,-0.073210,12,0.045958,0.164299,13,0.201515,0.075301,14,0.115479,0.178424,15,0.026532,-0.253463,16,0.236371,-0.093927,17,-0.214426,-0.202052,18,-0.045490,-0.112913,19,0.097946,-0.094394,20,-0.071251,0.092697,21,-0.107005,-0.098573,22,0.109338,0.014818
37,1,0.090214,-0.014693,2,-0.094202,0.044763,3,-0.031370,-0.081591,4,-0.080336,0.012922,5,0.033119,-0.058530,6,-0.228317,0.190593,7,-0.237032,-0.167632,8,-0.234094,0.021674,9,-0.092729,-0.257908,10,-0.279323,0.034650,11,-0.124591,-0.291731,12,0.015250,0.100049,13,-0.274811,-0.027412,14,0.049383,-0.328049,15,-0.261178,0.097740,16,0.036546,-0.341034,17,-0.222324,-0.100621,18,-0.042083,-0.005246,19,-0.068378,-0.016043,20,-0.007524,0.081694,21,-0.091061,0.032311,22,0.044060,-0.052332
38,1,0.008883,0.127103,2,-0.062263,-0.093207,3,0.048373,-0.057602,4,-0.081347,0.027087,5,-0.046415,-0.064361,6,0.119499,-0.143109,7,0.295362,-0.006299,8,-0.086447,-0.259468,9,0.232348,-0.238870,10,-0.286224,0.005088,11,-0.245484,-0.209723,12,0.168817,0.041085,13,0.287283,-0.139274,14,0.220998,0.086348,15,-0.185949,-0.265932,16,0.136741,-0.208855,17,-0.299219,-0.029744,18,0.044145,-0.001642,19,0.064990,0.001021,20,-0.056425,0.000755,21,-0.028456,-0.015199,22,0.010547,-0.029392
39,1,-0.026741,-0.050478,2,-0.009631,0.064484,3,-0.020350,-0.044688,4,-0.021786,-0.045527,5,0.043532,0.001204,6,-0.227381,-0.485427,7,0.165426,0.155352,8,0.210222,0.162241,9,-0.293437,-0.102301,10,-0.259663,0.045911,11,0.104158,-0.249358,12,-0.042133,0.008921,13,0.160460,-0.107770,14,-0.037832,0.234281,15,0.117800,0.261023,16,-0.170636,-0.156755,17,-0.221152,-0.162127,18,-0.068136,-0.079032,19,0.096077,-0.006293,20,-0.008213,-0.021695,21,-0.035404,0.078345,22,0.039383,0.032783
40,1,0.072778,-0.008524,2,0.000172,-0.013985,3,0.003404,-0.013221,4,-0.023987,-0.058172,5,0.032831,-0.012733,6,-0.258767,0.226494,7,-0.278443,-0.129044,8,-0.268983,-0.001395,9,-0.043271,-0.272083,10,-0.312347,-0.008835,11,-0.081145,-0.285818,12,0.011325,0.092587,13,-0.237181,0.134541,14,-0.097274,-0.277428,15,-0.171920,0.184597,16,-0.113670,-0.298708,17,-0.296747,0.029138,18,0.089151,0.059978,19,-0.043936,0.026441,20,-0.012952,0.038585,21,0.001205,0.030153,22,0.038393,0.006875
