# Input file for Beam Configurations for an HPL.
#
# BeamId,[repeat the following 22 times]:PhaseCenterNumber,BeamWeight_real_part,BeamWeight_imag_part
# Each Beam ID should be a number from 1 to 40.
# Each Phase Center Number should be a whole number between 1 and 22.
# Each Beam Weight can have a floating point value.
# NOTE: Beam ID and Phase Center Number values are not used in parsing, and each row is parsed as if in numerical order
#       The Beam ID and Phase Center Number values are simply to assist in editing this input file.
1,1,-0.125654,0.083733,2,-0.127057,0.017991,3,-0.042008,0.019336,4,0.064647,-0.065140,5,-0.036845,-0.213407,6,0.039969,0.066422,7,0.023643,0.160378,8,-0.056689,-0.134920,9,-0.202532,-0.118024,10,0.135962,-0.044437,11,0.078146,-0.125652,12,-0.582846,-0.497212,13,0.168628,0.029877,14,0.150112,-0.094738,15,-0.002873,0.143897,16,0.054350,0.140656,17,-0.140471,-0.091025,18,-0.048682,-0.022633,19,-0.090089,-0.022801,20,0.018811,-0.119374,21,0.072532,-0.004458,22,0.026745,0.030109
2,1,0.109713,0.225895,2,-0.018036,0.120002,3,-0.050641,0.123194,4,-0.023386,-0.169054,5,-0.214574,-0.020159,6,0.034427,0.077353,7,0.135628,0.120378,8,-0.177192,-0.100973,9,-0.163522,0.023752,10,0.112692,-0.100918,11,0.035783,-0.188266,12,-0.532315,-0.462215,13,0.167632,-0.026051,14,0.093732,-0.144665,15,0.071968,0.203311,16,0.042921,0.104487,17,-0.105466,-0.131890,18,-0.047461,-0.000702,19,-0.061828,-0.016683,20,0.088910,-0.030158,21,0.017684,0.029514,22,0.011507,-0.023697
3,1,0.201768,-0.149205,2,0.079657,0.084874,3,0.173943,0.215983,4,-0.236885,0.001838,5,-0.135271,0.038754,6,0.172757,-0.023947,7,0.208856,-0.087117,8,-0.126511,0.064109,9,-0.105700,0.109408,10,0.079209,-0.167898,11,-0.077370,-0.179017,12,-0.214259,-0.541870,13,0.128545,-0.223385,14,-0.096543,-0.224552,15,0.081690,0.158161,16,0.050125,0.158006,17,-0.124466,-0.147220,18,-0.004968,-0.043128,19,-0.027605,-0.061062,20,0.026777,0.034956,21,0.037338,-0.019865,22,0.033759,0.000190
4,1,-0.055583,-0.190749,2,0.282403,0.047135,3,0.291960,-0.162009,4,-0.202448,0.003916,5,-0.337320,0.156703,6,0.030696,-0.185834,7,0.033007,-0.189123,8,-0.113919,0.109845,9,-0.140037,0.201544,10,0.030632,-0.122142,11,0.025793,-0.215810,12,0.113435,-0.365293,13,0.066031,-0.260492,14,0.003365,-0.135108,15,-0.038732,0.225472,16,0.033348,0.176486,17,0.011041,-0.189262,18,-0.065223,-0.014504,19,-0.040578,-0.009547,20,0.025094,0.004474,21,0.014315,0.037366,22,-0.012282,0.032990
5,1,-0.126689,-0.168684,2,-0.013141,-0.379775,3,0.207971,-0.078493,4,-0.269937,0.234751,5,-0.243192,0.142655,6,-0.237992,0.074520,7,-0.156572,-0.061223,8,-0.023294,0.278716,9,0.055342,0.133826,10,0.087010,-0.233381,11,0.017848,-0.168088,12,0.202429,-0.162179,13,-0.167394,-0.143108,14,-0.066462,-0.203884,15,0.131066,0.135103,16,-0.064195,0.179378,17,0.034624,-0.170073,18,-0.023737,0.065196,19,-0.022524,0.004814,20,-0.007909,-0.042858,21,0.010145,0.051932,22,-0.014502,-0.008879
6,1,-0.338044,0.253428,2,-0.001008,-0.178488,3,0.109928,-0.302429,4,-0.274990,0.112898,5,-0.387454,0.039700,6,-0.009340,0.068716,7,-0.207679,-0.075366,8,0.076718,0.130376,9,-0.051070,0.222971,10,0.136914,-0.119349,11,0.161675,-0.084422,12,0.095239,0.090382,13,-0.149073,-0.200996,14,-0.105654,-0.150101,15,-0.064108,0.244129,16,-0.141234,0.080306,17,0.189525,0.011398,18,0.019773,-0.061917,19,0.016472,-0.044600,20,0.012583,0.015099,21,-0.054034,-0.017219,22,-0.017858,-0.028862
7,1,0.237674,0.141307,2,-0.278188,-0.036904,3,-0.009052,-0.239593,4,-0.183948,0.154445,5,-0.359947,-0.225023,6,0.036631,-0.010304,7,0.080360,0.291241,8,0.241574,0.018380,9,0.127961,0.126589,10,0.077010,-0.231799,11,0.171946,-0.018138,12,0.000940,0.061748,13,-0.179039,0.274277,14,-0.178717,-0.056180,15,0.134334,0.190530,16,-0.129490,0.125166,17,0.175986,0.070099,18,-0.050509,0.025699,19,-0.018292,0.023604,20,0.009027,0.025745,21,-0.015934,0.024805,22,0.037351,-0.008429
8,1,0.315083,-0.109434,2,-0.162158,0.117149,3,-0.130312,-0.273647,4,-0.260293,0.032466,5,-0.054952,-0.367463,6,0.031602,-0.092898,7,0.195885,0.042577,8,0.146296,-0.197245,9,0.187578,0.212169,10,0.156942,-0.144529,11,0.193448,0.109703,12,-0.042925,0.030797,13,0.127855,0.209874,14,-0.180526,0.171959,15,0.111000,0.217468,16,-0.175391,0.030408,17,0.032400,0.189852,18,0.055386,0.045652,19,0.043223,0.007059,20,0.008427,-0.021129,21,-0.002113,-0.048258,22,0.005895,0.031881
9,1,0.107615,-0.442061,2,-0.184775,0.203128,3,-0.066643,-0.244802,4,-0.250354,-0.060472,5,0.274188,-0.226987,6,-0.119256,0.002027,7,0.205160,-0.092210,8,0.042697,-0.160060,9,0.187789,0.098646,10,0.211972,-0.095173,11,0.038626,0.205991,12,-0.041717,-0.041054,13,0.187896,0.073088,14,-0.060172,0.195661,15,0.151590,0.150499,16,-0.178370,0.001807,17,-0.156509,0.171258,18,-0.019423,-0.043064,19,-0.034356,-0.024456,20,-0.017910,-0.018466,21,-0.025941,0.035805,22,0.005504,0.033390
10,1,-0.237813,-0.305344,2,-0.124902,0.313318,3,-0.022212,-0.266702,4,-0.198432,-0.159564,5,0.322970,0.123706,6,-0.024979,0.173596,7,-0.001128,-0.247695,8,-0.030415,-0.177155,9,0.164120,0.106111,10,0.210741,-0.028516,11,-0.100907,0.207946,12,-0.006593,-0.053993,13,0.136175,-0.148416,14,0.013942,0.217919,15,0.151553,0.116416,16,-0.153873,-0.039436,17,-0.212515,0.079525,18,-0.078273,-0.004280,19,-0.052021,0.057906,20,0.012574,0.006505,21,0.033530,0.028817,22,0.004814,-0.016389
11,1,-0.348757,-0.092813,2,-0.023535,0.312475,3,0.018267,-0.269428,4,-0.110460,-0.231140,5,0.134488,0.288283,6,0.146071,0.109322,7,-0.201797,-0.196822,8,-0.123259,-0.189406,9,0.162384,0.103487,10,0.184862,0.030163,11,-0.168135,0.143152,12,0.039700,-0.041339,13,-0.027773,-0.209089,14,0.132860,0.209688,15,0.195835,0.089927,16,-0.136689,-0.074231,17,-0.231031,-0.026473,18,-0.044986,0.053576,19,0.039893,0.059660,20,0.039697,-0.022152,21,0.023580,-0.016225,22,-0.000985,0.006138
12,1,-0.269299,0.151619,2,0.028776,0.281953,3,0.008369,-0.300781,4,0.109638,-0.204824,5,-0.170770,0.193825,6,0.126138,-0.287979,7,-0.259090,0.118122,8,-0.177207,-0.051563,9,0.228987,0.134604,10,0.184718,0.110615,11,-0.184215,-0.057898,12,0.041134,0.046644,13,-0.215969,0.080267,14,0.242410,-0.077313,15,0.182263,-0.028247,16,-0.174933,-0.068937,17,-0.174566,-0.090083,18,0.081234,0.004452,19,0.033541,-0.069908,20,-0.025841,-0.005489,21,-0.031960,-0.003272,22,-0.008144,0.025691
13,1,-0.253190,0.074849,2,0.019872,0.239563,3,0.172906,-0.245980,4,0.235965,-0.084688,5,-0.273840,-0.040405,6,-0.293278,-0.292391,7,-0.039782,0.234410,8,-0.160903,0.000572,9,0.213801,0.075698,10,0.091582,0.107312,11,-0.089236,-0.149996,12,-0.043557,0.059017,13,0.032736,0.259595,14,0.026431,-0.259552,15,0.137170,-0.148861,16,-0.190259,0.048276,17,-0.191739,-0.045382,18,-0.008646,-0.086100,19,-0.095601,-0.019620,20,-0.013523,-0.004821,21,0.032635,0.087978,22,0.017219,0.018586
14,1,-0.135892,0.034757,2,-0.084160,0.107689,3,0.174675,-0.004780,4,0.089047,0.100772,5,0.052174,-0.204244,6,-0.564481,0.010719,7,-0.029586,0.238976,8,-0.206418,-0.008317,9,0.192796,0.145038,10,0.017775,0.185216,11,0.018696,-0.236403,12,-0.030532,-0.002431,13,0.232868,0.168054,14,-0.121859,-0.208160,15,0.088081,-0.210083,16,-0.170231,0.084102,17,-0.144580,-0.109784,18,-0.076259,-0.011989,19,-0.038704,0.101187,20,-0.059459,0.043477,21,0.088371,-0.034964,22,0.058408,-0.045340
15,1,-0.086326,-0.017685,2,-0.105549,0.082505,3,0.120870,-0.001730,4,0.035652,0.128694,5,-0.041969,-0.122513,6,-0.517766,0.269379,7,0.025172,0.285755,8,-0.188402,0.086737,9,0.198745,0.088816,10,0.119925,0.163438,11,-0.003462,-0.161118,12,0.019613,0.014156,13,0.284013,-0.068251,14,-0.206659,-0.089838,15,-0.124385,-0.205884,16,-0.076572,0.158175,17,-0.236733,0.066533,18,-0.054797,0.029143,19,0.137175,0.006734,20,0.086096,0.072886,21,-0.017064,-0.087611,22,-0.073053,-0.100113
16,1,-0.065843,-0.085645,2,-0.045431,-0.008125,3,0.098392,0.076329,4,-0.022577,0.038894,5,0.112790,-0.019081,6,-0.484769,0.280581,7,0.038384,0.301438,8,-0.194571,0.067251,9,0.240598,0.033702,10,0.111303,0.164133,11,-0.074814,-0.243945,12,0.051661,-0.016842,13,0.228468,-0.143159,14,-0.246756,0.009467,15,-0.164493,-0.138967,16,0.019174,0.212254,17,-0.155246,0.142458,18,-0.006622,0.124294,19,0.080629,-0.079417,20,0.117497,-0.051335,21,-0.050281,-0.077986,22,-0.122316,0.050601
17,1,-0.007132,-0.110944,2,-0.055365,-0.011537,3,0.026106,0.110389,4,-0.001655,0.059550,5,0.098354,0.012973,6,-0.503172,0.167978,7,-0.054394,0.313999,8,-0.209174,0.013149,9,0.216827,0.117121,10,0.077581,0.180821,11,0.013710,-0.247070,12,0.052347,-0.007583,13,0.238609,-0.127582,14,-0.268611,-0.006316,15,-0.148458,-0.143956,16,0.006069,0.215375,17,-0.167433,0.155327,18,0.034420,0.134258,19,0.082787,-0.076145,20,0.113523,-0.076833,21,-0.072463,-0.093069,22,-0.095834,0.085617
18,1,-0.003828,0.001010,2,-0.036828,-0.067461,3,-0.029107,-0.011173,4,-0.032458,-0.023460,5,0.066607,-0.026936,6,-0.399567,-0.124787,7,-0.229313,0.200039,8,-0.213428,-0.046016,9,0.158831,0.206667,10,0.070152,0.186828,11,-0.024123,-0.294659,12,0.007224,-0.051367,13,0.276436,-0.138108,14,-0.262679,0.011849,15,-0.228557,-0.110382,16,0.074858,0.173761,17,-0.036340,0.240729,18,0.085909,0.140050,19,0.088067,-0.151808,20,0.021147,-0.172010,21,-0.209585,0.022287,22,-0.010263,0.128465
19,1,0.033456,-0.012695,2,0.027280,-0.012277,3,-0.050345,0.017132,4,-0.009121,-0.000724,5,-0.038223,-0.020877,6,-0.122878,-0.282928,7,-0.286662,0.050218,8,-0.193892,-0.086807,9,0.192632,0.123626,10,0.127511,0.152712,11,-0.264143,-0.148175,12,-0.050508,0.011881,13,0.281773,-0.058808,14,-0.261078,0.072922,15,-0.201531,-0.003518,16,0.216477,0.076621,17,0.183229,0.056008,18,0.217566,0.226745,19,-0.016516,-0.202170,20,-0.123357,-0.197650,21,-0.014061,0.261385,22,0.177329,0.033281
20,1,-0.006511,0.031136,2,0.035429,0.017149,3,0.021459,0.000180,4,-0.016688,0.009200,5,0.002700,-0.025643,6,0.116203,-0.065405,7,-0.176785,-0.184518,8,-0.105001,-0.197677,9,0.227991,0.184366,10,0.174172,0.029047,11,-0.218394,0.156564,12,0.011097,0.020046,13,0.209488,0.107357,14,-0.248462,-0.010562,15,-0.199461,0.136204,16,0.138686,-0.118909,17,0.075313,-0.199496,18,0.158301,0.258101,19,-0.055279,-0.326271,20,-0.311443,-0.045282,21,0.261655,0.117569,22,-0.066052,-0.177678
21,1,-0.016620,0.015288,2,0.025499,0.004266,3,0.023237,0.002404,4,-0.005256,0.015485,5,0.017941,-0.049650,6,0.107277,0.000232,7,-0.047901,-0.240768,8,-0.081276,-0.226120,9,0.237540,0.141099,10,0.162044,-0.013182,11,-0.109347,0.266308,12,0.014196,-0.003918,13,0.119492,0.174160,14,-0.264100,-0.006051,15,-0.146542,0.167816,16,0.085568,-0.158434,17,-0.077595,-0.237315,18,0.017205,0.317796,19,-0.053195,-0.353699,20,-0.288321,0.009895,21,0.273534,-0.014905,22,-0.166932,-0.075489
22,1,-0.045766,0.029302,2,-0.017391,-0.014468,3,0.019011,-0.002073,4,-0.014324,-0.019206,5,0.000978,-0.015210,6,0.004416,0.071320,7,0.222980,-0.261728,8,-0.013601,-0.209909,9,0.184761,0.057348,10,0.101276,-0.147869,11,0.234932,0.092188,12,-0.036320,-0.057686,13,-0.025803,0.273847,14,-0.266785,-0.022370,15,-0.106623,0.161536,16,-0.061766,-0.180114,17,-0.221065,0.099102,18,-0.337968,0.246103,19,0.025604,-0.286186,20,-0.231754,0.089691,21,0.148508,-0.195268,22,-0.115003,0.132851
23,1,-0.019762,0.025941,2,0.005354,-0.034712,3,0.064079,0.007765,4,0.009237,-0.027737,5,0.054823,0.082831,6,-0.074942,-0.024528,7,0.235755,0.162494,8,0.127868,-0.100683,9,0.167111,0.098543,10,0.018222,-0.214052,11,0.198755,-0.135018,12,-0.061931,0.034620,13,-0.219263,0.003703,14,-0.088447,-0.214164,15,-0.164977,0.105586,16,-0.140037,-0.103711,17,-0.039193,0.222052,18,-0.348583,-0.333095,19,0.216669,-0.210922,20,-0.271436,0.015269,21,0.126539,-0.173137,22,0.017182,0.236910
24,1,-0.014160,0.003729,2,-0.012935,0.066526,3,-0.010048,0.006175,4,0.015945,0.014271,5,0.067943,-0.108513,6,0.088142,-0.145279,7,0.183271,0.194686,8,0.126900,-0.201467,9,0.258147,-0.031385,10,-0.234597,-0.126797,11,-0.208283,-0.214830,12,0.023868,0.055486,13,-0.248615,-0.071901,14,-0.178578,-0.219529,15,-0.029915,0.244037,16,-0.196724,0.093747,17,0.264086,0.017949,18,-0.003866,-0.373486,19,0.230218,-0.054689,20,-0.143292,0.019442,21,-0.008805,-0.171965,22,0.128803,0.038902
25,1,-0.060672,-0.162662,2,0.013290,-0.029763,3,-0.049352,0.074006,4,-0.010944,-0.008336,5,-0.083711,-0.082821,6,0.075642,0.014603,7,0.170577,0.331464,8,0.153251,-0.167208,9,0.238776,-0.135939,10,-0.266611,0.038942,11,-0.275766,0.045280,12,0.164369,0.036819,13,-0.208620,-0.157425,14,-0.064704,-0.279314,15,0.010815,0.232657,16,-0.148651,0.177091,17,0.192077,-0.136615,18,0.241202,-0.123948,19,0.155889,0.021846,20,-0.150143,-0.025781,21,-0.060115,-0.105192,22,0.176206,-0.122061
26,1,0.025299,0.015808,2,0.028379,-0.053640,3,0.032728,0.012997,4,-0.022996,-0.050434,5,-0.104773,0.042759,6,-0.070515,-0.053944,7,0.047229,0.313998,8,0.045588,-0.213875,9,0.184745,-0.274186,10,-0.167137,0.227410,11,-0.084871,0.259744,12,0.261081,-0.099255,13,-0.099100,-0.246670,14,-0.061674,-0.234830,15,0.119585,0.263186,16,-0.044347,0.206559,17,0.070413,-0.257749,18,0.170253,-0.006159,19,0.149798,0.066921,20,-0.107670,-0.021371,21,-0.180279,-0.061166,22,0.106532,-0.188005
27,1,0.044385,0.028512,2,0.042373,0.049717,3,0.114927,-0.021797,4,-0.060311,0.012885,5,-0.046689,0.046915,6,0.176917,-0.023337,7,-0.080766,0.233740,8,0.151920,-0.250346,9,0.109186,-0.275798,10,-0.098867,0.253025,11,0.075377,0.215143,12,0.251284,-0.350508,13,0.089186,-0.169981,14,0.002504,-0.226725,15,0.027633,0.230139,16,0.003771,0.218936,17,0.011276,-0.252622,18,0.096883,0.139987,19,0.018735,0.106788,20,-0.108312,-0.019792,21,-0.161928,-0.133715,22,0.097345,-0.179619
28,1,-0.074851,-0.101942,2,-0.023260,-0.117200,3,-0.022973,-0.087565,4,0.017883,0.077600,5,0.151363,-0.002494,6,0.061750,0.119769,7,-0.052794,0.241358,8,0.046404,-0.169845,9,-0.054916,-0.243562,10,0.136060,0.112992,11,0.176230,0.027406,12,-0.208512,-0.636917,13,0.154669,-0.066201,14,0.152971,-0.160203,15,0.001508,0.235380,16,0.034376,0.144129,17,-0.087075,-0.139292,18,-0.131807,0.062323,19,-0.008532,0.112153,20,-0.047107,-0.063465,21,-0.027955,-0.118427,22,0.064585,-0.081611
29,1,0.060160,-0.037783,2,0.049929,0.077340,3,0.035689,0.104910,4,0.003349,-0.045890,5,0.001451,-0.122231,6,-0.127153,0.058203,7,-0.251253,-0.165785,8,0.120569,0.208628,9,0.108369,0.251345,10,-0.038673,-0.272466,11,-0.130562,-0.220361,12,-0.016589,-0.473465,13,-0.142132,0.244463,14,-0.082821,0.256272,15,0.130284,-0.188173,16,0.161759,-0.138533,17,-0.192743,0.129298,18,0.073646,0.018870,19,0.085859,0.068091,20,-0.049849,-0.014425,21,-0.058031,-0.130053,22,0.055221,-0.017010
30,1,-0.076059,-0.013224,2,0.001022,0.089591,3,-0.034622,-0.075560,4,-0.008294,-0.051737,5,-0.034268,0.100935,6,-0.597335,-0.085976,7,0.123833,0.158042,8,0.104852,0.165155,9,-0.110181,-0.203991,10,-0.102045,-0.208110,11,0.189267,0.200250,12,-0.005569,-0.028852,13,0.176038,-0.188139,14,-0.100342,0.188798,15,-0.142727,0.240012,16,0.130841,-0.156654,17,0.215118,-0.143770,18,-0.094719,-0.014854,19,0.141129,0.014461,20,0.016893,0.026916,21,-0.067390,-0.041646,22,0.015036,0.049408
31,1,-0.031070,-0.097485,2,0.105264,0.009524,3,0.044202,0.044360,4,0.009747,-0.083584,5,-0.002127,-0.060217,6,0.118325,0.120664,7,-0.059690,0.327503,8,0.226346,-0.069312,9,0.255435,0.134359,10,-0.169750,-0.240023,11,-0.042662,-0.226093,12,0.278808,-0.186847,13,0.307112,0.182448,14,0.186415,0.191241,15,0.006953,-0.302426,16,0.141836,-0.194190,17,-0.248054,0.072214,18,-0.016256,-0.048195,19,0.070163,0.031808,20,-0.046646,-0.006049,21,-0.006794,-0.048452,22,0.062666,0.030533
32,1,-0.067989,0.014501,2,0.026642,-0.083146,3,0.085131,0.049151,4,-0.032116,-0.076123,5,0.082570,-0.035280,6,0.092709,-0.210546,7,0.360815,-0.044868,8,-0.026299,-0.229552,9,0.314737,-0.172241,10,-0.161391,-0.161676,11,-0.046744,-0.305839,12,0.191291,0.104881,13,0.048316,-0.340728,14,0.238926,-0.025480,15,-0.193014,-0.212989,16,0.159929,-0.175632,17,-0.275085,-0.040535,18,-0.068540,0.014653,19,0.029747,-0.021920,20,0.019294,0.017128,21,-0.025426,-0.011856,22,-0.000607,-0.000306
33,1,0.107431,-0.114860,2,-0.113258,0.078171,3,-0.057113,-0.084469,4,-0.113001,0.074471,5,0.017306,-0.195926,6,-0.232545,0.211495,7,-0.199785,-0.210405,8,-0.218714,0.016625,9,-0.036809,-0.287903,10,-0.221015,-0.012754,11,-0.050665,-0.281909,12,0.052963,0.112772,13,-0.249653,-0.100712,14,0.160935,-0.312823,15,-0.243743,-0.159868,16,0.176878,-0.166925,17,-0.152340,-0.206653,18,-0.049408,0.007057,19,-0.053235,-0.047545,20,-0.071556,0.028006,21,-0.031682,-0.028605,22,0.071248,0.019011
34,1,-0.009996,-0.061523,2,0.006419,0.061971,3,-0.031080,0.005573,4,-0.026994,-0.009418,5,0.039644,-0.076048,6,0.238926,-0.431721,7,0.140238,0.251146,8,0.163565,0.201988,9,-0.257910,-0.047190,10,-0.108511,0.167149,11,-0.239448,-0.209737,12,0.051180,0.047160,13,0.193905,-0.132204,14,-0.036681,0.307115,15,0.198461,0.191377,16,-0.207638,0.009381,17,-0.194532,0.197825,18,-0.072334,-0.091575,19,0.065670,-0.035627,20,0.008525,-0.069008,21,0.000252,0.059100,22,0.008315,0.012041
35,1,-0.032038,-0.015801,2,-0.037789,0.011557,3,0.011929,-0.056400,4,-0.028234,-0.008543,5,0.049240,-0.019232,6,-0.174001,-0.478595,7,0.086852,0.189396,8,0.147512,0.185879,9,-0.337597,-0.035990,10,-0.202808,0.139134,11,-0.074333,-0.271641,12,0.067322,-0.008053,13,0.153270,-0.217647,14,0.139675,0.234281,15,0.234234,0.058065,16,-0.199083,0.059067,17,-0.135533,0.196540,18,-0.122014,0.155399,19,-0.004327,-0.041821,20,-0.025932,-0.036309,21,0.097203,0.004909,22,-0.076340,-0.098700
36,1,0.042119,-0.054914,2,0.035950,0.051826,3,-0.053201,0.025335,4,0.049936,0.021076,5,-0.034410,0.035443,6,0.125687,0.217623,7,-0.209889,0.348821,8,0.181531,0.151225,9,0.043973,0.334680,10,0.214252,-0.165426,11,0.285557,-0.033939,12,0.178125,0.175474,13,0.256282,0.038422,14,0.132685,0.181806,15,0.074801,-0.238842,16,0.201152,-0.029112,17,-0.198472,-0.182834,18,-0.055490,-0.105398,19,0.086719,-0.109458,20,-0.063784,0.083259,21,-0.083648,-0.095383,22,0.098350,0.014234
37,1,0.112883,-0.018385,2,-0.105014,0.057400,3,-0.054600,-0.104423,4,-0.103472,0.005768,5,0.042175,-0.087062,6,-0.237995,0.206298,7,-0.207823,-0.211624,8,-0.215571,-0.002793,9,-0.038653,-0.270334,10,-0.246518,-0.013502,11,-0.082369,-0.297985,12,0.091733,0.115455,13,-0.328774,0.036105,14,0.032565,-0.347751,15,-0.268845,0.043079,16,0.091193,-0.256767,17,-0.203464,-0.089333,18,-0.041245,-0.000923,19,-0.071349,-0.006914,20,-0.006594,0.072869,21,-0.081471,0.019465,22,0.039872,-0.046500
38,1,0.010899,0.155939,2,-0.075874,-0.100733,3,0.054800,-0.082952,4,-0.104541,0.023119,5,-0.071121,-0.086417,6,0.121297,-0.150877,7,0.292271,0.046443,8,-0.052781,-0.240174,9,0.269404,-0.182773,10,-0.243044,-0.039312,11,-0.205714,-0.229935,12,0.238453,-0.068932,13,0.296115,-0.229916,14,0.232769,0.076217,15,-0.124112,-0.284771,16,0.141398,-0.133481,17,-0.267429,-0.023539,18,0.041730,-0.005830,19,0.064591,-0.007668,20,-0.049340,0.000739,21,-0.022678,-0.015416,22,0.009492,-0.025719
39,1,-0.033467,-0.063175,2,-0.006847,0.074516,3,-0.034154,-0.056715,4,-0.021595,-0.060560,5,0.062617,-0.002266,6,-0.250362,-0.509607,7,0.138094,0.186297,8,0.176114,0.168249,9,-0.265858,-0.158852,10,-0.231343,-0.000725,11,0.133082,-0.227333,12,-0.046820,0.041798,13,0.161275,-0.166130,14,-0.025957,0.248553,15,0.062320,0.272628,16,-0.102933,-0.152653,17,-0.203070,-0.145377,18,-0.073754,-0.069774,19,0.096344,-0.019456,20,-0.007357,-0.019341,21,-0.037743,0.064287,22,0.035004,0.029677
40,1,0.091956,-0.010770,2,-0.000718,-0.016189,3,0.002542,-0.018408,4,-0.022931,-0.077607,5,0.046411,-0.021499,6,-0.272162,0.247302,7,-0.258976,-0.182120,8,-0.247560,-0.027459,9,0.012585,-0.276904,10,-0.270889,-0.056723,11,-0.041578,-0.289419,12,0.082161,0.109925,13,-0.246871,0.218623,14,-0.119772,-0.288683,15,-0.202158,0.144853,16,-0.033010,-0.254251,17,-0.272531,0.029869,18,0.093097,0.049727,19,-0.041238,0.033049,20,-0.011608,0.034767,21,-0.001756,0.026358,22,0.034656,0.006529
