# Input file for Beam Configurations for an HPL.
#
# BeamId,[repeat the following 22 times]:PhaseCenterNumber,BeamWeight_real_part,BeamWeight_imag_part
# Each Beam ID should be a number from 1 to 40.
# Each Phase Center Number should be a whole number between 1 and 22.
# Each Beam Weight can have a floating point value.
# NOTE: Beam ID and Phase Center Number values are not used in parsing, and each row is parsed as if in numerical order
#       The Beam ID and Phase Center Number values are simply to assist in editing this input file.
1,1,-0.111376,0.074219,2,-0.113025,0.000525,3,-0.035127,0.011486,4,0.053942,-0.069717,5,-0.014085,-0.174686,6,0.044778,0.073489,7,0.005583,0.166688,8,-0.038156,-0.156175,9,-0.155020,-0.165197,10,0.154546,-0.030928,11,0.101478,-0.116274,12,-0.421158,-0.616804,13,0.156110,0.074025,14,0.175830,-0.044328,15,-0.032497,0.146361,16,0.035486,0.175845,17,-0.153984,-0.107049,18,-0.048074,-0.040118,19,-0.099528,-0.042918,20,0.001771,-0.170395,21,0.099531,0.005089,22,0.043581,0.038670
2,1,0.098059,0.201900,2,-0.030322,0.103423,3,-0.051965,0.093920,4,-0.042581,-0.159714,5,-0.172891,-0.032209,6,0.039017,0.086373,7,0.125739,0.139935,8,-0.176217,-0.141368,9,-0.159329,-0.023313,10,0.137576,-0.096555,11,0.068918,-0.189393,12,-0.385767,-0.575729,13,0.171471,0.019502,14,0.138083,-0.111630,15,0.031993,0.224271,16,0.029593,0.132235,17,-0.114243,-0.152801,18,-0.053724,-0.015160,19,-0.068684,-0.030903,20,0.118839,-0.060803,21,0.019720,0.043303,22,0.012573,-0.036315
3,1,0.180153,-0.133221,2,0.059811,0.084192,3,0.119087,0.188839,4,-0.227246,0.029904,5,-0.112674,0.021496,6,0.193034,-0.027850,7,0.225241,-0.065329,8,-0.149425,0.048010,9,-0.129027,0.072698,10,0.109313,-0.174671,11,-0.050052,-0.198688,12,-0.063452,-0.568697,13,0.185980,-0.184428,14,-0.022613,-0.250506,15,0.051305,0.179608,16,0.027247,0.196774,17,-0.134997,-0.170636,18,0.007398,-0.050466,19,-0.020647,-0.075977,20,0.044849,0.043594,21,0.054337,-0.021481,22,0.048885,-0.005553
4,1,-0.051126,-0.175454,2,0.249895,0.077686,3,0.255991,-0.105596,4,-0.199784,0.028648,5,-0.294010,0.105453,6,0.034173,-0.214274,7,0.057759,-0.196660,8,-0.147970,0.103209,9,-0.192305,0.153617,10,0.051276,-0.134549,11,0.065038,-0.226072,12,0.207683,-0.326513,13,0.138737,-0.244756,14,0.047903,-0.135026,15,-0.089115,0.230690,16,0.003803,0.221704,17,0.019987,-0.219518,18,-0.071766,-0.037277,19,-0.046660,-0.019197,20,0.037281,0.001138,21,0.014276,0.055129,22,-0.012442,0.051365
5,1,-0.113349,-0.150921,2,0.034209,-0.336108,3,0.173942,-0.043588,4,-0.231790,0.258007,5,-0.208370,0.098095,6,-0.266212,0.084981,7,-0.154400,-0.081489,8,-0.074181,0.301138,9,0.014467,0.140528,10,0.126754,-0.246326,11,0.046943,-0.171651,12,0.234088,-0.101749,13,-0.125896,-0.185597,14,0.000199,-0.221122,15,0.107089,0.166446,16,-0.112340,0.199301,17,0.045392,-0.190966,18,-0.046753,0.066977,19,-0.027081,0.001392,20,-0.020007,-0.058716,21,0.005886,0.073013,22,-0.022565,-0.010366
6,1,-0.314559,0.235821,2,0.021456,-0.163643,3,0.120823,-0.241434,4,-0.261213,0.147023,5,-0.330866,0.003838,6,-0.010441,0.080142,7,-0.213710,-0.106148,8,0.063693,0.162418,9,-0.114244,0.202011,10,0.173574,-0.118387,11,0.189563,-0.062832,12,0.069794,0.114831,13,-0.096022,-0.247032,14,-0.057667,-0.188216,15,-0.121383,0.247905,16,-0.190789,0.069084,17,0.222369,0.020649,18,0.042902,-0.067030,19,0.028573,-0.050722,20,0.021679,0.019406,21,-0.074523,-0.033366,22,-0.032126,-0.040314
7,1,0.216747,0.128865,2,-0.245231,-0.067317,3,0.015283,-0.196552,4,-0.161669,0.173790,5,-0.281531,-0.213675,6,0.041772,-0.012000,7,0.049795,0.315898,8,0.266363,0.063515,9,0.086001,0.156957,10,0.117729,-0.250633,11,0.185243,0.010398,12,-0.015337,0.060013,13,-0.254462,0.225466,14,-0.160184,-0.114499,15,0.100873,0.228583,16,-0.182080,0.124252,17,0.200130,0.087361,18,-0.066503,0.014203,19,-0.026164,0.024486,20,0.018387,0.035049,21,-0.026270,0.032256,22,0.053719,-0.019045
8,1,0.287372,-0.099810,2,-0.160004,0.085264,3,-0.080545,-0.235869,4,-0.251371,0.063428,5,-0.017915,-0.308866,6,0.035509,-0.106313,7,0.200971,0.068143,8,0.198421,-0.194137,9,0.118530,0.255460,10,0.196048,-0.141704,11,0.186024,0.149522,12,-0.049656,0.018517,13,0.070436,0.245195,14,-0.236537,0.112828,15,0.070669,0.251983,16,-0.217904,0.000450,17,0.030215,0.219972,18,0.050133,0.070045,19,0.049874,0.016590,20,0.007639,-0.032109,21,0.004681,-0.068006,22,0.014336,0.046087
9,1,0.098950,-0.406466,2,-0.192433,0.160988,3,-0.031521,-0.207960,4,-0.254959,-0.029172,5,0.246454,-0.168965,6,-0.137318,0.003097,7,0.228647,-0.073121,8,0.076776,-0.172465,9,0.152192,0.148529,10,0.253443,-0.079409,11,0.005485,0.226688,12,-0.029820,-0.051131,13,0.169440,0.125733,14,-0.125046,0.177258,15,0.128517,0.191741,16,-0.217344,-0.034957,17,-0.188281,0.193024,18,-0.009302,-0.056394,19,-0.036350,-0.035806,20,-0.029846,-0.022915,21,-0.042391,0.046475,22,0.014139,0.048779
10,1,-0.217937,-0.279823,2,-0.151380,0.267262,3,0.007135,-0.221018,4,-0.215020,-0.133066,5,0.259761,0.127503,6,-0.027563,0.199400,7,0.028485,-0.261929,8,-0.002426,-0.204142,9,0.126891,0.148431,10,0.242238,-0.003904,11,-0.143386,0.203868,12,0.007863,-0.054259,13,0.177897,-0.111771,14,-0.057535,0.223341,15,0.135290,0.155108,16,-0.178360,-0.079756,17,-0.249041,0.084066,18,-0.089879,-0.029274,19,-0.073010,0.058998,20,0.019515,0.006718,21,0.042658,0.045940,22,0.004246,-0.025195
11,1,-0.316569,-0.084247,2,-0.059251,0.276365,3,0.040232,-0.217319,4,-0.135742,-0.212296,5,0.089404,0.248003,6,0.166745,0.123357,7,-0.187898,-0.229996,8,-0.103379,-0.232261,9,0.124778,0.144041,10,0.203117,0.058434,11,-0.201790,0.122099,12,0.049073,-0.029429,13,0.029409,-0.215923,14,0.063932,0.251695,15,0.185887,0.135247,16,-0.148874,-0.117246,17,-0.263951,-0.038979,18,-0.068387,0.048010,19,0.035748,0.077913,20,0.052063,-0.039982,21,0.035466,-0.018927,22,-0.000372,0.009203
12,1,-0.240775,0.135559,2,-0.008638,0.251652,3,0.034611,-0.240081,4,0.081057,-0.209985,5,-0.153126,0.144969,6,0.139453,-0.323247,7,-0.280970,0.091516,8,-0.184916,-0.087350,9,0.176469,0.189486,10,0.189348,0.146331,11,-0.181517,-0.091222,12,0.027001,0.054873,13,-0.233549,0.020704,14,0.262176,0.001909,15,0.193603,0.008673,16,-0.192946,-0.116970,17,-0.193870,-0.108169,18,0.091001,0.029652,19,0.052003,-0.074949,20,-0.037499,-0.002381,21,-0.043426,-0.009460,22,-0.007360,0.038635
13,1,-0.223496,0.066071,2,-0.011224,0.210557,3,0.159235,-0.178632,4,0.214060,-0.108107,5,-0.216845,-0.052377,6,-0.326020,-0.321445,7,-0.067553,0.234051,8,-0.173936,-0.027105,9,0.176407,0.128572,10,0.085885,0.128802,11,-0.066486,-0.168653,12,-0.055838,0.044198,13,-0.037199,0.260238,14,0.107622,-0.242620,15,0.169961,-0.123331,16,-0.231831,0.018328,17,-0.212181,-0.057568,18,0.016029,-0.099222,19,-0.106026,-0.040109,20,-0.019773,-0.003937,21,0.030805,0.124404,22,0.027807,0.023651
14,1,-0.114017,0.029162,2,-0.081694,0.079440,3,0.131679,0.011618,4,0.091598,0.080989,5,0.053944,-0.152202,6,-0.593094,0.014555,7,-0.054844,0.228002,8,-0.210609,-0.042345,9,0.131149,0.177514,10,-0.004406,0.194021,11,0.055672,-0.227407,12,-0.026600,-0.009556,13,0.172070,0.213546,14,-0.049443,-0.227941,15,0.126000,-0.185954,16,-0.204935,0.060993,17,-0.149468,-0.121357,18,-0.077950,-0.034454,19,-0.059904,0.103526,20,-0.070083,0.068953,21,0.119092,-0.032227,22,0.072069,-0.071131
15,1,-0.070918,-0.014528,2,-0.094500,0.055046,3,0.089082,0.009032,4,0.045564,0.109804,5,-0.023044,-0.094358,6,-0.531175,0.280112,7,-0.006842,0.273446,8,-0.203341,0.057002,9,0.147896,0.127068,10,0.101903,0.180207,11,0.021690,-0.154265,12,0.013745,0.016991,13,0.272988,0.008625,14,-0.159540,-0.141656,15,-0.078529,-0.218554,16,-0.112655,0.157653,17,-0.247947,0.061059,18,-0.065346,0.015200,19,0.145256,0.030700,20,0.125172,0.077884,21,-0.009053,-0.113094,22,-0.113169,-0.121691
16,1,-0.053836,-0.070027,2,-0.035676,-0.011545,3,0.065577,0.064246,4,-0.015622,0.036657,5,0.085140,-0.006575,6,-0.494820,0.290075,7,0.003973,0.288359,8,-0.205447,0.036248,9,0.196985,0.090034,10,0.092637,0.179025,11,-0.033384,-0.243211,12,0.048805,-0.002428,13,0.240269,-0.072309,14,-0.223785,-0.063787,15,-0.128624,-0.162087,16,-0.018577,0.233141,17,-0.165156,0.141939,18,-0.041294,0.127389,19,0.099201,-0.070609,20,0.141501,-0.088284,21,-0.052135,-0.105177,22,-0.154090,0.086394
17,1,-0.005822,-0.090555,2,-0.043222,-0.015360,3,0.009734,0.082910,4,0.005014,0.052453,5,0.072119,0.016253,6,-0.513409,0.174568,7,-0.084713,0.289782,8,-0.211058,-0.020189,9,0.155173,0.154985,10,0.056499,0.191486,11,0.051076,-0.232106,12,0.047134,0.005759,13,0.245112,-0.055737,14,-0.238322,-0.084177,15,-0.112376,-0.163462,16,-0.033271,0.233682,17,-0.177866,0.154554,18,-0.001381,0.148850,19,0.100759,-0.066649,20,0.131337,-0.120136,21,-0.077743,-0.127066,22,-0.113264,0.128385
18,1,-0.003082,0.000813,2,-0.021874,-0.057470,3,-0.020056,-0.010489,4,-0.030618,-0.016837,5,0.050551,-0.015294,6,-0.403604,-0.123594,7,-0.233991,0.161613,8,-0.203086,-0.078886,9,0.081829,0.213681,10,0.047638,0.193978,11,0.022239,-0.279207,12,0.018105,-0.042217,13,0.277766,-0.055123,14,-0.235092,-0.065302,15,-0.191419,-0.145046,16,0.048040,0.198731,17,-0.044932,0.243663,18,0.049771,0.166794,19,0.117624,-0.144005,20,-0.005232,-0.221915,21,-0.262559,-0.001716,22,0.006607,0.169232
19,1,0.026144,-0.009920,2,0.022281,-0.006573,3,-0.036626,0.007908,4,-0.007740,0.000340,5,-0.025813,-0.017298,6,-0.121795,-0.276230,7,-0.263485,0.015971,8,-0.172204,-0.112599,9,0.127223,0.147808,10,0.105481,0.161941,11,-0.217872,-0.173459,12,-0.044569,-0.001534,13,0.255533,0.015778,14,-0.243899,-0.010652,15,-0.180809,-0.039669,16,0.210227,0.117533,17,0.179094,0.061180,18,0.156185,0.282863,19,0.016195,-0.207950,20,-0.187445,-0.220804,21,-0.052366,0.312136,22,0.229617,0.015356
20,1,-0.004984,0.023833,2,0.024931,0.016578,3,0.014698,0.001828,4,-0.012800,0.009273,5,0.003499,-0.017676,6,0.111051,-0.063320,7,-0.137601,-0.180586,8,-0.068837,-0.200883,9,0.138428,0.201791,10,0.161310,0.047020,11,-0.216786,0.107624,12,0.004589,0.018736,13,0.151310,0.138436,14,-0.205440,-0.076977,15,-0.200071,0.084733,16,0.161057,-0.096362,17,0.079109,-0.190553,18,0.087180,0.292232,19,-0.002866,-0.333302,20,-0.383236,0.000583,21,0.292306,0.173146,22,-0.108242,-0.210649
21,1,-0.012776,0.011751,2,0.018855,0.005869,3,0.015806,0.003509,4,-0.002761,0.013338,5,0.015689,-0.033564,6,0.103276,-0.000350,7,-0.018269,-0.218261,8,-0.042538,-0.224929,9,0.157034,0.170173,10,0.155247,0.005780,11,-0.136275,0.221881,12,0.012450,-0.000048,13,0.060564,0.174583,14,-0.220715,-0.077809,15,-0.159680,0.122515,16,0.114603,-0.146210,17,-0.067855,-0.232914,18,-0.065894,0.315087,19,0.003603,-0.361764,20,-0.347067,0.063231,21,0.325261,0.018900,22,-0.219186,-0.069234
22,1,-0.035521,0.022742,2,-0.011776,-0.012874,3,0.013382,0.000091,4,-0.013939,-0.014552,5,0.001664,-0.010671,6,0.004678,0.069302,7,0.226155,-0.211654,8,0.018880,-0.201460,9,0.135988,0.091149,10,0.113881,-0.130131,11,0.198265,0.117532,12,-0.017002,-0.055652,13,-0.085909,0.227292,14,-0.220603,-0.093185,15,-0.124404,0.125269,16,-0.031750,-0.195795,17,-0.219926,0.090121,18,-0.398203,0.154059,19,0.072162,-0.284436,20,-0.267009,0.151167,21,0.203535,-0.212996,22,-0.124724,0.184373
23,1,-0.015118,0.019846,2,0.007610,-0.025592,3,0.043289,0.010408,4,0.004776,-0.023760,5,0.032905,0.061077,6,-0.071932,-0.023102,7,0.191755,0.166949,8,0.134759,-0.075178,9,0.110120,0.118571,10,0.041250,-0.200094,11,0.196101,-0.091254,12,-0.057926,0.014440,13,-0.184986,-0.047340,14,-0.015437,-0.203709,15,-0.164134,0.063811,16,-0.123750,-0.129230,17,-0.044863,0.213379,18,-0.252798,-0.414300,19,0.249019,-0.175056,20,-0.324131,0.066412,21,0.171838,-0.186832,22,0.056348,0.291197
24,1,-0.011369,0.002994,2,-0.017422,0.051188,3,-0.007741,0.003603,4,0.015293,0.010620,5,0.056792,-0.074718,6,0.087823,-0.146581,7,0.149275,0.199521,8,0.156280,-0.178095,9,0.224429,0.038190,10,-0.217572,-0.153329,11,-0.161661,-0.231915,12,0.007486,0.052813,13,-0.201764,-0.123410,14,-0.093932,-0.244442,15,-0.073088,0.220185,16,-0.226010,0.063794,17,0.267291,0.026923,18,0.097586,-0.382349,19,0.249318,-0.018482,20,-0.177474,0.051179,21,0.013109,-0.213514,22,0.173652,0.030626
25,1,-0.049317,-0.132218,2,0.013895,-0.022362,3,-0.042172,0.049714,4,-0.010468,-0.006103,5,-0.056313,-0.066826,6,0.077086,0.014438,7,0.124684,0.328862,8,0.178991,-0.142033,9,0.237205,-0.055044,10,-0.272162,0.007257,11,-0.267289,0.000421,12,0.133167,0.070312,13,-0.147662,-0.191469,14,0.023707,-0.267542,15,-0.033703,0.219923,16,-0.192457,0.163055,17,0.201811,-0.133874,18,0.283403,-0.061723,19,0.160922,0.049508,20,-0.196934,-0.004757,21,-0.060279,-0.139948,22,0.212947,-0.188497
26,1,0.020584,0.012862,2,0.028614,-0.039857,3,0.022753,0.012235,4,-0.025581,-0.041642,5,-0.080383,0.024598,6,-0.072161,-0.054571,7,0.010917,0.299676,8,0.079365,-0.205745,9,0.226519,-0.186322,10,-0.195037,0.208442,11,-0.120109,0.232418,12,0.248760,-0.024424,13,-0.028149,-0.244569,14,0.013468,-0.227277,15,0.062471,0.269272,16,-0.085809,0.214162,17,0.081001,-0.262594,18,0.177834,0.040530,19,0.146992,0.096173,20,-0.141907,-0.007106,21,-0.216880,-0.101991,22,0.110904,-0.264682
27,1,0.036208,0.023260,2,0.028567,0.044588,3,0.085816,-0.006196,4,-0.051513,0.017850,5,-0.037789,0.031656,6,0.180619,-0.024846,7,-0.100917,0.211299,8,0.191546,-0.225766,9,0.163111,-0.207371,10,-0.129865,0.242957,11,0.038277,0.215451,12,0.300063,-0.244334,13,0.121571,-0.130337,14,0.068485,-0.201875,15,-0.017542,0.221529,16,-0.036391,0.236972,17,0.020093,-0.259980,18,0.061828,0.171963,19,0.001680,0.116370,20,-0.142804,-0.004977,21,-0.184153,-0.190651,22,0.100370,-0.252837
28,1,-0.064872,-0.088351,2,-0.006160,-0.102719,3,-0.009957,-0.070038,4,0.025615,0.070266,5,0.119457,0.008860,6,0.067747,0.129630,7,-0.080120,0.235269,8,0.077956,-0.172314,9,0.015977,-0.235393,10,0.131187,0.138199,11,0.172907,0.056427,12,-0.032537,-0.638010,13,0.164407,-0.022665,14,0.194962,-0.104608,15,-0.045777,0.235341,16,0.011115,0.172000,17,-0.090379,-0.155618,18,-0.163540,0.030002,19,-0.029888,0.124743,20,-0.076981,-0.077130,21,-0.019426,-0.162014,22,0.077044,-0.125458
29,1,0.051140,-0.032118,2,0.032927,0.070445,3,0.017917,0.083023,4,-0.002128,-0.042332,5,0.009696,-0.094374,6,-0.135028,0.062716,7,-0.227903,-0.190460,8,0.090827,0.237067,9,0.029750,0.251939,10,-0.006576,-0.290739,11,-0.093533,-0.238520,12,0.101155,-0.431240,13,-0.195133,0.191782,14,-0.155152,0.213422,15,0.164676,-0.158628,16,0.208588,-0.124639,17,-0.211515,0.132125,18,0.074171,0.041593,19,0.082748,0.090430,20,-0.069533,-0.009499,21,-0.056646,-0.178543,22,0.073284,-0.032512
30,1,-0.062488,-0.010865,2,-0.009091,0.072579,3,-0.019033,-0.058552,4,-0.012983,-0.044806,5,-0.032442,0.073077,6,-0.615111,-0.085053,7,0.100360,0.163051,8,0.078949,0.182884,9,-0.042419,-0.203302,10,-0.078388,-0.223367,11,0.149534,0.220440,12,0.001983,-0.026478,13,0.205252,-0.126178,14,-0.145863,0.140385,15,-0.180804,0.200009,16,0.171363,-0.145910,17,0.228136,-0.141960,18,-0.094815,-0.041865,19,0.148162,0.039628,20,0.026959,0.031595,21,-0.079181,-0.062220,22,0.027870,0.063400
31,1,-0.026309,-0.082548,2,0.086668,0.019950,3,0.029625,0.037528,4,-0.000540,-0.077214,5,0.002570,-0.046511,6,0.126194,0.127269,7,-0.094551,0.313231,8,0.246039,-0.034424,9,0.190599,0.186216,10,-0.147597,-0.271996,11,-0.005807,-0.229178,12,0.296220,-0.099808,13,0.239007,0.247807,14,0.114913,0.233932,15,0.066138,-0.293685,16,0.196138,-0.190326,17,-0.267879,0.068619,18,-0.003685,-0.056552,19,0.071570,0.047390,20,-0.063354,0.001074,21,-0.001720,-0.064079,22,0.091002,0.031643
32,1,-0.057757,0.012319,2,0.031799,-0.066489,3,0.060439,0.044902,4,-0.037944,-0.065916,5,0.066251,-0.021462,6,0.097392,-0.224552,7,0.358490,-0.003885,8,0.010719,-0.243033,9,0.324933,-0.069664,10,-0.149078,-0.189671,11,0.002939,-0.309252,12,0.146766,0.141447,13,0.132112,-0.305395,14,0.230092,0.048989,15,-0.146976,-0.246467,16,0.213532,-0.166601,17,-0.293816,-0.053110,18,-0.078248,-0.003886,19,0.036717,-0.018921,20,0.029163,0.019111,21,-0.031460,-0.019236,22,-0.000886,-0.000322
33,1,0.091101,-0.097401,2,-0.103488,0.052322,3,-0.035943,-0.069181,4,-0.094652,0.080664,5,0.027054,-0.149857,6,-0.245725,0.225987,7,-0.172065,-0.227928,8,-0.229753,-0.018947,9,0.043383,-0.264829,10,-0.229769,-0.040868,11,-0.004760,-0.285764,12,0.020077,0.114456,13,-0.206711,-0.157424,14,0.244513,-0.241708,15,-0.206720,-0.204101,16,0.230495,-0.153282,17,-0.156004,-0.226706,18,-0.055300,-0.006576,19,-0.050239,-0.061802,20,-0.090013,0.051414,21,-0.037094,-0.041961,22,0.101039,0.014445
34,1,-0.008271,-0.050906,2,-0.001680,0.051198,3,-0.023511,0.001461,4,-0.025058,-0.005409,5,0.035018,-0.054507,6,0.245109,-0.448754,7,0.106657,0.254835,8,0.133021,0.230971,9,-0.210836,-0.107232,10,-0.131138,0.157544,11,-0.197341,-0.238969,12,0.033687,0.053634,13,0.209023,-0.071825,14,-0.124267,0.267495,15,0.152494,0.220503,16,-0.229042,-0.028652,17,-0.210082,0.200179,18,-0.050447,-0.116609,19,0.076747,-0.026962,20,-0.002104,-0.091502,21,-0.008172,0.075221,22,0.013077,0.014817
35,1,-0.026280,-0.012961,2,-0.031796,0.005157,3,0.013565,-0.040421,4,-0.025840,-0.004455,5,0.038027,-0.011011,6,-0.181485,-0.490683,7,0.061854,0.188493,8,0.118336,0.210236,9,-0.280181,-0.117054,10,-0.222116,0.116460,11,-0.028744,-0.270309,12,0.060517,0.008922,13,0.191709,-0.158168,14,0.056674,0.251556,15,0.210332,0.099410,16,-0.227015,0.027102,17,-0.147084,0.199109,18,-0.170421,0.128195,19,0.002547,-0.045310,20,-0.040369,-0.041958,21,0.121892,0.020038,22,-0.117145,-0.119109
36,1,0.035020,-0.045658,2,0.023621,0.046452,3,-0.041804,0.014276,4,0.046983,0.013322,5,-0.028446,0.024434,6,0.132138,0.225888,7,-0.239188,0.311679,8,0.160191,0.183353,9,-0.048419,0.302158,10,0.240096,-0.143634,11,0.281086,0.012058,12,0.115094,0.197580,13,0.224305,0.099157,14,0.066706,0.205104,15,0.117684,-0.214386,16,0.226740,0.005867,17,-0.202233,-0.198839,18,-0.028994,-0.127049,19,0.112667,-0.103197,20,-0.067461,0.121224,21,-0.093159,-0.134011,22,0.134821,0.003369
37,1,0.094832,-0.015445,2,-0.093354,0.035587,3,-0.031978,-0.083331,4,-0.092839,0.016776,5,0.038252,-0.063579,6,-0.249199,0.218444,7,-0.178114,-0.227867,8,-0.221195,-0.038221,9,0.036765,-0.247420,10,-0.253983,-0.044408,11,-0.033099,-0.303815,12,0.053808,0.125178,13,-0.312319,-0.049775,14,0.134609,-0.310225,15,-0.268607,-0.010651,16,0.150217,-0.268008,17,-0.212861,-0.101840,18,-0.043795,-0.012718,19,-0.076664,-0.020052,20,0.005440,0.097633,21,-0.108071,0.013255,22,0.046734,-0.069790
38,1,0.009324,0.133403,2,-0.052292,-0.093587,3,0.049353,-0.058693,4,-0.093549,0.033168,5,-0.049220,-0.072240,6,0.129061,-0.162372,7,0.283171,0.078512,8,-0.015160,-0.260286,9,0.289500,-0.091642,10,-0.251724,-0.072041,11,-0.167252,-0.261691,12,0.233520,-0.003733,13,0.337236,-0.139723,14,0.194778,0.142749,15,-0.065865,-0.305290,16,0.185894,-0.123661,17,-0.288206,-0.034846,18,0.047081,0.005746,19,0.073159,0.003007,20,-0.066289,0.010758,21,-0.027538,-0.023646,22,0.008906,-0.037229
39,1,-0.027652,-0.052197,2,-0.013866,0.059852,3,-0.020411,-0.044898,4,-0.025845,-0.051437,5,0.047195,0.002567,6,-0.261993,-0.525889,7,0.111466,0.192439,8,0.150960,0.198542,9,-0.188673,-0.205525,10,-0.235863,-0.028803,11,0.163173,-0.197389,12,-0.051022,0.025493,13,0.187556,-0.110601,14,-0.097050,0.217278,15,0.007116,0.271459,16,-0.083935,-0.186120,17,-0.207033,-0.158646,18,-0.057964,-0.093935,19,0.106774,-0.004277,20,-0.013264,-0.023746,21,-0.057170,0.076249,22,0.051615,0.034147
40,1,0.076647,-0.008977,2,0.001229,-0.013366,3,0.003490,-0.013522,4,-0.029162,-0.067023,5,0.036653,-0.013101,6,-0.282677,0.259734,7,-0.229108,-0.203294,8,-0.248083,-0.068289,9,0.082809,-0.237910,10,-0.271780,-0.091513,11,0.005300,-0.286723,12,0.046249,0.117003,13,-0.280688,0.138147,14,-0.023173,-0.299342,15,-0.222123,0.100052,16,0.011611,-0.286588,17,-0.288008,0.022115,18,0.084633,0.078975,19,-0.050405,0.028618,20,-0.008527,0.047848,21,-0.006065,0.033525,22,0.047868,0.003234
