# Input file for Beam Configurations for an HPL.
#
# BeamId,[repeat the following 22 times]:PhaseCenterNumber,BeamWeight_real_part,BeamWeight_imag_part
# Each Beam ID should be a number from 1 to 40.
# Each Phase Center Number should be a whole number between 1 and 22.
# Each Beam Weight can have a floating point value.
# NOTE: Beam ID and Phase Center Number values are not used in parsing, and each row is parsed as if in numerical order
#       The Beam ID and Phase Center Number values are simply to assist in editing this input file.
1,1,-0.111818,0.074513,2,-0.139405,0.030140,3,-0.035706,0.004709,4,0.053946,-0.070431,5,-0.017401,-0.193342,6,0.066730,0.053703,7,0.073161,0.154693,8,-0.118949,-0.135030,9,-0.230074,-0.072581,10,0.122712,-0.112732,11,0.024870,-0.158835,12,-0.634035,-0.341497,13,0.176827,0.016621,14,0.151646,-0.097337,15,0.002700,0.137972,16,0.134246,0.135386,17,-0.172648,-0.057715,18,-0.043812,-0.031356,19,-0.102345,-0.026274,20,-0.037638,-0.178222,21,0.099951,-0.041827,22,0.053484,0.030295
2,1,0.098397,0.202597,2,-0.010445,0.135530,3,-0.066569,0.080615,4,-0.043619,-0.160449,5,-0.191731,-0.033876,6,0.065650,0.067677,7,0.175320,0.080511,8,-0.248018,-0.048615,9,-0.160022,0.061385,10,0.071336,-0.162652,11,-0.044409,-0.205092,12,-0.585220,-0.321844,13,0.172407,-0.041426,14,0.094762,-0.148737,15,0.077255,0.193563,16,0.103480,0.100060,17,-0.148031,-0.111119,18,-0.047043,-0.009575,19,-0.070786,-0.019359,20,0.109865,-0.090942,21,0.039676,0.033151,22,0.004968,-0.040217
3,1,0.180348,-0.133365,2,0.095537,0.088084,3,0.080013,0.201642,4,-0.227903,0.031125,5,-0.124221,0.024898,6,0.170864,-0.090960,7,0.184960,-0.152834,8,-0.122865,0.124853,9,-0.081676,0.134386,10,0.002968,-0.217206,11,-0.154007,-0.146899,12,-0.305525,-0.457534,13,0.114482,-0.242842,14,-0.100191,-0.228206,15,0.084632,0.149092,16,0.138759,0.158324,17,-0.171812,-0.121779,18,0.003119,-0.043650,19,-0.031289,-0.069845,20,0.056740,0.034998,21,0.043032,-0.046478,22,0.049071,-0.016453
4,1,-0.049572,-0.170121,2,0.317542,0.029655,3,0.255091,-0.053398,4,-0.194051,0.028795,5,-0.313458,0.115730,6,-0.038932,-0.204914,7,-0.024841,-0.201576,8,-0.089919,0.173054,9,-0.095114,0.234589,10,-0.026527,-0.144608,11,-0.065886,-0.227315,12,0.031982,-0.358928,13,0.046324,-0.275446,14,0.002371,-0.137481,15,-0.028627,0.217967,16,0.128361,0.187950,17,-0.039853,-0.202760,18,-0.061771,-0.026469,19,-0.046203,-0.011037,20,0.037827,-0.007197,21,0.038557,0.045702,22,-0.001467,0.053828
5,1,-0.107744,-0.143459,2,-0.043048,-0.401338,3,0.165148,-0.010028,4,-0.219666,0.246931,5,-0.217560,0.104905,6,-0.208863,0.160401,7,-0.169089,-0.013104,8,0.078450,0.319174,9,0.082084,0.116408,10,-0.019473,-0.276616,11,-0.051077,-0.167921,12,0.147086,-0.180730,13,-0.176924,-0.127837,14,-0.065992,-0.197303,15,0.124899,0.118956,16,0.015818,0.229674,17,-0.009288,-0.180155,18,-0.033937,0.057239,19,-0.024493,0.005148,20,-0.032649,-0.053622,21,0.037977,0.065136,22,-0.024205,-0.005419
6,1,-0.306880,0.230065,2,-0.015752,-0.201765,3,0.154495,-0.203700,4,-0.254758,0.145035,5,-0.356077,0.007443,6,0.016781,0.076346,7,-0.237576,-0.012535,8,0.143342,0.124339,9,-0.000747,0.240159,10,0.089332,-0.196498,11,0.128447,-0.156106,12,0.107535,0.065490,13,-0.174531,-0.199078,14,-0.110601,-0.154602,15,-0.053220,0.241081,16,-0.125376,0.167920,17,0.206768,-0.040255,18,0.031616,-0.058552,19,0.019282,-0.051668,20,0.026352,0.014796,21,-0.086231,0.002282,22,-0.040840,-0.033539
7,1,0.206919,0.123022,2,-0.304598,-0.018182,3,0.047403,-0.176427,4,-0.153903,0.167073,5,-0.298608,-0.222289,6,0.033343,-0.024089,7,0.166953,0.263577,8,0.282497,-0.071669,9,0.153746,0.095955,10,-0.029560,-0.276805,11,0.160740,-0.089103,12,0.012806,0.055329,13,-0.158357,0.292170,14,-0.177915,-0.054434,15,0.132975,0.173603,16,-0.084684,0.206053,17,0.199937,0.025470,18,-0.053400,0.015625,19,-0.020437,0.026188,20,0.025968,0.030727,21,-0.010057,0.041813,22,0.048711,-0.029939
8,1,0.277817,-0.096491,2,-0.168797,0.141569,3,-0.033605,-0.231460,4,-0.243309,0.062662,5,-0.022171,-0.329249,6,-0.002530,-0.107399,7,0.208966,-0.017043,8,0.092347,-0.284591,9,0.234231,0.168920,10,0.095765,-0.226883,11,0.237834,0.027425,12,-0.033041,0.036462,13,0.148529,0.204229,14,-0.180251,0.174348,15,0.113535,0.202270,16,-0.186035,0.122979,17,0.084887,0.189383,18,0.045728,0.054796,19,0.048668,0.008118,20,0.000511,-0.033969,21,-0.026383,-0.066306,22,0.024021,0.042745
9,1,0.095413,-0.391938,2,-0.187838,0.239124,3,0.006782,-0.196751,4,-0.246587,-0.026992,5,0.260510,-0.182187,6,-0.122493,0.047293,7,0.178188,-0.155591,8,-0.012921,-0.202536,9,0.210106,0.056261,10,0.178162,-0.202462,11,0.125549,0.188968,12,-0.046292,-0.029358,13,0.199660,0.059436,14,-0.059342,0.198355,15,0.150381,0.137935,16,-0.204946,0.092156,17,-0.117882,0.222032,18,-0.011123,-0.045907,19,-0.038825,-0.027838,20,-0.035013,-0.016324,21,-0.018911,0.062902,22,0.024333,0.045344
10,1,-0.208658,-0.267909,2,-0.111726,0.352337,3,0.044277,-0.200679,4,-0.206994,-0.126703,5,0.275631,0.132126,6,0.039559,0.186930,7,-0.076173,-0.246284,8,-0.103408,-0.191822,9,0.186162,0.068355,10,0.206740,-0.130088,11,-0.012553,0.247287,12,-0.016514,-0.047632,13,0.126404,-0.162609,14,0.015624,0.218003,15,0.147510,0.104306,16,-0.195448,0.031852,17,-0.199369,0.139470,18,-0.075330,-0.018485,19,-0.058540,0.064719,20,0.020905,0.002372,21,0.060479,0.023807,22,-0.001116,-0.025681
11,1,-0.304337,-0.080992,2,-0.000994,0.341530,3,0.074183,-0.192434,4,-0.131818,-0.203953,5,0.097270,0.262155,6,0.189375,0.056725,7,-0.259146,-0.134097,8,-0.213666,-0.169099,9,0.182858,0.065787,10,0.206480,-0.056125,11,-0.105378,0.210351,12,0.027748,-0.044959,13,-0.045490,-0.209628,14,0.133852,0.207719,15,0.187327,0.077208,16,-0.192159,-0.016385,17,-0.245632,0.034180,18,-0.053258,0.043627,19,0.044254,0.066672,20,0.043152,-0.051505,21,0.024762,-0.033738,22,0.001574,0.009170
12,1,-0.232909,0.131131,2,0.052993,0.301528,3,0.073385,-0.215609,4,0.077605,-0.204008,5,-0.161978,0.156232,6,0.020712,-0.336984,7,-0.219009,0.193314,8,-0.220368,0.009092,9,0.253069,0.080890,10,0.242230,0.027346,11,-0.202955,0.019655,12,0.045712,0.033742,13,-0.210359,0.098386,14,0.238574,-0.078107,15,0.168670,-0.033014,16,-0.230898,0.008559,17,-0.202442,-0.046130,18,0.077061,0.018920,19,0.037328,-0.077127,20,-0.038235,0.005979,21,-0.045299,0.010746,22,0.000886,0.039969
13,1,-0.218244,0.064518,2,0.039960,0.255694,3,0.179485,-0.138684,4,0.209024,-0.106850,5,-0.234136,-0.054253,6,-0.402439,-0.185751,7,0.030862,0.241137,8,-0.181433,0.061730,9,0.224523,0.026672,10,0.144222,0.067401,11,-0.148090,-0.108668,12,-0.027452,0.060885,13,0.054042,0.257228,14,0.024036,-0.255412,15,0.121832,-0.143181,16,-0.189777,0.147571,17,-0.207525,0.004139,18,0.007219,-0.083807,19,-0.105219,-0.021967,20,-0.020956,0.000461,21,0.086282,0.104508,22,0.032973,0.017775
14,1,-0.112124,0.028678,2,-0.078490,0.116948,3,0.121512,0.034007,4,0.090688,0.079398,5,0.056989,-0.165672,6,-0.539174,0.209399,7,0.040389,0.232188,8,-0.226083,0.066022,9,0.209936,0.094487,10,0.100352,0.174128,11,-0.075635,-0.226604,12,-0.026460,0.003534,13,0.236351,0.142798,14,-0.116194,-0.195044,15,0.070862,-0.189712,16,-0.143311,0.170323,17,-0.168812,-0.070795,18,-0.067670,-0.024086,19,-0.041167,0.106536,20,-0.055983,0.086387,21,0.099491,-0.085808,22,0.057480,-0.087438
15,1,-0.069954,-0.014331,2,-0.100519,0.090999,3,0.082250,0.024181,4,0.045586,0.108357,5,-0.026033,-0.102452,6,-0.395811,0.433827,7,0.103113,0.255734,8,-0.168999,0.159296,9,0.200019,0.040174,10,0.187616,0.105097,11,-0.065386,-0.145422,12,0.018964,0.008309,13,0.262069,-0.086113,14,-0.191669,-0.081583,15,-0.115622,-0.175328,16,-0.007769,0.202189,17,-0.210571,0.122341,18,-0.054138,0.016912,19,0.142007,0.007456,20,0.146069,0.051354,21,-0.060983,-0.104728,22,-0.141061,-0.098856
16,1,-0.053107,-0.069078,2,-0.046238,-0.004859,3,0.050411,0.072011,4,-0.015270,0.036324,5,0.092592,-0.008018,6,-0.359075,0.430957,7,0.119093,0.265214,8,-0.181649,0.140159,9,0.225846,-0.018760,10,0.178757,0.109047,11,-0.161615,-0.192404,12,0.040005,-0.023298,13,0.203067,-0.151631,14,-0.226966,0.010448,15,-0.147612,-0.115024,16,0.117634,0.214040,17,-0.113122,0.174185,18,-0.026828,0.109992,19,0.083372,-0.081562,20,0.124983,-0.122738,21,-0.098817,-0.077198,22,-0.137501,0.120939
17,1,-0.005738,-0.089249,2,-0.056320,-0.007545,3,-0.005428,0.079678,4,0.005207,0.051799,5,0.078583,0.016943,6,-0.414114,0.330558,7,0.037573,0.301762,8,-0.215727,0.087964,9,0.220773,0.061865,10,0.153248,0.139468,11,-0.082341,-0.228671,12,0.042127,-0.015668,13,0.213202,-0.137454,14,-0.246539,-0.003909,15,-0.133509,-0.119593,16,0.105034,0.222751,17,-0.121268,0.188972,18,0.008162,0.125473,19,0.085361,-0.077978,20,0.107214,-0.152948,21,-0.133479,-0.086368,22,-0.086947,0.154532
18,1,-0.003026,0.000798,2,-0.041071,-0.063800,3,-0.016949,-0.013339,4,-0.030213,-0.016422,5,0.054597,-0.017074,6,-0.410343,0.020019,7,-0.151087,0.242024,8,-0.236965,0.026661,9,0.183235,0.152309,10,0.146153,0.145878,11,-0.132449,-0.252710,12,-0.003138,-0.043197,13,0.243422,-0.147563,14,-0.236765,0.012497,15,-0.198213,-0.086240,16,0.155245,0.145083,17,0.024070,0.233943,18,0.052170,0.136847,19,0.089464,-0.153015,20,-0.055625,-0.225258,21,-0.252440,0.119116,22,0.043128,0.169309
19,1,0.025737,-0.009766,2,0.025291,-0.013657,3,-0.035790,0.000994,4,-0.007637,0.000373,5,-0.028209,-0.018527,6,-0.203235,-0.213325,7,-0.236913,0.119993,8,-0.224765,-0.021768,9,0.191398,0.069546,10,0.180586,0.086776,11,-0.282742,-0.031272,12,-0.038089,0.018083,13,0.247478,-0.073148,14,-0.228617,0.065746,15,-0.167027,0.003688,16,0.250347,-0.018121,17,0.179955,0.007977,18,0.149113,0.228225,19,-0.015558,-0.198775,20,-0.241971,-0.183340,21,0.093631,0.324146,22,0.235611,-0.034074
20,1,-0.004892,0.023393,2,0.034322,0.013650,3,0.013444,0.004286,4,-0.012550,0.009185,5,0.003611,-0.019177,6,0.080774,-0.094607,7,-0.198605,-0.111455,8,-0.168735,-0.159773,9,0.228525,0.112640,10,0.167753,-0.044966,11,-0.128372,0.210437,12,0.011961,0.013697,13,0.190484,0.078731,14,-0.213017,-0.007422,15,-0.156985,0.116557,16,0.084753,-0.175640,17,0.021227,-0.194646,18,0.091371,0.239721,19,-0.052001,-0.313399,20,-0.390856,0.087420,21,0.359734,0.031504,22,-0.154560,-0.189162
21,1,-0.012591,0.011581,2,0.024354,0.002283,3,0.014245,0.006079,4,-0.002664,0.013190,5,0.016718,-0.036651,6,0.094814,-0.034534,7,-0.104165,-0.194450,8,-0.156081,-0.197232,9,0.230228,0.074752,10,0.140845,-0.078471,11,0.003050,0.266252,12,0.010445,-0.005457,13,0.117682,0.144643,14,-0.228263,-0.003482,15,-0.114104,0.141596,16,0.016022,-0.193151,17,-0.124421,-0.194814,18,-0.035765,0.269531,19,-0.050323,-0.342534,20,-0.341135,0.143719,21,0.321678,-0.131994,22,-0.236959,-0.022710
22,1,-0.035486,0.022720,2,-0.017810,-0.012759,3,0.012740,0.002472,4,-0.014031,-0.014505,5,0.001725,-0.011778,6,0.027631,0.063003,7,0.126122,-0.290004,8,-0.085495,-0.208524,9,0.172941,0.013676,10,0.031384,-0.179196,11,0.238832,-0.006480,12,-0.039033,-0.039922,13,-0.003059,0.248536,14,-0.236123,-0.017980,15,-0.083674,0.138369,16,-0.141882,-0.154516,17,-0.179401,0.143240,18,-0.330228,0.156832,19,0.026331,-0.283446,20,-0.242402,0.218542,21,0.098825,-0.303008,22,-0.087624,0.216632
23,1,-0.015234,0.019997,2,0.002728,-0.033705,3,0.039748,0.017790,4,0.004707,-0.024024,5,0.037212,0.067558,6,-0.075429,0.002652,7,0.249492,0.079389,8,0.094914,-0.145062,9,0.164673,0.052887,10,-0.072749,-0.204218,11,0.122610,-0.190023,12,-0.043360,0.038180,13,-0.196054,0.019379,14,-0.079217,-0.187729,15,-0.133453,0.093044,16,-0.186052,-0.042587,17,0.016477,0.211787,18,-0.244254,-0.340616,19,0.214116,-0.207022,20,-0.324034,0.144944,21,0.080847,-0.264921,22,0.122745,0.289076
24,1,-0.011340,0.002986,2,-0.008100,0.067305,3,-0.008008,0.002051,4,0.015344,0.010544,5,0.061731,-0.082805,6,0.032558,-0.165813,7,0.220410,0.126253,8,0.062046,-0.256084,9,0.226833,-0.081013,10,-0.278932,-0.019100,11,-0.269514,-0.113887,12,0.029626,0.041634,13,-0.236746,-0.047963,14,-0.164682,-0.199310,15,-0.017471,0.211439,16,-0.162325,0.187465,17,0.254680,-0.047526,18,0.058952,-0.332151,19,0.235774,-0.055162,20,-0.172216,0.093921,21,-0.087012,-0.214050,22,0.184705,-0.006621
25,1,-0.048591,-0.130272,2,0.011109,-0.030653,3,-0.048385,0.039320,4,-0.010369,-0.005978,5,-0.061889,-0.072071,6,0.075621,-0.012262,7,0.246700,0.254073,8,0.101769,-0.229442,9,0.188003,-0.171525,10,-0.237493,0.152957,11,-0.230967,0.146034,12,0.142494,0.001161,13,-0.206049,-0.130565,14,-0.061066,-0.254724,15,0.017260,0.200236,16,-0.074193,0.252422,17,0.148658,-0.176419,18,0.234792,-0.069727,19,0.159445,0.022898,20,-0.202763,0.039915,21,-0.122584,-0.106794,22,0.174854,-0.236904
26,1,0.020180,0.012610,2,0.024341,-0.055343,3,0.019143,0.015425,4,-0.025341,-0.040802,5,-0.086695,0.027415,6,-0.083967,-0.026119,7,0.129248,0.271229,8,-0.027511,-0.239460,9,0.110545,-0.284273,10,-0.060473,0.288441,11,0.022662,0.265168,12,0.197439,-0.128094,13,-0.110520,-0.221037,14,-0.057756,-0.213253,15,0.111640,0.221962,16,0.047795,0.234629,17,0.003731,-0.260452,18,0.151538,0.022879,19,0.152446,0.068727,20,-0.146214,0.024871,21,-0.254432,0.001995,22,0.054786,-0.290527
27,1,0.035469,0.022785,2,0.045765,0.046439,3,0.081290,0.009210,4,-0.050499,0.017776,5,-0.040522,0.034591,6,0.156842,-0.082174,7,-0.008739,0.234256,8,0.070892,-0.315485,9,0.042298,-0.270857,10,0.015522,0.283760,11,0.149657,0.164542,12,0.145037,-0.333915,13,0.069873,-0.164551,14,0.000700,-0.206696,15,0.031605,0.197059,16,0.103567,0.226025,17,-0.050937,-0.241652,18,0.062473,0.140126,19,0.018758,0.109102,20,-0.146527,0.027222,21,-0.263614,-0.097818,22,0.046683,-0.276102
28,1,-0.065046,-0.088589,2,-0.034364,-0.125051,3,0.003006,-0.068785,4,0.026093,0.070501,5,0.132236,0.008572,6,0.107046,0.098395,7,0.020367,0.253861,8,-0.012190,-0.211069,9,-0.107746,-0.226622,10,0.194129,0.052870,11,0.183496,-0.046227,12,-0.310258,-0.531228,13,0.150653,-0.079595,14,0.150425,-0.159970,15,0.010122,0.220163,16,0.110221,0.146024,17,-0.126484,-0.120158,18,-0.138239,0.036135,19,-0.009897,0.124497,20,-0.098079,-0.062568,21,-0.095124,-0.149472,22,0.051778,-0.146227
29,1,0.050320,-0.031603,2,0.057858,0.076819,3,0.002244,0.081089,4,-0.002303,-0.041745,5,0.009572,-0.102546,6,-0.103176,0.102216,7,-0.286375,-0.084789,8,0.208937,0.184133,9,0.155803,0.214084,10,-0.162137,-0.253995,11,-0.210611,-0.155129,12,-0.102441,-0.405855,13,-0.118655,0.248805,14,-0.077151,0.245125,15,0.110621,-0.174093,16,0.110127,-0.227893,17,-0.157786,0.177180,18,0.064978,0.030340,19,0.091513,0.073083,20,-0.073271,0.006077,21,-0.136722,-0.145401,22,0.067081,-0.048700
30,1,-0.061997,-0.010779,2,0.007623,0.090895,3,-0.007651,-0.058795,4,-0.013130,-0.044499,5,-0.034766,0.080318,6,-0.597559,0.126431,7,0.159031,0.111331,8,0.171224,0.138670,9,-0.143666,-0.164705,10,-0.191099,-0.157004,11,0.251214,0.109938,12,-0.009920,-0.023275,13,0.152094,-0.191762,14,-0.091956,0.176262,15,-0.116920,0.215578,16,0.066101,-0.226956,17,0.171746,-0.192187,18,-0.083041,-0.029521,19,0.146933,0.015562,20,0.035036,0.026408,21,-0.105617,-0.023462,22,0.042220,0.058572
31,1,-0.025863,-0.081149,2,0.109869,0.001974,3,0.021204,0.040395,4,-0.000905,-0.076088,5,0.002318,-0.050469,6,0.157759,0.074990,7,0.037758,0.326530,8,0.221358,-0.158548,9,0.268359,0.072018,10,-0.276715,-0.161425,11,-0.129627,-0.194624,12,0.205050,-0.212246,13,0.311374,0.152110,14,0.178403,0.180240,15,-0.004489,-0.271279,16,0.061624,-0.277662,17,-0.226014,0.134145,18,-0.006630,-0.047285,19,0.074511,0.034085,20,-0.064490,0.015472,21,-0.031163,-0.060707,22,0.098759,0.012333
32,1,-0.056634,0.012079,2,0.021400,-0.088279,3,0.048688,0.052584,4,-0.037614,-0.064611,5,0.071455,-0.023884,6,0.015058,-0.237466,7,0.328167,-0.146203,8,-0.112907,-0.240787,9,0.259222,-0.228633,10,-0.233216,-0.087553,11,-0.165202,-0.267805,12,0.183980,0.054761,13,0.019775,-0.333494,14,0.226846,-0.025950,15,-0.180652,-0.184164,16,0.090088,-0.266313,17,-0.281475,0.029963,18,-0.065821,0.001620,19,0.031740,-0.023223,20,0.034048,0.012877,21,-0.038954,-0.003963,22,-0.000962,-0.000134
33,1,0.089292,-0.095466,2,-0.111407,0.089427,3,-0.021513,-0.070982,4,-0.092612,0.079711,5,0.027748,-0.162317,6,-0.150179,0.287545,7,-0.248829,-0.141112,8,-0.232001,0.098159,9,-0.095461,-0.262160,10,-0.224621,0.086993,11,-0.159020,-0.243306,12,0.066311,0.086995,13,-0.248974,-0.077509,14,0.150315,-0.297763,15,-0.223768,-0.134428,16,0.112349,-0.264329,17,-0.202254,-0.164628,18,-0.046735,-0.002064,19,-0.056363,-0.050685,20,-0.080070,0.072743,21,-0.054764,-0.023119,22,0.104877,-0.007185
34,1,-0.008171,-0.050287,2,0.011104,0.062626,3,-0.022417,-0.002767,4,-0.024840,-0.005235,5,0.037611,-0.059759,6,0.076822,-0.494846,7,0.200966,0.193368,8,0.247810,0.157349,9,-0.247640,0.010178,10,-0.031583,0.210882,11,-0.301710,-0.099409,12,0.051774,0.030497,13,0.173823,-0.140576,14,-0.032009,0.286613,15,0.181304,0.161501,16,-0.216553,0.106642,17,-0.138827,0.239871,18,-0.049914,-0.095286,19,0.068710,-0.036974,20,-0.023023,-0.093471,21,0.026931,0.076327,22,0.016487,0.012206
35,1,-0.025958,-0.012803,2,-0.037298,0.014427,3,0.019909,-0.035703,4,-0.025608,-0.004286,5,0.041328,-0.012385,6,-0.330115,-0.391795,7,0.132852,0.149844,8,0.222869,0.144613,9,-0.316012,0.036772,10,-0.134651,0.223435,11,-0.172611,-0.218692,12,0.054875,-0.018874,13,0.127487,-0.216635,14,0.130756,0.215551,15,0.206331,0.042570,16,-0.182716,0.154169,17,-0.081364,0.221963,18,-0.135826,0.118927,19,-0.004332,-0.043311,20,-0.051012,-0.033874,21,0.126818,-0.037084,22,-0.144731,-0.095509
36,1,0.034328,-0.044756,2,0.040308,0.049976,3,-0.041595,0.006040,4,0.046231,0.012865,5,-0.030517,0.026710,6,0.195236,0.162980,7,-0.095950,0.381696,8,0.248056,0.096262,9,0.109905,0.298593,10,0.134936,-0.255342,11,0.248423,-0.142027,12,0.181732,0.115380,13,0.245591,0.016522,14,0.124653,0.168084,15,0.057345,-0.212172,16,0.199893,-0.124258,17,-0.236898,-0.126986,18,-0.032207,-0.104635,19,0.090695,-0.113679,20,-0.041305,0.138773,21,-0.150696,-0.085466,22,0.136535,-0.025610
37,1,0.092842,-0.015121,2,-0.103336,0.066598,3,-0.015313,-0.083425,4,-0.091033,0.016910,5,0.040676,-0.069055,6,-0.155661,0.281470,7,-0.254074,-0.138491,8,-0.233222,0.075077,9,-0.092493,-0.242730,10,-0.247596,0.096725,11,-0.192969,-0.243193,12,0.099036,0.081268,13,-0.311260,0.060190,14,0.028055,-0.326495,15,-0.236547,0.047562,16,-0.022645,-0.317612,17,-0.220454,-0.035886,18,-0.037437,-0.007916,19,-0.074955,-0.007521,20,0.027598,0.098121,21,-0.097215,0.062238,22,0.032023,-0.080255
38,1,0.009142,0.130804,2,-0.086903,-0.099520,3,0.056440,-0.046274,4,-0.091792,0.033051,5,-0.053971,-0.077650,6,0.064513,-0.191030,7,0.291666,-0.040452,8,-0.146714,-0.244358,9,0.215887,-0.230514,10,-0.260790,0.071274,11,-0.285898,-0.134550,12,0.193679,-0.104211,13,0.270180,-0.247616,14,0.223286,0.071225,15,-0.122256,-0.252739,16,0.090622,-0.213300,17,-0.271493,0.045084,18,0.039814,0.001881,19,0.069255,-0.007982,20,-0.065124,0.025966,21,-0.037223,-0.009986,22,0.000963,-0.039430
39,1,-0.027342,-0.051612,2,-0.001479,0.076341,3,-0.011334,-0.045960,4,-0.025868,-0.050860,5,0.051511,0.002321,6,-0.416412,-0.397918,7,0.180588,0.133758,8,0.248980,0.116659,9,-0.278082,-0.091087,10,-0.225512,0.101794,11,0.033685,-0.260590,12,-0.031901,0.043773,13,0.140142,-0.170170,14,-0.022418,0.231824,15,0.064299,0.237627,16,-0.180494,-0.114446,17,-0.232573,-0.089929,18,-0.054891,-0.075743,19,0.100639,-0.019968,20,-0.019051,-0.021378,21,-0.019867,0.100092,22,0.059858,0.023498
40,1,0.075336,-0.008823,2,-0.001929,-0.016469,3,0.005645,-0.012069,4,-0.029056,-0.065898,5,0.039613,-0.014577,6,-0.173328,0.331503,7,-0.292297,-0.096050,8,-0.275539,0.059861,9,-0.046148,-0.258550,10,-0.289626,0.064988,11,-0.151310,-0.250289,12,0.089545,0.078019,13,-0.217901,0.227263,14,-0.113999,-0.268934,15,-0.173256,0.134818,16,-0.153838,-0.255741,17,-0.256759,0.097089,18,0.076033,0.061058,19,-0.043285,0.034449,20,0.002144,0.050818,21,0.009618,0.034963,22,0.049048,-0.007059
