# Input file for Beam Configurations for an HPL.
#
# BeamId,[repeat the following 22 times]:PhaseCenterNumber,BeamWeight_real_part,BeamWeight_imag_part
# Each Beam ID should be a number from 1 to 40.
# Each Phase Center Number should be a whole number between 1 and 22.
# Each Beam Weight can have a floating point value.
# NOTE: Beam ID and Phase Center Number values are not used in parsing, and each row is parsed as if in numerical order
#       The Beam ID and Phase Center Number values are simply to assist in editing this input file.
1,1,-0.087911,0.058582,2,-0.094287,-0.011262,3,-0.030398,0.007033,4,0.048060,-0.053338,5,-0.005189,-0.150112,6,0.046551,0.059852,7,0.049719,0.174737,8,-0.153661,-0.121011,9,-0.246127,-0.047471,10,0.145989,-0.089568,11,0.059456,-0.169000,12,-0.505109,-0.534776,13,0.189841,-0.010471,14,0.145745,-0.136199,15,0.032580,0.158199,16,0.077936,0.174894,17,-0.158255,-0.086197,18,-0.046127,-0.013684,19,-0.090927,0.014188,20,-0.035709,-0.131913,21,0.071833,-0.027619,22,0.044778,0.013633
2,1,0.077134,0.158816,2,-0.035863,0.082804,3,-0.050545,0.074838,4,-0.024769,-0.131861,5,-0.146250,-0.034258,6,0.042650,0.071461,7,0.169119,0.114477,8,-0.273882,-0.003290,9,-0.157383,0.082205,10,0.103684,-0.149605,11,-0.007057,-0.233051,12,-0.462734,-0.498583,13,0.175435,-0.071015,14,0.073349,-0.180314,15,0.129872,0.205644,16,0.061424,0.130394,17,-0.124635,-0.133585,18,-0.042376,0.005627,19,-0.063112,0.008837,20,0.078232,-0.072543,21,0.027400,0.024291,22,-0.002977,-0.030624
3,1,0.142040,-0.105037,2,0.041107,0.076300,3,0.085933,0.167514,4,-0.186185,0.010431,5,-0.097203,0.013956,6,0.166011,-0.043644,7,0.220682,-0.128125,8,-0.107036,0.157864,9,-0.068393,0.148711,10,0.045837,-0.218925,11,-0.139213,-0.192530,12,-0.149563,-0.542738,13,0.082800,-0.275751,14,-0.154831,-0.228950,15,0.129469,0.153765,16,0.074148,0.198393,17,-0.146587,-0.148752,18,-0.010121,-0.037819,19,-0.049151,-0.045199,20,0.044056,0.023865,21,0.031574,-0.032161,22,0.033796,-0.020412
4,1,-0.040797,-0.140008,2,0.202503,0.091630,3,0.225609,-0.070429,4,-0.165809,0.011217,5,-0.258671,0.079583,6,0.008571,-0.193088,7,0.009464,-0.225516,8,-0.065076,0.212132,9,-0.073475,0.265336,10,0.001788,-0.158177,11,-0.027326,-0.274719,12,0.153140,-0.353569,13,0.005570,-0.312952,14,-0.025963,-0.157209,15,0.014256,0.268971,16,0.056230,0.232566,17,-0.003844,-0.214097,18,-0.062660,-0.004521,19,-0.042672,0.007395,20,0.029343,-0.007313,21,0.027661,0.034805,22,0.008216,0.042131
5,1,-0.090570,-0.120592,2,0.064092,-0.280092,3,0.151371,-0.023944,4,-0.206491,0.197839,5,-0.184499,0.076722,6,-0.227305,0.102270,7,-0.186909,-0.046116,8,0.156641,0.348363,9,0.105431,0.117996,10,0.037222,-0.302467,11,-0.023438,-0.207804,12,0.214557,-0.136861,13,-0.221963,-0.114678,14,-0.118853,-0.215665,15,0.180847,0.117838,16,-0.071445,0.236649,17,0.023732,-0.189455,18,-0.012771,0.062242,19,-0.019060,0.013414,20,-0.028567,-0.041474,21,0.027381,0.050290,22,-0.020195,-0.000008
6,1,-0.256051,0.191959,2,0.035916,-0.138411,3,0.123390,-0.200064,4,-0.228030,0.106734,5,-0.292285,-0.010032,6,-0.001157,0.073427,7,-0.261750,-0.057783,8,0.188524,0.111215,9,0.029583,0.263161,10,0.136698,-0.191713,11,0.182960,-0.153893,12,0.088337,0.104048,13,-0.229629,-0.194273,14,-0.160498,-0.155287,15,-0.010342,0.306495,16,-0.188342,0.120054,17,0.221277,-0.003575,18,0.010191,-0.062237,19,-0.002491,-0.050914,20,0.021611,0.010583,21,-0.065024,-0.000183,22,-0.038121,-0.019256
7,1,0.169207,0.100600,2,-0.195326,-0.080615,3,0.027241,-0.162343,4,-0.140340,0.129864,5,-0.230079,-0.191884,6,0.034979,-0.014523,7,0.134189,0.317326,8,0.299491,-0.137355,9,0.176961,0.083939,10,0.025664,-0.296505,11,0.201988,-0.067653,12,-0.005569,0.060081,13,-0.126139,0.347870,14,-0.212790,-0.024794,15,0.197738,0.178250,16,-0.158943,0.169965,17,0.198086,0.061891,18,-0.042139,0.029922,19,-0.007637,0.029107,20,0.021580,0.022801,21,-0.008331,0.030660,22,0.032482,-0.031556
8,1,0.225107,-0.078184,2,-0.141149,0.054112,3,-0.049723,-0.202819,4,-0.206452,0.035927,5,-0.003165,-0.263130,6,0.020293,-0.095886,7,0.228610,0.019060,8,0.044186,-0.332234,9,0.269929,0.150893,10,0.145604,-0.216463,11,0.262855,0.080670,12,-0.045089,0.025501,13,0.195470,0.198536,14,-0.166502,0.232671,15,0.179186,0.214901,16,-0.225146,0.050853,17,0.051411,0.205403,18,0.056255,0.033916,19,0.043011,-0.010562,20,-0.001082,-0.026247,21,-0.017885,-0.049083,22,0.025714,0.028628
9,1,0.080336,-0.330004,2,-0.182167,0.117572,3,-0.011277,-0.182303,4,-0.211172,-0.040349,5,0.223871,-0.138826,6,-0.123326,0.016919,7,0.228841,-0.141327,8,-0.057360,-0.229167,9,0.239433,0.035350,10,0.235174,-0.181177,11,0.106297,0.249015,12,-0.037974,-0.046410,13,0.236477,0.033448,14,-0.026892,0.243981,15,0.216890,0.135592,16,-0.241239,0.014638,17,-0.164287,0.209853,18,-0.024398,-0.038021,19,-0.043525,-0.009549,20,-0.028825,-0.011514,21,-0.015780,0.047407,22,0.027431,0.031762
10,1,-0.176414,-0.226509,2,-0.157804,0.212447,3,0.023095,-0.190058,4,-0.170785,-0.124271,5,0.222931,0.122427,6,-0.004286,0.181840,7,-0.039730,-0.291631,8,-0.159365,-0.198704,9,0.215401,0.051991,10,0.251830,-0.097360,11,-0.068711,0.288655,12,-0.000768,-0.055372,13,0.116154,-0.206707,14,0.064993,0.251943,15,0.206511,0.095197,16,-0.209584,-0.042575,17,-0.234974,0.108990,18,-0.074174,0.006857,19,-0.026426,0.077345,20,0.016948,0.000963,21,0.045644,0.019529,22,-0.005478,-0.020325
11,1,-0.252332,-0.067152,2,-0.078774,0.226490,3,0.050568,-0.181510,4,-0.098274,-0.182475,5,0.067446,0.217968,6,0.159867,0.092203,7,-0.261632,-0.195640,8,-0.275886,-0.146424,9,0.207315,0.048606,10,0.231326,-0.016841,11,-0.166750,0.220542,12,0.043603,-0.036576,13,-0.085879,-0.226430,14,0.197348,0.210426,15,0.244735,0.051499,16,-0.184182,-0.088296,17,-0.258720,-0.009801,18,-0.033982,0.055220,19,0.061531,0.040201,20,0.031798,-0.042606,21,0.019280,-0.024718,22,0.002840,0.006912
12,1,-0.191728,0.107945,2,-0.033544,0.210765,3,0.047466,-0.201065,4,0.079323,-0.167076,5,-0.138010,0.119136,6,0.090530,-0.299546,7,-0.275366,0.172106,8,-0.244799,0.055458,9,0.283596,0.055812,10,0.250227,0.078817,11,-0.237023,-0.020536,12,0.035063,0.049630,13,-0.216829,0.144020,14,0.255726,-0.138811,15,0.195851,-0.077505,16,-0.230247,-0.077559,17,-0.198208,-0.083841,18,0.073882,-0.006820,19,0.003489,-0.078060,20,-0.029724,0.006377,21,-0.033908,0.007002,22,0.007638,0.030947
13,1,-0.181173,0.053559,2,-0.031994,0.179097,3,0.151232,-0.142049,4,0.185319,-0.076782,5,-0.188549,-0.054812,6,-0.326131,-0.255493,7,-0.010153,0.272330,8,-0.192009,0.107276,9,0.248052,0.000790,10,0.139615,0.101776,11,-0.148074,-0.157433,12,-0.048755,0.053027,13,0.103522,0.278486,14,-0.026082,-0.298728,15,0.115742,-0.201459,16,-0.243613,0.075083,17,-0.214320,-0.033749,18,-0.019384,-0.076913,19,-0.096872,0.019663,20,-0.016554,0.001298,21,0.062388,0.080240,22,0.028991,0.008167
14,1,-0.090763,0.023214,2,-0.076985,0.058268,3,0.110800,0.019779,4,0.070054,0.071968,5,0.052615,-0.129279,6,-0.522148,0.072692,7,0.001976,0.257611,8,-0.235513,0.118353,9,0.234707,0.074630,10,0.068939,0.201210,11,-0.038025,-0.271446,12,-0.027585,-0.005222,13,0.280969,0.117028,14,-0.170277,-0.194852,15,0.042236,-0.240370,16,-0.200949,0.112230,17,-0.156758,-0.101190,18,-0.066044,-0.000604,19,0.003824,0.102348,20,-0.039426,0.069058,21,0.074566,-0.060597,22,0.029033,-0.076733
15,1,-0.056900,-0.011657,2,-0.085880,0.036708,3,0.075460,0.014489,4,0.030817,0.093476,5,-0.016282,-0.083038,6,-0.444172,0.303271,7,0.065713,0.295653,8,-0.154574,0.210497,9,0.218547,0.018216,10,0.174411,0.147906,11,-0.043620,-0.178572,12,0.016263,0.014637,13,0.272902,-0.137356,14,-0.232747,-0.052413,15,-0.176406,-0.183190,16,-0.081939,0.193604,17,-0.234279,0.085573,18,-0.042171,0.031109,19,0.120206,-0.044373,20,0.115440,0.033425,21,-0.042542,-0.078239,22,-0.125441,-0.051774
16,1,-0.042690,-0.055529,2,-0.028682,-0.013380,3,0.050576,0.059200,4,-0.014990,0.028954,5,0.073490,-0.002291,6,-0.406013,0.304840,7,0.080369,0.305183,8,-0.170431,0.189651,9,0.236055,-0.047342,10,0.162436,0.148464,11,-0.141179,-0.249067,12,0.047314,-0.009961,13,0.195204,-0.197092,14,-0.250578,0.057857,15,-0.198809,-0.103101,16,0.035135,0.248315,17,-0.143620,0.153516,18,0.009659,0.102927,19,0.039516,-0.096052,20,0.090431,-0.099394,21,-0.070094,-0.058141,22,-0.083949,0.115243
17,1,-0.004607,-0.071654,2,-0.034531,-0.017323,3,0.001993,0.070624,4,0.000879,0.043015,5,0.061258,0.016793,6,-0.433047,0.204689,7,-0.013409,0.329411,8,-0.217880,0.139262,9,0.240234,0.038315,10,0.129837,0.174490,11,-0.044790,-0.272923,12,0.046854,-0.001697,13,0.208215,-0.183162,14,-0.274950,0.045801,15,-0.182983,-0.111417,16,0.019843,0.251783,17,-0.154167,0.166598,18,0.044418,0.105716,19,0.042350,-0.093702,20,0.075425,-0.121613,21,-0.094942,-0.065453,22,-0.039781,0.132020
18,1,-0.002428,0.000640,2,-0.012264,-0.050080,3,-0.016050,-0.010300,4,-0.023795,-0.015510,5,0.043795,-0.011084,6,-0.364960,-0.067681,7,-0.204464,0.231891,8,-0.253216,0.076554,9,0.211572,0.138143,10,0.121174,0.179571,11,-0.095829,-0.310032,12,0.011056,-0.043779,13,0.239120,-0.198883,14,-0.260605,0.062023,15,-0.251612,-0.058077,16,0.096155,0.195423,17,-0.017473,0.236973,18,0.085692,0.102353,19,0.019331,-0.156371,20,-0.052223,-0.169823,21,-0.185455,0.080960,22,0.061408,0.121113
19,1,0.021204,-0.008046,2,0.019787,-0.003261,3,-0.032255,0.004020,4,-0.006481,-0.000201,5,-0.022009,-0.016261,6,-0.137951,-0.235948,7,-0.281882,0.088516,8,-0.256275,0.021836,9,0.215710,0.051297,10,0.173006,0.128992,11,-0.318015,-0.095984,12,-0.044789,0.005555,13,0.262388,-0.122316,14,-0.247157,0.122744,15,-0.200597,0.041838,16,0.253144,0.075461,17,0.182342,0.040857,18,0.201665,0.156272,19,-0.084706,-0.161055,20,-0.198040,-0.133221,21,0.062600,0.243206,22,0.177560,-0.067535
20,1,-0.004133,0.019763,2,0.020035,0.017232,3,0.012841,0.002769,4,-0.011516,0.007093,5,0.003878,-0.015755,6,0.095477,-0.069906,7,-0.202688,-0.162552,8,-0.227534,-0.147962,9,0.267902,0.095640,10,0.191369,-0.013257,11,-0.197005,0.219815,12,0.007735,0.018401,13,0.230132,0.057078,14,-0.250853,0.036910,15,-0.167374,0.180171,16,0.152658,-0.144876,17,0.058511,-0.199899,18,0.158029,0.188779,19,-0.160571,-0.250233,20,-0.310653,0.088081,21,0.273751,0.032072,22,-0.157185,-0.123485
21,1,-0.010562,0.009716,2,0.015829,0.007170,3,0.013647,0.004328,4,-0.003200,0.011171,5,0.015452,-0.029452,6,0.094658,-0.011143,7,-0.080322,-0.236633,8,-0.219343,-0.192300,9,0.263071,0.053025,10,0.168097,-0.054883,11,-0.054038,0.311960,12,0.012677,-0.002067,13,0.157436,0.143464,14,-0.265966,0.044469,15,-0.107836,0.199877,16,0.089350,-0.187486,17,-0.093335,-0.225625,18,0.051698,0.253877,19,-0.168705,-0.273963,20,-0.266194,0.130223,21,0.246623,-0.092859,22,-0.191929,0.023977
22,1,-0.029374,0.018807,2,-0.008890,-0.012523,3,0.011783,0.001128,4,-0.010932,-0.013273,5,0.001932,-0.009503,6,0.011554,0.063069,7,0.192175,-0.296687,8,-0.139315,-0.217040,9,0.189653,-0.006857,10,0.070478,-0.183828,11,0.276916,0.043509,12,-0.026349,-0.053956,13,0.038125,0.277540,14,-0.274486,0.028904,15,-0.070260,0.186469,16,-0.082444,-0.205915,17,-0.210249,0.114221,18,-0.245282,0.240808,19,-0.080487,-0.248314,20,-0.181469,0.183119,21,0.080505,-0.224339,22,-0.030687,0.184824
23,1,-0.012921,0.016961,2,0.009739,-0.022250,3,0.038574,0.012980,4,0.005768,-0.020580,5,0.027902,0.058020,6,-0.070684,-0.014105,7,0.266995,0.136508,8,0.078753,-0.187394,9,0.190167,0.037699,10,-0.035802,-0.237707,11,0.186502,-0.197806,12,-0.058587,0.024914,13,-0.220597,0.055704,14,-0.133401,-0.203514,15,-0.144236,0.146266,16,-0.172171,-0.114528,17,-0.022306,0.225762,18,-0.329615,-0.233271,19,0.107983,-0.258163,20,-0.255257,0.131872,21,0.067865,-0.201099,22,0.150195,0.209774
24,1,-0.008997,0.002369,2,-0.019875,0.040980,3,-0.006796,0.002458,4,0.011804,0.009582,5,0.051694,-0.061895,6,0.062375,-0.137455,7,0.210785,0.172114,8,0.016221,-0.288547,9,0.226506,-0.111682,10,-0.280162,-0.074858,11,-0.274707,-0.181071,12,0.015495,0.050341,13,-0.260604,-0.013319,14,-0.221024,-0.185913,15,0.025289,0.249302,16,-0.221118,0.119417,17,0.258796,-0.002164,18,-0.047578,-0.300258,19,0.171214,-0.126390,20,-0.126180,0.078323,21,-0.057849,-0.155182,22,0.137408,-0.035916
25,1,-0.038315,-0.102723,2,0.013681,-0.016936,3,-0.038564,0.038046,4,-0.008003,-0.005507,5,-0.044868,-0.058494,6,0.067843,0.004850,7,0.214820,0.309916,8,0.063958,-0.266041,9,0.174101,-0.200054,10,-0.270500,0.107870,11,-0.283528,0.113521,12,0.138205,0.047032,13,-0.239571,-0.105833,14,-0.117581,-0.266001,15,0.062822,0.227413,16,-0.159921,0.211312,17,0.176005,-0.146589,18,0.178356,-0.127731,19,0.135852,-0.036641,20,-0.150644,0.038564,21,-0.085064,-0.078602,22,0.090876,-0.205702
26,1,0.015885,0.009926,2,0.027357,-0.029593,3,0.017812,0.011722,4,-0.017833,-0.034590,5,-0.068229,0.017499,6,-0.067097,-0.039646,7,0.088298,0.306907,8,-0.076494,-0.250893,9,0.080286,-0.306961,10,-0.117933,0.279413,11,-0.028968,0.295503,12,0.232866,-0.060865,13,-0.152271,-0.216723,14,-0.105495,-0.220979,15,0.176097,0.231858,16,-0.038597,0.237641,17,0.048871,-0.253496,18,0.134739,-0.024931,19,0.145792,0.002547,20,-0.108604,0.024826,21,-0.180899,-0.003877,22,-0.007537,-0.225276
27,1,0.028178,0.018101,2,0.018932,0.039567,3,0.071607,0.001187,4,-0.042323,0.011200,5,-0.033126,0.025256,6,0.153440,-0.039260,7,-0.050417,0.246377,8,0.014020,-0.354861,9,0.011469,-0.287592,10,-0.040627,0.292352,11,0.131993,0.212848,12,0.250482,-0.280103,13,0.048356,-0.187239,14,-0.040832,-0.227579,15,0.079288,0.222326,16,0.017067,0.251723,17,-0.007810,-0.246916,18,0.094593,0.101093,19,0.053094,0.081688,20,-0.109749,0.026849,21,-0.187069,-0.075715,22,-0.011271,-0.215175
28,1,-0.050803,-0.069190,2,0.005453,-0.085602,3,-0.003113,-0.059173,4,0.016394,0.058171,5,0.101126,0.012188,6,0.071708,0.105863,7,-0.022670,0.267646,8,-0.054095,-0.221784,9,-0.137332,-0.219603,10,0.184215,0.090953,11,0.209055,-0.013359,12,-0.129363,-0.610718,13,0.145894,-0.107468,14,0.131073,-0.202819,15,0.058293,0.249547,16,0.051250,0.175183,17,-0.101759,-0.138134,18,-0.105439,0.070366,19,0.034683,0.102340,20,-0.075607,-0.042451,21,-0.064006,-0.107390,22,0.014105,-0.116499
29,1,0.038525,-0.024196,2,0.019242,0.059308,3,0.008457,0.067911,4,0.000812,-0.032938,5,0.011465,-0.076751,6,-0.106826,0.065292,7,-0.277713,-0.134978,8,0.252705,0.151764,9,0.181468,0.197083,10,-0.110589,-0.280612,11,-0.194104,-0.207117,12,0.030211,-0.415276,13,-0.083870,0.274849,14,-0.034266,0.274903,15,0.087752,-0.218110,16,0.179645,-0.170293,17,-0.179683,0.141510,18,0.062028,0.006476,19,0.095788,0.026285,20,-0.053198,0.007442,21,-0.091585,-0.103297,22,0.040672,-0.046092
30,1,-0.049467,-0.008601,2,-0.015137,0.059745,3,-0.011663,-0.050809,4,-0.007838,-0.037291,5,-0.030739,0.061468,6,-0.548578,-0.012953,7,0.149386,0.146406,8,0.213391,0.116350,9,-0.170431,-0.155139,10,-0.164286,-0.198930,11,0.256743,0.173952,12,-0.002175,-0.026138,13,0.132525,-0.230538,14,-0.065994,0.213386,15,-0.089817,0.277125,16,0.144919,-0.192472,17,0.203711,-0.159865,18,-0.079874,-0.000699,19,0.124747,-0.038666,20,0.027765,0.018576,21,-0.075608,-0.019134,22,0.041715,0.037062
31,1,-0.019524,-0.061261,2,0.065996,0.024073,3,0.020786,0.031753,4,0.004010,-0.058995,5,0.003789,-0.037344,6,0.115836,0.092879,7,-0.016558,0.334682,8,0.197351,-0.204464,9,0.274214,0.040639,10,-0.237535,-0.208681,11,-0.098496,-0.230011,12,0.256376,-0.134378,13,0.339715,0.107171,14,0.221015,0.154341,15,-0.060605,-0.298842,16,0.150389,-0.229360,17,-0.233856,0.087895,18,-0.018620,-0.036465,19,0.068505,0.001573,20,-0.045759,0.013740,21,-0.020033,-0.042008,22,0.072441,-0.006946
32,1,-0.042583,0.009082,2,0.031193,-0.048706,3,0.044339,0.039490,4,-0.025035,-0.052167,5,0.053770,-0.014729,6,0.058652,-0.192714,7,0.353019,-0.091858,8,-0.160629,-0.224992,9,0.229800,-0.255258,10,-0.208525,-0.128383,11,-0.121191,-0.312679,12,0.153792,0.107297,13,-0.030604,-0.340662,14,0.231302,-0.070238,15,-0.236445,-0.165780,16,0.171494,-0.208567,17,-0.267333,-0.018765,18,-0.052679,0.019674,19,0.016647,-0.028213,20,0.024911,0.007852,21,-0.026371,-0.003465,22,-0.000705,0.000057
33,1,0.068822,-0.073581,2,-0.087762,0.031498,3,-0.023980,-0.058250,4,-0.078281,0.057185,5,0.027810,-0.121775,6,-0.184237,0.212867,7,-0.231424,-0.187311,8,-0.224262,0.147510,9,-0.127249,-0.254107,10,-0.238941,0.042684,11,-0.122460,-0.292972,12,0.035643,0.103577,13,-0.270466,-0.041702,14,0.102323,-0.347228,15,-0.280601,-0.104797,16,0.195599,-0.204209,17,-0.165253,-0.191690,18,-0.039262,0.011660,19,-0.061305,-0.020747,20,-0.055792,0.056729,21,-0.037646,-0.017208,22,0.075241,-0.022308
34,1,-0.006320,-0.038895,2,-0.006486,0.041152,3,-0.019244,-0.000512,4,-0.019382,-0.005731,5,0.031097,-0.043840,6,0.164242,-0.404004,7,0.173982,0.233624,8,0.291008,0.117645,9,-0.250267,0.039395,10,-0.072190,0.203180,11,-0.305413,-0.167346,12,0.039753,0.045452,13,0.159090,-0.173558,14,0.021873,0.313322,15,0.239203,0.144740,16,-0.237401,0.022771,17,-0.174045,0.206306,18,-0.068797,-0.064795,19,0.041571,-0.052360,20,-0.020845,-0.067927,21,0.017250,0.053864,22,0.014048,0.006231
35,1,-0.020422,-0.010072,2,-0.026624,0.000993,3,0.014205,-0.032466,4,-0.020395,-0.005112,5,0.032479,-0.007809,6,-0.204742,-0.405014,7,0.113154,0.180160,8,0.266814,0.110935,9,-0.321998,0.075698,10,-0.179947,0.199030,11,-0.144892,-0.274812,12,0.059312,-0.000677,13,0.100649,-0.249750,14,0.185443,0.208816,15,0.246700,0.004916,16,-0.226582,0.079870,17,-0.117878,0.202351,18,-0.079998,0.140100,19,-0.018379,-0.033186,20,-0.039666,-0.023238,21,0.090870,-0.023708,22,-0.123502,-0.046978
36,1,0.026418,-0.034443,2,0.014227,0.039351,3,-0.034618,0.008487,4,0.035695,0.013077,5,-0.024195,0.018924,6,0.132151,0.176353,7,-0.163347,0.374976,8,0.278072,0.053083,9,0.145904,0.288846,10,0.182458,-0.226148,11,0.294644,-0.103032,12,0.136217,0.166651,13,0.257075,-0.021037,14,0.165644,0.154861,15,0.020232,-0.250995,16,0.227026,-0.044652,17,-0.204446,-0.161370,18,-0.056492,-0.077251,19,0.032750,-0.119577,20,-0.024558,0.103459,21,-0.102991,-0.062464,22,0.095161,-0.040824
37,1,0.070972,-0.011559,2,-0.077290,0.018970,3,-0.019591,-0.068708,4,-0.072464,0.007556,5,0.033422,-0.050184,6,-0.186116,0.204949,7,-0.235314,-0.183995,8,-0.228099,0.122542,9,-0.120975,-0.232872,10,-0.261383,0.047482,11,-0.157649,-0.297146,12,0.067993,0.107550,13,-0.311116,0.109997,14,-0.033529,-0.351128,15,-0.254801,0.102350,16,0.089145,-0.297873,17,-0.202860,-0.071188,18,-0.032969,0.004123,19,-0.060828,0.019222,20,0.024124,0.070333,21,-0.068369,0.041000,22,0.010182,-0.063163
38,1,0.006897,0.098690,2,-0.031783,-0.078204,3,0.043009,-0.042802,4,-0.073107,0.019907,5,-0.036833,-0.059781,6,0.090665,-0.145322,7,0.299897,0.008022,8,-0.196537,-0.223062,9,0.187452,-0.253038,10,-0.265944,0.019731,11,-0.274454,-0.197116,12,0.212346,-0.037274,13,0.236778,-0.292727,14,0.246952,0.031749,15,-0.186826,-0.254053,16,0.154473,-0.161321,17,-0.261434,-0.003025,18,0.032775,-0.009624,19,0.050541,-0.028994,20,-0.045763,0.021302,21,-0.025163,-0.007546,22,-0.005597,-0.028275
39,1,-0.021524,-0.040629,2,-0.017510,0.047794,3,-0.013617,-0.038738,4,-0.017610,-0.042751,5,0.039747,0.003998,6,-0.278055,-0.428136,7,0.166082,0.171713,8,0.289433,0.075949,9,-0.298265,-0.060923,10,-0.247858,0.058370,11,0.089861,-0.279066,12,-0.045050,0.032239,13,0.121509,-0.202658,14,0.021792,0.257235,15,0.124914,0.260052,16,-0.128983,-0.171893,17,-0.211341,-0.128151,18,-0.068515,-0.047976,19,0.073747,-0.050664,20,-0.015192,-0.015229,21,-0.016207,0.070740,22,0.048448,0.007533
40,1,0.057303,-0.006711,2,0.002281,-0.010435,3,0.003737,-0.010524,4,-0.018567,-0.053244,5,0.030211,-0.009259,6,-0.209772,0.242150,7,-0.280014,-0.146507,8,-0.273621,0.114229,9,-0.075920,-0.252859,10,-0.295060,0.008264,11,-0.111308,-0.295018,12,0.059761,0.101017,13,-0.188286,0.266238,14,-0.171928,-0.261362,15,-0.165035,0.185909,16,-0.051795,-0.285310,17,-0.258399,0.048461,18,0.079323,0.028398,19,-0.022041,0.041074,20,0.003627,0.036741,21,0.005903,0.024210,22,0.034132,-0.012955
