# Input file for Beam Configurations for an HPL.
#
# BeamId,[repeat the following 22 times]:PhaseCenterNumber,BeamWeight_real_part,BeamWeight_imag_part
# Each Beam ID should be a number from 1 to 40.
# Each Phase Center Number should be a whole number between 1 and 22.
# Each Beam Weight can have a floating point value.
# NOTE: Beam ID and Phase Center Number values are not used in parsing, and each row is parsed as if in numerical order
#       The Beam ID and Phase Center Number values are simply to assist in editing this input file.
1,1,-0.098138,0.065397,2,-0.097921,-0.016312,3,-0.032038,0.005943,4,0.034389,-0.077092,5,-0.023692,-0.155952,6,0.015134,0.078053,7,0.021054,0.178383,8,-0.083807,-0.186277,9,-0.183866,-0.188617,10,0.166434,-0.032082,11,0.099434,-0.134332,12,-0.242767,-0.681584,13,0.181175,0.057615,14,0.198456,-0.065876,15,-0.050685,0.156123,16,0.027790,0.190775,17,-0.158861,-0.109583,18,-0.034340,-0.020654,19,-0.088613,-0.002525,20,-0.002312,-0.124529,21,0.070944,-0.006694,22,0.040839,0.019351
2,1,0.085543,0.176130,2,-0.041177,0.084185,3,-0.055802,0.075265,4,-0.075060,-0.137568,5,-0.155700,-0.017807,6,0.005939,0.086487,7,0.146115,0.137431,8,-0.250338,-0.134477,9,-0.183887,-0.023344,10,0.147202,-0.101763,11,0.057355,-0.208333,12,-0.217530,-0.628066,13,0.187965,-0.004067,14,0.147856,-0.138682,15,0.011357,0.245292,16,0.023779,0.142202,17,-0.116958,-0.155251,18,-0.035111,-0.004273,19,-0.060926,-0.002692,20,0.084686,-0.046471,21,0.018247,0.028312,22,0.001476,-0.029474
3,1,0.156310,-0.115589,2,0.038687,0.080505,3,0.080805,0.176178,4,-0.201527,0.078111,5,-0.098278,0.026020,6,0.173441,0.037411,7,0.232213,-0.089078,8,-0.172877,0.093108,9,-0.146117,0.086029,10,0.117065,-0.184145,11,-0.070206,-0.206906,12,0.079308,-0.540062,13,0.172813,-0.225120,14,-0.046506,-0.281796,15,0.036609,0.198021,16,0.017453,0.209496,17,-0.137424,-0.172410,18,-0.000269,-0.032142,19,-0.038069,-0.050708,20,0.033174,0.030428,21,0.035667,-0.020499,22,0.034664,-0.014507
4,1,-0.044591,-0.153026,2,0.202720,0.103260,3,0.233629,-0.061807,4,-0.177567,0.071200,5,-0.254690,0.112119,6,0.097539,-0.172798,7,0.043766,-0.214070,8,-0.159334,0.161517,9,-0.217920,0.180973,10,0.055595,-0.142834,11,0.050042,-0.247143,12,0.272164,-0.252207,13,0.113889,-0.284484,14,0.043207,-0.157722,15,-0.119955,0.239658,16,-0.008802,0.235708,17,0.019544,-0.223673,18,-0.048545,-0.016364,19,-0.040843,-0.000477,20,0.026985,0.000042,21,0.015642,0.037145,22,0.001850,0.040533
5,1,-0.097571,-0.129914,2,0.077640,-0.279288,3,0.153471,-0.017404,4,-0.153563,0.285836,5,-0.176708,0.098914,6,-0.251944,-0.011783,7,-0.169068,-0.071805,8,-0.022458,0.384293,9,0.019465,0.159283,10,0.134998,-0.257840,11,0.034928,-0.184997,12,0.238734,-0.036839,13,-0.160937,-0.179503,14,-0.018077,-0.248447,15,0.097055,0.188130,16,-0.129163,0.202512,17,0.044935,-0.192147,18,-0.022465,0.045863,19,-0.019694,0.009032,20,-0.015494,-0.041495,21,0.011446,0.049869,22,-0.018612,-0.002763
6,1,-0.275018,0.206179,2,0.042517,-0.137404,3,0.132700,-0.195386,4,-0.208092,0.194472,5,-0.294521,0.024178,6,-0.034559,0.065534,7,-0.237086,-0.093871,8,0.116245,0.186706,9,-0.127348,0.235524,10,0.186106,-0.125012,11,0.197616,-0.083644,12,0.036838,0.123803,13,-0.140159,-0.253171,14,-0.081627,-0.209928,15,-0.156924,0.255519,16,-0.207157,0.062480,17,0.227132,0.020258,18,0.020396,-0.046240,19,0.006330,-0.046818,20,0.016123,0.013612,21,-0.055739,-0.015775,22,-0.032411,-0.022880
7,1,0.183864,0.109315,2,-0.194763,-0.091125,3,0.034918,-0.163656,4,-0.106895,0.190944,5,-0.256356,-0.167557,6,0.038545,0.002935,7,0.078927,0.322046,8,0.334505,0.017051,9,0.099592,0.173831,10,0.123723,-0.258617,11,0.193375,-0.004694,12,-0.028056,0.050498,13,-0.234998,0.272931,14,-0.186689,-0.113705,15,0.082881,0.249966,16,-0.195105,0.118106,17,0.198583,0.085826,18,-0.039149,0.014930,19,-0.012015,0.025530,20,0.013647,0.024278,21,-0.014681,0.024586,22,0.034540,-0.024866
8,1,0.243106,-0.084435,2,-0.145126,0.048076,3,-0.041183,-0.206922,4,-0.210745,0.111355,5,-0.034193,-0.265158,6,0.062367,-0.077427,7,0.212980,0.052776,8,0.194857,-0.276931,9,0.137716,0.282605,10,0.203449,-0.144870,11,0.205263,0.139435,12,-0.049043,0.004921,13,0.108571,0.246678,14,-0.251991,0.143816,15,0.048707,0.270740,16,-0.224522,-0.011778,17,0.030643,0.217220,18,0.037039,0.037807,19,0.041204,-0.002373,20,0.004706,-0.022678,21,-0.003574,-0.046657,22,0.019842,0.029968
9,1,0.086369,-0.354789,2,-0.188677,0.109776,3,-0.003273,-0.183678,4,-0.241542,0.030352,5,0.208616,-0.165718,6,-0.118793,-0.041113,7,0.236530,-0.098201,8,0.055480,-0.231032,9,0.178517,0.167711,10,0.270590,-0.082680,11,0.025382,0.241926,12,-0.015209,-0.054729,13,0.201451,0.110972,14,-0.127581,0.212433,15,0.118934,0.220288,16,-0.229013,-0.049759,17,-0.191216,0.197467,18,-0.011309,-0.034426,19,-0.038088,-0.016069,20,-0.022081,-0.015959,21,-0.024947,0.036915,22,0.020906,0.032950
10,1,-0.190438,-0.244516,2,-0.169275,0.207171,3,0.031735,-0.190728,4,-0.228306,-0.074454,5,0.239285,0.097239,6,-0.087301,0.162460,7,0.006844,-0.281316,8,-0.049852,-0.252356,9,0.149542,0.168338,10,0.258367,-0.002333,11,-0.135920,0.230595,12,0.020552,-0.048496,13,0.175964,-0.146967,14,-0.046854,0.259551,15,0.130175,0.181638,16,-0.185180,-0.095225,17,-0.253837,0.086716,18,-0.059219,-0.009613,19,-0.037334,0.066353,20,0.014281,0.004458,21,0.034641,0.027856,22,-0.002280,-0.019520
11,1,-0.272450,-0.072506,2,-0.090142,0.225091,3,0.059087,-0.180923,4,-0.170353,-0.162882,5,0.093720,0.211966,6,0.102279,0.156751,7,-0.217255,-0.224500,8,-0.178638,-0.260041,9,0.144792,0.160858,10,0.212913,0.062889,11,-0.202387,0.145862,12,0.051984,-0.015133,13,0.000113,-0.234211,14,0.092641,0.277433,15,0.184095,0.162910,16,-0.149337,-0.131397,17,-0.265444,-0.038213,18,-0.037642,0.036211,19,0.049542,0.047276,20,0.036326,-0.029608,21,0.022595,-0.016662,22,0.001678,0.006773
12,1,-0.207462,0.116804,2,-0.043818,0.211776,3,0.056947,-0.201229,4,0.027212,-0.209017,5,-0.125478,0.136749,6,0.219809,-0.229873,7,-0.286773,0.120867,8,-0.245666,-0.064866,9,0.204705,0.211591,10,0.198028,0.155292,11,-0.199354,-0.080864,12,0.011530,0.056775,13,-0.246029,0.055871,14,0.295000,-0.019573,15,0.205446,0.028993,16,-0.195774,-0.133783,17,-0.195486,-0.108139,18,0.059124,0.009606,19,0.016487,-0.071072,20,-0.026840,-0.000925,21,-0.031000,-0.002153,22,0.002830,0.029696
13,1,-0.195638,0.057835,2,-0.040683,0.179424,3,0.158936,-0.136648,4,0.173520,-0.148120,5,-0.196706,-0.033096,6,-0.177741,-0.380771,7,-0.051011,0.255594,8,-0.222098,0.006346,9,0.206553,0.144610,10,0.090778,0.138254,11,-0.085858,-0.175116,12,-0.062782,0.027484,13,-0.002039,0.287365,14,0.102537,-0.286248,15,0.196798,-0.115917,16,-0.248209,0.006062,17,-0.217128,-0.058063,18,0.000398,-0.063902,19,-0.092092,0.001564,20,-0.014434,-0.002442,21,0.034434,0.084271,22,0.025666,0.011510
14,1,-0.098994,0.025319,2,-0.081297,0.055821,3,0.112060,0.025130,4,0.102063,0.053796,5,0.038241,-0.138014,6,-0.510736,-0.175623,7,-0.037695,0.245987,8,-0.268911,-0.004104,9,0.154097,0.200483,10,-0.006126,0.205559,11,0.039739,-0.246645,12,-0.022240,-0.015274,13,0.216011,0.204349,14,-0.075057,-0.254174,15,0.154426,-0.186742,16,-0.220210,0.052676,17,-0.152007,-0.122503,18,-0.051907,-0.013934,19,-0.014017,0.095368,20,-0.049015,0.051101,21,0.079738,-0.034604,22,0.037691,-0.067592
15,1,-0.061998,-0.012701,2,-0.089266,0.033369,3,0.076196,0.018135,4,0.066751,0.091117,5,-0.026447,-0.082608,6,-0.545831,0.071111,7,0.017229,0.291766,8,-0.238948,0.117336,9,0.173368,0.143314,10,0.107363,0.193041,11,0.009927,-0.167083,12,0.008628,0.019152,13,0.296591,-0.030747,14,-0.193943,-0.148221,15,-0.062292,-0.244449,16,-0.129093,0.161307,17,-0.252921,0.063261,18,-0.039522,0.015899,19,0.118729,-0.020423,20,0.092368,0.053827,21,-0.017960,-0.078455,22,-0.109791,-0.065574
16,1,-0.046905,-0.061012,2,-0.028844,-0.015116,3,0.049262,0.063077,4,-0.006157,0.037225,5,0.075175,-0.011161,6,-0.516018,0.090969,7,0.029979,0.305636,8,-0.245487,0.091783,9,0.228398,0.099185,10,0.097155,0.191060,11,-0.056532,-0.256719,12,0.045805,0.009629,13,0.248467,-0.113116,14,-0.259818,-0.053789,15,-0.121890,-0.187937,16,-0.033201,0.246302,17,-0.167523,0.145037,18,-0.013463,0.083668,19,0.053434,-0.082713,20,0.100374,-0.066738,21,-0.047228,-0.068245,22,-0.094949,0.096647
17,1,-0.005065,-0.078786,2,-0.034695,-0.019460,3,-0.001144,0.072666,4,0.016344,0.047067,5,0.064951,0.009906,6,-0.494493,-0.013838,7,-0.063912,0.314627,8,-0.264959,0.023320,9,0.181501,0.174514,10,0.058552,0.203753,11,0.034520,-0.251771,12,0.042205,0.016784,13,0.255756,-0.095822,14,-0.277668,-0.075651,15,-0.104093,-0.187481,16,-0.048755,0.245680,17,-0.180157,0.157699,18,0.013560,0.093085,19,0.055711,-0.080091,20,0.092235,-0.089411,21,-0.067287,-0.080825,22,-0.055806,0.118651
18,1,-0.002698,0.000712,2,-0.010342,-0.052650,3,-0.016199,-0.011430,4,-0.032093,-0.008670,5,0.044131,-0.016818,6,-0.307750,-0.235360,7,-0.234970,0.193315,8,-0.270192,-0.051220,9,0.099201,0.244990,10,0.049427,0.207602,11,-0.000259,-0.301343,12,0.027178,-0.034869,13,0.292794,-0.100548,14,-0.274099,-0.054823,15,-0.192226,-0.176887,16,0.039662,0.214660,17,-0.045029,0.249276,18,0.047532,0.099946,19,0.045552,-0.144053,20,-0.008464,-0.160965,21,-0.184722,0.025774,22,0.041336,0.123786
19,1,0.023995,-0.009105,2,0.021106,-0.002484,3,-0.034301,0.002751,4,-0.007421,0.002156,5,-0.025279,-0.014477,6,-0.017288,-0.290000,7,-0.293029,0.042652,8,-0.251220,-0.105013,9,0.157455,0.176047,10,0.116867,0.182232,11,-0.260667,-0.175306,12,-0.043103,-0.012925,13,0.292654,-0.021466,14,-0.293103,0.008762,15,-0.200943,-0.064679,16,0.227815,0.144185,17,0.192205,0.064878,18,0.131797,0.170370,19,-0.052667,-0.169707,20,-0.147514,-0.163900,21,-0.004961,0.235662,22,0.181583,-0.039936
20,1,-0.004703,0.022490,2,0.020480,0.019330,3,0.013528,0.003546,4,-0.010504,0.012346,5,0.002168,-0.017234,6,0.124817,-0.020460,7,-0.175623,-0.194235,8,-0.141880,-0.251703,9,0.177119,0.247950,10,0.185395,0.055469,11,-0.240593,0.144593,12,-0.000335,0.020010,13,0.198629,0.137680,14,-0.260010,-0.076168,15,-0.242985,0.076546,16,0.191130,-0.100648,17,0.086419,-0.210319,18,0.089757,0.188766,19,-0.110249,-0.270335,20,-0.299845,0.009143,21,0.240654,0.098810,22,-0.135234,-0.142875
21,1,-0.012008,0.011045,2,0.016482,0.008403,3,0.014298,0.005236,4,0.000484,0.013905,5,0.012762,-0.033203,6,0.095526,0.035124,7,-0.041950,-0.248093,8,-0.112206,-0.289237,9,0.198741,0.207317,10,0.178038,0.007892,11,-0.136341,0.268113,12,0.012456,0.003221,13,0.097999,0.193498,14,-0.277790,-0.075505,15,-0.199267,0.124659,16,0.140308,-0.160207,17,-0.075415,-0.255395,18,-0.011472,0.219456,19,-0.113746,-0.294419,20,-0.269051,0.057113,21,0.247549,-0.021624,22,-0.190128,-0.004314
22,1,-0.033611,0.021520,2,-0.008896,-0.013844,3,0.012548,0.001760,4,-0.017469,-0.011148,5,0.000880,-0.010402,6,-0.019596,0.066069,7,0.240099,-0.265871,8,-0.024735,-0.274966,9,0.171932,0.110562,10,0.132580,-0.149349,11,0.240798,0.117738,12,-0.002395,-0.060489,13,-0.064476,0.279800,14,-0.280925,-0.095015,15,-0.159633,0.132675,16,-0.024284,-0.227625,17,-0.242676,0.100477,18,-0.254208,0.146592,19,-0.033456,-0.255557,20,-0.206055,0.124673,21,0.130979,-0.184434,22,-0.056826,0.176487
23,1,-0.014949,0.019623,2,0.011653,-0.023594,3,0.041092,0.015870,4,-0.001056,-0.026022,5,0.037487,0.059202,6,-0.061565,-0.048424,7,0.247854,0.181609,8,0.169395,-0.140384,9,0.146595,0.151946,10,0.051490,-0.241112,11,0.228637,-0.129662,12,-0.064892,-0.000819,13,-0.234207,-0.027208,14,-0.039288,-0.261424,15,-0.208204,0.058826,16,-0.140531,-0.163743,17,-0.050910,0.246592,18,-0.225028,-0.266186,19,0.152969,-0.233768,20,-0.264162,0.062146,21,0.114739,-0.168274,22,0.117927,0.229645
24,1,-0.010144,0.002671,2,-0.022960,0.042253,3,-0.007275,0.002275,4,0.016845,0.006496,5,0.046848,-0.071566,6,0.124773,-0.099928,7,0.180469,0.203158,8,0.155962,-0.261907,9,0.265038,0.039930,10,-0.235734,-0.168641,11,-0.197108,-0.239260,12,-0.006062,0.051971,13,-0.241259,-0.106026,14,-0.130353,-0.276596,15,-0.103916,0.235268,16,-0.249360,0.055926,17,0.278620,0.027040,18,0.024502,-0.254547,19,0.186194,-0.090547,20,-0.130197,0.041665,21,-0.012971,-0.154331,22,0.137672,-0.015023
25,1,-0.042902,-0.115022,2,0.015151,-0.017077,3,-0.042109,0.038041,4,-0.010982,-0.003264,5,-0.054090,-0.055721,6,0.061325,0.036834,7,0.161445,0.337319,8,0.188318,-0.216076,9,0.271047,-0.068354,10,-0.289015,0.005657,11,-0.284819,0.023385,12,0.106096,0.097405,13,-0.186934,-0.184549,14,0.004540,-0.305756,15,-0.058916,0.233167,16,-0.213320,0.161631,17,0.204541,-0.136760,18,0.170975,-0.065996,19,0.135516,-0.010888,20,-0.142151,0.000683,21,-0.056396,-0.091597,22,0.116228,-0.184170
26,1,0.017706,0.011064,2,0.029953,-0.029539,3,0.018020,0.013028,4,-0.032449,-0.032164,5,-0.068937,0.026523,6,-0.043867,-0.068804,7,0.037872,0.312999,8,0.050313,-0.268851,9,0.253049,-0.216342,10,-0.206305,0.217377,11,-0.106849,0.255109,12,0.233401,0.037440,13,-0.065293,-0.256269,14,-0.003677,-0.256277,15,0.039042,0.292853,16,-0.102126,0.219451,17,0.080413,-0.264097,18,0.113676,0.007987,19,0.137436,0.027965,20,-0.101360,-0.002136,21,-0.160091,-0.048542,22,0.024616,-0.215899
27,1,0.031335,0.020129,2,0.017792,0.042072,3,0.074370,0.004508,4,-0.043101,0.027778,5,-0.031358,0.030262,6,0.161486,0.035947,7,-0.087619,0.231674,8,0.183715,-0.320549,9,0.181733,-0.240315,10,-0.138983,0.255643,11,0.058972,0.225152,12,0.335201,-0.152297,13,0.111253,-0.157252,14,0.060558,-0.233723,15,-0.041476,0.235332,16,-0.051975,0.247666,17,0.019351,-0.262838,18,0.054978,0.100856,19,0.035809,0.086360,20,-0.102576,-0.000603,21,-0.147330,-0.113770,22,0.019582,-0.206306
28,1,-0.056707,-0.077230,2,0.009826,-0.089121,3,-0.000533,-0.061873,4,0.039441,0.059098,5,0.106957,0.000399,6,0.016826,0.132997,7,-0.064209,0.257659,8,0.057057,-0.231450,9,0.013263,-0.271820,10,0.138910,0.148427,11,0.190023,0.045517,12,0.125561,-0.600966,13,0.174514,-0.048652,14,0.213637,-0.135732,15,-0.073848,0.249709,16,0.001848,0.183749,17,-0.092844,-0.158530,18,-0.099684,0.034743,19,0.014881,0.103008,20,-0.057414,-0.054287,21,-0.030259,-0.111717,22,0.029939,-0.109257
29,1,0.042758,-0.026854,2,0.017131,0.062501,3,0.005674,0.070831,4,-0.010982,-0.036916,5,0.002598,-0.080985,6,-0.130111,0.010312,7,-0.248410,-0.174410,8,0.159722,0.261081,9,0.038102,0.277288,10,-0.004608,-0.296725,11,-0.115474,-0.236595,12,0.190661,-0.359766,13,-0.174967,0.225827,14,-0.152154,0.245370,15,0.186002,-0.147744,16,0.219315,-0.115331,17,-0.206067,0.129767,18,0.048383,0.018054,19,0.085613,0.041471,20,-0.048395,-0.005189,21,-0.055552,-0.114301,22,0.045099,-0.038049
30,1,-0.054094,-0.009405,2,-0.018309,0.060401,3,-0.009636,-0.052452,4,-0.021844,-0.038066,5,-0.024077,0.066475,6,-0.496469,-0.266812,7,0.120287,0.163001,8,0.138473,0.206511,9,-0.052862,-0.231269,10,-0.081145,-0.236575,11,0.177400,0.221004,12,0.008229,-0.023893,13,0.201530,-0.165005,14,-0.153118,0.170753,15,-0.214088,0.195622,16,0.189047,-0.143973,17,0.230120,-0.144360,18,-0.062947,-0.016871,19,0.122389,-0.014421,20,0.020007,0.022117,21,-0.061359,-0.035200,22,0.033893,0.040451
31,1,-0.021542,-0.067591,2,0.066969,0.027996,3,0.019994,0.033686,4,-0.016729,-0.066647,5,-0.000589,-0.038957,6,0.063505,0.140157,7,-0.067991,0.320315,8,0.278226,-0.092870,9,0.209727,0.197250,10,-0.145571,-0.272857,11,-0.024334,-0.229417,12,0.280740,-0.019140,13,0.276251,0.218227,14,0.141223,0.240954,15,0.095453,-0.291022,16,0.205936,-0.179125,17,-0.255926,0.066551,18,-0.007322,-0.032899,19,0.063857,0.013359,20,-0.042991,0.001975,21,-0.007290,-0.041963,22,0.069352,0.003566
32,1,-0.046958,0.010015,2,0.034501,-0.048757,3,0.043908,0.042710,4,-0.046360,-0.048655,5,0.053634,-0.021646,6,0.144496,-0.150525,7,0.354666,-0.033736,8,-0.039536,-0.282438,9,0.347123,-0.081356,10,-0.146593,-0.189254,11,-0.021873,-0.308255,12,0.094755,0.155621,13,0.091221,-0.325300,14,0.247992,0.033998,15,-0.124078,-0.262000,16,0.220425,-0.153431,17,-0.279170,-0.049414,18,-0.046014,0.004817,19,0.020468,-0.023510,20,0.020033,0.012314,21,-0.022373,-0.009555,22,-0.000673,-0.000044
33,1,0.075377,-0.080589,2,-0.091411,0.028116,3,-0.021924,-0.060707,4,-0.065530,0.090618,5,0.013911,-0.127949,6,-0.268110,0.109533,7,-0.192734,-0.215090,8,-0.273636,0.027696,9,0.041858,-0.289991,10,-0.231729,-0.042912,11,-0.028146,-0.289264,12,-0.008793,0.105338,13,-0.233522,-0.132462,14,0.244820,-0.280471,15,-0.191561,-0.229124,16,0.240679,-0.141788,17,-0.151544,-0.218516,18,-0.033446,0.001190,19,-0.053395,-0.029839,20,-0.060731,0.037061,21,-0.028719,-0.024274,22,0.073597,-0.010466
34,1,-0.006930,-0.042653,2,-0.008605,0.041909,3,-0.019701,-0.001392,4,-0.023336,0.000614,5,0.026620,-0.048643,6,0.339162,-0.294566,7,0.130741,0.250895,8,0.208846,0.245112,9,-0.235323,-0.114106,10,-0.135244,0.160154,11,-0.222311,-0.228981,12,0.017459,0.055670,13,0.206622,-0.103885,14,-0.114347,0.302540,15,0.136164,0.243647,16,-0.232125,-0.041982,17,-0.204861,0.196632,18,-0.041219,-0.065420,19,0.047709,-0.041548,20,-0.003303,-0.063528,21,0.001901,0.051410,22,0.012315,0.007797
35,1,-0.022435,-0.011065,2,-0.027409,-0.000245,3,0.016051,-0.032693,4,-0.024272,0.001658,5,0.032405,-0.011908,6,0.000690,-0.468294,7,0.080815,0.190572,8,0.190364,0.227931,9,-0.318077,-0.125836,10,-0.232282,0.119699,11,-0.052822,-0.280275,12,0.052807,0.022532,13,0.179850,-0.194578,14,0.083794,0.275637,15,0.212044,0.126227,16,-0.237558,0.015307,17,-0.145921,0.199047,18,-0.092235,0.094751,19,-0.011397,-0.034107,20,-0.029435,-0.028872,21,0.085559,0.001520,22,-0.109540,-0.061337
36,1,0.029288,-0.038184,2,0.012868,0.041492,3,-0.036255,0.007216,4,0.044356,0.001658,5,-0.022774,0.022529,6,0.039629,0.226029,7,-0.216901,0.337981,8,0.230209,0.182220,9,-0.047083,0.334405,10,0.246097,-0.144867,11,0.288971,-0.010833,12,0.056187,0.202591,13,0.246061,0.071115,14,0.089302,0.218512,15,0.142959,-0.210108,16,0.230607,0.018569,17,-0.198227,-0.193486,18,-0.029236,-0.073561,19,0.051652,-0.106764,20,-0.044344,0.085415,21,-0.075711,-0.080841,22,0.095988,-0.025359
37,1,0.078177,-0.012733,2,-0.080547,0.015866,3,-0.017058,-0.071622,4,-0.077258,0.034288,5,0.028370,-0.055670,6,-0.267674,0.101976,7,-0.198098,-0.213732,8,-0.266806,0.003215,9,0.034868,-0.269860,10,-0.255218,-0.046490,11,-0.058131,-0.304132,12,0.018338,0.122121,13,-0.325500,-0.007539,14,0.120244,-0.344456,15,-0.272844,-0.037076,16,0.165485,-0.260846,17,-0.205293,-0.097302,18,-0.027080,-0.003504,19,-0.060179,0.007428,20,0.005652,0.066628,21,-0.070251,0.019232,22,0.018408,-0.058104
38,1,0.007600,0.108741,2,-0.029034,-0.082123,3,0.046230,-0.042129,4,-0.073566,0.048162,5,-0.045108,-0.057122,6,0.151732,-0.091670,7,0.287692,0.054276,8,-0.073239,-0.297565,9,0.309462,-0.104476,10,-0.249916,-0.073443,11,-0.188055,-0.247872,12,0.203255,0.049942,13,0.321045,-0.187103,14,0.218410,0.136604,15,-0.036943,-0.314154,16,0.191232,-0.112696,17,-0.274485,-0.032173,18,0.028066,-0.000912,19,0.052273,-0.018347,20,-0.044592,0.008569,21,-0.020286,-0.012841,22,-0.001330,-0.027435
39,1,-0.023483,-0.044327,2,-0.020126,0.047954,3,-0.012148,-0.040111,4,-0.034411,-0.040480,5,0.040996,-0.000655,6,-0.055594,-0.520199,7,0.132050,0.189337,8,0.226041,0.205385,9,-0.215772,-0.226253,10,-0.244249,-0.031585,11,0.153224,-0.219023,12,-0.052121,0.010915,13,0.181330,-0.142979,14,-0.089829,0.248754,15,-0.019819,0.285853,16,-0.076312,-0.197226,17,-0.205907,-0.156597,18,-0.044215,-0.051774,19,0.076959,-0.034245,20,-0.009824,-0.016450,21,-0.031381,0.057691,22,0.044181,0.013726
40,1,0.063016,-0.007380,2,0.002843,-0.010626,3,0.004317,-0.010647,4,-0.039490,-0.052020,5,0.029933,-0.013138,6,-0.306408,0.125018,7,-0.246560,-0.184254,8,-0.303928,-0.026037,9,0.084915,-0.259773,10,-0.272059,-0.093759,11,-0.017913,-0.289218,12,0.013558,0.112912,13,-0.266502,0.179308,14,-0.048529,-0.319385,15,-0.235620,0.080124,16,0.027274,-0.286320,17,-0.276466,0.022242,18,0.057174,0.038855,19,-0.027669,0.034512,20,-0.004868,0.032787,21,-0.000768,0.022716,22,0.033917,-0.007435
