 Volume in drive C is Windows
 Volume Serial Number is 1A3D-CCBC

 Directory of C:\Users\asalzer\Documents\APD\_Configs\_Build8\_APD_OOT_Configs\to_cm_05_10_18\ahi

05/07/2018  12:30 PM    <DIR>          .
05/07/2018  12:30 PM    <DIR>          ..
03/29/2018  05:13 PM            11,680 ahi_appconfig_output_ashburn.xml
03/28/2018  08:49 AM            11,679 ahi_appconfig_output_ashburn.xml.bak
07/27/2017  11:12 AM             6,477 beamWeights.csv
12/13/2017  08:40 AM            19,728 beamWeights_HPL_101.csv
12/13/2017  08:40 AM            19,732 beamWeights_HPL_102.csv
08/17/2017  04:19 PM            19,737 beamWeights_HPL_103.csv
12/13/2017  08:40 AM            19,729 beamWeights_HPL_104.csv
12/13/2017  08:40 AM            19,736 beamWeights_HPL_105.csv
12/13/2017  08:40 AM            19,733 beamWeights_HPL_106.csv
12/13/2017  08:40 AM            19,725 beamWeights_HPL_107.csv
04/12/2018  04:02 PM            19,492 beamWeights_HPL_108.csv
12/13/2017  08:40 AM            19,727 beamWeights_HPL_110.csv
12/13/2017  08:40 AM            19,735 beamWeights_HPL_111.csv
12/13/2017  08:40 AM            19,720 beamWeights_HPL_113.csv
12/13/2017  08:40 AM            19,727 beamWeights_HPL_114.csv
04/12/2018  04:02 PM            19,675 beamWeights_HPL_115.csv
12/13/2017  08:40 AM            19,724 beamWeights_HPL_116.csv
12/13/2017  08:40 AM            19,739 beamWeights_HPL_118.csv
04/12/2018  04:02 PM            19,677 beamWeights_HPL_122.csv
12/13/2017  08:40 AM            19,733 beamWeights_HPL_124.csv
12/13/2017  08:40 AM            19,737 beamWeights_HPL_125.csv
12/13/2017  08:40 AM            19,743 beamWeights_HPL_126.csv
12/13/2017  08:40 AM            19,745 beamWeights_HPL_127.csv
12/13/2017  08:40 AM            19,729 beamWeights_HPL_128.csv
04/12/2018  04:02 PM            19,486 beamWeights_HPL_129.csv
12/13/2017  08:40 AM            19,738 beamWeights_HPL_130.csv
12/13/2017  08:40 AM            19,721 beamWeights_HPL_131.csv
12/13/2017  08:40 AM            19,730 beamWeights_HPL_132.csv
12/13/2017  08:40 AM            19,721 beamWeights_HPL_133.csv
04/12/2018  04:02 PM            19,505 beamWeights_HPL_134.csv
12/13/2017  08:40 AM            19,720 beamWeights_HPL_135.csv
04/12/2018  04:02 PM            19,695 beamWeights_HPL_136.csv
12/13/2017  08:40 AM            19,726 beamWeights_HPL_137.csv
12/13/2017  08:40 AM            19,732 beamWeights_HPL_138.csv
12/13/2017  08:40 AM            19,727 beamWeights_HPL_139.csv
12/13/2017  08:40 AM            19,720 beamWeights_HPL_140.csv
12/13/2017  08:40 AM            19,734 beamWeights_HPL_141.csv
12/13/2017  08:40 AM            19,736 beamWeights_HPL_142.csv
12/13/2017  08:40 AM            19,722 beamWeights_HPL_143.csv
12/13/2017  08:40 AM            19,741 beamWeights_HPL_144.csv
12/13/2017  08:40 AM            19,716 beamWeights_HPL_145.csv
12/13/2017  08:40 AM            19,724 beamWeights_HPL_146.csv
12/13/2017  08:40 AM            19,734 beamWeights_HPL_147.csv
12/13/2017  08:40 AM            19,732 beamWeights_HPL_148.csv
12/13/2017  08:40 AM            19,719 beamWeights_HPL_149.csv
12/13/2017  08:40 AM            19,717 beamWeights_HPL_150.csv
12/13/2017  08:40 AM            19,725 beamWeights_HPL_151.csv
12/13/2017  08:40 AM            19,733 beamWeights_HPL_152.csv
12/13/2017  08:40 AM            19,729 beamWeights_HPL_160.csv
12/13/2017  08:40 AM            19,732 beamWeights_HPL_161.csv
12/13/2017  08:40 AM            19,739 beamWeights_HPL_162.csv
12/13/2017  08:40 AM            19,741 beamWeights_HPL_163.csv
12/13/2017  08:40 AM            19,737 beamWeights_HPL_164.csv
12/13/2017  08:40 AM            19,737 beamWeights_HPL_165.csv
12/13/2017  08:40 AM            19,723 beamWeights_HPL_166.csv
12/13/2017  08:40 AM            19,741 beamWeights_HPL_167.csv
12/13/2017  08:40 AM            19,748 beamWeights_HPL_168.csv
12/13/2017  08:40 AM            19,742 beamWeights_HPL_169.csv
12/13/2017  08:40 AM            19,728 beamWeights_HPL_170.csv
12/13/2017  08:40 AM            19,756 beamWeights_HPL_171.csv
12/13/2017  08:40 AM            19,740 beamWeights_HPL_172.csv
12/13/2017  08:40 AM            19,737 beamWeights_HPL_173.csv
12/13/2017  08:40 AM            19,733 beamWeights_HPL_174.csv
12/13/2017  08:40 AM            19,736 beamWeights_HPL_175.csv
12/13/2017  08:40 AM            19,730 beamWeights_HPL_176.csv
12/13/2017  08:40 AM            19,719 beamWeights_HPL_177.csv
12/13/2017  08:40 AM            19,743 beamWeights_HPL_178.csv
12/13/2017  08:40 AM            19,728 beamWeights_HPL_179.csv
12/13/2017  08:40 AM            19,743 beamWeights_HPL_180.csv
12/13/2017  08:40 AM            19,712 beamWeights_HPL_181.csv
07/27/2017  11:12 AM            83,612 HPCCommon.xsd
05/07/2018  12:24 PM    <DIR>          hpcData
07/27/2017  11:12 AM            43,875 HPC_APD.xsd
05/07/2018  12:24 PM    <DIR>          input
05/07/2018  12:30 PM                 0 names.txt
05/07/2018  12:24 PM    <DIR>          OOT_beamWeights_original
              73 File(s)      1,478,474 bytes
               5 Dir(s)  170,845,286,400 bytes free
