{
"type": "FeatureCollection",
"name": "scootchMoncton",
"crs": { "type": "name", "properties": { "name": "urn:ogc:def:crs:OGC:1.3:CRS84" } },
"features": [
{ "type": "Feature", "properties": { }, "geometry": { "type": "Polygon", "coordinates": [ [ [ -67.881, 47.104 ], [ -67.791, 47.068 ], [ -67.783, 46.293 ], [ -64.276, 46.152 ], [ -60.319069, 47.345892 ], [ -53.615, 50.79 ], [ -56.771737, 58.733519 ], [ -55.5979, 63.5 ], [ -60.388529, 67.649562 ], [ -83.498, 63.726 ], [ -82.661101, 54.166354 ], [ -87.57427, 50.937527 ], [ -88.354324, 48.299323 ], [ -86.31, 47.489 ], [ -80.16626, 45.993566 ], [ -79.09501, 43.625904 ], [ -76.787254, 43.64303 ], [ -76.439, 44.094 ], [ -75.717971, 44.559692 ], [ -75.436, 44.762 ], [ -75.313, 44.84 ], [ -75.254337, 44.862915 ], [ -75.055, 44.993 ], [ -74.913, 44.994 ], [ -74.829, 45.019 ], [ -74.751, 45.002 ], [ -74.425911, 44.995696 ], [ -73.979, 44.997 ], [ -73.064, 45.016 ], [ -72.642, 45.015 ], [ -72.275, 45.004 ], [ -71.502, 45.013 ], [ -71.491, 45.042 ], [ -71.505, 45.049 ], [ -71.497, 45.068 ], [ -71.481, 45.084 ], [ -71.469, 45.084 ], [ -71.448, 45.113 ], [ -71.429, 45.124 ], [ -71.438, 45.142 ], [ -71.398, 45.204 ], [ -71.403, 45.215 ], [ -71.444, 45.237 ], [ -71.42, 45.233 ], [ -71.402, 45.243 ], [ -71.385, 45.233 ], [ -71.377, 45.245 ], [ -71.357, 45.253 ], [ -71.361, 45.27 ], [ -71.336, 45.273 ], [ -71.284, 45.302 ], [ -71.265, 45.293 ], [ -71.259, 45.272 ], [ -71.244, 45.268 ], [ -71.231, 45.25 ], [ -71.198, 45.254 ], [ -71.181, 45.24 ], [ -71.162, 45.25 ], [ -71.147, 45.24 ], [ -71.132, 45.245 ], [ -71.098, 45.302 ], [ -71.008, 45.319 ], [ -71.002, 45.328 ], [ -71.012, 45.334 ], [ -71.011, 45.348 ], [ -70.985, 45.332 ], [ -70.952, 45.339 ], [ -70.939, 45.32 ], [ -70.918, 45.312 ], [ -70.912, 45.296 ], [ -70.921, 45.279 ], [ -70.898, 45.258 ], [ -70.895, 45.24 ], [ -70.858, 45.229 ], [ -70.838, 45.235 ], [ -70.849, 45.245 ], [ -70.849, 45.263 ], [ -70.832, 45.279 ], [ -70.835, 45.294 ], [ -70.816, 45.298 ], [ -70.808, 45.312 ], [ -70.808, 45.328 ], [ -70.82, 45.34 ], [ -70.802, 45.366 ], [ -70.826, 45.4 ], [ -70.798, 45.427 ], [ -70.755, 45.428 ], [ -70.73, 45.399 ], [ -70.712, 45.39 ], [ -70.683, 45.395 ], [ -70.662, 45.386 ], [ -70.661, 45.378 ], [ -70.635, 45.383 ], [ -70.636, 45.395 ], [ -70.621, 45.403 ], [ -70.635, 45.411 ], [ -70.63, 45.427 ], [ -70.651, 45.445 ], [ -70.681, 45.452 ], [ -70.692, 45.474 ], [ -70.718, 45.49 ], [ -70.712, 45.502 ], [ -70.723, 45.507 ], [ -70.722, 45.514 ], [ -70.677, 45.552 ], [ -70.688, 45.569 ], [ -70.659, 45.587 ], [ -70.645, 45.607 ], [ -70.619, 45.612 ], [ -70.592, 45.63 ], [ -70.558, 45.667 ], [ -70.52, 45.669 ], [ -70.465, 45.706 ], [ -70.439, 45.704 ], [ -70.4, 45.72 ], [ -70.384, 45.735 ], [ -70.394, 45.74 ], [ -70.388, 45.75 ], [ -70.407, 45.763 ], [ -70.417, 45.796 ], [ -70.396, 45.799 ], [ -70.397, 45.808 ], [ -70.371, 45.835 ], [ -70.359, 45.835 ], [ -70.342, 45.852 ], [ -70.308, 45.859 ], [ -70.259, 45.891 ], [ -70.266, 45.894 ], [ -70.253, 45.907 ], [ -70.263, 45.924 ], [ -70.239, 45.944 ], [ -70.277, 45.967 ], [ -70.316, 45.963 ], [ -70.307, 45.983 ], [ -70.284, 45.995 ], [ -70.302, 45.999 ], [ -70.318, 46.019 ], [ -70.28, 46.052 ], [ -70.284, 46.063 ], [ -70.311, 46.064 ], [ -70.302, 46.082 ], [ -70.285, 46.1 ], [ -70.253, 46.1 ], [ -70.255, 46.113 ], [ -70.237, 46.146 ], [ -70.293, 46.192 ], [ -70.272, 46.21 ], [ -70.251, 46.249 ], [ -70.253, 46.26 ], [ -70.231, 46.291 ], [ -70.206, 46.3 ], [ -70.209, 46.329 ], [ -70.191, 46.35 ], [ -70.14, 46.362 ], [ -70.095, 46.41 ], [ -70.056, 46.416 ], [ -69.997, 46.695 ], [ -69.224, 47.46 ], [ -69.204, 47.452 ], [ -69.178, 47.457 ], [ -69.146, 47.449 ], [ -69.09, 47.424 ], [ -69.062, 47.434 ], [ -69.051, 47.422 ], [ -69.043, 47.427 ], [ -69.037, 47.408 ], [ -69.03, 47.408 ], [ -69.042, 47.401 ], [ -69.04, 47.384 ], [ -69.054, 47.377 ], [ -69.05, 47.256 ], [ -68.961, 47.206 ], [ -68.925, 47.198 ], [ -68.902, 47.179 ], [ -68.861, 47.19 ], [ -68.816, 47.214 ], [ -68.762, 47.223 ], [ -68.718, 47.241 ], [ -68.688, 47.244 ], [ -68.66, 47.237 ], [ -68.613, 47.246 ], [ -68.594, 47.259 ], [ -68.599, 47.27 ], [ -68.579, 47.288 ], [ -68.55, 47.282 ], [ -68.518, 47.296 ], [ -68.474, 47.298 ], [ -68.449, 47.283 ], [ -68.379, 47.288 ], [ -68.384, 47.326 ], [ -68.37, 47.351 ], [ -68.336, 47.36 ], [ -68.285, 47.36 ], [ -68.231, 47.354 ], [ -68.216, 47.34 ], [ -68.155, 47.325 ], [ -68.152, 47.31 ], [ -68.137, 47.296 ], [ -68.02, 47.238 ], [ -67.99, 47.211 ], [ -67.955, 47.198 ], [ -67.936, 47.165 ], [ -67.892, 47.129 ], [ -67.881, 47.104 ] ] ] } }
]
}
