"shapeid","x","y"
"0.0","94.41666603017889","13.500001993704846"
"0.0","94.41666603100003","13.500001908000058"
"0.0","94.41666603100003","11.000001907000069"
"0.0","94.41666603100003","10.000001907000069"
"0.0","94.41666603100003","6.000001907000069"
"0.0","92.00000190700007","6.000001907000069"
"0.0","82.00000190700007","10.000001907000069"
"0.0","81.47836772558435","10.000001907000069"
"0.0","81.5212241677358","10.204814471480315"
"0.0","81.49141925577767","11.476555325826393"
"0.0","81.64170594595743","11.728038567213746"
"0.0","81.82797875316864","12.225767854009078"
"0.0","81.99413875574598","13.086876132798006"
"0.0","81.99721572692157","13.562936724765045"
"0.0","81.83728973237278","14.24452562156866"
"0.0","81.84960558709201","14.383789428336447"
"0.0","82.01189098521301","14.480088114579413"
"0.0","82.34286274180613","14.811557819688819"
"0.0","82.8579337951443","15.024537875912745"
"0.0","83.29601743318453","15.292515871208161"
"0.0","83.5373121710133","15.505762245064945"
"0.0","83.73104543848339","15.760317550418923"
"0.0","83.89300079590582","16.109628280399196"
"0.0","84.18926615334325","16.281380803323156"
"0.0","84.7000341425916","16.786083984778205"
"0.0","84.75091677853032","16.811815736764654"
"0.0","85.9","15.7"
"0.0","92.000002","14.000002"
"0.0","94.416666","13.500002"
"0.0","94.41666603017889","13.500001993704846"
