{
   "description": "Schema to validate Aireon GeoJSON configuration version 1.7 (1+ customer, 1+ SVol, 0+ BVol)",
   "$schema": "http://json-schema.org/draft-03/schema#",
   "required": true,
   "type": "object",
   "additionalProperties": false,
   "properties": {
      "type": {
         "description": "Required native geojson property",
         "type": "string",
         "default": "FeatureCollection",
         "enum": ["FeatureCollection"],
         "required": true
      },
      "fileVersion": {
         "description": "File version number - monotonically increasing",
         "$ref": "#/definitions/versionNumber",
         "required": true
      },
      "checksum": {
         "description": "MD5 checksum of entire file minus this line (32-character hex string)",
         "type": "string",
         "pattern": "^[0-9a-f]{32}$",
         "required": true
      },
      "fileFormatVersion": {
         "description": "Version number of the GeoJSON file definition",
         "$ref": "#/definitions/versionNumber",
         "required": true
      },
      "fileName": {
         "description": "Filename defined by volume engineering tool unique to this file (no spaces, all lower case ending in .geojson)",
         "type": "string",
         "pattern": "^[a-z0-9-_]*\\.geojson$",
         "required": true
      },
      "fileGeneratedBy": {
         "description": "Source or data used to generate the file",
         "type": "string",
         "required": false
      },
      "fileModifiedDate": {
         "description": "Date that this file was modified",
         "$ref": "#/definitions/date"
      },
      "id": {
         "description": "Metadata identification value used by Azure",
         "type": "string",
         "required": false
      },
      "documentNumber": {
         "description": "Aireon CM identification number",
         "type": "string",
         "required": false
      },
      "customerCollection": {
         "description": "Array of customers represented in this file",
         "type": "array",
         "minItems": 1,
         "uniqueItems": true,
         "items": {
            "$ref": "#/definitions/customer"
         },
         "required": true
      },
      "totalFeatures": {
         "description": "Count of features (volumes) included in this file",
         "type": "integer",
         "minimum": 1,
         "required": true
      },
      "features": {
         "description": "Array of features with parameters and geometry",
         "type": "array",
         "minItems": 1,
         "uniqueItems": true,
         "items": {
            "$ref": "#/definitions/feature"
         },
         "required": true
      }
   },
   "definitions": {
      "customer": {
         "type": "object",
         "required": true,
         "additionalProperties": false,
         "properties": {
            "type": {
               "type": "string",
               "enum": [
                  "customer"
               ],
               "required": true
            },
            "properties": {
               "$ref": "#/definitions/customerProperties",
               "required": true
            }
         }
      },
      "customerProperties": {
         "type": "object",
         "required": true,
         "additionalProperties": false,
         "properties": {
            "customerID": {
               "description": "Unique ID of entity to which service is being provided",
               "type": "string",
               "required": true
            },
            "customerName": {
               "description": "Name of customer",
               "type": "string",
               "required": true
            },
            "customerRegion":{
               "description": "Region of the customer",
               "type": "string",
               "default": "Unspecified",
               "required": false
            },
            "customerRecordVersion": {
               "description": "Version number of customer's properties",
               "$ref": "#/definitions/versionNumber",
               "required": true
            },
            "customerEffectiveDate": {
               "description": "Date/time that customer property values should take effect",
               "$ref": "#/definitions/date"
            },
            "customerEndDate": {
               "description": "Date/time used when actively removing a customer",
               "default": "2099-12-31T23:59:59.999Z",
               "$ref": "#/definitions/date"
            },
            "anspTargetReportBundleTimeMsecs": {
               "description": "Bundle time for target reports (10ms increments)",
               "type": "integer",
               "minimum": 0,
               "maximum": 500,
               "default": 50,
               "required": true
            },
            "cat023StatusReportEnabled": {
               "description": "ANSPs can optionally elect to receive CAT023s",
               "type": "boolean",
               "default": false,
               "required": true
            },
            "servicePredictionReportLookAheadHours": {
               "description": "Look-ahead window for service prediction reports 1-24 hours, 0=disabled",
               "type": "integer",
               "minimum": 0,
               "maximum": 24,
               "default": 24,
               "required": true
            },
            "rateServicePredictionReportMins": {
               "description": "Delivery rate of service prediction reports (minutes), 0=disabled",
               "type": "integer",
               "minimum": 0,
               "maximum": 120,
               "default": 10,
               "required": true
            },
            "rateServicePredictionDefinitionMins": {
               "description": "Delivery rate of service prediction definition reports (minutes), 0=disabled",
               "type": "integer",
               "minimum": 0,
               "maximum": 120,
               "default": 5,
               "required": true
            },
            "rateVersionNumberReportMins": {
               "description": "Delivery rate of version number report (minutes), 0=disabled",
               "type": "integer",
               "minimum": 0,
               "maximum": 120,
               "default": 60,
               "required": true
            },
            "DDID": {
               "description": "Data Destination ID",
               "$ref": "#/definitions/twoBytes",
               "required": true
            },
            "anspTargetReportVersion": {
               "description": "Version of CAT021 target reports to send",
               "type": "string",
               "required": true
            },
            "servicePredictionReportTimeIncrementMins": {
               "description": "Time Increment for Service Prediction Report",
               "type": "integer",
               "minimum": 1,
               "maximum": 5,
               "default": 1,
               "required": true
            },
            "anspTargetReportTOA": {
               "description": "If set to true, the Time of Applicability (TOA) I021/071 is present in CAT021 reports.  A value of false omits the field",
               "type": "boolean",
               "default": false,
               "required": true
            },
            "anspTargetReportFineTOMR": {
               "description": "If set to true, the High resolution TOMR I021/074 is present in CAT021 reports.  A value of false omits the field",
               "type": "boolean",
               "default": false,
               "required": true
            },
            "trackNumberFieldEnabled": {
               "description": "Indicates whether I021/161 will be present and populated in the CAT021 reports.  Some legacy automation systems may need this field",
               "type": "boolean",
               "default": false,
               "required": true
            },
            "anspTargetReportPosType": {
               "description": "Target and Test Target Report WGS-84 position type (false = I021/130 or True = I021/131)",
               "type": "boolean",
               "default": false,
               "required": true
            },
            "anspTargetReportTOMRv": {
               "description": "If set to true, the Time of Message Receipt of Velocity (TOMRv) I021/075 is present in CAT021 reports.  A value of false omits the field",
               "type": "boolean",
               "default": false,
               "required": true
            },
            "anspTargetReportAGV": {
               "description": "If set to true, the Airborne Ground Vector (AGV) I021/160 is present in CAT021 reports.  A value of false omits the field",
               "type": "boolean",
               "default": false,
               "required": true
            },
            "anspTargetReportFTC0": {
               "description": "A value of false means that target reports are not triggered by this condition",
               "type": "boolean",
               "default": false,
               "required": true
            },
            "invalidMode3ACode": {
               "description": "The invalid Mode 3/A Code (octal) to inject into the target report. Defaults to 0000 if not specified",
               "type": "string",
               "pattern": "^[0-8]{4}$",
               "default": "0000",
               "required": true
            },
            "duplicateType2SameSVol": {
               "description": "Indicates if targets should only be considered Type-2 duplicates if in the same Service Volume",
               "type": "boolean",
               "default": false,
               "required": true
            },
            "anspTargetReportValidation": {
               "description": "A value of true means that the Independent Position Check (IPC) Flag will be set based on a 5 NM validation radius. A value of false means that this field will always be set to 0",
               "type": "boolean",
               "default": false,
               "required": true
            },
            "anspTargetReportFailedState": {
               "description": "Indicates whether to deliver Target Reports to the ANSP when in the failed state",
               "type": "boolean",
               "default": true,
               "required": true
            },
            "sdpCollection": {
               "description": "Array of SDP's associated with customer",
               "type": "array",
               "items": {
                  "$ref": "#/definitions/sdp"
               },
               "required": true
            }
         }
      },
      "sdp": {
         "type": "object",
         "required": true,
         "additionalProperties": false,
         "properties": {
            "sdpId": {
               "description": "Hex representation of SDP Identifier",
               "$ref": "#/definitions/threeBytes",
               "required": true
            },
            "sdpName": {
               "description": "A unique name attached to the SDP",
               "type": "string",
               "required": true
            },
            "sdpLocation": {
               "description": "A description of the location of the SDP",
               "type": "string",
               "required": true
            },
            "anspAssetIPAddress": {
               "description": "IP address of the ANSP Asset at the SDP",
               "$ref": "#/definitions/networkAddress",
               "required": true
            },
            "anspAssetNetmask": {
               "description": "Netmask of the ANSP Asset at the SDP",
               "$ref": "#/definitions/networkAddress",
               "required": true
            },
            "anspInterfaceDuplexMode": {
               "description": "Duplex mode of the ANSP interface (preferred value: auto)",
               "type": "string",
               "default": "auto",
               "enum": ["auto", "manual"],
               "required": true
            },
            "anspInterfaceDuplexSpeed": {
               "description": "Duplex speed (Mbps)",
               "type": "integer",
               "default": 100,
               "required": true
            },
            "anspAssetDuplexType": {
               "description": "Duplex type of the ANSP interface (preferred value: full)",
               "default": "full",
               "enum": ["full", "half"],
               "required": true
            },
            "apdSDPRouterIPAddress": {
               "description": "IP address of the APD SDP router (optionally chosen by APD). Excluded addresses: 192.171.0.0/255.255.0.0, 11.100.0.0/255.254.0.0, 11.0.200.0/255.255.248.0, 11.0.199.0/255.255.255.0, 11.137.0.0/255.255.0.0, 11.138.0.0/255.255.0.0, 10.137.0.0/255.255.0.0, 10.138.0.0/255.255.0.0",
               "$ref": "#/definitions/networkAddress"
            },
            "serviceVolumeDelivery": {
               "description": "Service Volumes associated with this SDP",
               "type": "array",
               "items": {
                  "$ref": "#/definitions/serviceVolDeliveryProperties"
               },
               "required": true
            }
         }
      },
      "serviceVolDeliveryProperties": {
         "type": "object",
         "required": true,
         "additionalProperties": false,
         "properties": {
            "serviceVolumeId":{
               "description": "Hex Representation of a serviceVolumeID",
               "$ref": "#/definitions/threeBytes",
               "required": true
            },
            "singleOrDualStream": {
               "description": "Single or dual stream multicast/unicast",
               "type" : "string",
               "default": "single",
               "enum": ["single", "dual"]
            },
            "unicastOrMulticastStream1": {
               "description": "Unicast or multicast for Stream 1",
               "type" : "string",
               "default": "multicast",
               "enum": ["unicast", "multicast"]
            },
            "reflectedSourceIPAddressStream1": {
               "description": "Reflected Source IP Address for Stream 1",
               "$ref": "#/definitions/networkAddress"
            },
            "reflectedDestinationIPAddressStream1": {
               "description": "Reflected Destination IP Address for Stream 1",
               "$ref": "#/definitions/networkAddress"
            },
            "unicastOrMulticastStream2": {
               "description": "Unicast or multicast for Stream 2",
               "type" : "string",
               "default": "multicast",
               "enum": ["unicast", "multicast"]
            },
            "reflectedSourceIPAddressStream2": {
               "description": "Reflected Source IP Address for Stream 2",
               "$ref": "#/definitions/networkAddress"
            },
            "reflectedDestinationIPAddressStream2": {
               "description": "Reflected Destination IP Address for Stream 2",
               "$ref": "#/definitions/networkAddress"
            },
            "reflectedPortCAT021": {
               "description": "Reflected port for the CAT021 message",
               "$ref": "#/definitions/portNumber"
            },
            "reflectedPortCAT033": {
               "description": "Reflected port for the CAT033 message",
               "$ref": "#/definitions/portNumber"
            },
            "reflectedPortCAT023EquipmentStatus": {
               "description": "Reflected port for the CAT023 Equipment Status message",
               "$ref": "#/definitions/portNumber"
            },
            "reflectedPortCAT023ServiceVolumeStatus": {
               "description": "Reflected port for the CAT023 Service Volume Status message",
               "$ref": "#/definitions/portNumber"
            },
            "reflectedPortANSPCAT023ServiceVolumeStatus": {
               "description": "Reflected port for the ANSP-specific CAT023 Service Volume Status message",
               "$ref": "#/definitions/portNumber"
            },
            "reflectedPortCAT025ServiceAndSystemStatus": {
               "description": "Reflected port for the CAT025 Service And System Status message",
               "$ref": "#/definitions/portNumber"
            },
            "reflectedPortCAT025ServiceStatistics": {
               "description": "Reflected port for the CAT025 Service Statistics message",
               "$ref": "#/definitions/portNumber"
            },
            "reflectedPortCAT238ServiceVolumeDefinition": {
               "description": "Reflected port for the CAT238 Service Volume Definition message",
               "$ref": "#/definitions/portNumber"
            },
            "reflectedPortCAT238ServicePredictionReport": {
               "description": "Reflected port for the CAT238 Service Prediction Report message",
               "$ref": "#/definitions/portNumber"
            },
            "reflectedPortCAT247VersionNumber": {
               "description": "Reflected port for the CAT247 Version Number message",
               "$ref": "#/definitions/portNumber"
            },
            "reflectedPortCAT253TLE": {
               "description": "Reflected port for the CAT253 TLE message",
               "$ref": "#/definitions/portNumber"
            }
         }
      },
      "feature": {
         "type": "object",
         "required": true,
         "additionalProperties": false,
         "properties": {
            "id": {
               "description": "Unique ID for this feature (hyphenated concatenation of SAC-SIC-SID-FID)",
               "type": "string",
               "pattern": "^[0-9a-f]{2}-[0-9a-f]{2}-[0-9a-f]{2}-[0-9a-f]{2}$",
               "required": true
            },
            "type": {
               "description": "Native required GeoJSON property",
               "type": "string",
               "enum": ["Feature"],
               "required": true
            },
            "bbox": {
               "description": "A rectangular shape that includes all extents of the geometry definition.  Defined by the min and max longitude and latitude.",
               "type": "array",
               "minimum": 4,
               "maximum": 4,
               "items": {
                  "type": "number"
               },
               "required": true
            },
            "properties": {
               "$ref": "#/definitions/featureProperties",
               "required": true
            },
            "geometry": {
               "description": "Description of geometry with required type (polygon) and polygon object",
               "type": "object",
               "required": true,
               "additionalProperties": false,
               "properties": {
                  "type": {
                     "type": "string",
                     "enum": ["Polygon"],
                     "required": true
                  },
                  "coordinates": {
                     "type": "array",
                     "minItems": 1,
                     "maxItems": 1,
                     "items": {
                        "$ref": "#/definitions/polygon"
                     },
                     "required": true
                  }
               }
            }
         }
      },
      "featureProperties": {
         "description": "Aireon-specific feature paramters",
         "type": "object",
         "required": true,
         "additionalProperties": false,
         "properties": {
            "featureVersion": {
               "description": "Version of feature",
               "$ref": "#/definitions/versionNumber",
               "required": true
            },
            "featureEffectiveDate": {
               "description": "Date/time that values should take effect",
               "$ref": "#/definitions/date",
               "required": true
            },
            "featureBirthDate": {
               "description": "Date/time that the volume is first utilized in system processing",
               "$ref": "#/definitions/date",
               "required": true
            },
            "featureEndDate": {
               "description": "Date/time that volume information should cease to be utilized",
               "$ref": "#/definitions/date",
               "default": "2099-12-31T23:59:59.999Z",
               "required": true
            },
            "customerID": {
               "description": "Entity that service is being provided to",
               "type": "string",
               "required": true
            },
            "volumeName": {
               "description": "Name of the geography defined",
               "type": "string",
               "required": true
            },
            "icaoID": {
               "description": "ICAO name of FIR related to this volume",
               "type": "string"
            },
            "sac": {
               "description": "ICAO-assigned code to a country or territory in hexadecimal",
               "$ref": "#/definitions/oneByte",
               "required": true
            },
            "sic": {
               "description": "Code assigned by country or territory to identify the surveillance system in hexadecimal",
               "$ref": "#/definitions/oneByte",
               "required": true
            },
            "sid": {
               "description": "APD assigned service volume id in hexadecimal",
               "$ref": "#/definitions/oneByte",
               "required": true
            },
            "featureID": {
               "description": "Unique ID for this sub-feature within feature in hexadecimal (ServiceVolume is 0x00)",
               "$ref": "#/definitions/oneByte",
               "required": true
            },
            "featureType": {
               "description": "Purpose of the geographic volume defined",
               "type": "string",
               "enum": [
                  "service",
                  "billing",
                  "analysis",
                  "technical",
                  "performance"
               ],
               "required": true
            },
            "serviceFeatureProperties": {
               "description": "properties specific to service volume features",
               "$ref": "#/definitions/serviceFeatureProperties"
            },
            "billingFeatureProperties": {
               "description": "properties specific to billing volume features",
               "$ref": "#/definitions/billingFeatureProperties"
            },
            "geometryType": {
               "description": "Type of geometry described, if circle, use the centerPoint and radius properties to define a circle, if polygon use the geometry property",
               "type": "string",
               "enum": ["polygon", "circle"],
               "required": true
            },
            "centerPoint": {
               "description": "Longitude and Latitude of centroid of the geography",
               "type": "array",
               "minItems": 2,
               "maxItems": 2,
               "items": {
                  "type": "number"
               }
            },
            "radiusNMI": {
               "description": "Radius of circle geography type in nautical miles",
               "type": "integer",
               "minimum": 0,
               "maximum": 300
            },
            "floorFeet": {
               "description": "Lower altitude bound in feet above sea level - MSL",
               "type": "integer",
               "minimum": -1000,
               "maximum": 240000,
               "default": 18000,
               "required": true
            },
            "ceilingFeet": {
               "description": "Upper altitude bound in feet above sea level - MSL",
               "type": "integer",
               "minimum": -1000,
               "maximum": 240000,
               "default": 60000,
               "required": true
            },
            "stroke": {
               "description": "outline color in RGB hex - geojson standard property for drawing",
               "type": "string",
               "pattern": "^#[0-9a-f]{6}$"
            },
            "stroke-width": {
               "description": "outline width  - geojson standard property for drawing",
               "type": "number"
            },
            "stroke-opacity": {
               "description": "outline transparency  - geojson standard property for drawing",
               "type": "number"
            },
            "fill": {
               "description": "fill color in RGB hex- geojson standard property for drawing",
               "type": "string",
               "pattern": "^#[0-9a-f]{6}$"
            },
            "fill-opacity": {
               "description": "fill transparency - geojson standard property for drawing",
               "type": "number",
               "minimum": 0,
               "maximum": 1
            }
         }
      },
      "serviceFeatureProperties": {
         "description": "Aireon-specific service feature parameters",
         "type": "object",
         "additionalProperties": false,
         "properties": {
            "serviceType": {
               "description": "Contractually designated service type that is ordered by the customer",
               "type": "string",
               "enum": [
                  "contingency",
                  "augmentation",
                  "primary",
                  "performance"
               ],
               "required": true,
               "default": "primary"
            },
            "serviceDefaultMode": {
               "description": "Default mode for the service",
               "type": "string",
               "enum": [
                  "active"
               ],
               "required": true
            },
            "contractUpdateIntervalMsecs": {
               "description": "Contract-specified time elapsed between deliveries of successive target reports for the same aircraft in milliseconds",
               "type": "integer",
               "minimum": 0,
               "maximum": 60000,
               "default": 15000
            },
            "contractLatencyMsecs": {
               "description": "Contract-specified latency from receipt of ADS-B message to delivery to SDP in milliseconds",
               "type": "integer",
               "minimum": 0,
               "maximum": 10000,
               "default": 2000
            },
            "anspTargetReportUpdateMode": {
               "description": "Mode for target report delivery, either trigger by a message receipt (update) or triggered periodically",
               "type": "string",
               "enum": ["update", "periodic"],
               "default": "update",
               "required": true
            },
            "anspTargetReportMinWaitTimeMsecs": {
               "description": "Minimum update interval if mode is update (optional if mode is periodic) in milliseconds",
               "type": "integer",
               "minimum": 0,
               "maximum": 30000,
               "default": 90,
               "required": true
            },
            "anspTargetReportPeriodicRateMsecs": {
               "description": "forced update period if mode is update (optional if mode is periodic) in milliseconds",
               "type": "integer",
               "minimum": 0,
               "maximum": 30000,
               "default": 80,
               "required": true
            },
            "anspTestTargetReportRateSecs": {
               "description": "Delivery rate of test target reports in seconds (0 is disabled)",
               "type": "integer",
               "minimum": 0,
               "maximum": 60,
               "default": 1,
               "required": true
            },
            "anspTestTargetReportICAO": {
               "description": "Test Target report ICAO address (I021/080)",
               "$ref": "#/definitions/threeBytes",
               "default": "0x000000"
            },
            "anspTestTargetReportPosition": {
               "description": "Test Target report WGS-84 position (I021/130 or I021/131)",
               "$ref": "#/definitions/position"
            },
            "anspTestTargetReportAltFeet": {
               "description": "Test Target report altitude value (I021/145)",
               "type": "integer",
               "minimum": -15000,
               "maximum": 150000,
               "default": 0
            },
            "anspTestTargetReportMode3AEnabled": {
               "description": "Enable Mode 3/A field in Test Target report",
               "type": "boolean",
               "default": false,
               "required": true
            },
            "anspTestTargetReportMode3A": {
               "description": "Octal representation of Mode 3/A code in the Test Target report (if enabled)",
               "type": "string",
               "pattern": "^[0-8]{4}$",
               "default": "0000",
               "required": false
            },
            "anspTestTargetReportTargetIDEnabled": {
               "description": "Enable Target Identification field in Test Target report",
               "type": "boolean",
               "default": false,
               "required": true
            },
            "anspTestTargetReportTargetID": {
               "description": "Test Target Report Target Identification (I021/170), up to 8 characters",
               "type": "string",
               "pattern": "^[0-9A-Z]{1,8}$",
               "default": false,
               "required": false
            },
            "offlineStatusThresholdPercent": {
               "description": "percent coverage threshold for Offline status (0-100 integer value)",
               "type": "integer",
               "minimum": 0,
               "maximum": 100,
               "default": 80,
               "required": true
            },
            "degradedStatusThresholdPercent": {
               "description": "Percent coverage threshold for Degraded Status (0-100 integer value)",
               "type": "integer",
               "minimum": 0,
               "maximum": 100,
               "default": 90,
               "required": true
            },
            "networkServicesAddress": {
               "description": "Multicast address of service delivery to the customer.  SAC-SIC-SID must match the 2nd, 3rd, and 4th octets.",
               "$ref": "#/definitions/multicastAddress",
               "required": true
            },
            "portTargetReportsCAT021": {
               "description": "Port number for multicast delivery of CAT021 reports to the customer",
               "$ref": "#/definitions/portNumber",
               "default": 59980,
               "required": true
            },
            "portVersionNumberCAT247": {
               "description": "Port number for multicast delivery of CAT247 reports to the customer",
               "$ref": "#/definitions/portNumber",
               "default": 59981,
               "required": true
            },
            "portAPDKeepAlive": {
               "description": "Port number for multicast delivery of internal APD heartbeat messages to the SDP",
               "$ref": "#/definitions/portNumber",
               "default": 65535,
               "required": true
            },
            "portEquipmentStatusCAT023": {
               "description": "Port number for multicast delivery of CAT023 equiment status messages",
               "$ref": "#/definitions/portNumber",
               "default": 59982,
               "required": true
            },
            "portServiceVolumeStatusCAT023": {
               "description": "Port number for multicast delivery of CAT023 sercive volume status messages",
               "$ref": "#/definitions/portNumber",
               "default": 59983,
               "required": true
            },
            "portServiceVolumeStatisticsCAT023": {
               "description": "Port number for multicast delivery of CAT023 statistics messages",
               "$ref": "#/definitions/portNumber",
               "default": 59984,
               "required": true
            },
            "portServiceDefinitionReportCAT238": {
               "description": "Port number for multicast delivery of CAT238 service definition reports to the customer",
               "$ref": "#/definitions/portNumber",
               "default": 59988,
               "required": true
            },
            "portServicePredictionReportCAT238": {
               "description": "Port number for multicast delivery of CAT238 service predition messages to the customer",
               "$ref": "#/definitions/portNumber",
               "default": 59990,
               "required": true
            },
            "portServiceSystemStatusReportCAT025": {
               "description": "Port number for multicast delivery of CAT025 service status messages to the customer",
               "$ref": "#/definitions/portNumber",
               "default": 59992,
               "required": true
            },
            "portServiceStatisticsReportCAT025": {
               "description": "Port number for multicast delivery of CAT025 statistics messages to the customer",
               "$ref": "#/definitions/portNumber",
               "default": 59993,
               "required": true
            },
            "portConstellationTLEReportCAT253": {
               "description": "Port number for multicast delivery of Aireon constellation TLE reports",
               "$ref": "#/definitions/portNumber",
               "default": 59994,
               "required": true
            },
            "portCat033": {
               "description": "A port for sending FAA CAT033 Target Reports to for a target that has a Link Version below the configured Minimum Link Version.",
               "$ref": "#/definitions/portNumber",
               "default": 59681,
               "required": false
            },
            "portCat033BelowMinLV": {
               "description": "A port for sending FAA CAT033 Target Reports to for a target that has a Link Version at or above the configured Minimum Link Version",
               "$ref": "#/definitions/portNumber",
               "default": 59682,
               "required": false
            },
            "portCat033DupType1": {
               "description": "A port for sending FAA CAT033 Target Reports to for a target that is a Type 1 Duplicate and has a Link Version at or above the configured Minimum Link Version.",
               "$ref": "#/definitions/portNumber",
               "default": 59683,
               "required": false
            },
            "portCat033DupType1BelowMinLV": {
               "description": "A port for sending FAA CAT033 Target Reports to for a target that is a Type 1 Duplicate and has a Link Version below the configured Minimum Link Version.",
               "$ref": "#/definitions/portNumber",
               "default": 59684,
               "required": false
            },
            "portCat033InvMode3A": {
               "description": "A port for sending FAA CAT033 Target Reports to for a target that has an invalid Mode 3A Code and has a Link Version at or above the configured Minimum Link Version.",
               "$ref": "#/definitions/portNumber",
               "default": 59685,
               "required": false
            },
            "portCat033InvMode3ABelowMinLV": {
               "description": "A port for sending FAA CAT033 Target Reports to for a target that has an invalid Mode 3A Code and has a Link Version below the configured Minimum Link Version.",
               "$ref": "#/definitions/portNumber",
               "default": 59686,
               "required": false
            },
            "latencyTPM": {
               "description": "Enable latency TPM caluculation",
               "type": "boolean",
               "default": false,
               "required": true
            },
            "updateIntervalTPM": {
               "description": "Enable update interval TPM caluculation",
               "type": "boolean",
               "default": false,
               "required": true
            },
            "probabilityUpdateTPM": {
               "description": "Enable probability of update TPM caluculation",
               "type": "boolean",
               "default": false,
               "required": true
            },
            "probabilityLongGapTPM": {
               "description": "Enable long gap TPM caluculation",
               "type": "boolean",
               "default": false,
               "required": true
            },
            "serviceDesignator": {
               "description": " 8 character representation of the Service Designator (e.g. 1090ADSB)",
               "type": "string",
               "pattern": "^[0-9A-Z]{8}$",
               "default": "1090ADSB",
               "required": true
            },
            "serviceMode": {
               "description": "Configurable mode of the Service Volume.  If in OPERATIONAL mode, the state of the Service Volume will be determined dynamically",
               "type": "string",
               "enum": ["offline", "operational", "maintenance"],
               "default": "operational",
               "required": true
            },
            "expectedTargetLoad": {
               "description": "Maximum number of expected targets for this service volume",
               "type": "integer",
               "required": true
            },
            "sendSurfaceTargets": {
               "description": "Enables sending of surface targets for this volume",
               "type": "boolean",
               "default": true,
               "required": true
            },
            "minLinkVersion": {
               "description": "The minimum link version of duplicate Type-1 targets that should be received at the Customer",
               "type": "integer",
               "minimum": 0,
               "maximum": 2,
               "default": 0,
               "required": true
            },
            "anspTargetReportRxLocID1": {
               "description": "Hex representation of the radio 1 DSID, for CAT033 only",
               "$ref": "#/definitions/twelveBitInt"
            },
            "anspTargetReportRxLocID2": {
               "description": "Hex representation of the radio 2 DSID, for CAT033 only",
               "$ref": "#/definitions/twelveBitInt"
            },
            "anspTargetReportRxID1": {
               "description": "Test Target Report Receiver ID (I021/400)",
               "type": "integer",
               "minimum": 0,
               "maximum": 255,
               "default": 0
            },
            "anspTargetReportRxID2": {
               "description": "Test Target Report Receiver ID 2 (I021/400)",
               "type": "integer",
               "minimum": 0,
               "maximum": 255
            },
            "gracefulDegradation": {
               "description": "Enable graceful degradation of the service volume during high load periods",
               "type": "boolean",
               "default": false,
               "required": true
            },
            "gracefulDegradationLoad": {
               "description": "The target load at which to start degrading the Update Interval.",
               "type": "integer",
               "default": 1000,
               "required": true
            },
            "gracefulDegradationRate": {
               "description": " The rate, in seconds per target, at which the Update Interval should be degraded",
               "type": "number",
               "default": 0.005,
               "required": true
            },
            "serviceVolumeId": {
               "description": "Concatenation of SAC, SIC, and SID hex values into a string",
               "$ref": "#/definitions/threeBytes",
               "required": true
            },
            "rateTLESecs": {
               "description": "Delivery rate of TLE messages (0 is disabled)",
               "type": "integer",
               "minimum": 0,
               "maximum": 1800,
               "default": 0,
               "required": true
            },
            "rateEquipmentStatusSecs": {
               "description": "Delivery rate of equiment status messages (0 is disabled)",
               "type": "integer",
               "minimum": 0,
               "maximum": 60,
               "default": 5,
               "required": true
            },
            "rateServiceVolumeStatusSecs": {
               "description": "Delivery rate of service volume status messages (0 is disabled)",
               "type": "integer",
               "minimum": 0,
               "maximum": 60,
               "default": 5,
               "required": true
            },
            "rateServiceVolumeStatisticsSecs": {
               "description": "Delivery rate of statistics messages (0 is disabled)",
               "type": "integer",
               "minimum": 0,
               "maximum": 60,
               "default": 5,
               "required": true
            },
            "anspTestTargetReportTargetsNIC": {
               "description": "The NIC value to be used for Test Target Reports when targets are present in the Service Volume",
               "type": "integer",
               "minimum": 0,
               "maximum": 12,
               "default": 11,
               "required": true
            },
            "anspTestTargetReportNoTargetsNIC": {
               "description": "The NIC value to be used for Test Target Reports when there are no targets in the Service Volume",
               "type": "integer",
               "minimum": 0,
               "maximum": 12,
               "default": 10,
               "required": true
            },
            "anspTestTargetReportTargetsNACp": {
               "description": "The NACp value to be used for Test Target Reports when targets are present in the Service Volume",
               "type": "integer",
               "minimum": 0,
               "maximum": 12,
               "default": 11,
               "required": true
            },
            "anspTestTargetReportNoTargetsNACp": {
               "description": "The NACp value to be used for Test Target Reports when there are no targets in the Service Volume",
               "type": "integer",
               "minimum": 0,
               "maximum": 12,
               "default": 10,
               "required": true
            }
         }
      },
      "billingFeatureProperties": {
         "description": "Aireon-specific billing feature paramters",
         "type": "object",
         "additionalProperties": false,
         "properties": {
            "billingType": {
               "description": "Type of billing for this volume, default is usage",
               "enum": ["usage", "flat rate"],
               "default": "usage"
            },
            "billingPriority": {
               "description": "Precedence of volume used if billing volume overlaps other billing volumes (must be unique within a service volume)",
               "type": "integer",
               "minimum": 0,
               "maximum": 255,
               "default": 0
            },
            "billingEffectiveDate": {
               "description": "Date/time with the billing volume becomes effective",
               "$ref": "#/definitions/date"
            },
            "failedStateThresholdSecs": {
               "description": "Number of seconds in failed state after which a reduction in usage is recognized",
               "type": "integer",
               "minimum": 0,
               "maximum": 86400,
               "default": 86400
            }
         }
      },
      "date": {
         "type": "string",
         "pattern": "^\\d*-(?:0[1-9]|1[0-2])-(?:0[1-9]|[1-2][0-9]|3[0-1])T(?:[0-1][0-9]|2[0-3]):[0-5][0-9]:[0-5][0-9]\\.[0-9]{0,3}Z$"
      },
      "versionNumber": {
         "type": "integer",
         "minimum": 1
      },
      "stringArray": {
         "type": "array",
         "items": {
            "type": "string"
         }
      },
      "threeBytes": {
         "type": "string",
         "pattern": "^0x[0-9a-f]{6}$"
      },
      "twoBytes": {
         "type": "string",
         "pattern": "^0x[0-9a-f]{4}$"
      },
      "oneByte": {
         "type": "string",
         "pattern": "^0x[0-9a-f]{2}$"
      },
      "twelveBitInt": {
         "type": "integer",
         "minimum": 0,
         "maximum": 4095
      },
      "sac-sic-sid-fid": {
         "type": "string",
         "pattern": "^[0-9a-f]{2}-[0-9a-f]{2}-[0-9a-f]{2}-[0-9a-f]{2}$"
      },
      "networkAddress": {
         "description": "Generic IP address",
         "type": "string",
         "pattern": "^((([3-9]?[0-9]|1[0-9]{1,2}|2[0-4]?[0-9]|25[0-5])\\.){3}([3-9]?[0-9]|1[0-9]{1,2}|2[0-4]?[0-9]|25[0-5])|null)$"
      },
      "multicastAddress": {
         "description": "IP address in multicast range",
         "type": "string",
         "pattern": "^(2(2[4-9]|3[0-9])\\.(([3-9]?[0-9]|1[0-9]{1,2}|2[0-4]?[0-9]|25[0-5])\\.){2}([3-9]?[0-9]|1[0-9]{1,2}|2[0-4]?[0-9]|25[0-5]))|null$"
      },
      "portNumber": {
         "description": "Generic port number",
         "type": "integer",
         "minimum": 0,
         "maximum": 65535
      },
      "polygon": {
         "description": "Array of positions that describe a polygon.  Recommended to be less than 500 points",
         "type": "array",
         "minItems": 4,
         "items": {
            "$ref": "#/definitions/position"
         }
      },
      "position": {
         "description": "Longitude/Latitude used to describe a position",
         "type": "array",
         "minItems": 2,
         "maxItems": 2,
         "items": {
            "type": "number"
         }
      }
   }
}
