{
  "fileVersion": 1,
  "checksum": "ccb6c49c68156bf57b25fedabfaf8902",
  "fileFormatVersion": 1,
  "fileName": "naviair.geojson",
  "fileGeneratedBy": "SVDD",
  "type": "FeatureCollection",
  "customerCollection": [
    {
      "type": "customer",
      "properties": {
        "customerID": "CUS-1000011",
        "customerName": "Naviair",
        "customerRegion": "Denmark ",
        "customerRecordVersion": 1,
        "customerEffectiveDate": "1999-12-31T23:59:59.999Z",
        "customerEndDate": "2099-12-31T23:59:59.999Z",
        "anspTargetReportBundleTimeMsecs": 50,
        "cat023StatusReportEnabled": true,
        "servicePredictionReportLookAheadHours": 24,
        "rateServicePredictionReportMins": 30,
        "rateServicePredictionDefinitionMins": 30,
        "rateVersionNumberReportMins": 2,
        "DDID": "0x0006",
        "anspTargetReportVersion": "2.4",
        "servicePredictionReportTimeIncrementMins": 1,
        "anspTargetReportTOA": false,
        "anspTargetReportFineTOMR": false,
        "trackNumberFieldEnabled": false,
        "anspTargetReportPosType": false,
        "anspTargetReportTOMRv": false,
        "anspTargetReportAGV": false,
        "anspTargetReportFTC0": false,
        "invalidMode3ACode": "0000",
        "duplicateType2SameSVol": false,
        "anspTargetReportValidation": false,
        "anspTargetReportFailedState": true,
        "sdpCollection": [
          {
            "sdpId": "0x000003",
            "sdpName": "EKDK",
            "sdpLocation": "Naviair",
            "anspAssetIPAddress": "127.0.0.1",
            "anspAssetNetmask": "255.255.255.0",
            "anspInterfaceDuplexMode": "auto",
            "anspInterfaceDuplexSpeed": 100,
            "anspAssetDuplexType": "full",
            "serviceVolumeDelivery": [
              {
                "serviceVolumeId": "0x38fb01",
                "singleOrDualStream": "single",
                "unicastOrMulticastStream1": "multicast",
                "reflectedDestinationIPAddressStream1": "239.255.3.10",
                "unicastOrMulticastStream2": "multicast",
                "reflectedDestinationIPAddressStream2": "239.255.3.11"
              }
            ]
          },
          {
            "sdpId": "0x000003",
            "sdpName": "BGGL",
            "sdpLocation": "Naviair",
            "anspAssetIPAddress": "127.0.0.1",
            "anspAssetNetmask": "255.255.255.0",
            "anspInterfaceDuplexMode": "auto",
            "anspInterfaceDuplexSpeed": 100,
            "anspAssetDuplexType": "full",
            "serviceVolumeDelivery": [
              {
                "serviceVolumeId": "0x38ff01",
                "singleOrDualStream": "single",
                "unicastOrMulticastStream1": "multicast",
                "reflectedDestinationIPAddressStream1": "239.255.3.20",
                "unicastOrMulticastStream2": "multicast",
                "reflectedDestinationIPAddressStream2": "239.255.3.21"
              }
            ]
          }
        ]
      }
    }
  ],
  "totalFeatures": 4,
  "features": [
    {
      "id": "38-fb-01-00",
      "type": "Feature",
      "bbox": [
        1.944638,
        52.785061,
        15.825187,
        60.169510
      ],
      "properties": {
        "featureVersion": 1,
        "featureEffectiveDate": "1999-12-31T23:59:59.999Z",
        "featureBirthDate": "1999-12-31T23:59:59.999Z",
        "featureEndDate": "2099-12-31T23:59:59.999Z",
        "customerID": "CUS-1000011",
        "volumeName": "Kobenhavn",
        "icaoID": "EKDK",
        "sac": "0x38",
        "sic": "0xfb",
        "sid": "0x01",
        "featureID": "0x00",
        "featureType": "service",
        "serviceFeatureProperties": {
          "serviceType": "primary",
          "serviceDefaultMode": "active",
          "contractUpdateIntervalMsecs": 15000,
          "contractLatencyMsecs": 2000,
          "anspTargetReportUpdateMode": "update",
          "anspTargetReportMinWaitTimeMsecs": 90,
          "anspTargetReportPeriodicRateMsecs": 80,
          "anspTestTargetReportRateSecs": 1,
          "anspTestTargetReportICAO": "0x45ff5e",
          "anspTestTargetReportPosition": [
            10.000000,
            56.500000
          ],
          "anspTestTargetReportAltFeet": 0,
          "anspTestTargetReportMode3AEnabled": false,
          "anspTestTargetReportTargetIDEnabled": false,
          "offlineStatusThresholdPercent": 0,
          "degradedStatusThresholdPercent": 85,
          "networkServicesAddress": "233.56.251.1",
          "portTargetReportsCAT021": 59980,
          "portVersionNumberCAT247": 59981,
          "portAPDKeepAlive": 65535,
          "portEquipmentStatusCAT023": 59982,
          "portServiceVolumeStatusCAT023": 59983,
          "portServiceVolumeStatisticsCAT023": 59984,
          "portServiceDefinitionReportCAT238": 59988,
          "portServicePredictionReportCAT238": 59990,
          "portServiceSystemStatusReportCAT025": 59992,
          "portServiceStatisticsReportCAT025": 59993,
          "portConstellationTLEReportCAT253": 59994,
          "portCat033": 59681,
          "portCat033BelowMinLV": 59682,
          "portCat033DupType1": 59683,
          "portCat033DupType1BelowMinLV": 59684,
          "portCat033InvMode3A": 59685,
          "portCat033InvMode3ABelowMinLV": 59686,
          "latencyTPM": true,
          "updateIntervalTPM": true,
          "probabilityUpdateTPM": true,
          "probabilityLongGapTPM": true,
          "serviceDesignator": "1090ADSB",
          "serviceMode": "operational",
          "expectedTargetLoad": 2000,
          "sendSurfaceTargets": true,
          "minLinkVersion": 0,
          "anspTargetReportRxID1": 0,
          "gracefulDegradation": false,
          "gracefulDegradationLoad": 1000,
          "gracefulDegradationRate": 0.005,
          "serviceVolumeId": "0x38fb01",
          "rateTLESecs": 0,
          "rateEquipmentStatusSecs": 5,
          "rateServiceVolumeStatusSecs": 5,
          "rateServiceVolumeStatisticsSecs": 5,
          "anspTestTargetReportTargetsNIC": 11,
          "anspTestTargetReportNoTargetsNIC": 10,
          "anspTestTargetReportTargetsNACp": 11,
          "anspTestTargetReportNoTargetsNACp": 10
        },
        "geometryType": "polygon",
        "centerPoint": [
          8.950295,
          56.243936
        ],
        "floorFeet": 100,
        "ceilingFeet": 66000
      },
      "geometry": {
        "type": "Polygon",
        "coordinates": [
          [
            [
              9.330326,
              53.148768
            ],
            [
              9.404160,
              53.129930
            ],
            [
              9.919922,
              53.031015
            ],
            [
              10.306854,
              53.002879
            ],
            [
              10.564870,
              52.933453
            ],
            [
              10.726274,
              52.898467
            ],
            [
              11.398447,
              52.805295
            ],
            [
              11.558916,
              52.794994
            ],
            [
              11.861407,
              52.785185
            ],
            [
              12.021813,
              52.785061
            ],
            [
              12.552535,
              52.814636
            ],
            [
              13.064581,
              52.903875
            ],
            [
              13.540443,
              53.049775
            ],
            [
              13.963436,
              53.247359
            ],
            [
              14.318140,
              53.489789
            ],
            [
              14.590888,
              53.768547
            ],
            [
              15.279542,
              54.638381
            ],
            [
              15.324474,
              54.712039
            ],
            [
              15.457697,
              54.825070
            ],
            [
              15.682567,
              55.131858
            ],
            [
              15.698311,
              55.161006
            ],
            [
              15.808120,
              55.453682
            ],
            [
              15.825187,
              55.753365
            ],
            [
              15.746900,
              56.050403
            ],
            [
              15.573749,
              56.335022
            ],
            [
              15.545065,
              56.370931
            ],
            [
              15.499959,
              56.494286
            ],
            [
              15.309701,
              56.762900
            ],
            [
              15.264054,
              56.813579
            ],
            [
              14.999863,
              57.036387
            ],
            [
              13.419399,
              59.150898
            ],
            [
              13.134792,
              59.428659
            ],
            [
              12.750666,
              59.674027
            ],
            [
              12.279733,
              59.877698
            ],
            [
              11.738938,
              60.031817
            ],
            [
              11.148833,
              60.130374
            ],
            [
              10.532629,
              60.169510
            ],
            [
              9.914980,
              60.147722
            ],
            [
              9.320616,
              60.065943
            ],
            [
              8.772960,
              59.927474
            ],
            [
              8.292902,
              59.737803
            ],
            [
              7.315318,
              59.255651
            ],
            [
              7.308107,
              59.252014
            ],
            [
              6.172767,
              58.664452
            ],
            [
              5.925367,
              58.663057
            ],
            [
              4.906241,
              58.661632
            ],
            [
              4.295784,
              58.626326
            ],
            [
              3.714977,
              58.528034
            ],
            [
              3.187901,
              58.370967
            ],
            [
              2.735611,
              58.161713
            ],
            [
              2.375152,
              57.908868
            ],
            [
              2.118939,
              57.622586
            ],
            [
              1.974516,
              57.314089
            ],
            [
              1.944638,
              56.995169
            ],
            [
              2.094120,
              55.000275
            ],
            [
              2.172689,
              54.672149
            ],
            [
              2.360553,
              54.358112
            ],
            [
              2.648257,
              54.070169
            ],
            [
              3.023202,
              53.819128
            ],
            [
              3.470273,
              53.614277
            ],
            [
              3.972425,
              53.463118
            ],
            [
              4.511220,
              53.371160
            ],
            [
              5.067329,
              53.341772
            ],
            [
              6.509937,
              53.340036
            ],
            [
              6.564944,
              53.339972
            ],
            [
              7.767860,
              53.339762
            ],
            [
              8.120200,
              53.271244
            ],
            [
              8.310731,
              53.256614
            ],
            [
              8.575499,
              53.199915
            ],
            [
              9.102147,
              53.149718
            ],
            [
              9.259151,
              53.152521
            ],
            [
              9.330326,
              53.148768
            ]
          ]
        ]
      }
    },
    {
      "id": "38-ff-01-00",
      "type": "Feature",
      "bbox": [
        -76.000000,
        58.499944,
        30.000002,
        89.900000
      ],
      "properties": {
        "featureVersion": 1,
        "featureEffectiveDate": "1999-12-31T23:59:59.999Z",
        "featureBirthDate": "1999-12-31T23:59:59.999Z",
        "featureEndDate": "2099-12-31T23:59:59.999Z",
        "customerID": "CUS-1000011",
        "volumeName": "Sodrestrom",
        "icaoID": "BGGL",
        "sac": "0x38",
        "sic": "0xff",
        "sid": "0x01",
        "featureID": "0x00",
        "featureType": "service",
        "serviceFeatureProperties": {
          "serviceType": "primary",
          "serviceDefaultMode": "active",
          "contractUpdateIntervalMsecs": 15000,
          "contractLatencyMsecs": 2000,
          "anspTargetReportUpdateMode": "update",
          "anspTargetReportMinWaitTimeMsecs": 90,
          "anspTargetReportPeriodicRateMsecs": 80,
          "anspTestTargetReportRateSecs": 1,
          "anspTestTargetReportICAO": "0x45fe5f",
          "anspTestTargetReportPosition": [
            -40.000000,
            70.000000
          ],
          "anspTestTargetReportAltFeet": 0,
          "anspTestTargetReportMode3AEnabled": false,
          "anspTestTargetReportTargetIDEnabled": false,
          "offlineStatusThresholdPercent": 0,
          "degradedStatusThresholdPercent": 85,
          "networkServicesAddress": "233.56.251.1",
          "portTargetReportsCAT021": 59980,
          "portVersionNumberCAT247": 59981,
          "portAPDKeepAlive": 65535,
          "portEquipmentStatusCAT023": 59982,
          "portServiceVolumeStatusCAT023": 59983,
          "portServiceVolumeStatisticsCAT023": 59984,
          "portServiceDefinitionReportCAT238": 59988,
          "portServicePredictionReportCAT238": 59990,
          "portServiceSystemStatusReportCAT025": 59992,
          "portServiceStatisticsReportCAT025": 59993,
          "portConstellationTLEReportCAT253": 59994,
          "portCat033": 59681,
          "portCat033BelowMinLV": 59682,
          "portCat033DupType1": 59683,
          "portCat033DupType1BelowMinLV": 59684,
          "portCat033InvMode3A": 59685,
          "portCat033InvMode3ABelowMinLV": 59686,
          "latencyTPM": true,
          "updateIntervalTPM": true,
          "probabilityUpdateTPM": true,
          "probabilityLongGapTPM": true,
          "serviceDesignator": "1090ADSB",
          "serviceMode": "operational",
          "expectedTargetLoad": 2000,
          "sendSurfaceTargets": true,
          "minLinkVersion": 0,
          "anspTargetReportRxID1": 0,
          "gracefulDegradation": false,
          "gracefulDegradationLoad": 1000,
          "gracefulDegradationRate": 0.005,
          "serviceVolumeId": "0x38ff01",
          "rateTLESecs": 0,
          "rateEquipmentStatusSecs": 5,
          "rateServiceVolumeStatusSecs": 5,
          "rateServiceVolumeStatisticsSecs": 5,
          "anspTestTargetReportTargetsNIC": 11,
          "anspTestTargetReportNoTargetsNIC": 10,
          "anspTestTargetReportTargetsNACp": 11,
          "anspTestTargetReportNoTargetsNACp": 10
        },
        "geometryType": "polygon",
        "centerPoint": [
          -29.194915,
          78.722928
        ],
        "floorFeet": 100,
        "ceilingFeet": 66000
      },
      "geometry": {
        "type": "Polygon",
        "coordinates": [
          [
            [
              -55.665040,
              63.500131
            ],
            [
              -49.998387,
              58.499944
            ],
            [
              -43.000000,
              58.500000
            ],
            [
              -39.000000,
              63.500002
            ],
            [
              -20.000000,
              70.000002
            ],
            [
              -20.000000,
              73.000002
            ],
            [
              0.000000,
              73.000000
            ],
            [
              0.000000,
              82.000000
            ],
            [
              30.000002,
              82.000002
            ],
            [
              30.000002,
              89.900000
            ],
            [
              -60.000000,
              89.900000
            ],
            [
              -60.000000,
              82.000002
            ],
            [
              -75.000000,
              78.000002
            ],
            [
              -76.000000,
              76.000002
            ],
            [
              -63.333333,
              70.000000
            ],
            [
              -57.750000,
              65.000002
            ],
            [
              -55.665040,
              63.500131
            ]
          ]
        ]
      }
    },
    {
      "id": "38-fb-01-01",
      "type": "Feature",
      "bbox": [
        1.944638,
        52.785061,
        15.825187,
        60.169510
      ],
      "properties": {
        "featureVersion": 1,
        "featureEffectiveDate": "1999-12-31T23:59:59.999Z",
        "featureBirthDate": "1999-12-31T23:59:59.999Z",
        "featureEndDate": "2099-12-31T23:59:59.999Z",
        "customerID": "CUS-1000011",
        "volumeName": "Kobenhavn",
        "icaoID": "EKDK",
        "sac": "0x38",
        "sic": "0xfb",
        "sid": "0x01",
        "featureID": "0x01",
        "featureType": "billing",
        "billingFeatureProperties": {
          "billingType": "usage",
          "billingPriority": 0,
          "billingEffectiveDate": "1999-12-31T23:59:59.999Z",
          "failedStateThresholdSecs": 86400
        },
        "geometryType": "polygon",
        "centerPoint": [
          8.950295,
          56.243936
        ],
        "floorFeet": 18000,
        "ceilingFeet": 60000
      },
      "geometry": {
        "type": "Polygon",
        "coordinates": [
          [
            [
              9.330326,
              53.148768
            ],
            [
              9.404160,
              53.129930
            ],
            [
              9.919922,
              53.031015
            ],
            [
              10.306854,
              53.002879
            ],
            [
              10.564870,
              52.933453
            ],
            [
              10.726274,
              52.898467
            ],
            [
              11.398447,
              52.805295
            ],
            [
              11.558916,
              52.794994
            ],
            [
              11.861407,
              52.785185
            ],
            [
              12.021813,
              52.785061
            ],
            [
              12.552535,
              52.814636
            ],
            [
              13.064581,
              52.903875
            ],
            [
              13.540443,
              53.049775
            ],
            [
              13.963436,
              53.247359
            ],
            [
              14.318140,
              53.489789
            ],
            [
              14.590888,
              53.768547
            ],
            [
              15.279542,
              54.638381
            ],
            [
              15.324474,
              54.712039
            ],
            [
              15.457697,
              54.825070
            ],
            [
              15.682567,
              55.131858
            ],
            [
              15.698311,
              55.161006
            ],
            [
              15.808120,
              55.453682
            ],
            [
              15.825187,
              55.753365
            ],
            [
              15.746900,
              56.050403
            ],
            [
              15.573749,
              56.335022
            ],
            [
              15.545065,
              56.370931
            ],
            [
              15.499959,
              56.494286
            ],
            [
              15.309701,
              56.762900
            ],
            [
              15.264054,
              56.813579
            ],
            [
              14.999863,
              57.036387
            ],
            [
              13.419399,
              59.150898
            ],
            [
              13.134792,
              59.428659
            ],
            [
              12.750666,
              59.674027
            ],
            [
              12.279733,
              59.877698
            ],
            [
              11.738938,
              60.031817
            ],
            [
              11.148833,
              60.130374
            ],
            [
              10.532629,
              60.169510
            ],
            [
              9.914980,
              60.147722
            ],
            [
              9.320616,
              60.065943
            ],
            [
              8.772960,
              59.927474
            ],
            [
              8.292902,
              59.737803
            ],
            [
              7.315318,
              59.255651
            ],
            [
              7.308107,
              59.252014
            ],
            [
              6.172767,
              58.664452
            ],
            [
              5.925367,
              58.663057
            ],
            [
              4.906241,
              58.661632
            ],
            [
              4.295784,
              58.626326
            ],
            [
              3.714977,
              58.528034
            ],
            [
              3.187901,
              58.370967
            ],
            [
              2.735611,
              58.161713
            ],
            [
              2.375152,
              57.908868
            ],
            [
              2.118939,
              57.622586
            ],
            [
              1.974516,
              57.314089
            ],
            [
              1.944638,
              56.995169
            ],
            [
              2.094120,
              55.000275
            ],
            [
              2.172689,
              54.672149
            ],
            [
              2.360553,
              54.358112
            ],
            [
              2.648257,
              54.070169
            ],
            [
              3.023202,
              53.819128
            ],
            [
              3.470273,
              53.614277
            ],
            [
              3.972425,
              53.463118
            ],
            [
              4.511220,
              53.371160
            ],
            [
              5.067329,
              53.341772
            ],
            [
              6.509937,
              53.340036
            ],
            [
              6.564944,
              53.339972
            ],
            [
              7.767860,
              53.339762
            ],
            [
              8.120200,
              53.271244
            ],
            [
              8.310731,
              53.256614
            ],
            [
              8.575499,
              53.199915
            ],
            [
              9.102147,
              53.149718
            ],
            [
              9.259151,
              53.152521
            ],
            [
              9.330326,
              53.148768
            ]
          ]
        ]
      }
    },
    {
      "id": "38-ff-01-01",
      "type": "Feature",
      "bbox": [
        -76.000000,
        58.499944,
        30.000002,
        89.900000
      ],
      "properties": {
        "featureVersion": 1,
        "featureEffectiveDate": "1999-12-31T23:59:59.999Z",
        "featureBirthDate": "1999-12-31T23:59:59.999Z",
        "featureEndDate": "2099-12-31T23:59:59.999Z",
        "customerID": "CUS-1000011",
        "volumeName": "Sondrestrom",
        "icaoID": "BGGL",
        "sac": "0x38",
        "sic": "0xff",
        "sid": "0x01",
        "featureID": "0x01",
        "featureType": "billing",
        "billingFeatureProperties": {
          "billingType": "usage",
          "billingPriority": 0,
          "billingEffectiveDate": "1999-12-31T23:59:59.999Z",
          "failedStateThresholdSecs": 86400
        },
        "geometryType": "polygon",
        "centerPoint": [
          -29.194915,
          78.722928
        ],
        "floorFeet": 18000,
        "ceilingFeet": 60000
      },
      "geometry": {
        "type": "Polygon",
        "coordinates": [
          [
            [
              -55.665040,
              63.500131
            ],
            [
              -49.998387,
              58.499944
            ],
            [
              -43.000000,
              58.500000
            ],
            [
              -39.000000,
              63.500002
            ],
            [
              -20.000000,
              70.000002
            ],
            [
              -20.000000,
              73.000002
            ],
            [
              0.000000,
              73.000000
            ],
            [
              0.000000,
              82.000000
            ],
            [
              30.000002,
              82.000002
            ],
            [
              30.000002,
              89.900000
            ],
            [
              -60.000000,
              89.900000
            ],
            [
              -60.000000,
              82.000002
            ],
            [
              -75.000000,
              78.000002
            ],
            [
              -76.000000,
              76.000002
            ],
            [
              -63.333333,
              70.000000
            ],
            [
              -57.750000,
              65.000002
            ],
            [
              -55.665040,
              63.500131
            ]
          ]
        ]
      }
    }
  ]
}
