{
"type": "FeatureCollection",
"name": "1018_GandOc_SVol",
"crs": { "type": "name", "properties": { "name": "urn:ogc:def:crs:OGC:1.3:CRS84" } },
"features": [
{ "type": "Feature", "properties": { }, "geometry": { "type": "MultiPolygon", "coordinates": [ [ [ [ -39.018000813284772, 63.480512881031167 ], [ -38.97896, 63.477346 ], [ -30.004636, 60.943313 ], [ -30.041582495265907, 45.0 ], [ -39.963176289492971, 45.0 ], [ -39.836605, 44.998412 ], [ -47.716146, 45.0 ], [ -47.806123, 51.799369 ], [ -52.166305, 53.997434 ], [ -51.538369, 60.054157 ], [ -51.5384, 60.0542 ], [ -50.0, 58.5 ], [ -49.223, 58.519 ], [ -48.446, 58.533 ], [ -47.668, 58.542 ], [ -46.888, 58.547 ], [ -46.111, 58.547 ], [ -45.332, 58.542 ], [ -44.554, 58.533 ], [ -43.777, 58.519 ], [ -43.0, 58.5 ], [ -42.776, 58.82 ], [ -42.577, 59.108 ], [ -42.375, 59.395 ], [ -42.17, 59.682 ], [ -41.939, 59.996 ], [ -41.703, 60.31 ], [ -41.463, 60.624 ], [ -41.239, 60.911 ], [ -41.01, 61.197 ], [ -40.778, 61.483 ], [ -40.189, 62.184 ], [ -40.153, 62.224 ], [ -39.85, 62.567 ], [ -39.572, 62.882 ], [ -39.53, 62.927 ], [ -39.109, 63.382 ], [ -39.018000813284772, 63.480512881031167 ] ] ] ] } }
]
}
