{
"type": "FeatureCollection",
"name": "gander_oceanic_SVol",
"features": [
{ "type": "Feature", "properties": { }, "geometry": { "type": "Polygon", "coordinates": [ [ [ -39.0, 63.5 ], [ -38.998, 63.5 ], [ -37.791, 63.22 ], [ -37.712, 63.201 ], [ -37.296, 63.099 ], [ -36.608, 62.931 ], [ -36.451, 62.89 ], [ -35.881, 62.743 ], [ -35.448, 62.631 ], [ -35.317, 62.595 ], [ -34.172, 62.283 ], [ -33.062, 61.965 ], [ -32.11, 61.678 ], [ -31.044, 61.343 ], [ -30.0, 61.0 ], [ -30.0, 45.0 ], [ -51.0, 45.0 ], [ -51.0, 49.0 ], [ -51.264, 49.371 ], [ -51.532, 49.741 ], [ -51.805, 50.11 ], [ -52.081, 50.479 ], [ -52.362, 50.848 ], [ -52.647, 51.215 ], [ -52.937, 51.582 ], [ -53.196, 51.937 ], [ -53.46, 52.292 ], [ -53.728, 52.646 ], [ -54.0, 53.0 ], [ -54.415, 53.372 ], [ -54.837, 53.742 ], [ -55.267, 54.111 ], [ -55.704, 54.478 ], [ -56.15, 54.843 ], [ -56.603, 55.207 ], [ -57.065, 55.569 ], [ -57.535, 55.93 ], [ -58.014, 56.289 ], [ -58.502, 56.645 ], [ -59.0, 57.0 ], [ -59.328, 57.369 ], [ -59.662, 57.737 ], [ -60.003, 58.105 ], [ -60.351, 58.471 ], [ -60.488, 58.613 ], [ -60.583, 58.71 ], [ -60.685, 58.815 ], [ -60.813, 58.944 ], [ -60.818, 58.949 ], [ -60.858, 58.989 ], [ -60.893, 59.025 ], [ -60.897, 59.029 ], [ -60.915, 59.047 ], [ -60.937, 59.069 ], [ -60.977, 59.108 ], [ -61.016, 59.148 ], [ -61.056, 59.188 ], [ -61.096, 59.227 ], [ -61.137, 59.267 ], [ -61.177, 59.307 ], [ -61.217, 59.346 ], [ -61.257, 59.386 ], [ -61.298, 59.426 ], [ -61.339, 59.465 ], [ -61.379, 59.505 ], [ -61.42, 59.545 ], [ -61.461, 59.584 ], [ -61.502, 59.624 ], [ -61.543, 59.663 ], [ -61.578, 59.697 ], [ -61.584, 59.703 ], [ -61.588, 59.706 ], [ -61.626, 59.742 ], [ -61.667, 59.782 ], [ -61.708, 59.821 ], [ -61.75, 59.861 ], [ -61.792, 59.9 ], [ -61.833, 59.94 ], [ -61.875, 59.979 ], [ -61.917, 60.019 ], [ -61.959, 60.058 ], [ -62.001, 60.098 ], [ -62.044, 60.137 ], [ -62.056, 60.149 ], [ -62.086, 60.176 ], [ -62.129, 60.216 ], [ -62.171, 60.255 ], [ -62.172, 60.256 ], [ -62.214, 60.294 ], [ -62.257, 60.334 ], [ -62.3, 60.373 ], [ -62.343, 60.412 ], [ -62.386, 60.452 ], [ -62.429, 60.491 ], [ -62.472, 60.53 ], [ -62.516, 60.569 ], [ -62.531, 60.583 ], [ -62.559, 60.609 ], [ -62.595, 60.641 ], [ -62.603, 60.648 ], [ -62.646, 60.687 ], [ -62.69, 60.726 ], [ -62.734, 60.765 ], [ -62.778, 60.804 ], [ -62.822, 60.844 ], [ -62.867, 60.883 ], [ -62.911, 60.922 ], [ -62.955, 60.961 ], [ -63.0, 61.0 ], [ -63.0, 64.0 ], [ -62.276, 64.254 ], [ -61.539, 64.504 ], [ -60.788, 64.75 ], [ -60.024, 64.992 ], [ -60.0, 65.0 ], [ -59.25, 65.004 ], [ -58.5, 65.004 ], [ -57.75, 65.0 ], [ -51.502, 60.007 ], [ -51.14, 59.655 ], [ -50.859, 59.382 ], [ -50.787, 59.308 ], [ -50.219, 58.726 ], [ -50.0, 58.5 ], [ -49.223, 58.519 ], [ -48.446, 58.533 ], [ -47.668, 58.542 ], [ -46.888, 58.547 ], [ -46.111, 58.547 ], [ -45.332, 58.542 ], [ -44.554, 58.533 ], [ -43.777, 58.519 ], [ -43.0, 58.5 ], [ -42.776, 58.82 ], [ -42.577, 59.108 ], [ -42.375, 59.395 ], [ -42.17, 59.682 ], [ -41.939, 59.996 ], [ -41.703, 60.31 ], [ -41.463, 60.624 ], [ -41.239, 60.911 ], [ -41.01, 61.197 ], [ -40.778, 61.483 ], [ -40.189, 62.184 ], [ -40.153, 62.224 ], [ -39.85, 62.567 ], [ -39.572, 62.882 ], [ -39.53, 62.927 ], [ -39.109, 63.382 ], [ -39.0, 63.5 ] ] ] } }
]
}
