"",0,50.957917,-71.455111
"",0,50.957917,-71.455111
"",0,49.500000,-69.900000
"",0,46.000000,-65.000000
"",0,42.415700,-65.000000
"",0,41.880536,-65.000000
"",0,42.381667,-61.201667
"",0,43.072222,-57.868056
"",0,43.583333,-55.750000
"",0,43.921667,-53.848326
"",0,44.500000,-50.000000
"",0,44.500000,-47.666667
"",0,51.830000,-47.666667
"",0,63.500000,-50.529444
"",0,65.166667,-50.529444
"",0,65.166667,-53.375000
"",0,65.649000,-54.108000
"",0,67.000000,-55.133000
"",0,67.000000,-59.681944
"",0,67.000000,-70.000000
"",0,60.000000,-70.000000
"",0,57.416111,-68.266667
"",0,53.750000,-71.500000
"",0,51.000000,-71.500000
"",0,50.957917,-71.455111