{
"type": "FeatureCollection",
"name": "montrealOrig",
"features": [
{ "type": "Feature", "properties": { }, "geometry": { "type": "Polygon", "coordinates": [ [ [ -67.881, 47.104 ], [ -67.889, 47.112 ], [ -67.8894212, 47.1143871 ], [ -67.892, 47.129 ], [ -67.898, 47.133 ], [ -67.901, 47.135 ], [ -67.909, 47.147 ], [ -67.91, 47.148 ], [ -67.914, 47.15 ], [ -67.915, 47.15 ], [ -67.926, 47.155 ], [ -67.936, 47.165 ], [ -67.939, 47.171 ], [ -67.951, 47.184 ], [ -67.952, 47.194 ], [ -67.955, 47.198 ], [ -67.958, 47.2 ], [ -67.974, 47.205 ], [ -67.99, 47.211 ], [ -68.0, 47.22 ], [ -68.02, 47.238 ], [ -68.062, 47.256 ], [ -68.064, 47.257 ], [ -68.074, 47.26 ], [ -68.079, 47.266 ], [ -68.083, 47.272 ], [ -68.098, 47.278 ], [ -68.12, 47.287 ], [ -68.126, 47.292 ], [ -68.127, 47.294 ], [ -68.137, 47.296 ], [ -68.152, 47.31 ], [ -68.152, 47.322 ], [ -68.155, 47.325 ], [ -68.161, 47.328 ], [ -68.176, 47.329 ], [ -68.202, 47.339 ], [ -68.203, 47.339 ], [ -68.216, 47.34 ], [ -68.224, 47.345 ], [ -68.224, 47.346 ], [ -68.225, 47.351 ], [ -68.231, 47.354 ], [ -68.2422626, 47.3534637 ], [ -68.252, 47.353 ], [ -68.265, 47.353 ], [ -68.281, 47.359 ], [ -68.285, 47.36 ], [ -68.293, 47.359 ], [ -68.305, 47.356 ], [ -68.323, 47.36 ], [ -68.336, 47.36 ], [ -68.357, 47.356 ], [ -68.362, 47.356 ], [ -68.37, 47.351 ], [ -68.38, 47.34 ], [ -68.384, 47.326 ], [ -68.384, 47.323 ], [ -68.381, 47.309 ], [ -68.382, 47.308 ], [ -68.385, 47.303 ], [ -68.384, 47.302 ], [ -68.376, 47.294 ], [ -68.376, 47.29 ], [ -68.379, 47.288 ], [ -68.39, 47.287 ], [ -68.413, 47.288 ], [ -68.429, 47.282 ], [ -68.441, 47.284 ], [ -68.449, 47.283 ], [ -68.458, 47.285 ], [ -68.466, 47.295 ], [ -68.474, 47.298 ], [ -68.491, 47.294 ], [ -68.508, 47.297 ], [ -68.518, 47.296 ], [ -68.529, 47.293 ], [ -68.54, 47.285 ], [ -68.55, 47.282 ], [ -68.571, 47.286 ], [ -68.5776, 47.28765 ], [ -68.579, 47.288 ], [ -68.5833398, 47.2853961 ], [ -68.5833398, 47.2853961 ], [ -68.589, 47.282 ], [ -68.592, 47.275 ], [ -68.599, 47.27 ], [ -68.598, 47.268 ], [ -68.594, 47.259 ], [ -68.605, 47.25 ], [ -68.613, 47.246 ], [ -68.622, 47.243 ], [ -68.654, 47.24 ], [ -68.66, 47.237 ], [ -68.664, 47.237 ], [ -68.669, 47.239 ], [ -68.676, 47.243 ], [ -68.688, 47.244 ], [ -68.6930202, 47.2423266 ], [ -68.7, 47.24 ], [ -68.705, 47.238 ], [ -68.711, 47.239 ], [ -68.712, 47.24 ], [ -68.718, 47.241 ], [ -68.723, 47.239 ], [ -68.724, 47.239 ], [ -68.735, 47.236 ], [ -68.752, 47.227 ], [ -68.762, 47.223 ], [ -68.77, 47.221 ], [ -68.781, 47.222 ], [ -68.807, 47.216 ], [ -68.816, 47.214 ], [ -68.861, 47.19 ], [ -68.874, 47.188 ], [ -68.882, 47.183 ], [ -68.896, 47.183 ], [ -68.902, 47.179 ], [ -68.909, 47.186 ], [ -68.92, 47.19 ], [ -68.92, 47.195 ], [ -68.925, 47.198 ], [ -68.93, 47.197 ], [ -68.929, 47.199 ], [ -68.934, 47.2 ], [ -68.942, 47.206 ], [ -68.95, 47.202 ], [ -68.953, 47.207 ], [ -68.961, 47.206 ], [ -68.966, 47.213 ], [ -69.004, 47.23 ], [ -69.033, 47.241 ], [ -69.05, 47.256 ], [ -69.047, 47.268 ], [ -69.047, 47.27 ], [ -69.048, 47.275 ], [ -69.05, 47.279 ], [ -69.05, 47.28 ], [ -69.049, 47.284 ], [ -69.05, 47.292 ], [ -69.053, 47.294 ], [ -69.049, 47.306 ], [ -69.0501891, 47.3083782 ], [ -69.051, 47.31 ], [ -69.055, 47.316 ], [ -69.054, 47.355 ], [ -69.054, 47.377 ], [ -69.053, 47.378 ], [ -69.05, 47.379 ], [ -69.047, 47.384 ], [ -69.042, 47.383 ], [ -69.04, 47.384 ], [ -69.04, 47.386 ], [ -69.045, 47.391 ], [ -69.043, 47.397 ], [ -69.04, 47.396 ], [ -69.038, 47.397 ], [ -69.042, 47.401 ], [ -69.039, 47.404 ], [ -69.031, 47.403 ], [ -69.033, 47.405 ], [ -69.03, 47.408 ], [ -69.037, 47.408 ], [ -69.034, 47.415 ], [ -69.04, 47.416 ], [ -69.042, 47.416 ], [ -69.039, 47.422 ], [ -69.043, 47.427 ], [ -69.047, 47.427 ], [ -69.046, 47.424 ], [ -69.051, 47.422 ], [ -69.048, 47.425 ], [ -69.052, 47.43 ], [ -69.054, 47.429 ], [ -69.056, 47.43 ], [ -69.055, 47.432 ], [ -69.062, 47.434 ], [ -69.062, 47.431 ], [ -69.067, 47.43 ], [ -69.068, 47.427 ], [ -69.074, 47.427 ], [ -69.081, 47.424 ], [ -69.087, 47.426 ], [ -69.09, 47.424 ], [ -69.091, 47.427 ], [ -69.097, 47.427 ], [ -69.099, 47.431 ], [ -69.104, 47.431 ], [ -69.105, 47.428 ], [ -69.107, 47.428 ], [ -69.108, 47.436 ], [ -69.113, 47.436 ], [ -69.113, 47.438 ], [ -69.118, 47.439 ], [ -69.122, 47.442 ], [ -69.124, 47.441 ], [ -69.139, 47.447 ], [ -69.141, 47.444 ], [ -69.146, 47.449 ], [ -69.157, 47.451 ], [ -69.162, 47.448 ], [ -69.164, 47.451 ], [ -69.178, 47.457 ], [ -69.19, 47.454 ], [ -69.197, 47.455 ], [ -69.204, 47.452 ], [ -69.224, 47.46 ], [ -69.369, 47.317 ], [ -69.528, 47.16 ], [ -69.548, 47.139 ], [ -69.568, 47.12 ], [ -69.632, 47.057 ], [ -69.74, 46.949 ], [ -69.746, 46.944 ], [ -69.7560509, 46.9340115 ], [ -69.907, 46.784 ], [ -69.942, 46.749 ], [ -69.964, 46.728 ], [ -69.978, 46.714 ], [ -69.997, 46.695 ], [ -70.015, 46.61 ], [ -70.026, 46.559 ], [ -70.048, 46.456 ], [ -70.048, 46.454 ], [ -70.049, 46.448 ], [ -70.051, 46.438 ], [ -70.052, 46.438 ], [ -70.056, 46.416 ], [ -70.076, 46.409 ], [ -70.083, 46.41 ], [ -70.087, 46.409 ], [ -70.089, 46.411 ], [ -70.094, 46.41 ], [ -70.095, 46.41 ], [ -70.096, 46.409 ], [ -70.095, 46.409 ], [ -70.094, 46.408 ], [ -70.097, 46.407 ], [ -70.095, 46.407 ], [ -70.096, 46.405 ], [ -70.1, 46.405 ], [ -70.098, 46.404 ], [ -70.1, 46.403 ], [ -70.099, 46.401 ], [ -70.101, 46.401 ], [ -70.1, 46.398 ], [ -70.107, 46.393 ], [ -70.106, 46.391 ], [ -70.109, 46.39 ], [ -70.11, 46.387 ], [ -70.113, 46.387 ], [ -70.111, 46.386 ], [ -70.114, 46.385 ], [ -70.116, 46.388 ], [ -70.116, 46.386 ], [ -70.126, 46.381 ], [ -70.127, 46.371 ], [ -70.133, 46.369 ], [ -70.136, 46.37 ], [ -70.141, 46.364 ], [ -70.14, 46.362 ], [ -70.145, 46.362 ], [ -70.148, 46.359 ], [ -70.156, 46.361 ], [ -70.159, 46.359 ], [ -70.162, 46.361 ], [ -70.166, 46.357 ], [ -70.172, 46.359 ], [ -70.181, 46.354 ], [ -70.182, 46.352 ], [ -70.191, 46.35 ], [ -70.195, 46.341 ], [ -70.2, 46.337 ], [ -70.209, 46.329 ], [ -70.206, 46.324 ], [ -70.207, 46.32 ], [ -70.203, 46.314 ], [ -70.206, 46.309 ], [ -70.206, 46.3 ], [ -70.213, 46.298 ], [ -70.215, 46.294 ], [ -70.231, 46.291 ], [ -70.232, 46.285 ], [ -70.24, 46.279 ], [ -70.241, 46.273 ], [ -70.243, 46.273 ], [ -70.244, 46.272 ], [ -70.253, 46.26 ], [ -70.254, 46.254 ], [ -70.251, 46.249 ], [ -70.255, 46.246 ], [ -70.254, 46.245 ], [ -70.259, 46.239 ], [ -70.26, 46.235 ], [ -70.261, 46.231 ], [ -70.267, 46.225 ], [ -70.267, 46.219 ], [ -70.274, 46.215 ], [ -70.272, 46.213 ], [ -70.272, 46.21 ], [ -70.286, 46.196 ], [ -70.286, 46.195 ], [ -70.293, 46.192 ], [ -70.29, 46.189 ], [ -70.291, 46.186 ], [ -70.286, 46.185 ], [ -70.278, 46.175 ], [ -70.266, 46.169 ], [ -70.264, 46.165 ], [ -70.251, 46.157 ], [ -70.248, 46.152 ], [ -70.24, 46.15 ], [ -70.237, 46.146 ], [ -70.24, 46.143 ], [ -70.242, 46.134 ], [ -70.244, 46.129 ], [ -70.255, 46.113 ], [ -70.253, 46.1 ], [ -70.26, 46.101 ], [ -70.261, 46.101 ], [ -70.273, 46.102 ], [ -70.278, 46.1 ], [ -70.285, 46.1 ], [ -70.285, 46.098 ], [ -70.29, 46.094 ], [ -70.292, 46.087 ], [ -70.302, 46.082 ], [ -70.3, 46.079 ], [ -70.302, 46.073 ], [ -70.304, 46.073 ], [ -70.305, 46.072 ], [ -70.303, 46.071 ], [ -70.311, 46.064 ], [ -70.308, 46.062 ], [ -70.303, 46.062 ], [ -70.3, 46.061 ], [ -70.284, 46.063 ], [ -70.28, 46.061 ], [ -70.278, 46.06 ], [ -70.28, 46.052 ], [ -70.298, 46.039 ], [ -70.302, 46.033 ], [ -70.299, 46.03 ], [ -70.301, 46.028 ], [ -70.307, 46.025 ], [ -70.318, 46.019 ], [ -70.311, 46.016 ], [ -70.311, 46.012 ], [ -70.306, 46.01 ], [ -70.304, 46.003 ], [ -70.302, 45.999 ], [ -70.292, 45.997 ], [ -70.289, 45.994 ], [ -70.284, 45.995 ], [ -70.295, 45.986 ], [ -70.3, 45.986 ], [ -70.307, 45.983 ], [ -70.309, 45.98 ], [ -70.307, 45.978 ], [ -70.312, 45.974 ], [ -70.31, 45.973 ], [ -70.312, 45.966 ], [ -70.316, 45.963 ], [ -70.313, 45.962 ], [ -70.305, 45.965 ], [ -70.298, 45.963 ], [ -70.283, 45.964 ], [ -70.277, 45.967 ], [ -70.273, 45.964 ], [ -70.275, 45.963 ], [ -70.274, 45.961 ], [ -70.266, 45.964 ], [ -70.258, 45.959 ], [ -70.261, 45.952 ], [ -70.256, 45.952 ], [ -70.253, 45.955 ], [ -70.248, 45.95 ], [ -70.242, 45.947 ], [ -70.244, 45.945 ], [ -70.243, 45.945 ], [ -70.239, 45.944 ], [ -70.24, 45.939 ], [ -70.251, 45.934 ], [ -70.263, 45.924 ], [ -70.262, 45.92 ], [ -70.26, 45.92 ], [ -70.257, 45.918 ], [ -70.259, 45.909 ], [ -70.258, 45.909 ], [ -70.253, 45.907 ], [ -70.254, 45.903 ], [ -70.266, 45.894 ], [ -70.259, 45.891 ], [ -70.26, 45.89 ], [ -70.272, 45.883 ], [ -70.274, 45.88 ], [ -70.284, 45.872 ], [ -70.303, 45.863 ], [ -70.308, 45.859 ], [ -70.337, 45.853 ], [ -70.338, 45.853 ], [ -70.342, 45.852 ], [ -70.348, 45.848 ], [ -70.349, 45.848 ], [ -70.349, 45.847 ], [ -70.352, 45.841 ], [ -70.359, 45.835 ], [ -70.371, 45.835 ], [ -70.369, 45.831 ], [ -70.372, 45.828 ], [ -70.386, 45.82 ], [ -70.388, 45.814 ], [ -70.397, 45.808 ], [ -70.396, 45.799 ], [ -70.401, 45.796 ], [ -70.407, 45.798 ], [ -70.408, 45.797 ], [ -70.417, 45.796 ], [ -70.418, 45.794 ], [ -70.414, 45.79 ], [ -70.416, 45.785 ], [ -70.41, 45.784 ], [ -70.406, 45.776 ], [ -70.408, 45.773 ], [ -70.405, 45.77 ], [ -70.407, 45.763 ], [ -70.401, 45.757 ], [ -70.396, 45.757 ], [ -70.389, 45.751 ], [ -70.388, 45.75 ], [ -70.389, 45.747 ], [ -70.392, 45.745 ], [ -70.394, 45.744 ], [ -70.394, 45.74 ], [ -70.389, 45.738 ], [ -70.39, 45.736 ], [ -70.385, 45.736 ], [ -70.386, 45.735 ], [ -70.384, 45.735 ], [ -70.39, 45.729 ], [ -70.397, 45.729 ], [ -70.4, 45.72 ], [ -70.429, 45.71 ], [ -70.429, 45.708 ], [ -70.426, 45.707 ], [ -70.433, 45.707 ], [ -70.439, 45.704 ], [ -70.441, 45.705 ], [ -70.444, 45.704 ], [ -70.451, 45.704 ], [ -70.456, 45.707 ], [ -70.462, 45.706 ], [ -70.465, 45.706 ], [ -70.471, 45.703 ], [ -70.469, 45.702 ], [ -70.479, 45.695 ], [ -70.494, 45.689 ], [ -70.502, 45.682 ], [ -70.511, 45.679 ], [ -70.52, 45.671 ], [ -70.52, 45.669 ], [ -70.526, 45.667 ], [ -70.534, 45.671 ], [ -70.542, 45.666 ], [ -70.547, 45.666 ], [ -70.553, 45.668 ], [ -70.558, 45.667 ], [ -70.564, 45.663 ], [ -70.562, 45.66 ], [ -70.565, 45.655 ], [ -70.576, 45.648 ], [ -70.58, 45.643 ], [ -70.584, 45.642 ], [ -70.584, 45.639 ], [ -70.592, 45.63 ], [ -70.597, 45.63 ], [ -70.607, 45.626 ], [ -70.609, 45.622 ], [ -70.618, 45.615 ], [ -70.619, 45.612 ], [ -70.632, 45.609 ], [ -70.636, 45.61 ], [ -70.6446255, 45.6071248 ], [ -70.645, 45.607 ], [ -70.654, 45.592 ], [ -70.659, 45.59 ], [ -70.659, 45.587 ], [ -70.664, 45.583 ], [ -70.672, 45.579 ], [ -70.672, 45.576 ], [ -70.678, 45.571 ], [ -70.688, 45.569 ], [ -70.685, 45.567 ], [ -70.689, 45.562 ], [ -70.677, 45.552 ], [ -70.687, 45.549 ], [ -70.697, 45.54 ], [ -70.701, 45.532 ], [ -70.699, 45.53 ], [ -70.706, 45.528 ], [ -70.711, 45.52 ], [ -70.717, 45.518 ], [ -70.722, 45.514 ], [ -70.723, 45.507 ], [ -70.722, 45.506 ], [ -70.712, 45.502 ], [ -70.712, 45.498 ], [ -70.718, 45.49 ], [ -70.716, 45.487 ], [ -70.706, 45.48 ], [ -70.699, 45.479 ], [ -70.692, 45.474 ], [ -70.693, 45.466 ], [ -70.69, 45.464 ], [ -70.682, 45.462 ], [ -70.681, 45.455 ], [ -70.681, 45.452 ], [ -70.675, 45.452 ], [ -70.663, 45.446 ], [ -70.658, 45.446 ], [ -70.651, 45.445 ], [ -70.647, 45.439 ], [ -70.643, 45.436 ], [ -70.643, 45.434 ], [ -70.64, 45.431 ], [ -70.636, 45.427 ], [ -70.63, 45.427 ], [ -70.628, 45.423 ], [ -70.631, 45.416 ], [ -70.634, 45.415 ], [ -70.635, 45.415 ], [ -70.635, 45.411 ], [ -70.63, 45.407 ], [ -70.624, 45.406 ], [ -70.621, 45.403 ], [ -70.623, 45.4 ], [ -70.631, 45.399 ], [ -70.636, 45.395 ], [ -70.639, 45.389 ], [ -70.635, 45.383 ], [ -70.65, 45.377 ], [ -70.659, 45.378 ], [ -70.661, 45.378 ], [ -70.662, 45.386 ], [ -70.675, 45.393 ], [ -70.676, 45.393 ], [ -70.678, 45.394 ], [ -70.683, 45.395 ], [ -70.684, 45.395 ], [ -70.688, 45.393 ], [ -70.696, 45.392 ], [ -70.7, 45.395 ], [ -70.712, 45.39 ], [ -70.724, 45.396 ], [ -70.73, 45.399 ], [ -70.73, 45.404 ], [ -70.744, 45.412 ], [ -70.745, 45.416 ], [ -70.744, 45.421 ], [ -70.75, 45.423 ], [ -70.755, 45.428 ], [ -70.764, 45.426 ], [ -70.768, 45.428 ], [ -70.781, 45.431 ], [ -70.788, 45.426 ], [ -70.794, 45.428 ], [ -70.798, 45.427 ], [ -70.803, 45.418 ], [ -70.811, 45.416 ], [ -70.813, 45.411 ], [ -70.824, 45.401 ], [ -70.826, 45.4 ], [ -70.824, 45.391 ], [ -70.82, 45.391 ], [ -70.817, 45.39 ], [ -70.814, 45.388 ], [ -70.812, 45.383 ], [ -70.807, 45.377 ], [ -70.802, 45.366 ], [ -70.808, 45.363 ], [ -70.81, 45.358 ], [ -70.814, 45.357 ], [ -70.809, 45.352 ], [ -70.81, 45.349 ], [ -70.817, 45.345 ], [ -70.82, 45.34 ], [ -70.818, 45.333 ], [ -70.813, 45.328 ], [ -70.808, 45.328 ], [ -70.8071083, 45.3248791 ], [ -70.8071083, 45.3248791 ], [ -70.806, 45.321 ], [ -70.808, 45.312 ], [ -70.815, 45.308 ], [ -70.811, 45.304 ], [ -70.816, 45.298 ], [ -70.819, 45.299 ], [ -70.835, 45.294 ], [ -70.83, 45.29 ], [ -70.8312983, 45.2828592 ], [ -70.832, 45.279 ], [ -70.8346749, 45.2769938 ], [ -70.836, 45.276 ], [ -70.841, 45.267 ], [ -70.849, 45.263 ], [ -70.85, 45.256 ], [ -70.8479441, 45.2539441 ], [ -70.8479441, 45.2539441 ], [ -70.847, 45.253 ], [ -70.849, 45.245 ], [ -70.84, 45.238 ], [ -70.837, 45.237 ], [ -70.838, 45.235 ], [ -70.846, 45.234 ], [ -70.858, 45.229 ], [ -70.875, 45.234 ], [ -70.88, 45.233 ], [ -70.885, 45.235 ], [ -70.889, 45.239 ], [ -70.895, 45.24 ], [ -70.898, 45.244 ], [ -70.8958084, 45.2498444 ], [ -70.895, 45.252 ], [ -70.896, 45.253 ], [ -70.898, 45.255 ], [ -70.898, 45.258 ], [ -70.899, 45.258 ], [ -70.906, 45.261 ], [ -70.905, 45.265 ], [ -70.908, 45.269 ], [ -70.911, 45.27 ], [ -70.916, 45.277 ], [ -70.921, 45.279 ], [ -70.919, 45.287 ], [ -70.917, 45.289 ], [ -70.916, 45.29 ], [ -70.915, 45.29 ], [ -70.914, 45.292 ], [ -70.912, 45.296 ], [ -70.914, 45.3 ], [ -70.92, 45.305 ], [ -70.918, 45.312 ], [ -70.926, 45.315 ], [ -70.927, 45.315 ], [ -70.93, 45.319 ], [ -70.935, 45.319 ], [ -70.939, 45.32 ], [ -70.941, 45.323 ], [ -70.945, 45.326 ], [ -70.945, 45.329 ], [ -70.949, 45.331 ], [ -70.952, 45.339 ], [ -70.962, 45.337 ], [ -70.967, 45.332 ], [ -70.973, 45.334 ], [ -70.985, 45.332 ], [ -70.989, 45.334 ], [ -70.991, 45.338 ], [ -71.011, 45.348 ], [ -71.013, 45.344 ], [ -71.011, 45.338 ], [ -71.012, 45.334 ], [ -71.008, 45.333 ], [ -71.007, 45.333 ], [ -71.002, 45.328 ], [ -71.004, 45.325 ], [ -71.008, 45.319 ], [ -71.016, 45.316 ], [ -71.027, 45.315 ], [ -71.029, 45.313 ], [ -71.033, 45.31 ], [ -71.038, 45.312 ], [ -71.039, 45.312 ], [ -71.047, 45.313 ], [ -71.053, 45.311 ], [ -71.059, 45.314 ], [ -71.066, 45.312 ], [ -71.067, 45.312 ], [ -71.075, 45.307 ], [ -71.076, 45.307 ], [ -71.083, 45.306 ], [ -71.098, 45.302 ], [ -71.105, 45.295 ], [ -71.105, 45.292 ], [ -71.108, 45.29 ], [ -71.111, 45.285 ], [ -71.109, 45.282 ], [ -71.106, 45.283 ], [ -71.107, 45.279 ], [ -71.111, 45.275 ], [ -71.117, 45.274 ], [ -71.12, 45.262 ], [ -71.125, 45.255 ], [ -71.128, 45.254 ], [ -71.132, 45.245 ], [ -71.145, 45.242 ], [ -71.147, 45.24 ], [ -71.149, 45.243 ], [ -71.162, 45.25 ], [ -71.173, 45.246 ], [ -71.181, 45.24 ], [ -71.184, 45.245 ], [ -71.187, 45.245 ], [ -71.187, 45.248 ], [ -71.195, 45.251 ], [ -71.198, 45.254 ], [ -71.203, 45.254 ], [ -71.212, 45.25 ], [ -71.221, 45.251 ], [ -71.222, 45.254 ], [ -71.228, 45.25 ], [ -71.231, 45.25 ], [ -71.235, 45.26 ], [ -71.239, 45.262 ], [ -71.244, 45.268 ], [ -71.249, 45.268 ], [ -71.256, 45.273 ], [ -71.259, 45.272 ], [ -71.263, 45.278 ], [ -71.267, 45.291 ], [ -71.266, 45.292 ], [ -71.265, 45.293 ], [ -71.273, 45.297 ], [ -71.277, 45.296 ], [ -71.28, 45.295 ], [ -71.281, 45.298 ], [ -71.284, 45.302 ], [ -71.288, 45.301 ], [ -71.291, 45.299 ], [ -71.297, 45.299 ], [ -71.301, 45.297 ], [ -71.309, 45.287 ], [ -71.314, 45.287 ], [ -71.321, 45.282 ], [ -71.332, 45.28 ], [ -71.336, 45.273 ], [ -71.343, 45.271 ], [ -71.348, 45.272 ], [ -71.353, 45.269 ], [ -71.361, 45.27 ], [ -71.363, 45.266 ], [ -71.357, 45.257 ], [ -71.357, 45.253 ], [ -71.363, 45.248 ], [ -71.377, 45.245 ], [ -71.385, 45.233 ], [ -71.389, 45.235 ], [ -71.394, 45.241 ], [ -71.402, 45.243 ], [ -71.412, 45.239 ], [ -71.412, 45.236 ], [ -71.417, 45.236 ], [ -71.42, 45.233 ], [ -71.429, 45.234 ], [ -71.433, 45.238 ], [ -71.437, 45.239 ], [ -71.438, 45.239 ], [ -71.44, 45.238 ], [ -71.444, 45.237 ], [ -71.443, 45.235 ], [ -71.441, 45.235 ], [ -71.426, 45.225 ], [ -71.418, 45.222 ], [ -71.416, 45.218 ], [ -71.403, 45.215 ], [ -71.399, 45.207 ], [ -71.398, 45.204 ], [ -71.399, 45.203 ], [ -71.406, 45.198 ], [ -71.405, 45.195 ], [ -71.409, 45.188 ], [ -71.415, 45.185 ], [ -71.415, 45.179 ], [ -71.416, 45.176 ], [ -71.417, 45.174 ], [ -71.419, 45.17 ], [ -71.421, 45.169 ], [ -71.424, 45.166 ], [ -71.425, 45.166 ], [ -71.424, 45.164 ], [ -71.424, 45.161 ], [ -71.427, 45.153 ], [ -71.433, 45.149 ], [ -71.435, 45.145 ], [ -71.436, 45.142 ], [ -71.438, 45.142 ], [ -71.432, 45.135 ], [ -71.427, 45.13 ], [ -71.429, 45.124 ], [ -71.437, 45.118 ], [ -71.44, 45.116 ], [ -71.44, 45.113 ], [ -71.448, 45.113 ], [ -71.45, 45.11 ], [ -71.448, 45.108 ], [ -71.449, 45.105 ], [ -71.458, 45.099 ], [ -71.459, 45.095 ], [ -71.465, 45.093 ], [ -71.469, 45.084 ], [ -71.481, 45.084 ], [ -71.481, 45.081 ], [ -71.486, 45.079 ], [ -71.489, 45.071 ], [ -71.494, 45.071 ], [ -71.496, 45.069 ], [ -71.497, 45.068 ], [ -71.497, 45.067 ], [ -71.498, 45.06 ], [ -71.499, 45.058 ], [ -71.499, 45.054 ], [ -71.501, 45.052 ], [ -71.505, 45.052 ], [ -71.505, 45.049 ], [ -71.5, 45.045 ], [ -71.498, 45.045 ], [ -71.493, 45.046 ], [ -71.491, 45.042 ], [ -71.492, 45.035 ], [ -71.495, 45.032 ], [ -71.5, 45.026 ], [ -71.497, 45.024 ], [ -71.5, 45.024 ], [ -71.499, 45.021 ], [ -71.499, 45.02 ], [ -71.501, 45.017 ], [ -71.501, 45.016 ], [ -71.5, 45.015 ], [ -71.502, 45.013 ], [ -71.769, 45.011 ], [ -71.915, 45.008 ], [ -72.275, 45.004 ], [ -72.447, 45.008 ], [ -72.556, 45.008 ], [ -72.585, 45.012 ], [ -72.642, 45.015 ], [ -72.846, 45.017 ], [ -72.968, 45.014 ], [ -73.064, 45.016 ], [ -73.346, 45.011 ], [ -73.347, 45.011 ], [ -73.434, 45.009 ], [ -73.651, 45.003 ], [ -73.802, 45.002 ], [ -73.898, 45.0 ], [ -73.979, 44.997 ], [ -74.2139855, 44.9964731 ], [ -74.425911, 44.9956956 ], [ -74.458, 44.997 ], [ -74.658, 45.0 ], [ -74.751, 45.002 ], [ -74.77, 45.006 ], [ -74.786, 45.011 ], [ -74.812, 45.018 ], [ -74.829, 45.019 ], [ -74.85, 45.016 ], [ -74.883, 45.006 ], [ -74.9, 45.0 ], [ -74.906, 44.998 ], [ -74.909, 44.996 ], [ -74.911, 44.995 ], [ -74.913, 44.994 ], [ -74.9136794, 44.9939952 ], [ -74.9139199, 44.9939051 ], [ -74.9401465, 44.9938088 ], [ -75.055, 44.993 ], [ -75.1693584, 44.9184938 ], [ -75.2543387, 44.8629153 ], [ -75.278, 44.857 ], [ -75.289, 44.851 ], [ -75.302, 44.846 ], [ -75.306, 44.842 ], [ -75.313, 44.84 ], [ -75.318, 44.837 ], [ -75.338, 44.823 ], [ -75.347, 44.814 ], [ -75.368, 44.801 ], [ -75.374, 44.799 ], [ -75.39, 44.79 ], [ -75.395, 44.785 ], [ -75.396, 44.786 ], [ -75.436, 44.762 ], [ -75.454, 44.745 ], [ -75.475, 44.732 ], [ -75.49, 44.72 ], [ -75.5, 44.714 ], [ -75.51, 44.707 ], [ -75.537, 44.691 ], [ -75.545, 44.685 ], [ -75.552, 44.68 ], [ -75.563, 44.674 ], [ -75.577, 44.663 ], [ -75.583, 44.66 ], [ -75.592, 44.651 ], [ -75.618, 44.635 ], [ -75.622, 44.631 ], [ -75.628, 44.628 ], [ -75.652, 44.609 ], [ -75.658, 44.606 ], [ -75.667, 44.598 ], [ -75.682, 44.588 ], [ -75.707, 44.568 ], [ -75.712, 44.565 ], [ -75.717971, 44.5596924 ], [ -76.0318002, 44.3544432 ], [ -76.034, 44.353 ], [ -76.035, 44.353 ], [ -76.439, 44.094 ], [ -76.7872543, 43.6430302 ], [ -76.787974, 43.6430336 ], [ -76.788, 43.643 ], [ -76.8716677, 43.6434204 ], [ -77.186329, 43.644875 ], [ -78.5409034, 43.6314114 ], [ -78.568, 43.631 ], [ -78.69, 43.631 ], [ -78.6931014, 43.6298987 ], [ -79.09501, 43.625904 ], [ -80.16626, 45.993566 ], [ -86.3068, 47.4883194 ], [ -86.31, 47.489 ], [ -86.3105841, 47.4892405 ], [ -86.3118277, 47.4895432 ], [ -88.354324, 48.2993226 ], [ -88.3514242, 48.3091398 ], [ -87.5742701, 50.9375268 ], [ -82.6678928, 54.1618906 ], [ -82.661101, 54.166354 ], [ -83.498176, 63.725589 ], [ -83.4979569, 63.7256262 ], [ -83.498, 63.726 ], [ -60.3885306, 67.6495623 ], [ -60.3754061, 67.6378133 ], [ -56.2653226, 63.9513877 ], [ -56.771737, 58.733519 ], [ -53.615, 50.79 ], [ -53.6152852, 50.789869 ], [ -53.615226, 50.78972 ], [ -60.319069, 47.345892 ], [ -64.2619964, 46.1565165 ], [ -64.276, 46.152 ], [ -64.3048893, 46.1535361 ], [ -67.783, 46.293 ], [ -67.791, 47.068 ], [ -67.795, 47.07 ], [ -67.811, 47.076 ], [ -67.819, 47.082 ], [ -67.823, 47.084 ], [ -67.837, 47.087 ], [ -67.868, 47.101 ], [ -67.881, 47.104 ] ] ] } }
]
}
