81.864,-60.817
81.863,-60.823
81.863,-60.827
81.817,-61.091
81.771,-61.356
81.727,-61.611
81.725,-61.619
81.724,-61.626
81.587,-62.38
81.585,-62.388
81.585,-62.393
81.338,-63.675
81.337,-63.676
81.337,-63.677
81.316,-63.779
81.302,-63.852
81.301,-63.855
81.264,-64.029
81.122,-64.719
81.122,-64.722
81.121,-64.725
81.016,-65.201
80.976,-65.391
80.976,-65.392
80.946,-65.522
80.904,-65.714
80.903,-65.718
80.902,-65.722
80.754,-66.355
80.683,-66.665
80.681,-66.67
80.665,-66.734
80.645,-66.82
80.645,-66.822
80.644,-66.823
80.384,-67.864
80.383,-67.867
80.382,-67.87
80.361,-67.949
80.346,-68.008
80.345,-68.014
80.287,-68.226
80.119,-68.854
80.119,-68.856
80.118,-68.858
80.055,-69.079
80.005,-69.262
80.004,-69.267
79.93,-69.514
79.814,-69.922
79.813,-69.924
79.812,-69.927
79.703,-70.28
79.621,-70.558
79.62,-70.563
79.548,-70.785
79.466,-71.051
79.465,-71.053
79.465,-71.055
79.329,-71.462
79.232,-71.762
79.231,-71.766
79.175,-71.924
79.114,-72.108
79.114,-72.109
79.113,-72.11
78.946,-72.579
78.839,-72.883
78.837,-72.887
78.8,-72.985
78.759,-73.099
78.759,-73.1
78.544,-73.658
78.441,-73.928
78.44,-73.931
78.423,-73.975
78.401,-74.03
78.401,-74.031
78,-75
78,-75
77.605,-75.222
77.594,-75.229
77.592,-75.23
77.209,-75.432
77.193,-75.44
77.159,-75.457
77.114,-75.481
77.112,-75.482
77.107,-75.484
76.693,-75.687
76.685,-75.691
76.68,-75.693
76.656,-75.704
76.623,-75.72
76.622,-75.721
76,-76
76,-76
75.646,-74.899
75.288,-73.85
74.925,-72.85
74.558,-71.896
74.187,-70.986
73.813,-70.117
73.435,-69.286
73.054,-68.491
72.67,-67.731
72.283,-67.002
71.893,-66.304
71.502,-65.634
71.108,-64.992
70.711,-64.374
70.313,-63.781
69.913,-63.21
69.512,-62.661
69.108,-62.132
68.703,-61.622
68.297,-61.13
67.889,-60.656
67.479,-60.198
67.069,-59.755
66.657,-59.327
66.245,-58.914
65.831,-58.513
65.416,-58.126
65,-57.75
65,-57.75
64.9,-58.764
64.792,-59.77
64.678,-60.768
64.558,-61.757
64.431,-62.738
64.297,-63.709
64.157,-64.67
64.011,-65.622
63.858,-66.564
63.7,-67.495
63.535,-68.415
63.365,-69.325
63.189,-70.224
63.007,-71.112
62.82,-71.989
62.628,-72.854
62.43,-73.709
62.227,-74.551
62.019,-75.383
61.806,-76.203
61.806,-76.203
61.359,-76.267
60.912,-76.329
60.465,-76.39
60.018,-76.449
59.57,-76.506
59.123,-76.562
58.676,-76.616
58.229,-76.669
57.782,-76.721
57.334,-76.772
56.887,-76.821
56.44,-76.869
55.992,-76.916
55.545,-76.962
55.098,-77.007
54.65,-77.05
54.203,-77.093
53.755,-77.135
53.308,-77.176
52.86,-77.217
52.413,-77.256
52.413,-77.256
52.155,-77.822
51.893,-78.381
51.63,-78.933
51.363,-79.479
51.095,-80.019
50.823,-80.553
50.55,-81.08
50.274,-81.601
49.996,-82.116
49.715,-82.625
49.432,-83.129
49.147,-83.626
48.86,-84.118
48.571,-84.604
48.28,-85.085
48.28,-85.085
48.458,-85.7
48.633,-86.319
48.805,-86.942
48.973,-87.57
49.137,-88.202
49.299,-88.838
49.456,-89.478
49.611,-90.122
49.761,-90.77
49.908,-91.422
50.051,-92.078
50.191,-92.738
50.327,-93.402
50.459,-94.07
50.587,-94.741
50.711,-95.416
50.711,-95.416
50.739,-96.058
50.764,-96.701
50.785,-97.345
50.802,-97.989
50.816,-98.634
50.827,-99.279
50.834,-99.924
50.837,-100.57
50.837,-101.21
50.833,-101.86
50.833,-101.86
51.083,-102.42
51.33,-102.98
51.574,-103.55
51.816,-104.12
52.054,-104.7
52.29,-105.29
52.523,-105.88
52.753,-106.48
52.753,-106.48
52.32,-106.47
51.886,-106.47
51.453,-106.46
51.019,-106.45
50.586,-106.44
50.152,-106.44
49.719,-106.43
49.719,-106.43
49.006,-106.44
49.006,-106.44
49.011,-107.06
49.013,-107.68
49.011,-108.3
49.006,-108.92
49.006,-108.92
49.011,-110
49.001,-110
48.999,-110.1
49,-110.13
48.999,-110.2
49,-110.3
48.999,-110.33
49,-110.37
48.999,-110.47
49,-110.5
48.999,-110.6
49,-110.67
48.999,-110.77
49,-111.33
48.999,-111.37
48.999,-111.8
49,-111.87
48.999,-112.03
49,-112.07
48.999,-112.17
49,-112.23
48.999,-112.3
49,-112.34
48.999,-112.4
49,-112.43
48.999,-112.5
48.999,-112.5
49,-112.54
48.999,-112.57
49,-112.6
49,-112.93
48.999,-112.97
49,-113.03
48.999,-113.23
49,-113.33
48.999,-113.37
49,-113.5
48.999,-113.57
49,-113.77
48.999,-114.03
49.001,-114.06
48.999,-114.34
49,-114.37
48.999,-114.47
49,-114.53
48.999,-114.6
49,-114.63
49,-114.67
48.999,-114.9
49,-115
48.999,-115.03
49,-115.13
48.999,-115.17
49,-115.37
48.999,-115.4
49,-115.47
48.999,-115.5
49,-115.5
49.011,-115.49
49.003,-116.41
49.003,-116.41
49,-116.69
49,-117
49.003,-117.04
49,-117.07
48.999,-117.2
49,-117.23
48.999,-117.27
49,-117.3
49,-117.57
48.999,-117.6
49,-117.83
48.999,-117.87
49,-117.97
49,-117.98
49.005,-117.98
49.392,-118.32
49.778,-118.67
50.163,-119.02
50.547,-119.38
50.93,-119.74
51.312,-120.11
51.693,-120.49
52.072,-120.87
52.45,-121.26
52.45,-121.26
52.752,-121.73
53.052,-122.21
53.351,-122.7
53.647,-123.2
53.941,-123.7
54.233,-124.2
54.523,-124.72
54.523,-124.72
54.643,-125.46
54.758,-126.21
54.868,-126.96
54.974,-127.71
55.075,-128.47
55.171,-129.23
55.263,-130
55.263,-130
55.282,-129.97
55.3,-129.98
55.338,-130.02
55.452,-130.04
55.498,-130.09
55.581,-130.13
55.683,-130.11
55.715,-130.15
55.766,-130.15
55.806,-130.12
55.822,-130.08
55.907,-130
55.912,-130
55.912,-130.01
55.93,-130.02
55.93,-130.02
55.947,-130.01
55.993,-130.01
56.001,-130
56.008,-130
56.017,-130.01
56.02,-130.01
56.044,-130.04
56.046,-130.04
56.066,-130.05
56.07,-130.06
56.078,-130.06
56.099,-130.08
56.116,-130.1
56.123,-130.1
56.099,-130.23
56.097,-130.24
56.096,-130.25
56.114,-130.3
56.129,-130.35
56.14,-130.42
56.142,-130.43
56.175,-130.44
56.199,-130.45
56.203,-130.45
56.215,-130.46
56.236,-130.47
56.243,-130.47
56.248,-130.54
56.255,-130.57
56.257,-130.58
56.265,-130.62
56.267,-130.62
56.269,-130.63
56.281,-130.65
56.282,-130.65
56.295,-130.67
56.307,-130.69
56.322,-130.71
56.328,-130.72
56.335,-130.73
56.339,-130.74
56.339,-130.74
56.353,-130.76
56.366,-130.77
56.368,-130.79
56.377,-130.86
56.38,-130.88
56.384,-130.91
56.385,-130.92
56.388,-130.94
56.391,-130.97
56.404,-131.07
56.406,-131.09
56.425,-131.12
56.435,-131.14
56.445,-131.16
56.45,-131.17
56.492,-131.3
56.493,-131.3
56.497,-131.31
56.5,-131.32
56.553,-131.47
56.611,-131.58
56.612,-131.58
56.6,-131.83
56.603,-131.84
56.704,-131.86
56.753,-131.9
56.806,-131.87
56.874,-132.12
57,-132.07
57.045,-132.05
57.091,-132.37
57.211,-132.25
57.219,-132.25
57.35,-132.37
57.497,-132.55
57.617,-132.66
57.696,-132.75
57.84,-132.87
58,-133.07
58.154,-133.17
58.175,-133.2
58.182,-133.21
58.19,-133.22
58.227,-133.27
58.276,-133.35
58.277,-133.35
58.281,-133.36
58.346,-133.42
58.388,-133.46
58.421,-133.4
58.431,-133.38
58.456,-133.43
58.459,-133.43
58.528,-133.56
58.54,-133.58
58.551,-133.6
58.565,-133.63
58.596,-133.68
58.603,-133.69
58.612,-133.71
58.729,-133.84
58.767,-133.97
58.849,-134.22
58.856,-134.24
58.861,-134.26
58.901,-134.31
58.923,-134.34
58.931,-134.33
58.957,-134.32
58.962,-134.31
58.979,-134.41
59.039,-134.38
59.089,-134.45
59.132,-134.48
59.131,-134.55
59.131,-134.57
59.137,-134.58
59.192,-134.68
59.244,-134.7
59.246,-134.71
59.25,-134.74
59.28,-134.95
59.281,-134.96
59.346,-135.03
59.382,-135
59.388,-134.99
59.428,-135.1
59.452,-135.08
59.475,-135.03
59.564,-135.03
59.62,-135.11
59.623,-135.12
59.624,-135.14
59.626,-135.16
59.63,-135.16
59.663,-135.22
59.696,-135.23
59.698,-135.25
59.733,-135.35
59.739,-135.36
59.8,-135.48
59.667,-135.94
59.642,-136.17
59.632,-136.23
59.629,-136.24
59.626,-136.25
59.622,-136.27
59.62,-136.27
59.616,-136.29
59.603,-136.34
59.6,-136.35
59.559,-136.24
59.528,-136.24
59.496,-136.27
59.471,-136.29
59.469,-136.3
59.465,-136.3
59.451,-136.36
59.45,-136.36
59.449,-136.37
59.45,-136.37
59.453,-136.4
59.453,-136.4
59.458,-136.43
59.464,-136.46
59.466,-136.48
59.376,-136.48
59.322,-136.47
59.284,-136.47
59.275,-136.5
59.266,-136.49
59.26,-136.49
59.202,-136.55
59.17,-136.58
59.166,-136.58
59.162,-136.74
59.16,-136.83
59.147,-136.85
59.136,-136.88
59.101,-136.97
59.079,-137.04
59.07,-137.06
59.063,-137.08
59.032,-137.18
59.023,-137.21
59.015,-137.23
59.008,-137.25
58.911,-137.45
58.908,-137.45
58.906,-137.53
58.985,-137.5
59.106,-137.54
59.244,-137.61
59.421,-137.95
59.496,-138.09
59.769,-138.63
59.81,-138.67
59.845,-138.68
59.906,-138.71
59.925,-138.8
59.995,-139.05
60,-139.06
60.088,-139.2
60.319,-139.07
60.352,-139.07
60.352,-139.11
60.335,-139.69
60.328,-139.7
60.292,-139.77
60.28,-139.79
60.272,-139.81
60.182,-139.98
60.307,-140.45
60.297,-140.46
60.284,-140.47
60.258,-140.49
60.245,-140.5
60.238,-140.51
60.222,-140.52
60.27,-140.79
60.298,-140.95
60.306,-140.99
60.307,-141
90,-141
82,-60.001
81.864,-60.817
