47.104,-67.881
47.112,-67.889
47.1143871,-67.8894212
47.129,-67.892
47.133,-67.898
47.135,-67.901
47.147,-67.909
47.148,-67.91
47.15,-67.914
47.15,-67.915
47.155,-67.926
47.165,-67.936
47.171,-67.939
47.184,-67.951
47.194,-67.952
47.198,-67.955
47.2,-67.958
47.205,-67.974
47.211,-67.99
47.22,-68
47.238,-68.02
47.256,-68.062
47.257,-68.064
47.26,-68.074
47.266,-68.079
47.272,-68.083
47.278,-68.098
47.287,-68.12
47.292,-68.126
47.294,-68.127
47.296,-68.137
47.31,-68.152
47.322,-68.152
47.325,-68.155
47.328,-68.161
47.329,-68.176
47.339,-68.202
47.339,-68.203
47.34,-68.216
47.345,-68.224
47.346,-68.224
47.351,-68.225
47.354,-68.231
47.3534637,-68.2422626
47.353,-68.252
47.353,-68.265
47.359,-68.281
47.36,-68.285
47.359,-68.293
47.356,-68.305
47.36,-68.323
47.36,-68.336
47.356,-68.357
47.356,-68.362
47.351,-68.37
47.34,-68.38
47.326,-68.384
47.323,-68.384
47.309,-68.381
47.308,-68.382
47.303,-68.385
47.302,-68.384
47.294,-68.376
47.29,-68.376
47.288,-68.379
47.287,-68.39
47.288,-68.413
47.282,-68.429
47.284,-68.441
47.283,-68.449
47.285,-68.458
47.295,-68.466
47.298,-68.474
47.294,-68.491
47.297,-68.508
47.296,-68.518
47.293,-68.529
47.285,-68.54
47.282,-68.55
47.286,-68.571
47.28765,-68.5776
47.288,-68.579
47.2853961,-68.5833398
47.2853961,-68.5833398
47.282,-68.589
47.275,-68.592
47.27,-68.599
47.268,-68.598
47.259,-68.594
47.25,-68.605
47.246,-68.613
47.243,-68.622
47.24,-68.654
47.237,-68.66
47.237,-68.664
47.239,-68.669
47.243,-68.676
47.244,-68.688
47.2423266,-68.6930202
47.24,-68.7
47.238,-68.705
47.239,-68.711
47.24,-68.712
47.241,-68.718
47.239,-68.723
47.239,-68.724
47.236,-68.735
47.227,-68.752
47.223,-68.762
47.221,-68.77
47.222,-68.781
47.216,-68.807
47.214,-68.816
47.19,-68.861
47.188,-68.874
47.183,-68.882
47.183,-68.896
47.179,-68.902
47.186,-68.909
47.19,-68.92
47.195,-68.92
47.198,-68.925
47.197,-68.93
47.199,-68.929
47.2,-68.934
47.206,-68.942
47.202,-68.95
47.207,-68.953
47.206,-68.961
47.213,-68.966
47.23,-69.004
47.241,-69.033
47.256,-69.05
47.268,-69.047
47.27,-69.047
47.275,-69.048
47.279,-69.05
47.28,-69.05
47.284,-69.049
47.292,-69.05
47.294,-69.053
47.306,-69.049
47.3083782,-69.0501891
47.31,-69.051
47.316,-69.055
47.355,-69.054
47.377,-69.054
47.378,-69.053
47.379,-69.05
47.384,-69.047
47.383,-69.042
47.384,-69.04
47.386,-69.04
47.391,-69.045
47.397,-69.043
47.396,-69.04
47.397,-69.038
47.401,-69.042
47.404,-69.039
47.403,-69.031
47.405,-69.033
47.408,-69.03
47.408,-69.037
47.415,-69.034
47.416,-69.04
47.416,-69.042
47.422,-69.039
47.427,-69.043
47.427,-69.047
47.424,-69.046
47.422,-69.051
47.425,-69.048
47.43,-69.052
47.429,-69.054
47.43,-69.056
47.432,-69.055
47.434,-69.062
47.431,-69.062
47.43,-69.067
47.427,-69.068
47.427,-69.074
47.424,-69.081
47.426,-69.087
47.424,-69.09
47.427,-69.091
47.427,-69.097
47.431,-69.099
47.431,-69.104
47.428,-69.105
47.428,-69.107
47.436,-69.108
47.436,-69.113
47.438,-69.113
47.439,-69.118
47.442,-69.122
47.441,-69.124
47.447,-69.139
47.444,-69.141
47.449,-69.146
47.451,-69.157
47.448,-69.162
47.451,-69.164
47.457,-69.178
47.454,-69.19
47.455,-69.197
47.452,-69.204
47.46,-69.224
47.317,-69.369
47.16,-69.528
47.139,-69.548
47.12,-69.568
47.057,-69.632
46.949,-69.74
46.944,-69.746
46.9340115,-69.7560509
46.784,-69.907
46.749,-69.942
46.728,-69.964
46.714,-69.978
46.695,-69.997
46.61,-70.015
46.559,-70.026
46.456,-70.048
46.454,-70.048
46.448,-70.049
46.438,-70.051
46.438,-70.052
46.416,-70.056
46.409,-70.076
46.41,-70.083
46.409,-70.087
46.411,-70.089
46.41,-70.094
46.41,-70.095
46.409,-70.096
46.409,-70.095
46.408,-70.094
46.407,-70.097
46.407,-70.095
46.405,-70.096
46.405,-70.1
46.404,-70.098
46.403,-70.1
46.401,-70.099
46.401,-70.101
46.398,-70.1
46.393,-70.107
46.391,-70.106
46.39,-70.109
46.387,-70.11
46.387,-70.113
46.386,-70.111
46.385,-70.114
46.388,-70.116
46.386,-70.116
46.381,-70.126
46.371,-70.127
46.369,-70.133
46.37,-70.136
46.364,-70.141
46.362,-70.14
46.362,-70.145
46.359,-70.148
46.361,-70.156
46.359,-70.159
46.361,-70.162
46.357,-70.166
46.359,-70.172
46.354,-70.181
46.352,-70.182
46.35,-70.191
46.341,-70.195
46.337,-70.2
46.329,-70.209
46.324,-70.206
46.32,-70.207
46.314,-70.203
46.309,-70.206
46.3,-70.206
46.298,-70.213
46.294,-70.215
46.291,-70.231
46.285,-70.232
46.279,-70.24
46.273,-70.241
46.273,-70.243
46.272,-70.244
46.26,-70.253
46.254,-70.254
46.249,-70.251
46.246,-70.255
46.245,-70.254
46.239,-70.259
46.235,-70.26
46.231,-70.261
46.225,-70.267
46.219,-70.267
46.215,-70.274
46.213,-70.272
46.21,-70.272
46.196,-70.286
46.195,-70.286
46.192,-70.293
46.189,-70.29
46.186,-70.291
46.185,-70.286
46.175,-70.278
46.169,-70.266
46.165,-70.264
46.157,-70.251
46.152,-70.248
46.15,-70.24
46.146,-70.237
46.143,-70.24
46.134,-70.242
46.129,-70.244
46.113,-70.255
46.1,-70.253
46.101,-70.26
46.101,-70.261
46.102,-70.273
46.1,-70.278
46.1,-70.285
46.098,-70.285
46.094,-70.29
46.087,-70.292
46.082,-70.302
46.079,-70.3
46.073,-70.302
46.073,-70.304
46.072,-70.305
46.071,-70.303
46.064,-70.311
46.062,-70.308
46.062,-70.303
46.061,-70.3
46.063,-70.284
46.061,-70.28
46.06,-70.278
46.052,-70.28
46.039,-70.298
46.033,-70.302
46.03,-70.299
46.028,-70.301
46.025,-70.307
46.019,-70.318
46.016,-70.311
46.012,-70.311
46.01,-70.306
46.003,-70.304
45.999,-70.302
45.997,-70.292
45.994,-70.289
45.995,-70.284
45.986,-70.295
45.986,-70.3
45.983,-70.307
45.98,-70.309
45.978,-70.307
45.974,-70.312
45.973,-70.31
45.966,-70.312
45.963,-70.316
45.962,-70.313
45.965,-70.305
45.963,-70.298
45.964,-70.283
45.967,-70.277
45.964,-70.273
45.963,-70.275
45.961,-70.274
45.964,-70.266
45.959,-70.258
45.952,-70.261
45.952,-70.256
45.955,-70.253
45.95,-70.248
45.947,-70.242
45.945,-70.244
45.945,-70.243
45.944,-70.239
45.939,-70.24
45.934,-70.251
45.924,-70.263
45.92,-70.262
45.92,-70.26
45.918,-70.257
45.909,-70.259
45.909,-70.258
45.907,-70.253
45.903,-70.254
45.894,-70.266
45.891,-70.259
45.89,-70.26
45.883,-70.272
45.88,-70.274
45.872,-70.284
45.863,-70.303
45.859,-70.308
45.853,-70.337
45.853,-70.338
45.852,-70.342
45.848,-70.348
45.848,-70.349
45.847,-70.349
45.841,-70.352
45.835,-70.359
45.835,-70.371
45.831,-70.369
45.828,-70.372
45.82,-70.386
45.814,-70.388
45.808,-70.397
45.799,-70.396
45.796,-70.401
45.798,-70.407
45.797,-70.408
45.796,-70.417
45.794,-70.418
45.79,-70.414
45.785,-70.416
45.784,-70.41
45.776,-70.406
45.773,-70.408
45.77,-70.405
45.763,-70.407
45.757,-70.401
45.757,-70.396
45.751,-70.389
45.75,-70.388
45.747,-70.389
45.745,-70.392
45.744,-70.394
45.74,-70.394
45.738,-70.389
45.736,-70.39
45.736,-70.385
45.735,-70.386
45.735,-70.384
45.729,-70.39
45.729,-70.397
45.72,-70.4
45.71,-70.429
45.708,-70.429
45.707,-70.426
45.707,-70.433
45.704,-70.439
45.705,-70.441
45.704,-70.444
45.704,-70.451
45.707,-70.456
45.706,-70.462
45.706,-70.465
45.703,-70.471
45.702,-70.469
45.695,-70.479
45.689,-70.494
45.682,-70.502
45.679,-70.511
45.671,-70.52
45.669,-70.52
45.667,-70.526
45.671,-70.534
45.666,-70.542
45.666,-70.547
45.668,-70.553
45.667,-70.558
45.663,-70.564
45.66,-70.562
45.655,-70.565
45.648,-70.576
45.643,-70.58
45.642,-70.584
45.639,-70.584
45.63,-70.592
45.63,-70.597
45.626,-70.607
45.622,-70.609
45.615,-70.618
45.612,-70.619
45.609,-70.632
45.61,-70.636
45.6071248,-70.6446255
45.607,-70.645
45.592,-70.654
45.59,-70.659
45.587,-70.659
45.583,-70.664
45.579,-70.672
45.576,-70.672
45.571,-70.678
45.569,-70.688
45.567,-70.685
45.562,-70.689
45.552,-70.677
45.549,-70.687
45.54,-70.697
45.532,-70.701
45.53,-70.699
45.528,-70.706
45.52,-70.711
45.518,-70.717
45.514,-70.722
45.507,-70.723
45.506,-70.722
45.502,-70.712
45.498,-70.712
45.49,-70.718
45.487,-70.716
45.48,-70.706
45.479,-70.699
45.474,-70.692
45.466,-70.693
45.464,-70.69
45.462,-70.682
45.455,-70.681
45.452,-70.681
45.452,-70.675
45.446,-70.663
45.446,-70.658
45.445,-70.651
45.439,-70.647
45.436,-70.643
45.434,-70.643
45.431,-70.64
45.427,-70.636
45.427,-70.63
45.423,-70.628
45.416,-70.631
45.415,-70.634
45.415,-70.635
45.411,-70.635
45.407,-70.63
45.406,-70.624
45.403,-70.621
45.4,-70.623
45.399,-70.631
45.395,-70.636
45.389,-70.639
45.383,-70.635
45.377,-70.65
45.378,-70.659
45.378,-70.661
45.386,-70.662
45.393,-70.675
45.393,-70.676
45.394,-70.678
45.395,-70.683
45.395,-70.684
45.393,-70.688
45.392,-70.696
45.395,-70.7
45.39,-70.712
45.396,-70.724
45.399,-70.73
45.404,-70.73
45.412,-70.744
45.416,-70.745
45.421,-70.744
45.423,-70.75
45.428,-70.755
45.426,-70.764
45.428,-70.768
45.431,-70.781
45.426,-70.788
45.428,-70.794
45.427,-70.798
45.418,-70.803
45.416,-70.811
45.411,-70.813
45.401,-70.824
45.4,-70.826
45.391,-70.824
45.391,-70.82
45.39,-70.817
45.388,-70.814
45.383,-70.812
45.377,-70.807
45.366,-70.802
45.363,-70.808
45.358,-70.81
45.357,-70.814
45.352,-70.809
45.349,-70.81
45.345,-70.817
45.34,-70.82
45.333,-70.818
45.328,-70.813
45.328,-70.808
45.3248791,-70.8071083
45.3248791,-70.8071083
45.321,-70.806
45.312,-70.808
45.308,-70.815
45.304,-70.811
45.298,-70.816
45.299,-70.819
45.294,-70.835
45.29,-70.83
45.2828592,-70.8312983
45.279,-70.832
45.2769938,-70.8346749
45.276,-70.836
45.267,-70.841
45.263,-70.849
45.256,-70.85
45.2539441,-70.8479441
45.2539441,-70.8479441
45.253,-70.847
45.245,-70.849
45.238,-70.84
45.237,-70.837
45.235,-70.838
45.234,-70.846
45.229,-70.858
45.234,-70.875
45.233,-70.88
45.235,-70.885
45.239,-70.889
45.24,-70.895
45.244,-70.898
45.2498444,-70.8958084
45.252,-70.895
45.253,-70.896
45.255,-70.898
45.258,-70.898
45.258,-70.899
45.261,-70.906
45.265,-70.905
45.269,-70.908
45.27,-70.911
45.277,-70.916
45.279,-70.921
45.287,-70.919
45.289,-70.917
45.29,-70.916
45.29,-70.915
45.292,-70.914
45.296,-70.912
45.3,-70.914
45.305,-70.92
45.312,-70.918
45.315,-70.926
45.315,-70.927
45.319,-70.93
45.319,-70.935
45.32,-70.939
45.323,-70.941
45.326,-70.945
45.329,-70.945
45.331,-70.949
45.339,-70.952
45.337,-70.962
45.332,-70.967
45.334,-70.973
45.332,-70.985
45.334,-70.989
45.338,-70.991
45.348,-71.011
45.344,-71.013
45.338,-71.011
45.334,-71.012
45.333,-71.008
45.333,-71.007
45.328,-71.002
45.325,-71.004
45.319,-71.008
45.316,-71.016
45.315,-71.027
45.313,-71.029
45.31,-71.033
45.312,-71.038
45.312,-71.039
45.313,-71.047
45.311,-71.053
45.314,-71.059
45.312,-71.066
45.312,-71.067
45.307,-71.075
45.307,-71.076
45.306,-71.083
45.302,-71.098
45.295,-71.105
45.292,-71.105
45.29,-71.108
45.285,-71.111
45.282,-71.109
45.283,-71.106
45.279,-71.107
45.275,-71.111
45.274,-71.117
45.262,-71.12
45.255,-71.125
45.254,-71.128
45.245,-71.132
45.242,-71.145
45.24,-71.147
45.243,-71.149
45.25,-71.162
45.246,-71.173
45.24,-71.181
45.245,-71.184
45.245,-71.187
45.248,-71.187
45.251,-71.195
45.254,-71.198
45.254,-71.203
45.25,-71.212
45.251,-71.221
45.254,-71.222
45.25,-71.228
45.25,-71.231
45.26,-71.235
45.262,-71.239
45.268,-71.244
45.268,-71.249
45.273,-71.256
45.272,-71.259
45.278,-71.263
45.291,-71.267
45.292,-71.266
45.293,-71.265
45.297,-71.273
45.296,-71.277
45.295,-71.28
45.298,-71.281
45.302,-71.284
45.301,-71.288
45.299,-71.291
45.299,-71.297
45.297,-71.301
45.287,-71.309
45.287,-71.314
45.282,-71.321
45.28,-71.332
45.273,-71.336
45.271,-71.343
45.272,-71.348
45.269,-71.353
45.27,-71.361
45.266,-71.363
45.257,-71.357
45.253,-71.357
45.248,-71.363
45.245,-71.377
45.233,-71.385
45.235,-71.389
45.241,-71.394
45.243,-71.402
45.239,-71.412
45.236,-71.412
45.236,-71.417
45.233,-71.42
45.234,-71.429
45.238,-71.433
45.239,-71.437
45.239,-71.438
45.238,-71.44
45.237,-71.444
45.235,-71.443
45.235,-71.441
45.225,-71.426
45.222,-71.418
45.218,-71.416
45.215,-71.403
45.207,-71.399
45.204,-71.398
45.203,-71.399
45.198,-71.406
45.195,-71.405
45.188,-71.409
45.185,-71.415
45.179,-71.415
45.176,-71.416
45.174,-71.417
45.17,-71.419
45.169,-71.421
45.166,-71.424
45.166,-71.425
45.164,-71.424
45.161,-71.424
45.153,-71.427
45.149,-71.433
45.145,-71.435
45.142,-71.436
45.142,-71.438
45.135,-71.432
45.13,-71.427
45.124,-71.429
45.118,-71.437
45.116,-71.44
45.113,-71.44
45.113,-71.448
45.11,-71.45
45.108,-71.448
45.105,-71.449
45.099,-71.458
45.095,-71.459
45.093,-71.465
45.084,-71.469
45.084,-71.481
45.081,-71.481
45.079,-71.486
45.071,-71.489
45.071,-71.494
45.069,-71.496
45.068,-71.497
45.067,-71.497
45.06,-71.498
45.058,-71.499
45.054,-71.499
45.052,-71.501
45.052,-71.505
45.049,-71.505
45.045,-71.5
45.045,-71.498
45.046,-71.493
45.042,-71.491
45.035,-71.492
45.032,-71.495
45.026,-71.5
45.024,-71.497
45.024,-71.5
45.021,-71.499
45.02,-71.499
45.017,-71.501
45.016,-71.501
45.015,-71.5
45.013,-71.502
45.011,-71.769
45.008,-71.915
45.004,-72.275
45.008,-72.447
45.008,-72.556
45.012,-72.585
45.015,-72.642
45.017,-72.846
45.014,-72.968
45.016,-73.064
45.011,-73.346
45.011,-73.347
45.009,-73.434
45.003,-73.651
45.002,-73.802
45,-73.898
44.997,-73.979
44.9964731,-74.2139855
44.9956956,-74.425911
44.997,-74.458
45,-74.658
45.002,-74.751
45.006,-74.77
45.011,-74.786
45.018,-74.812
45.019,-74.829
45.016,-74.85
45.006,-74.883
45,-74.9
44.998,-74.906
44.996,-74.909
44.995,-74.911
44.994,-74.913
44.9939952,-74.9136794
44.9939051,-74.9139199
44.9938088,-74.9401465
44.993,-75.055
44.9184938,-75.1693584
44.8629153,-75.2543387
44.857,-75.278
44.851,-75.289
44.846,-75.302
44.842,-75.306
44.84,-75.313
44.837,-75.318
44.823,-75.338
44.814,-75.347
44.801,-75.368
44.799,-75.374
44.79,-75.39
44.785,-75.395
44.786,-75.396
44.762,-75.436
44.745,-75.454
44.732,-75.475
44.72,-75.49
44.714,-75.5
44.707,-75.51
44.691,-75.537
44.685,-75.545
44.68,-75.552
44.674,-75.563
44.663,-75.577
44.66,-75.583
44.651,-75.592
44.635,-75.618
44.631,-75.622
44.628,-75.628
44.609,-75.652
44.606,-75.658
44.598,-75.667
44.588,-75.682
44.568,-75.707
44.565,-75.712
44.5596924,-75.717971
44.3544432,-76.0318002
44.353,-76.034
44.353,-76.035
44.35,-76.047
44.346,-76.053
44.343,-76.058
44.344,-76.057
44.345,-76.058
44.341,-76.064
44.294,-76.138
44.292,-76.145
44.2720891,-76.1577209
44.252354,-76.1878961
44.249,-76.193
44.243349,-76.2016649
44.2038011,-76.2621341
44.197,-76.292
44.179,-76.318
44.151,-76.363
44.147,-76.366
44.147,-76.369
44.121,-76.41
44.1,-76.442
44.094,-76.439
43.6430302,-76.7872543
43.6430336,-76.787974
43.643,-76.788
43.6434204,-76.8716677
43.644875,-77.186329
43.6314114,-78.5409034
43.631,-78.568
43.631,-78.69
43.6298987,-78.6931014
43.625904,-79.09501
45.993566,-80.16626
47.4883194,-86.3068
47.489,-86.31
47.4892405,-86.3105841
47.4895432,-86.3118277
47.538,-86.429
47.571,-86.507
47.775,-86.999
47.855,-87.207
47.8611904,-87.2217881
48.052,-87.715
48.2,-88.098
48.2047262,-88.1097943
48.2047262,-88.1097943
48.2993226,-88.354324
48.3091398,-88.3514242
48.74,-88.23
49.18,-88.104
49.619,-87.975
50.059,-87.844
50.498,-87.711
50.9210612,-87.5799378
50.936871,-87.575268
50.9375268,-87.5742701
51.269,-87.115
51.599,-86.649
51.927,-86.176
52.253,-85.696
52.577,-85.208
52.899,-84.714
53.219,-84.212
53.537,-83.703
53.853,-83.186
54.1618906,-82.6678928
54.166354,-82.661101
63.725589,-83.498176
63.7256262,-83.4979569
63.726,-83.498
63.882,-82.638
64.034,-81.768
64.179,-80.888
64.32,-80
64.545,-79.107
64.765,-78.199
64.98,-77.276
65.188,-76.339
65.39,-75.387
65.587,-74.421
65.777,-73.44
65.961,-72.444
66.138,-71.435
66.309,-70.412
66.473,-69.374
66.63,-68.324
66.779,-67.26
66.922,-66.184
67.057,-65.095
67.185,-63.995
67.305,-62.883
67.417,-61.76
67.4167632,-61.7595657
67.6495623,-60.3885306
67.6378133,-60.3754061
64.999,-57.757941
64.999,-57.757
64.998871,-57.757759
64.0536182,-56.4050738
63.9513877,-56.2653226
58.733519,-56.771737
53.5797613,-54.7238638
53.579,-54.723
53.181,-54.556
52.783,-54.392
52.385,-54.231
51.987,-54.073
51.588,-53.918
51.189,-53.765
50.79,-53.615
50.789869,-53.6152852
50.78972,-53.615226
47.345892,-60.319069
46.1565165,-64.2619964
46.152,-64.276
46.1535361,-64.3048893
46.243124,-66.2164335
46.258,-66.612
46.277,-67.197
46.293,-67.783
46.346,-67.783
46.413,-67.784
46.5319108,-67.7867654
46.5319108,-67.7867654
46.542,-67.787
46.59,-67.788
46.661,-67.789
46.791,-67.789
46.913,-67.79
47.068,-67.791
47.07,-67.795
47.076,-67.811
47.082,-67.819
47.084,-67.823
47.087,-67.837
47.101,-67.868
47.104,-67.881
