{
  "fileVersion": 3,
  "checksum": "7f369b27490e9c0eff391e4e646aa629",
  "fileFormatVersion": 1,
  "fileName": "nats.geojson",
  "fileGeneratedBy": "SVDD",
  "type": "FeatureCollection",
  "customerCollection": [
    {
      "type": "customer",
      "properties": {
        "customerID": "CUS-1000007",
        "customerName": "NATS",
        "customerRegion": "United Kingdom",
        "customerRecordVersion": 3,
        "customerEffectiveDate": "2018-11-07T12:00:00.000Z",
        "customerEndDate": "2099-12-31T23:59:59.999Z",
        "anspTargetReportBundleTimeMsecs": 50,
        "cat023StatusReportEnabled": false,
        "servicePredictionReportLookAheadHours": 24,
        "rateServicePredictionReportMins": 30,
        "rateServicePredictionDefinitionMins": 30,
        "rateVersionNumberReportMins": 5,
        "DDID": "0x0002",
        "anspTargetReportVersion": "2.4",
        "servicePredictionReportTimeIncrementMins": 1,
        "anspTargetReportTOA": true,
        "anspTargetReportFineTOMR": true,
        "trackNumberFieldEnabled": true,
        "anspTargetReportPosType": true,
        "anspTargetReportTOMRv": true,
        "anspTargetReportAGV": true,
        "anspTargetReportFTC0": true,
        "invalidMode3ACode": "0000",
        "duplicateType2SameSVol": false,
        "anspTargetReportValidation": false,
        "anspTargetReportFailedState": true,
        "sdpCollection": [
          {
            "sdpId": "0x000200",
            "sdpName": "Prestwick SDP",
            "sdpLocation": "Prestwick",
            "anspAssetIPAddress": "10.64.17.47",
            "anspAssetNetmask": "255.255.255.0",
            "anspInterfaceDuplexMode": "auto",
            "anspInterfaceDuplexSpeed": 100,
            "anspAssetDuplexType": "full",
            "serviceVolumeDelivery": [
              {
                "serviceVolumeId": "0x34a101",
                "singleOrDualStream": "single",
                "unicastOrMulticastStream1": "multicast",
                "reflectedSourceIPAddressStream1": "10.64.17.47",
                "reflectedDestinationIPAddressStream1": "10.69.23.217",
                "unicastOrMulticastStream2": "multicast"
              },
              {
                "serviceVolumeId": "0x34a501",
                "singleOrDualStream": "single",
                "unicastOrMulticastStream1": "multicast",
                "reflectedSourceIPAddressStream1": "10.64.17.47",
                "reflectedDestinationIPAddressStream1": "10.69.23.217",
                "unicastOrMulticastStream2": "multicast"
              },
              {
                "serviceVolumeId": "0x34a201",
                "singleOrDualStream": "single",
                "unicastOrMulticastStream1": "multicast",
                "reflectedSourceIPAddressStream1": "10.64.17.47",
                "reflectedDestinationIPAddressStream1": "10.69.23.217",
                "unicastOrMulticastStream2": "multicast"
              },
              {
                "serviceVolumeId": "0x34a301",
                "singleOrDualStream": "single",
                "unicastOrMulticastStream1": "multicast",
                "reflectedSourceIPAddressStream1": "10.64.17.47",
                "reflectedDestinationIPAddressStream1": "10.69.23.217",
                "unicastOrMulticastStream2": "multicast"
              }
            ]
          }
        ]
      }
    }
  ],
  "totalFeatures": 8,
  "features": [
    {
      "id": "34-a1-01-00",
      "type": "Feature",
      "bbox": [
        -30.000000,
        45.000000,
        -10.000000,
        61.000000
      ],
      "properties": {
        "featureVersion": 3,
        "featureEffectiveDate": "2018-11-07T12:00:00.000Z",
        "featureBirthDate": "1999-12-31T23:59:59.999Z",
        "featureEndDate": "2099-12-31T23:59:59.999Z",
        "customerID": "CUS-1000007",
        "volumeName": "Shanwick OCA",
        "icaoID": "EGGX",
        "sac": "0x34",
        "sic": "0xa1",
        "sid": "0x01",
        "featureID": "0x00",
        "featureType": "service",
        "serviceFeatureProperties": {
          "serviceType": "primary",
          "serviceDefaultMode": "active",
          "contractUpdateIntervalMsecs": 8000,
          "contractLatencyMsecs": 2000,
          "anspTargetReportUpdateMode": "update",
          "anspTargetReportMinWaitTimeMsecs": 700,
          "anspTargetReportPeriodicRateMsecs": 0,
          "anspTestTargetReportRateSecs": 5,
          "anspTestTargetReportICAO": "0xc1f901",
          "anspTestTargetReportPosition": [
            -21.000000,
            52.000000
          ],
          "anspTestTargetReportAltFeet": 0,
          "anspTestTargetReportMode3AEnabled": false,
          "anspTestTargetReportTargetIDEnabled": true,
          "anspTestTargetReportTargetID": "AIREON01",
          "offlineStatusThresholdPercent": 0,
          "degradedStatusThresholdPercent": 85,
          "networkServicesAddress": "233.52.161.1",
          "portTargetReportsCAT021": 59980,
          "portVersionNumberCAT247": 59981,
          "portAPDKeepAlive": 65535,
          "portEquipmentStatusCAT023": 59982,
          "portServiceVolumeStatusCAT023": 59983,
          "portServiceVolumeStatisticsCAT023": 59984,
          "portServiceDefinitionReportCAT238": 59988,
          "portServicePredictionReportCAT238": 59990,
          "portServiceSystemStatusReportCAT025": 59992,
          "portServiceStatisticsReportCAT025": 59993,
          "portConstellationTLEReportCAT253": 59994,
          "portCat033": 59681,
          "portCat033BelowMinLV": 59682,
          "portCat033DupType1": 59683,
          "portCat033DupType1BelowMinLV": 59684,
          "portCat033InvMode3A": 59685,
          "portCat033InvMode3ABelowMinLV": 59686,
          "latencyTPM": true,
          "updateIntervalTPM": true,
          "probabilityUpdateTPM": true,
          "probabilityLongGapTPM": true,
          "serviceDesignator": "1090ADSB",
          "serviceMode": "operational",
          "expectedTargetLoad": 2000,
          "sendSurfaceTargets": false,
          "minLinkVersion": 0,
          "anspTargetReportRxID1": 0,
          "gracefulDegradation": false,
          "gracefulDegradationLoad": 1000,
          "gracefulDegradationRate": 0.005,
          "serviceVolumeId": "0x34a101",
          "rateTLESecs": 30,
          "rateEquipmentStatusSecs": 5,
          "rateServiceVolumeStatusSecs": 5,
          "rateServiceVolumeStatisticsSecs": 5,
          "anspTestTargetReportTargetsNIC": 11,
          "anspTestTargetReportNoTargetsNIC": 10,
          "anspTestTargetReportTargetsNACp": 11,
          "anspTestTargetReportNoTargetsNACp": 10
        },
        "geometryType": "polygon",
        "centerPoint": [
          -21.333445,
          53.154144
        ],
        "floorFeet": 100,
        "ceilingFeet": 60000
      },
      "geometry": {
        "type": "Polygon",
        "coordinates": [
          [
            [
              -30.000000,
              61.000000
            ],
            [
              -30.000000,
              45.000000
            ],
            [
              -12.000000,
              45.000000
            ],
            [
              -11.160000,
              48.470000
            ],
            [
              -15.000000,
              49.000000
            ],
            [
              -15.000000,
              57.000000
            ],
            [
              -10.000000,
              57.000000
            ],
            [
              -10.000000,
              61.000000
            ],
            [
              -20.000000,
              61.000000
            ],
            [
              -30.000000,
              61.000000
            ]
          ]
        ]
      }
    },
    {
      "id": "34-a5-01-00",
      "type": "Feature",
      "bbox": [
        -12.000000,
        45.000000,
        -8.000000,
        48.470000
      ],
      "properties": {
        "featureVersion": 2,
        "featureEffectiveDate": "2018-11-07T12:00:00.000Z",
        "featureBirthDate": "1999-12-31T23:59:59.999Z",
        "featureEndDate": "2099-12-31T23:59:59.999Z",
        "customerID": "CUS-1000007",
        "volumeName": "Shanwick SE Corner",
        "icaoID": "EGGX",
        "sac": "0x34",
        "sic": "0xa5",
        "sid": "0x01",
        "featureID": "0x00",
        "featureType": "service",
        "serviceFeatureProperties": {
          "serviceType": "primary",
          "serviceDefaultMode": "active",
          "contractUpdateIntervalMsecs": 8000,
          "contractLatencyMsecs": 2000,
          "anspTargetReportUpdateMode": "update",
          "anspTargetReportMinWaitTimeMsecs": 700,
          "anspTargetReportPeriodicRateMsecs": 0,
          "anspTestTargetReportRateSecs": 5,
          "anspTestTargetReportICAO": "0xc1f905",
          "anspTestTargetReportPosition": [
            -10.000000,
            46.500000
          ],
          "anspTestTargetReportAltFeet": 0,
          "anspTestTargetReportMode3AEnabled": false,
          "anspTestTargetReportTargetIDEnabled": true,
          "anspTestTargetReportTargetID": "AIREON05",
          "offlineStatusThresholdPercent": 0,
          "degradedStatusThresholdPercent": 85,
          "networkServicesAddress": "233.52.165.1",
          "portTargetReportsCAT021": 59980,
          "portVersionNumberCAT247": 59981,
          "portAPDKeepAlive": 65535,
          "portEquipmentStatusCAT023": 59982,
          "portServiceVolumeStatusCAT023": 59983,
          "portServiceVolumeStatisticsCAT023": 59984,
          "portServiceDefinitionReportCAT238": 59988,
          "portServicePredictionReportCAT238": 59990,
          "portServiceSystemStatusReportCAT025": 59992,
          "portServiceStatisticsReportCAT025": 59993,
          "portConstellationTLEReportCAT253": 59994,
          "portCat033": 59681,
          "portCat033BelowMinLV": 59682,
          "portCat033DupType1": 59683,
          "portCat033DupType1BelowMinLV": 59684,
          "portCat033InvMode3A": 59685,
          "portCat033InvMode3ABelowMinLV": 59686,
          "latencyTPM": true,
          "updateIntervalTPM": true,
          "probabilityUpdateTPM": true,
          "probabilityLongGapTPM": true,
          "serviceDesignator": "1090ADSB",
          "serviceMode": "operational",
          "expectedTargetLoad": 2000,
          "sendSurfaceTargets": false,
          "minLinkVersion": 0,
          "anspTargetReportRxID1": 0,
          "gracefulDegradation": false,
          "gracefulDegradationLoad": 1000,
          "gracefulDegradationRate": 0.005,
          "serviceVolumeId": "0x34a501",
          "rateTLESecs": 30,
          "rateEquipmentStatusSecs": 5,
          "rateServiceVolumeStatusSecs": 5,
          "rateServiceVolumeStatisticsSecs": 5,
          "anspTestTargetReportTargetsNIC": 11,
          "anspTestTargetReportNoTargetsNIC": 10,
          "anspTestTargetReportTargetsNACp": 11,
          "anspTestTargetReportNoTargetsNACp": 10
        },
        "geometryType": "polygon",
        "centerPoint": [
          -9.925408,
          46.585443
        ],
        "floorFeet": 100,
        "ceilingFeet": 60000
      },
      "geometry": {
        "type": "Polygon",
        "coordinates": [
          [
            [
              -11.160000,
              48.470000
            ],
            [
              -12.000000,
              45.000000
            ],
            [
              -8.000000,
              45.000000
            ],
            [
              -8.450000,
              48.300000
            ],
            [
              -11.160000,
              48.470000
            ]
          ]
        ]
      }
    },
    {
      "id": "34-a2-01-00",
      "type": "Feature",
      "bbox": [
        -8.000000,
        48.833334,
        5.000002,
        55.000002
      ],
      "properties": {
        "featureVersion": 3,
        "featureEffectiveDate": "2018-11-07T12:00:00.000Z",
        "featureBirthDate": "1999-12-31T23:59:59.999Z",
        "featureEndDate": "2099-12-31T23:59:59.999Z",
        "customerID": "CUS-1000007",
        "volumeName": "London FIR",
        "icaoID": "EGTT",
        "sac": "0x34",
        "sic": "0xa2",
        "sid": "0x01",
        "featureID": "0x00",
        "featureType": "service",
        "serviceFeatureProperties": {
          "serviceType": "primary",
          "serviceDefaultMode": "active",
          "contractUpdateIntervalMsecs": 8000,
          "contractLatencyMsecs": 2000,
          "anspTargetReportUpdateMode": "update",
          "anspTargetReportMinWaitTimeMsecs": 700,
          "anspTargetReportPeriodicRateMsecs": 0,
          "anspTestTargetReportRateSecs": 5,
          "anspTestTargetReportICAO": "0xc1f902",
          "anspTestTargetReportPosition": [
            -4.000000,
            52.000000
          ],
          "anspTestTargetReportAltFeet": 0,
          "anspTestTargetReportMode3AEnabled": false,
          "anspTestTargetReportTargetIDEnabled": true,
          "anspTestTargetReportTargetID": "AIREON02",
          "offlineStatusThresholdPercent": 0,
          "degradedStatusThresholdPercent": 85,
          "networkServicesAddress": "233.52.162.1",
          "portTargetReportsCAT021": 59980,
          "portVersionNumberCAT247": 59981,
          "portAPDKeepAlive": 65535,
          "portEquipmentStatusCAT023": 59982,
          "portServiceVolumeStatusCAT023": 59983,
          "portServiceVolumeStatisticsCAT023": 59984,
          "portServiceDefinitionReportCAT238": 59988,
          "portServicePredictionReportCAT238": 59990,
          "portServiceSystemStatusReportCAT025": 59992,
          "portServiceStatisticsReportCAT025": 59993,
          "portConstellationTLEReportCAT253": 59994,
          "portCat033": 59681,
          "portCat033BelowMinLV": 59682,
          "portCat033DupType1": 59683,
          "portCat033DupType1BelowMinLV": 59684,
          "portCat033InvMode3A": 59685,
          "portCat033InvMode3ABelowMinLV": 59686,
          "latencyTPM": true,
          "updateIntervalTPM": true,
          "probabilityUpdateTPM": true,
          "probabilityLongGapTPM": true,
          "serviceDesignator": "1090ADSB",
          "serviceMode": "operational",
          "expectedTargetLoad": 2000,
          "sendSurfaceTargets": false,
          "minLinkVersion": 0,
          "anspTargetReportRxID1": 0,
          "gracefulDegradation": false,
          "gracefulDegradationLoad": 1000,
          "gracefulDegradationRate": 0.005,
          "serviceVolumeId": "0x34a201",
          "rateTLESecs": 30,
          "rateEquipmentStatusSecs": 5,
          "rateServiceVolumeStatusSecs": 5,
          "rateServiceVolumeStatisticsSecs": 5,
          "anspTestTargetReportTargetsNIC": 11,
          "anspTestTargetReportNoTargetsNIC": 10,
          "anspTestTargetReportTargetsNACp": 11,
          "anspTestTargetReportNoTargetsNACp": 10
        },
        "geometryType": "polygon",
        "centerPoint": [
          -2.025131,
          52.348726
        ],
        "floorFeet": 100,
        "ceilingFeet": 60000
      },
      "geometry": {
        "type": "Polygon",
        "coordinates": [
          [
            [
              -8.000000,
              48.833334
            ],
            [
              -2.000000,
              50.000002
            ],
            [
              -0.250000,
              50.000002
            ],
            [
              1.466669,
              50.666666
            ],
            [
              1.466669,
              51.000002
            ],
            [
              2.000002,
              51.116667
            ],
            [
              2.000002,
              51.500002
            ],
            [
              5.000002,
              55.000002
            ],
            [
              -5.500000,
              55.000002
            ],
            [
              -5.500000,
              53.916666
            ],
            [
              -5.500000,
              52.333334
            ],
            [
              -8.000000,
              51.000002
            ],
            [
              -8.000000,
              48.833334
            ]
          ]
        ]
      }
    },
    {
      "id": "34-a3-01-00",
      "type": "Feature",
      "bbox": [
        -10.000000,
        53.916648,
        5.000000,
        61.000000
      ],
      "properties": {
        "featureVersion": 3,
        "featureEffectiveDate": "2018-11-07T12:00:00.000Z",
        "featureBirthDate": "1999-12-31T23:59:59.999Z",
        "featureEndDate": "2099-12-31T23:59:59.999Z",
        "customerID": "CUS-1000007",
        "volumeName": "Scottish FIR",
        "icaoID": "EGPX",
        "sac": "0x34",
        "sic": "0xa3",
        "sid": "0x01",
        "featureID": "0x00",
        "featureType": "service",
        "serviceFeatureProperties": {
          "serviceType": "primary",
          "serviceDefaultMode": "active",
          "contractUpdateIntervalMsecs": 8000,
          "contractLatencyMsecs": 2000,
          "anspTargetReportUpdateMode": "update",
          "anspTargetReportMinWaitTimeMsecs": 700,
          "anspTargetReportPeriodicRateMsecs": 0,
          "anspTestTargetReportRateSecs": 5,
          "anspTestTargetReportICAO": "0xc1f903",
          "anspTestTargetReportPosition": [
            -4.000000,
            57.000000
          ],
          "anspTestTargetReportAltFeet": 0,
          "anspTestTargetReportMode3AEnabled": false,
          "anspTestTargetReportTargetIDEnabled": true,
          "anspTestTargetReportTargetID": "AIREON03",
          "offlineStatusThresholdPercent": 0,
          "degradedStatusThresholdPercent": 85,
          "networkServicesAddress": "233.52.163.1",
          "portTargetReportsCAT021": 59980,
          "portVersionNumberCAT247": 59981,
          "portAPDKeepAlive": 65535,
          "portEquipmentStatusCAT023": 59982,
          "portServiceVolumeStatusCAT023": 59983,
          "portServiceVolumeStatisticsCAT023": 59984,
          "portServiceDefinitionReportCAT238": 59988,
          "portServicePredictionReportCAT238": 59990,
          "portServiceSystemStatusReportCAT025": 59992,
          "portServiceStatisticsReportCAT025": 59993,
          "portConstellationTLEReportCAT253": 59994,
          "portCat033": 59681,
          "portCat033BelowMinLV": 59682,
          "portCat033DupType1": 59683,
          "portCat033DupType1BelowMinLV": 59684,
          "portCat033InvMode3A": 59685,
          "portCat033InvMode3ABelowMinLV": 59686,
          "latencyTPM": true,
          "updateIntervalTPM": true,
          "probabilityUpdateTPM": true,
          "probabilityLongGapTPM": true,
          "serviceDesignator": "1090ADSB",
          "serviceMode": "operational",
          "expectedTargetLoad": 2000,
          "sendSurfaceTargets": false,
          "minLinkVersion": 0,
          "anspTargetReportRxID1": 0,
          "gracefulDegradation": false,
          "gracefulDegradationLoad": 1000,
          "gracefulDegradationRate": 0.005,
          "serviceVolumeId": "0x34a301",
          "rateTLESecs": 30,
          "rateEquipmentStatusSecs": 5,
          "rateServiceVolumeStatusSecs": 5,
          "rateServiceVolumeStatisticsSecs": 5,
          "anspTestTargetReportTargetsNIC": 11,
          "anspTestTargetReportNoTargetsNIC": 10,
          "anspTestTargetReportTargetsNACp": 11,
          "anspTestTargetReportNoTargetsNACp": 10
        },
        "geometryType": "polygon",
        "centerPoint": [
          -3.468735,
          57.662938
        ],
        "floorFeet": 100,
        "ceilingFeet": 60000
      },
      "geometry": {
        "type": "Polygon",
        "coordinates": [
          [
            [
              -10.000000,
              54.566667
            ],
            [
              -9.000000,
              54.750000
            ],
            [
              -8.250000,
              55.333333
            ],
            [
              -7.333333,
              55.416667
            ],
            [
              -6.916665,
              55.333333
            ],
            [
              -8.166665,
              54.416667
            ],
            [
              -5.500000,
              53.916648
            ],
            [
              -5.500000,
              54.996668
            ],
            [
              5.000000,
              54.999827
            ],
            [
              5.000000,
              57.000000
            ],
            [
              0.000000,
              59.996668
            ],
            [
              0.000000,
              61.000000
            ],
            [
              -9.999999,
              61.000000
            ],
            [
              -10.000000,
              54.566667
            ]
          ]
        ]
      }
    },
    {
      "id": "34-a1-01-01",
      "type": "Feature",
      "bbox": [
        -30.000000,
        45.000000,
        -10.000000,
        61.000000
      ],
      "properties": {
        "featureVersion": 3,
        "featureEffectiveDate": "2018-11-07T12:00:00.000Z",
        "featureBirthDate": "1999-12-31T23:59:59.999Z",
        "featureEndDate": "2099-12-31T23:59:59.999Z",
        "customerID": "CUS-1000007",
        "volumeName": "Shanwick OCA",
        "icaoID": "EGGX",
        "sac": "0x34",
        "sic": "0xa1",
        "sid": "0x01",
        "featureID": "0x01",
        "featureType": "billing",
        "billingFeatureProperties": {
          "billingType": "usage",
          "billingPriority": 0,
          "billingEffectiveDate": "2018-11-07T12:00:00.000Z",
          "failedStateThresholdSecs": 86400
        },
        "geometryType": "polygon",
        "centerPoint": [
          -21.333445,
          53.154144
        ],
        "floorFeet": 100,
        "ceilingFeet": 60000
      },
      "geometry": {
        "type": "Polygon",
        "coordinates": [
          [
            [
              -30.000000,
              61.000000
            ],
            [
              -30.000000,
              45.000000
            ],
            [
              -12.000000,
              45.000000
            ],
            [
              -11.160000,
              48.470000
            ],
            [
              -15.000000,
              49.000000
            ],
            [
              -15.000000,
              57.000000
            ],
            [
              -10.000000,
              57.000000
            ],
            [
              -10.000000,
              61.000000
            ],
            [
              -20.000000,
              61.000000
            ],
            [
              -30.000000,
              61.000000
            ]
          ]
        ]
      }
    },
    {
      "id": "34-a5-01-01",
      "type": "Feature",
      "bbox": [
        -12.000000,
        45.000000,
        -8.000000,
        48.470000
      ],
      "properties": {
        "featureVersion": 2,
        "featureEffectiveDate": "2018-11-07T12:00:00.000Z",
        "featureBirthDate": "1999-12-31T23:59:59.999Z",
        "featureEndDate": "2099-12-31T23:59:59.999Z",
        "customerID": "CUS-1000007",
        "volumeName": "Shanwick SE Corner",
        "icaoID": "EGGX",
        "sac": "0x34",
        "sic": "0xa5",
        "sid": "0x01",
        "featureID": "0x01",
        "featureType": "billing",
        "billingFeatureProperties": {
          "billingType": "usage",
          "billingPriority": 0,
          "billingEffectiveDate": "2018-11-07T12:00:00.000Z",
          "failedStateThresholdSecs": 86400
        },
        "geometryType": "polygon",
        "centerPoint": [
          -9.925408,
          46.585443
        ],
        "floorFeet": 100,
        "ceilingFeet": 60000
      },
      "geometry": {
        "type": "Polygon",
        "coordinates": [
          [
            [
              -11.160000,
              48.470000
            ],
            [
              -12.000000,
              45.000000
            ],
            [
              -8.000000,
              45.000000
            ],
            [
              -8.450000,
              48.300000
            ],
            [
              -11.160000,
              48.470000
            ]
          ]
        ]
      }
    },
    {
      "id": "34-a2-01-01",
      "type": "Feature",
      "bbox": [
        -8.000000,
        48.833334,
        5.000002,
        55.000002
      ],
      "properties": {
        "featureVersion": 3,
        "featureEffectiveDate": "2018-11-07T12:00:00.000Z",
        "featureBirthDate": "1999-12-31T23:59:59.999Z",
        "featureEndDate": "2099-12-31T23:59:59.999Z",
        "customerID": "CUS-1000007",
        "volumeName": "London FIR",
        "icaoID": "EGTT",
        "sac": "0x34",
        "sic": "0xa2",
        "sid": "0x01",
        "featureID": "0x01",
        "featureType": "billing",
        "billingFeatureProperties": {
          "billingType": "usage",
          "billingPriority": 0,
          "billingEffectiveDate": "2018-11-07T12:00:00.000Z",
          "failedStateThresholdSecs": 86400
        },
        "geometryType": "polygon",
        "centerPoint": [
          -2.025131,
          52.348726
        ],
        "floorFeet": 100,
        "ceilingFeet": 60000
      },
      "geometry": {
        "type": "Polygon",
        "coordinates": [
          [
            [
              -8.000000,
              48.833334
            ],
            [
              -2.000000,
              50.000002
            ],
            [
              -0.250000,
              50.000002
            ],
            [
              1.466669,
              50.666666
            ],
            [
              1.466669,
              51.000002
            ],
            [
              2.000002,
              51.116667
            ],
            [
              2.000002,
              51.500002
            ],
            [
              5.000002,
              55.000002
            ],
            [
              -5.500000,
              55.000002
            ],
            [
              -5.500000,
              53.916666
            ],
            [
              -5.500000,
              52.333334
            ],
            [
              -8.000000,
              51.000002
            ],
            [
              -8.000000,
              48.833334
            ]
          ]
        ]
      }
    },
    {
      "id": "34-a3-01-01",
      "type": "Feature",
      "bbox": [
        -10.000000,
        53.916648,
        5.000000,
        61.000000
      ],
      "properties": {
        "featureVersion": 3,
        "featureEffectiveDate": "2018-11-07T12:00:00.000Z",
        "featureBirthDate": "1999-12-31T23:59:59.999Z",
        "featureEndDate": "2099-12-31T23:59:59.999Z",
        "customerID": "CUS-1000007",
        "volumeName": "Scottish FIR",
        "icaoID": "EGPX",
        "sac": "0x34",
        "sic": "0xa3",
        "sid": "0x01",
        "featureID": "0x01",
        "featureType": "billing",
        "billingFeatureProperties": {
          "billingType": "usage",
          "billingPriority": 0,
          "billingEffectiveDate": "2018-11-07T12:00:00.000Z",
          "failedStateThresholdSecs": 86400
        },
        "geometryType": "polygon",
        "centerPoint": [
          -3.468735,
          57.662938
        ],
        "floorFeet": 100,
        "ceilingFeet": 60000
      },
      "geometry": {
        "type": "Polygon",
        "coordinates": [
          [
            [
              -10.000000,
              54.566667
            ],
            [
              -9.000000,
              54.750000
            ],
            [
              -8.250000,
              55.333333
            ],
            [
              -7.333333,
              55.416667
            ],
            [
              -6.916665,
              55.333333
            ],
            [
              -8.166665,
              54.416667
            ],
            [
              -5.500000,
              53.916648
            ],
            [
              -5.500000,
              54.996668
            ],
            [
              5.000000,
              54.999827
            ],
            [
              5.000000,
              57.000000
            ],
            [
              0.000000,
              59.996668
            ],
            [
              0.000000,
              61.000000
            ],
            [
              -9.999999,
              61.000000
            ],
            [
              -10.000000,
              54.566667
            ]
          ]
        ]
      }
    }
  ]
}
