"shapeid","x","y"
"0.0","80.35444444000018","22.48055556000014"
"0.0","80.5936111100001","21.5025"
"0.0","82.0","18.716666987000053"
"0.0","77.16666667000015","19.71666667000011"
"0.0","76.00000000000017","19.31666667000013"
"0.0","76.00000190800012","18.000001908000115"
"0.0","76.00000000000017","16.666666670000097"
"0.0","73.3700108456638","16.330612494435005"
"0.0","73.326096","16.485828"
"0.0","73.360535","16.512218"
"0.0","73.269714","16.853329"
"0.0","73.274704","17.08194"
"0.0","72.853867","18.660553"
"0.0","72.857483","18.795277"
"0.0","72.93304400000011","18.81971700000014"
"0.0","72.987488","18.727772"
"0.0","72.993042","18.790554"
"0.0","72.911926","18.917496"
"0.0","73.05554200000012","19.011944"
"0.0","72.96971100000013","19.078884"
"0.0","72.823044","18.912495"
"0.0","72.76998900000012","18.94305"
"0.0","72.825546","19.053051"
"0.0","72.820831","19.172771000000125"
"0.0","72.7833250000001","19.148052"
"0.0","72.76666300000011","19.22805"
"0.0","72.780548","19.312496"
"0.0","72.856369","19.317776"
"0.0","73.047226","19.217255000000137"
"0.0","72.963882","19.309162"
"0.0","72.79776","19.326107"
"0.0","72.75444","19.369717"
"0.0","72.664154","19.870831"
"0.0","72.753601","20.294998"
"0.0","72.88526900000011","20.513054"
"0.0","72.93441800000011","20.774719"
"0.0","72.846939","20.844162"
"0.0","72.853043","21.067776"
"0.0","72.808029","21.126385"
"0.0","72.702774","21.074165"
"0.0","72.615814","21.097218"
"0.0","72.718048","21.196106"
"0.0","72.60748300000012","21.25805300000013"
"0.0","72.5641480000001","21.37805200000014"
"0.0","72.751938","21.455273"
"0.0","72.71527100000014","21.474995"
"0.0","72.58581500000014","21.41333"
"0.0","72.631363","21.494438"
"0.0","72.81330900000012","21.632217"
"0.0","73.130814","21.753609"
"0.0","72.936646","21.681664"
"0.0","72.541656","21.663883"
"0.0","72.56749","21.848053"
"0.0","72.73442100000011","21.986382"
"0.0","72.551651","21.907219"
"0.0","72.500824","21.976662"
"0.0","72.57554600000014","22.195274"
"0.0","72.746933","22.164719"
"0.0","72.81776400000012","22.2397160000001"
"0.0","72.914993","22.216106"
"0.0","72.919144","22.267776"
"0.0","72.5811000000001","22.28611"
"0.0","72.466385","22.227219000000105"
"0.0","72.389709","22.249439"
"0.0","72.375809","22.299164000000133"
"0.0","72.151932","22.283886"
"0.0","72.178864","22.247494"
"0.0","72.29693600000013","22.232216"
"0.0","72.325821","22.156662"
"0.0","72.265274","22.016109"
"0.0","72.031662","21.942772"
"0.0","72.152206","21.92860800000011"
"0.0","72.161926","21.83527400000014"
"0.0","71.994141","21.847775"
"0.0","72.019714","21.773609"
"0.0","72.172485","21.785831000000144"
"0.0","72.289154","21.61082800000014"
"0.0","72.24247700000012","21.465271"
"0.0","72.103867","21.309719"
"0.0","72.11053500000014","21.201939"
"0.0","71.568054","20.974995"
"0.0","71.466934","20.881939"
"0.0","70.96609500000011","20.702774"
"0.0","70.831375","20.694439"
"0.0","70.517761","20.81666600000011"
"0.0","70.06080600000013","21.14444"
"0.0","69.78858900000012","21.466385"
"0.0","69.11554","22.062496000000124"
"0.0","68.944427","22.294163"
"0.0","68.986374","22.418327"
"0.0","69.067215","22.480827"
"0.0","69.17747500000013","22.360275"
"0.0","69.171097","22.302776"
"0.0","69.238312","22.273331"
"0.0","69.870819","22.465549000000124"
"0.0","70.04054300000013","22.558331"
"0.0","70.165543","22.54833200000013"
"0.0","70.367477","22.888607"
"0.0","70.51138300000014","22.985271"
"0.0","70.51249700000011","23.094162"
"0.0","70.47526600000015","23.127495"
"0.0","70.410812","23.085274"
"0.0","70.389435","22.935272"
"0.0","70.227203","22.957497000000103"
"0.0","69.849426","22.858608"
"0.0","69.710266","22.742771"
"0.0","69.14749100000012","22.869164"
"0.0","68.65332","23.152496"
"0.0","68.43304400000011","23.429996"
"0.0","68.408325","23.612774"
"0.0","68.741364","23.844162"
"0.0","68.447479","23.72694"
"0.0","68.335266","23.588051"
"0.0","68.259155","23.579163"
"0.0","68.140274","23.604717"
"0.0","68.201096","23.664162"
"0.0","68.158035","23.898884"
"0.0","68.150818","23.688049"
"0.0","68.050262","23.723049000000117"
"0.0","68.058319","23.902218"
"0.0","68.02221700000013","23.937496"
"0.0","68.049988","23.82333"
"0.0","68.023605","23.766388"
"0.0","67.85720800000013","23.909996"
"0.0","67.838043","23.810555000000136"
"0.0","67.63415500000013","23.798885"
"0.0","67.614426","23.846107"
"0.0","67.493591","23.890831"
"0.0","67.53804","23.938129"
"0.0","67.486649","24.045277"
"0.0","67.346375","24.078331"
"0.0","67.28375997216847","24.264598840789024"
"0.0","67.50383918283497","24.264575485197398"
"0.0","67.60214288620672","24.385027777150256"
"0.0","67.67825488627759","24.460828109516353"
"0.0","67.80279021300399","24.56219013813184"
"0.0","67.94691203930215","24.63874576858803"
"0.0","67.9872291987782","24.651186617989524"
"0.0","68.01376061619685","24.662711392558716"
"0.0","68.07000717076743","24.754951349383738"
"0.0","68.17599547523967","24.86861440955548"
"0.0","68.30429820564997","24.96107780469165"
"0.0","68.44995697048681","25.02881936707528"
"0.0","68.60734263636509","25.06926392409648"
"0.0","68.67873163643158","25.08086029177776"
"0.0","68.84715612874007","25.092355203246264"
"0.0","68.92475450337795","25.083218094217425"
"0.0","68.94984569210203","25.084716455467365"
"0.0","69.11488618869083","25.06428692820441"
"0.0","69.16214649547254","25.049269178639676"
"0.0","69.24449113038231","25.042392123372203"
"0.0","69.29917711558245","25.03236379223238"
"0.0","69.56922459450371","25.041080697833024"
"0.0","69.73791079744501","25.03086471755872"
"0.0","69.81294862935599","25.011945006946448"
"0.0","69.8740407752885","25.034948485794278"
"0.0","70.10058710706654","25.09915163644223"
"0.0","70.10147708169613","25.11566302104538"
"0.0","70.1434891825195","25.264151896437234"
"0.0","70.21752893622514","25.401725817745326"
"0.0","70.32055784376799","25.522784437866612"
"0.0","70.4483477274258","25.622415977982772"
"0.0","70.59565424993343","25.696589585375722"
"0.0","70.75643213553616","25.742311211096535"
"0.0","70.92408326055826","25.757738209600998"
"0.0","79.98680129172783","25.756066558898507"
"0.0","79.83166667000017","25.283611110000038"
"0.0","79.59833333000006","25.600277780000056"
"0.0","79.08233635800013","25.00073315600008"
"0.0","80.35444444000018","22.48055556000014"
