58.5,-50
58.5,-43
63.5,-39
61,-30
61,-27
45,-27
45,-28
45,-29
45,-30
45,-31
45,-32
45,-33
45,-34
45,-35
45,-36
45,-37
45,-38
45,-39
45,-40
45,-41
45,-42
45,-43
45,-44
45,-45
45,-46
45,-47
45,-47.666667
51.83,-47.666667
54.25,-52.258333
59.8611825,-51.2095642
58.5,-50
