{
"type": "FeatureCollection",
"name": "CoastLow_Full",
"crs": { "type": "name", "properties": { "name": "urn:ogc:def:crs:OGC:1.3:CRS84" } },
"features": [
{ "type": "Feature", "properties": { }, "geometry": { "type": "MultiPolygon", "coordinates": [ [ [ [ -56.051669, 44.446676, 0.0 ], [ -56.0517, 44.44667, 0.0 ], [ -57.778011, 44.076481, 0.0 ], [ -58.827129, 43.85151, 0.0 ], [ -60.0, 43.6, 0.0 ], [ -67.0, 41.866667, 0.0 ], [ -67.0, 44.499922, 0.0 ], [ -67.0, 44.5, 0.0 ], [ -67.062945, 44.5, 0.0 ], [ -67.116667, 44.5, 0.0 ], [ -67.116615, 44.500067, 0.0 ], [ -66.88333, 44.8, 0.0 ], [ -67.117014, 44.500067, 0.0 ], [ -66.903082, 44.777136, 0.0 ], [ -66.901022, 44.802134, 0.0 ], [ -66.914907, 44.819143, 0.0 ], [ -66.963364, 44.841333, 0.0 ], [ -66.977985, 44.85755, 0.0 ], [ -66.979475, 44.921373, 0.0 ], [ -67.023596, 44.964987, 0.0 ], [ -67.093685, 45.09141, 0.0 ], [ -67.162777, 45.174944, 0.0 ], [ -67.205244, 45.183989, 0.0 ], [ -67.206543, 45.183039, 0.0 ], [ -67.20723, 45.183878, 0.0 ], [ -67.215286, 45.184435, 0.0 ], [ -67.223328, 45.186937, 0.0 ], [ -67.236115, 45.19388, 0.0 ], [ -67.253067, 45.199434, 0.0 ], [ -67.255796, 45.2, 0.0 ], [ -67.270148, 45.2, 0.0 ], [ -67.275009, 45.198877, 0.0 ], [ -67.286193, 45.194551, 0.0 ], [ -67.287216, 45.194271, 0.0 ], [ -67.289074, 45.187879, 0.0 ], [ -67.290242, 45.183863, 0.0 ], [ -67.291045, 45.181099, 0.0 ], [ -67.293733, 45.17797, 0.0 ], [ -67.29247, 45.176195, 0.0 ], [ -67.291017, 45.174152, 0.0 ], [ -67.291557, 45.170994, 0.0 ], [ -67.29417, 45.170349, 0.0 ], [ -67.29898, 45.169162, 0.0 ], [ -67.302458, 45.161942, 0.0 ], [ -67.301906, 45.158643, 0.0 ], [ -67.301636, 45.157034, 0.0 ], [ -67.301395, 45.156936, 0.0 ], [ -67.295829, 45.154664, 0.0 ], [ -67.294321, 45.15228, 0.0 ], [ -67.296589, 45.147562, 0.0 ], [ -67.319905, 45.142447, 0.0 ], [ -67.317921, 45.137755, 0.0 ], [ -67.321021, 45.131809, 0.0 ], [ -67.330253, 45.131485, 0.0 ], [ -67.339856, 45.125594, 0.0 ], [ -67.353441, 45.129483, 0.0 ], [ -67.370573, 45.142093, 0.0 ], [ -67.380424, 45.151936, 0.0 ], [ -67.390585, 45.154108, 0.0 ], [ -67.404614, 45.159913, 0.0 ], [ -67.404878, 45.166654, 0.0 ], [ -67.399046, 45.169367, 0.0 ], [ -67.400182, 45.177034, 0.0 ], [ -67.40863, 45.180259, 0.0 ], [ -67.418, 45.190068, 0.0 ], [ -67.428882, 45.193222, 0.0 ], [ -67.428263, 45.202706, 0.0 ], [ -67.439436, 45.226161, 0.0 ], [ -67.453287, 45.240616, 0.0 ], [ -67.46263, 45.243223, 0.0 ], [ -67.472507, 45.257202, 0.0 ], [ -67.471814, 45.261457, 0.0 ], [ -67.475402, 45.264292, 0.0 ], [ -67.476572, 45.275372, 0.0 ], [ -67.482111, 45.276073, 0.0 ], [ -67.48407, 45.279701, 0.0 ], [ -67.489339, 45.281321, 0.0 ], [ -67.4861, 45.291138, 0.0 ], [ -67.482324, 45.291406, 0.0 ], [ -67.476992, 45.288831, 0.0 ], [ -67.474343, 45.291887, 0.0 ], [ -67.466145, 45.294014, 0.0 ], [ -67.465747, 45.297109, 0.0 ], [ -67.468524, 45.298204, 0.0 ], [ -67.466765, 45.299778, 0.0 ], [ -67.460673, 45.300332, 0.0 ], [ -67.458439, 45.308882, 0.0 ], [ -67.456378, 45.311622, 0.0 ], [ -67.452209, 45.317162, 0.0 ], [ -67.453959, 45.320485, 0.0 ], [ -67.45668, 45.325652, 0.0 ], [ -67.452021, 45.327694, 0.0 ], [ -67.451988, 45.327708, 0.0 ], [ -67.443773, 45.331308, 0.0 ], [ -67.441146, 45.335762, 0.0 ], [ -67.430805, 45.342015, 0.0 ], [ -67.42883, 45.345897, 0.0 ], [ -67.431175, 45.350834, 0.0 ], [ -67.430822, 45.351273, 0.0 ], [ -67.427383, 45.355551, 0.0 ], [ -67.425919, 45.35737, 0.0 ], [ -67.433452, 45.361031, 0.0 ], [ -67.434295, 45.365433, 0.0 ], [ -67.430102, 45.371618, 0.0 ], [ -67.427009, 45.373542, 0.0 ], [ -67.421625, 45.373723, 0.0 ], [ -67.421717, 45.372731, 0.0 ], [ -67.421301, 45.374034, 0.0 ], [ -67.419059, 45.376778, 0.0 ], [ -67.420053, 45.377949, 0.0 ], [ -67.421118, 45.379205, 0.0 ], [ -67.425767, 45.384684, 0.0 ], [ -67.427672, 45.391353, 0.0 ], [ -67.45525, 45.412326, 0.0 ], [ -67.460886, 45.41928, 0.0 ], [ -67.460843, 45.42187, 0.0 ], [ -67.471265, 45.423482, 0.0 ], [ -67.473376, 45.425373, 0.0 ], [ -67.479735, 45.440488, 0.0 ], [ -67.476594, 45.443006, 0.0 ], [ -67.477252, 45.446257, 0.0 ], [ -67.484205, 45.451689, 0.0 ], [ -67.484826, 45.456118, 0.0 ], [ -67.482121, 45.457827, 0.0 ], [ -67.482484, 45.460166, 0.0 ], [ -67.486826, 45.466913, 0.0 ], [ -67.50065, 45.478829, 0.0 ], [ -67.503776, 45.488531, 0.0 ], [ -67.498844, 45.491037, 0.0 ], [ -67.494657, 45.489109, 0.0 ], [ -67.489494, 45.489644, 0.0 ], [ -67.488696, 45.493652, 0.0 ], [ -67.485118, 45.495454, 0.0 ], [ -67.484856, 45.495418, 0.0 ], [ -67.485175, 45.494674, 0.0 ], [ -67.484541, 45.495376, 0.0 ], [ -67.480566, 45.49484, 0.0 ], [ -67.476924, 45.497212, 0.0 ], [ -67.466916, 45.49573, 0.0 ], [ -67.46386, 45.496892, 0.0 ], [ -67.463548, 45.498086, 0.0 ], [ -67.470739, 45.500066, 0.0 ], [ -67.47091, 45.504304, 0.0 ], [ -67.462868, 45.508695, 0.0 ], [ -67.452243, 45.499486, 0.0 ], [ -67.449638, 45.499502, 0.0 ], [ -67.449186, 45.50223, 0.0 ], [ -67.453117, 45.509058, 0.0 ], [ -67.449361, 45.510651, 0.0 ], [ -67.44133, 45.505831, 0.0 ], [ -67.431259, 45.503881, 0.0 ], [ -67.42886, 45.501361, 0.0 ], [ -67.424278, 45.505919, 0.0 ], [ -67.416459, 45.502142, 0.0 ], [ -67.420364, 45.510906, 0.0 ], [ -67.427275, 45.518141, 0.0 ], [ -67.432075, 45.519715, 0.0 ], [ -67.431991, 45.521971, 0.0 ], [ -67.431963, 45.522727, 0.0 ], [ -67.431905, 45.524294, 0.0 ], [ -67.435291, 45.529987, 0.0 ], [ -67.432214, 45.541036, 0.0 ], [ -67.42521, 45.540263, 0.0 ], [ -67.423747, 45.547406, 0.0 ], [ -67.420878, 45.550568, 0.0 ], [ -67.428769, 45.568417, 0.0 ], [ -67.423636, 45.572086, 0.0 ], [ -67.424699, 45.577273, 0.0 ], [ -67.429716, 45.583774, 0.0 ], [ -67.455402, 45.604666, 0.0 ], [ -67.49276, 45.601897, 0.0 ], [ -67.49374, 45.600037, 0.0 ], [ -67.488202, 45.596045, 0.0 ], [ -67.489657, 45.592254, 0.0 ], [ -67.495141, 45.588509, 0.0 ], [ -67.502994, 45.587182, 0.0 ], [ -67.51857, 45.587926, 0.0 ], [ -67.534927, 45.595432, 0.0 ], [ -67.546108, 45.598064, 0.0 ], [ -67.564179, 45.595877, 0.0 ], [ -67.583344, 45.602496, 0.0 ], [ -67.588779, 45.607101, 0.0 ], [ -67.606166, 45.606531, 0.0 ], [ -67.639744, 45.624769, 0.0 ], [ -67.644201, 45.623226, 0.0 ], [ -67.640195, 45.616146, 0.0 ], [ -67.645833, 45.61356, 0.0 ], [ -67.663109, 45.625067, 0.0 ], [ -67.666461, 45.624453, 0.0 ], [ -67.675415, 45.630961, 0.0 ], [ -67.680639, 45.639131, 0.0 ], [ -67.692628, 45.650358, 0.0 ], [ -67.691415, 45.654052, 0.0 ], [ -67.697969, 45.659739, 0.0 ], [ -67.701327, 45.669426, 0.0 ], [ -67.709469, 45.678975, 0.0 ], [ -67.715003, 45.681234, 0.0 ], [ -67.725275, 45.685427, 0.0 ], [ -67.726758, 45.687752, 0.0 ], [ -67.727377, 45.688723, 0.0 ], [ -67.734011, 45.688775, 0.0 ], [ -67.733568, 45.684198, 0.0 ], [ -67.729752, 45.678023, 0.0 ], [ -67.73062, 45.677153, 0.0 ], [ -67.72941, 45.67747, 0.0 ], [ -67.72761, 45.674556, 0.0 ], [ -67.718059, 45.667981, 0.0 ], [ -67.721091, 45.662025, 0.0 ], [ -67.723758, 45.663841, 0.0 ], [ -67.733311, 45.664146, 0.0 ], [ -67.745027, 45.673199, 0.0 ], [ -67.754526, 45.667973, 0.0 ], [ -67.76866, 45.677581, 0.0 ], [ -67.803326, 45.677888, 0.0 ], [ -67.817717, 45.693512, 0.0 ], [ -67.803158, 45.696132, 0.0 ], [ -67.80984, 45.72927, 0.0 ], [ -67.804124, 45.729788, 0.0 ], [ -67.782248, 45.73177, 0.0 ], [ -67.792881, 45.750056, 0.0 ], [ -67.794409, 45.750664, 0.0 ], [ -67.806341, 45.755408, 0.0 ], [ -67.809073, 45.767499, 0.0 ], [ -67.805456, 45.769755, 0.0 ], [ -67.804347, 45.776992, 0.0 ], [ -67.803637, 45.781624, 0.0 ], [ -67.805065, 45.787936, 0.0 ], [ -67.806602, 45.794726, 0.0 ], [ -67.801998, 45.803551, 0.0 ], [ -67.780451, 45.816204, 0.0 ], [ -67.780034, 45.818206, 0.0 ], [ -67.767127, 45.818744, 0.0 ], [ -67.765545, 45.81881, 0.0 ], [ -67.755078, 45.823685, 0.0 ], [ -67.760017, 45.826838, 0.0 ], [ -67.76334, 45.82896, 0.0 ], [ -67.769147, 45.839303, 0.0 ], [ -67.789559, 45.851626, 0.0 ], [ -67.796642, 45.860413, 0.0 ], [ -67.796273, 45.86557, 0.0 ], [ -67.803677, 45.869378, 0.0 ], [ -67.803934, 45.8829, 0.0 ], [ -67.799038, 45.884188, 0.0 ], [ -67.796644, 45.88782, 0.0 ], [ -67.785353, 45.89567, 0.0 ], [ -67.780101, 45.894507, 0.0 ], [ -67.778283, 45.897679, 0.0 ], [ -67.777037, 45.896705, 0.0 ], [ -67.776357, 45.896174, 0.0 ], [ -67.768741, 45.897952, 0.0 ], [ -67.766911, 45.903771, 0.0 ], [ -67.766723, 45.904367, 0.0 ], [ -67.765021, 45.909778, 0.0 ], [ -67.758435, 45.911154, 0.0 ], [ -67.75527, 45.911815, 0.0 ], [ -67.750639, 45.917718, 0.0 ], [ -67.75119, 45.918151, 0.0 ], [ -67.757433, 45.923055, 0.0 ], [ -67.757935, 45.926215, 0.0 ], [ -67.765935, 45.928305, 0.0 ], [ -67.765579, 45.930471, 0.0 ], [ -67.771642, 45.931883, 0.0 ], [ -67.773562, 45.934818, 0.0 ], [ -67.777655, 45.934206, 0.0 ], [ -67.781096, 45.943025, 0.0 ], [ -67.781683, 46.103408, 0.0 ], [ -67.782318, 46.276975, 0.0 ], [ -67.783394, 46.346085, 0.0 ], [ -67.604342, 46.310994, 0.0 ], [ -64.276318, 46.152197, 0.0 ], [ -60.319071, 47.345892, 0.0 ], [ -59.989991, 47.514943, 0.0 ], [ -53.615226, 50.78972, 0.0 ], [ -56.771737, 58.733519, 0.0 ], [ -55.5979, 63.5, 0.0 ], [ -51.209564175582848, 59.861182456397501, 0.0 ], [ -52.258333, 54.25, 0.0 ], [ -47.666667, 51.83, 0.0 ], [ -47.666667, 45.0, 0.0 ], [ -51.0, 45.0, 0.0 ], [ -53.0, 45.0, 0.0 ], [ -56.051669, 44.446676, 0.0 ] ] ] ] } }
]
}
