{
  "type": "FeatureCollection",
  "features": [
    {
      "type": "Feature",
      "properties": {},
      "geometry": {
        "type": "MultiPolygon",
        "coordinates": [
          [
            [
              [
                -57.75,
                65,
                0
              ],
              [
                -55.5979,
                63.5,
                0
              ],
              [
                -55,
                63.5,
                0
              ],
              [
                -54,
                63.5,
                0
              ],
              [
                -53,
                63.5,
                0
              ],
              [
                -52,
                63.5,
                0
              ],
              [
                -51,
                63.5,
                0
              ],
              [
                -50.529444,
                63.5,
                0
              ],
              [
                -52.258333,
                54.25,
                0
              ],
              [
                -47.666667,
                51.83,
                0
              ],
              [
                -47.666667,
                44.5,
                0
              ],
              [
                -48,
                44.5,
                0
              ],
              [
                -49,
                44.5,
                0
              ],
              [
                -50,
                44.5,
                0
              ],
              [
                -55.75,
                43.583333,
                0
              ],
              [
                -53.55,
                43.97,
                0
              ],
              [
                -56.10588388557659,
                51.47659662190774,
                0
              ],
              [
                -61.19327705014997,
                54.67267657742518,
                0
              ],
              [
                -64.91809703066693,
                53.70189079564469,
                0
              ],
              [
                -65.333,
                54.417,
                0
              ],
              [
                -65.083,
                55.083,
                0
              ],
              [
                -64,
                55.356,
                0
              ],
              [
                -64,
                57.55,
                0
              ],
              [
                -63.285,
                57.742,
                0
              ],
              [
                -62.563,
                57.931,
                0
              ],
              [
                -61.833,
                58.115,
                0
              ],
              [
                -61.096,
                58.295,
                0
              ],
              [
                -60.351,
                58.471,
                0
              ],
              [
                -60.488,
                58.613,
                0
              ],
              [
                -60.583,
                58.71,
                0
              ],
              [
                -60.685,
                58.815,
                0
              ],
              [
                -60.813,
                58.944,
                0
              ],
              [
                -60.818,
                58.949,
                0
              ],
              [
                -60.858,
                58.989,
                0
              ],
              [
                -60.893,
                59.025,
                0
              ],
              [
                -60.897,
                59.029,
                0
              ],
              [
                -60.915,
                59.047,
                0
              ],
              [
                -60.937,
                59.069,
                0
              ],
              [
                -60.977,
                59.108,
                0
              ],
              [
                -61.016,
                59.148,
                0
              ],
              [
                -61.056,
                59.188,
                0
              ],
              [
                -61.096,
                59.227,
                0
              ],
              [
                -61.137,
                59.267,
                0
              ],
              [
                -61.177,
                59.307,
                0
              ],
              [
                -61.217,
                59.346,
                0
              ],
              [
                -61.257,
                59.386,
                0
              ],
              [
                -61.298,
                59.426,
                0
              ],
              [
                -61.339,
                59.465,
                0
              ],
              [
                -61.379,
                59.505,
                0
              ],
              [
                -61.42,
                59.545,
                0
              ],
              [
                -61.461,
                59.584,
                0
              ],
              [
                -61.502,
                59.624,
                0
              ],
              [
                -61.543,
                59.663,
                0
              ],
              [
                -61.578,
                59.697,
                0
              ],
              [
                -61.584,
                59.703,
                0
              ],
              [
                -61.588,
                59.706,
                0
              ],
              [
                -61.626,
                59.742,
                0
              ],
              [
                -61.667,
                59.782,
                0
              ],
              [
                -61.708,
                59.821,
                0
              ],
              [
                -61.75,
                59.861,
                0
              ],
              [
                -61.792,
                59.9,
                0
              ],
              [
                -61.833,
                59.94,
                0
              ],
              [
                -61.875,
                59.979,
                0
              ],
              [
                -61.917,
                60.019,
                0
              ],
              [
                -61.959,
                60.058,
                0
              ],
              [
                -62.001,
                60.098,
                0
              ],
              [
                -62.044,
                60.137,
                0
              ],
              [
                -62.056,
                60.149,
                0
              ],
              [
                -62.086,
                60.176,
                0
              ],
              [
                -62.129,
                60.216,
                0
              ],
              [
                -62.171,
                60.255,
                0
              ],
              [
                -62.172,
                60.256,
                0
              ],
              [
                -62.214,
                60.294,
                0
              ],
              [
                -62.257,
                60.334,
                0
              ],
              [
                -62.3,
                60.373,
                0
              ],
              [
                -62.343,
                60.412,
                0
              ],
              [
                -62.386,
                60.452,
                0
              ],
              [
                -62.429,
                60.491,
                0
              ],
              [
                -62.472,
                60.53,
                0
              ],
              [
                -62.516,
                60.569,
                0
              ],
              [
                -62.531,
                60.583,
                0
              ],
              [
                -62.559,
                60.609,
                0
              ],
              [
                -62.595,
                60.641,
                0
              ],
              [
                -62.603,
                60.648,
                0
              ],
              [
                -62.646,
                60.687,
                0
              ],
              [
                -62.69,
                60.726,
                0
              ],
              [
                -62.734,
                60.765,
                0
              ],
              [
                -62.778,
                60.804,
                0
              ],
              [
                -62.822,
                60.844,
                0
              ],
              [
                -62.867,
                60.883,
                0
              ],
              [
                -62.911,
                60.922,
                0
              ],
              [
                -62.955,
                60.961,
                0
              ],
              [
                -63,
                61,
                0
              ],
              [
                -63,
                64,
                0
              ],
              [
                -62.276,
                64.254,
                0
              ],
              [
                -61.539,
                64.504,
                0
              ],
              [
                -60.788,
                64.75,
                0
              ],
              [
                -60.024,
                64.992,
                0
              ],
              [
                -60,
                65,
                0
              ],
              [
                -59.25,
                65.004,
                0
              ],
              [
                -58.5,
                65.004,
                0
              ],
              [
                -57.75,
                65,
                0
              ]
            ]
          ]
        ]
      }
    }
  ]
}