45,-27
45,-28
45,-29
45,-30
45,-31
45,-32
45,-33
45,-34
45,-35
45,-36
45,-37
45,-38
45,-39
45,-40
44.5,-40
44.5,-41
44.5,-42
44.5,-43
44.5,-44
44.5,-45
44.5,-46
44.5,-47
44.5,-47.666667
51.83,-47.666667
54.25,-52.258333
63.5,-50.529444
63.5,-50
63.5,-49
63.5,-48
63.5,-47
63.5,-46
63.5,-45
63.5,-44
63.5,-43
63.5,-42
63.5,-41
63.5,-40
63.5,-39
61,-30
61,-29
61,-28
61,-27
45,-27
