{
"type": "FeatureCollection",
"name": "ROGG_GanderDomestic_above19000ft",
"crs": { "type": "name", "properties": { "name": "urn:ogc:def:crs:OGC:1.3:CRS84" } },
"features": [
{ "type": "Feature", "properties": { }, "geometry": { "type": "MultiPolygon", "coordinates": [ [ [ [ -47.666667, 44.5, 0.0 ], [ -47.666667, 51.83, 0.0 ], [ -52.258333, 54.25, 0.0 ], [ -50.529444, 63.5, 0.0 ], [ -51.0, 63.5, 0.0 ], [ -52.0, 63.5, 0.0 ], [ -53.0, 63.5, 0.0 ], [ -54.0, 63.5, 0.0 ], [ -55.0, 63.5, 0.0 ], [ -55.5979, 63.5, 0.0 ], [ -57.75, 65.0, 0.0 ], [ -59.681944, 67.0, 0.0 ], [ -70.0, 67.0, 0.0 ], [ -70.0, 60.0, 0.0 ], [ -68.266667, 57.416111, 0.0 ], [ -71.5, 53.75, 0.0 ], [ -71.5, 51.0, 0.0 ], [ -69.9, 49.5, 0.0 ], [ -60.5, 45.0, 0.0 ], [ -59.376667, 42.773611, 0.0 ], [ -57.868056, 43.072222, 0.0 ], [ -55.75, 43.583333, 0.0 ], [ -50.0, 44.5, 0.0 ], [ -49.0, 44.5, 0.0 ], [ -48.0, 44.5, 0.0 ], [ -47.666667, 44.5, 0.0 ] ] ] ] } }
]
}
