{
"type": "FeatureCollection",
"name": "ROGM_Moncton_above5000ft",
"crs": { "type": "name", "properties": { "name": "urn:ogc:def:crs:OGC:1.3:CRS84" } },
"features": [
{ "type": "Feature", "properties": { }, "geometry": { "type": "MultiPolygon", "coordinates": [ [ [ [ -56.105883885576588, 51.476596621907738, 0.0 ], [ -53.55, 43.97, 0.0 ], [ -55.75, 43.583333, 0.0 ], [ -57.868056, 43.072222, 0.0 ], [ -61.201667, 42.381667, 0.0 ], [ -67.0, 41.616667, 0.0 ], [ -67.0, 44.5, 0.0 ], [ -67.116667, 44.5, 0.0 ], [ -66.88333, 44.8, 0.0 ], [ -67.162876160073722, 45.204276999490389, 0.0 ], [ -67.4, 45.2, 0.0 ], [ -67.4, 45.6, 0.0 ], [ -67.747826270743133, 45.695328622605821, 0.0 ], [ -67.723692907016002, 47.116456958550074, 0.0 ], [ -68.3, 47.4, 0.0 ], [ -69.2, 47.5, 0.0 ], [ -71.484353220123751, 47.316248124897911, 0.0 ], [ -71.446740984751216, 52.000354947447107, 0.0 ], [ -61.193277050149973, 54.672676577425179, 0.0 ], [ -56.105883885576588, 51.476596621907738, 0.0 ] ] ] ] } }
]
}
