<?xml version="1.0" encoding="utf-8" ?>
<kml xmlns="http://www.opengis.net/kml/2.2">
<Document id="root_doc">
<Folder><name>AtlanticLow_S_BVol</name>
  <Placemark>
	<Style><LineStyle><color>ff0000ff</color></LineStyle><PolyStyle><fill>0</fill></PolyStyle></Style>
      <MultiGeometry><Polygon><outerBoundaryIs><LinearRing><coordinates>-50.0,58.5,0 -43.0,58.5,0 -39.0,63.5,0 -30,61,0 -27,61,0 -27,45,0 -28,45,0 -29,45,0 -30,45,0 -31,45,0 -32,45,0 -33,45,0 -34,45,0 -35,45,0 -36,45,0 -37,45,0 -38,45,0 -39,45,0 -40,45,0 -41,45,0 -42,45,0 -43,45,0 -44,45,0 -45,45,0 -46,45,0 -47,45,0 -47.666667,45.0,0 -47.666667,51.83,0 -52.258333,54.25,0 -51.2095641755828,59.8611824563975,0 -50.0,58.5,0</coordinates></LinearRing></outerBoundaryIs></Polygon></MultiGeometry>
  </Placemark>
</Folder>
</Document></kml>
