<?xml version="1.0" encoding="utf-8" ?>
<kml xmlns="http://www.opengis.net/kml/2.2">
<Document id="root_doc">
<Folder><name>Moncton_BVol</name>
  <Placemark>
	<Style><LineStyle><color>ff0000ff</color></LineStyle><PolyStyle><fill>0</fill></PolyStyle></Style>
      <MultiGeometry><Polygon><outerBoundaryIs><LinearRing><coordinates>-67.0,44.499922,0 -67.0629454620691,44.5,0 -67.116667,44.5,0 -67.1166152723687,44.5000665059095,0 -67.117014,44.500067,0 -66.903082,44.777136,0 -66.901022,44.802134,0 -66.914907,44.819143,0 -66.963364,44.841333,0 -66.977985,44.85755,0 -66.979475,44.921373,0 -67.023596,44.964987,0 -67.093685,45.09141,0 -67.162777,45.174944,0 -67.205244,45.183989,0 -67.206543,45.183039,0 -67.20723,45.183878,0 -67.215286,45.184435,0 -67.223328,45.186937,0 -67.236115,45.19388,0 -67.253067,45.199434,0 -67.261124,45.201105,0 -67.267776,45.200548,0 -67.275009,45.198877,0 -67.286193,45.194551,0 -67.287216,45.194271,0 -67.289074,45.187879,0 -67.290242,45.183863,0 -67.291045,45.181099,0 -67.293733,45.17797,0 -67.29247,45.176195,0 -67.291017,45.174152,0 -67.291557,45.170994,0 -67.29417,45.170349,0 -67.29898,45.169162,0 -67.302458,45.161942,0 -67.301906,45.158643,0 -67.301636,45.157034,0 -67.301395,45.156936,0 -67.295829,45.154664,0 -67.294321,45.15228,0 -67.296589,45.147562,0 -67.319905,45.142447,0 -67.317921,45.137755,0 -67.321021,45.131809,0 -67.330253,45.131485,0 -67.339856,45.125594,0 -67.353441,45.129483,0 -67.370573,45.142093,0 -67.380424,45.151936,0 -67.390585,45.154108,0 -67.404614,45.159913,0 -67.404878,45.166654,0 -67.399046,45.169367,0 -67.400182,45.177034,0 -67.40863,45.180259,0 -67.418,45.190068,0 -67.428882,45.193222,0 -67.428263,45.202706,0 -67.439436,45.226161,0 -67.453287,45.240616,0 -67.46263,45.243223,0 -67.472507,45.257202,0 -67.471814,45.261457,0 -67.475402,45.264292,0 -67.476572,45.275372,0 -67.482111,45.276073,0 -67.48407,45.279701,0 -67.489339,45.281321,0 -67.4861,45.291138,0 -67.482324,45.291406,0 -67.476992,45.288831,0 -67.474343,45.291887,0 -67.466145,45.294014,0 -67.465747,45.297109,0 -67.468524,45.298204,0 -67.466765,45.299778,0 -67.460673,45.300332,0 -67.458439,45.308882,0 -67.456378,45.311622,0 -67.452209,45.317162,0 -67.453959,45.320485,0 -67.45668,45.325652,0 -67.452021,45.327694,0 -67.451988,45.327708,0 -67.443773,45.331308,0 -67.441146,45.335762,0 -67.430805,45.342015,0 -67.42883,45.345897,0 -67.431175,45.350834,0 -67.430822,45.351273,0 -67.427383,45.355551,0 -67.425919,45.35737,0 -67.433452,45.361031,0 -67.434295,45.365433,0 -67.430102,45.371618,0 -67.427009,45.373542,0 -67.421625,45.373723,0 -67.421717,45.372731,0 -67.421301,45.374034,0 -67.419059,45.376778,0 -67.420053,45.377949,0 -67.421118,45.379205,0 -67.425767,45.384684,0 -67.427672,45.391353,0 -67.45525,45.412326,0 -67.460886,45.41928,0 -67.460843,45.42187,0 -67.471265,45.423482,0 -67.473376,45.425373,0 -67.479735,45.440488,0 -67.476594,45.443006,0 -67.477252,45.446257,0 -67.484205,45.451689,0 -67.484826,45.456118,0 -67.482121,45.457827,0 -67.482484,45.460166,0 -67.486826,45.466913,0 -67.50065,45.478829,0 -67.503776,45.488531,0 -67.498844,45.491037,0 -67.494657,45.489109,0 -67.489494,45.489644,0 -67.488696,45.493652,0 -67.485118,45.495454,0 -67.484856,45.495418,0 -67.485175,45.494674,0 -67.484541,45.495376,0 -67.480566,45.49484,0 -67.476924,45.497212,0 -67.466916,45.49573,0 -67.46386,45.496892,0 -67.463548,45.498086,0 -67.470739,45.500066,0 -67.47091,45.504304,0 -67.462868,45.508695,0 -67.452243,45.499486,0 -67.449638,45.499502,0 -67.449186,45.50223,0 -67.453117,45.509058,0 -67.449361,45.510651,0 -67.44133,45.505831,0 -67.431259,45.503881,0 -67.42886,45.501361,0 -67.424278,45.505919,0 -67.416459,45.502142,0 -67.420364,45.510906,0 -67.427275,45.518141,0 -67.432075,45.519715,0 -67.431991,45.521971,0 -67.431963,45.522727,0 -67.431905,45.524294,0 -67.435291,45.529987,0 -67.432214,45.541036,0 -67.42521,45.540263,0 -67.423747,45.547406,0 -67.420878,45.550568,0 -67.428769,45.568417,0 -67.423636,45.572086,0 -67.424699,45.577273,0 -67.429716,45.583774,0 -67.455402,45.604666,0 -67.49276,45.601897,0 -67.49374,45.600037,0 -67.488202,45.596045,0 -67.489657,45.592254,0 -67.495141,45.588509,0 -67.502994,45.587182,0 -67.51857,45.587926,0 -67.534927,45.595432,0 -67.546108,45.598064,0 -67.564179,45.595877,0 -67.583344,45.602496,0 -67.588779,45.607101,0 -67.606166,45.606531,0 -67.639744,45.624769,0 -67.644201,45.623226,0 -67.640195,45.616146,0 -67.645833,45.61356,0 -67.663109,45.625067,0 -67.666461,45.624453,0 -67.675415,45.630961,0 -67.680639,45.639131,0 -67.692628,45.650358,0 -67.691415,45.654052,0 -67.697969,45.659739,0 -67.701327,45.669426,0 -67.709469,45.678975,0 -67.715003,45.681234,0 -67.725275,45.685427,0 -67.726758,45.687752,0 -67.727377,45.688723,0 -67.734011,45.688775,0 -67.733568,45.684198,0 -67.729752,45.678023,0 -67.73062,45.677153,0 -67.72941,45.67747,0 -67.72761,45.674556,0 -67.718059,45.667981,0 -67.721091,45.662025,0 -67.723758,45.663841,0 -67.733311,45.664146,0 -67.745027,45.673199,0 -67.754526,45.667973,0 -67.76866,45.677581,0 -67.803326,45.677888,0 -67.817717,45.693512,0 -67.803158,45.696132,0 -67.80984,45.72927,0 -67.804124,45.729788,0 -67.782248,45.73177,0 -67.792881,45.750056,0 -67.794409,45.750664,0 -67.806341,45.755408,0 -67.809073,45.767499,0 -67.805456,45.769755,0 -67.804347,45.776992,0 -67.803637,45.781624,0 -67.805065,45.787936,0 -67.806602,45.794726,0 -67.801998,45.803551,0 -67.780451,45.816204,0 -67.780034,45.818206,0 -67.767127,45.818744,0 -67.765545,45.81881,0 -67.755078,45.823685,0 -67.760017,45.826838,0 -67.76334,45.82896,0 -67.769147,45.839303,0 -67.789559,45.851626,0 -67.796642,45.860413,0 -67.796273,45.86557,0 -67.803677,45.869378,0 -67.803934,45.8829,0 -67.799038,45.884188,0 -67.796644,45.88782,0 -67.785353,45.89567,0 -67.780101,45.894507,0 -67.778283,45.897679,0 -67.777037,45.896705,0 -67.776357,45.896174,0 -67.768741,45.897952,0 -67.766911,45.903771,0 -67.766723,45.904367,0 -67.765021,45.909778,0 -67.758435,45.911154,0 -67.75527,45.911815,0 -67.750639,45.917718,0 -67.75119,45.918151,0 -67.757433,45.923055,0 -67.757935,45.926215,0 -67.765935,45.928305,0 -67.765579,45.930471,0 -67.771642,45.931883,0 -67.773562,45.934818,0 -67.777655,45.934206,0 -67.781096,45.943025,0 -67.781683,46.103408,0 -67.782318,46.276975,0 -67.783394,46.346085,0 -67.784437,46.413101,0 -67.786933,46.541504,0 -67.787711,46.590014,0 -67.78885,46.660954,0 -67.789386,46.79113,0 -67.789888,46.912828,0 -67.790526,47.067925,0 -67.794994,47.069734,0 -67.810717,47.076097,0 -67.819296,47.082397,0 -67.823066,47.084012,0 -67.836892,47.087038,0 -67.867717,47.100558,0 -67.88131,47.103908,0 -67.888669,47.111692,0 -67.888815,47.112397,0 -67.89217,47.128644,0 -67.897882,47.132772,0 -67.901168,47.135146,0 -67.909355,47.146724,0 -67.910366,47.148154,0 -67.914131,47.149638,0 -67.914719,47.149996,0 -67.926264,47.154694,0 -67.935804,47.16483,0 -67.939163,47.171451,0 -67.951192,47.183913,0 -67.951669,47.194334,0 -67.955234,47.197821,0 -67.958455,47.200348,0 -67.973528,47.205442,0 -67.990171,47.211066,0 -68.000063,47.22009,0 -68.019735,47.238034,0 -68.06184,47.256457,0 -68.064153,47.257079,0 -68.073918,47.25971,0 -68.078605,47.266103,0 -68.082878,47.271933,0 -68.097822,47.278164,0 -68.119691,47.287283,0 -68.125601,47.292263,0 -68.12749,47.293855,0 -68.136828,47.295984,0 -68.152297,47.309873,0 -68.152467,47.321512,0 -68.155152,47.325414,0 -68.161325,47.327753,0 -68.17606,47.32924,0 -68.202351,47.339412,0 -68.202934,47.339445,0 -68.216052,47.340189,0 -68.223501,47.345207,0 -68.223695,47.345921,0 -68.22521,47.351475,0 -68.231027,47.354323,0 -68.251503,47.353258,0 -68.265136,47.352549,0 -68.280852,47.35921,0 -68.285447,47.360142,0 -68.292666,47.359479,0 -68.305016,47.355547,0 -68.323178,47.359896,0 -68.336188,47.3598,0 -68.356508,47.356409,0 -68.361727,47.355538,0 -68.370396,47.350956,0 -68.380327,47.340251,0 -68.380368,47.340107,0 -68.384414,47.325881,0 -68.384284,47.323422,0 -68.3813,47.309159,0 -68.382038,47.307934,0 -68.384945,47.30311,0 -68.384127,47.302248,0 -68.376157,47.293843,0 -68.375842,47.290021,0 -68.378668,47.287562,0 -68.389764,47.286654,0 -68.413236,47.28846,0 -68.428874,47.281951,0 -68.441385,47.283973,0 -68.448838,47.282539,0 -68.458478,47.284857,0 -68.466289,47.294879,0 -68.473848,47.297506,0 -68.491053,47.294142,0 -68.508147,47.296927,0 -68.518329,47.296029,0 -68.529205,47.292574,0 -68.539584,47.285185,0 -68.550298,47.282413,0 -68.570795085937,47.2861366093753,0 -68.56925997733,47.2871600151134,0 -68.564713,47.289533,0 -68.532222,47.326667,0 -68.5237659150668,47.3329070609303,0 -68.486,47.36,0 -68.4488112945897,47.3839520475524,0 -68.426667,47.397778,0 -68.4006984353355,47.4111887150373,0 -68.4010094339623,47.4112232704403,0 -68.37,47.427,0 -68.297,47.458,0 -68.235,47.48,0 -68.169,47.498,0 -68.098,47.512,0 -68.025,47.523,0 -68.0,47.525,0 -67.958,47.699,0 -67.95,47.733,0 -67.797,47.755,0 -66.897,47.883,0 -66.9,47.89,0 -66.911,47.911,0 -66.922,47.939,0 -66.93,47.967,0 -66.933,47.996,0 -66.933,48.025,0 -66.93,48.051,0 -66.929,48.054,0 -66.922,48.083,0 -66.91,48.111,0 -66.895,48.138,0 -66.877,48.165,0 -66.855,48.19,0 -66.83,48.213,0 -66.802,48.236,0 -66.771,48.256,0 -66.737,48.275,0 -66.702,48.291,0 -66.664,48.306,0 -66.624,48.318,0 -66.583,48.327,0 -66.541,48.335,0 -66.498,48.34,0 -66.454,48.342,0 -66.411,48.342,0 -66.367,48.339,0 -66.325,48.333,0 -66.283,48.325,0 -66.242,48.315,0 -66.203,48.303,0 -66.187,48.296,0 -66.165,48.288,0 -66.13,48.271,0 -66.097,48.252,0 -66.067,48.231,0 -66.039,48.208,0 -66.015,48.184,0 -65.994,48.159,0 -65.976,48.133,0 -65.962,48.105,0 -65.951,48.077,0 -65.944,48.048,0 -65.941,48.019,0 -65.941,48.0,0 -65.911,47.997,0 -64.622,47.848,0 -64.103,47.983,0 -63.581,48.116,0 -63.057,48.246,0 -62.53,48.374,0 -62.0,48.5,0 -61.67,48.768,0 -61.337,49.034,0 -61.0,49.3,0 -61.0,49.533,0 -60.296,49.878,0 -59.775,50.132,0 -59.337,50.352,0 -58.896,50.569,0 -58.45,50.786,0 -58,51,0 -57.0,51.283,0 -57.0,51.735,0 -58.143,52.196,0 -58.393,52.095,0 -58.482,52.058,0 -58.543,52.034,0 -58.595,52.012,0 -58.695,51.971,0 -58.808,51.924,0 -58.852,51.906,0 -59.027,51.833,0 -59.116,51.796,0 -59.137,51.787,0 -59.5,51.633,0 -59.5,51.333,0 -60.0,50.833,0 -60.132,50.834,0 -60.748,50.837,0 -60.836,50.838,0 -60.971,50.838,0 -61.231,50.837,0 -61.452,50.837,0 -62.083,50.833,0 -62.717,51.031,0 -63.356,51.226,0 -64.0,51.417,0 -64.146,51.798,0 -64.295,52.179,0 -64.447,52.559,0 -64.601,52.94,0 -64.757,53.32,0 -64.917,53.7,0 -64.9180970306669,53.7018907956447,0 -61.19327705015,54.6726765774252,0 -56.1058838855766,51.4765966219077,0 -53.8483262435678,44.8461801679763,0 -56.051667,44.446667,0 -60.0,43.6,0 -67.0,41.866667,0 -67.0,44.499922,0</coordinates></LinearRing></outerBoundaryIs></Polygon></MultiGeometry>
  </Placemark>
</Folder>
</Document></kml>
