"",0,45.000000,-27.000000
"",0,61.000000,-27.000000
"",0,61.000000,-30.000000
"",0,63.500000,-39.000000
"",0,58.500000,-43.000000
"",0,58.500000,-49.302890
"",0,51.830000,-47.666667
"",0,45.000000,-47.666667
"",0,45.000000,-27.000000