"",0,58.500000,-50.000000
"",0,59.861183,-51.209564
"",0,63.500000,-55.597900
"",0,58.733519,-56.771737
"",0,50.789720,-53.615226
"",0,47.514943,-59.989991
"",0,47.345892,-60.319071
"",0,46.152197,-64.276318
"",0,46.310994,-67.604342
"",0,46.346085,-67.783394
"",0,46.276975,-67.782318
"",0,46.103408,-67.781683
"",0,45.943025,-67.781096
"",0,45.934206,-67.777655
"",0,45.934818,-67.773562
"",0,45.931883,-67.771642
"",0,45.930471,-67.765579
"",0,45.928305,-67.765935
"",0,45.926215,-67.757935
"",0,45.923055,-67.757433
"",0,45.918151,-67.751190
"",0,45.917718,-67.750639
"",0,45.911815,-67.755270
"",0,45.911154,-67.758435
"",0,45.909778,-67.765021
"",0,45.904367,-67.766723
"",0,45.903771,-67.766911
"",0,45.897952,-67.768741
"",0,45.896174,-67.776357
"",0,45.896705,-67.777037
"",0,45.897679,-67.778283
"",0,45.894507,-67.780101
"",0,45.895670,-67.785353
"",0,45.887820,-67.796644
"",0,45.884188,-67.799038
"",0,45.882900,-67.803934
"",0,45.869378,-67.803677
"",0,45.865570,-67.796273
"",0,45.860413,-67.796642
"",0,45.851626,-67.789559
"",0,45.839303,-67.769147
"",0,45.828960,-67.763340
"",0,45.826838,-67.760017
"",0,45.823685,-67.755078
"",0,45.818810,-67.765545
"",0,45.818744,-67.767127
"",0,45.818206,-67.780034
"",0,45.816204,-67.780451
"",0,45.803551,-67.801998
"",0,45.794726,-67.806602
"",0,45.787936,-67.805065
"",0,45.781624,-67.803637
"",0,45.776992,-67.804347
"",0,45.769755,-67.805456
"",0,45.767499,-67.809073
"",0,45.755408,-67.806341
"",0,45.750664,-67.794409
"",0,45.750056,-67.792881
"",0,45.731770,-67.782248
"",0,45.729788,-67.804124
"",0,45.729270,-67.809840
"",0,45.696132,-67.803158
"",0,45.693512,-67.817717
"",0,45.677888,-67.803326
"",0,45.677581,-67.768660
"",0,45.667973,-67.754526
"",0,45.673199,-67.745027
"",0,45.664146,-67.733311
"",0,45.663841,-67.723758
"",0,45.662025,-67.721091
"",0,45.667981,-67.718059
"",0,45.674556,-67.727610
"",0,45.677470,-67.729410
"",0,45.677153,-67.730620
"",0,45.678023,-67.729752
"",0,45.684198,-67.733568
"",0,45.688775,-67.734011
"",0,45.688723,-67.727377
"",0,45.687752,-67.726758
"",0,45.685427,-67.725275
"",0,45.681234,-67.715003
"",0,45.678975,-67.709469
"",0,45.669426,-67.701327
"",0,45.659739,-67.697969
"",0,45.654052,-67.691415
"",0,45.650358,-67.692628
"",0,45.639131,-67.680639
"",0,45.630961,-67.675415
"",0,45.624453,-67.666461
"",0,45.625067,-67.663109
"",0,45.613560,-67.645833
"",0,45.616146,-67.640195
"",0,45.623226,-67.644201
"",0,45.624769,-67.639744
"",0,45.606531,-67.606166
"",0,45.607101,-67.588779
"",0,45.602496,-67.583344
"",0,45.595877,-67.564179
"",0,45.598064,-67.546108
"",0,45.595432,-67.534927
"",0,45.587926,-67.518570
"",0,45.587182,-67.502994
"",0,45.588509,-67.495141
"",0,45.592254,-67.489657
"",0,45.596045,-67.488202
"",0,45.600037,-67.493740
"",0,45.601897,-67.492760
"",0,45.604666,-67.455402
"",0,45.583774,-67.429716
"",0,45.577273,-67.424699
"",0,45.572086,-67.423636
"",0,45.568417,-67.428769
"",0,45.550568,-67.420878
"",0,45.547406,-67.423747
"",0,45.540263,-67.425210
"",0,45.541036,-67.432214
"",0,45.529987,-67.435291
"",0,45.524294,-67.431905
"",0,45.522727,-67.431963
"",0,45.521971,-67.431991
"",0,45.519715,-67.432075
"",0,45.518141,-67.427275
"",0,45.510906,-67.420364
"",0,45.502142,-67.416459
"",0,45.505919,-67.424278
"",0,45.501361,-67.428860
"",0,45.503881,-67.431259
"",0,45.505831,-67.441330
"",0,45.510651,-67.449361
"",0,45.509058,-67.453117
"",0,45.502230,-67.449186
"",0,45.499502,-67.449638
"",0,45.499486,-67.452243
"",0,45.508695,-67.462868
"",0,45.504304,-67.470910
"",0,45.500066,-67.470739
"",0,45.498086,-67.463548
"",0,45.496892,-67.463860
"",0,45.495730,-67.466916
"",0,45.497212,-67.476924
"",0,45.494840,-67.480566
"",0,45.495376,-67.484541
"",0,45.494674,-67.485175
"",0,45.495418,-67.484856
"",0,45.495454,-67.485118
"",0,45.493652,-67.488696
"",0,45.489644,-67.489494
"",0,45.489109,-67.494657
"",0,45.491037,-67.498844
"",0,45.488531,-67.503776
"",0,45.478829,-67.500650
"",0,45.466913,-67.486826
"",0,45.460166,-67.482484
"",0,45.457827,-67.482121
"",0,45.456118,-67.484826
"",0,45.451689,-67.484205
"",0,45.446257,-67.477252
"",0,45.443006,-67.476594
"",0,45.440488,-67.479735
"",0,45.425373,-67.473376
"",0,45.423482,-67.471265
"",0,45.421870,-67.460843
"",0,45.419280,-67.460886
"",0,45.412326,-67.455250
"",0,45.391353,-67.427672
"",0,45.384684,-67.425767
"",0,45.379205,-67.421118
"",0,45.377949,-67.420053
"",0,45.376778,-67.419059
"",0,45.374034,-67.421301
"",0,45.372731,-67.421717
"",0,45.373723,-67.421625
"",0,45.373542,-67.427009
"",0,45.371618,-67.430102
"",0,45.365433,-67.434295
"",0,45.361031,-67.433452
"",0,45.357370,-67.425919
"",0,45.355551,-67.427383
"",0,45.351273,-67.430822
"",0,45.350834,-67.431175
"",0,45.345897,-67.428830
"",0,45.342015,-67.430805
"",0,45.335762,-67.441146
"",0,45.331308,-67.443773
"",0,45.327708,-67.451988
"",0,45.327694,-67.452021
"",0,45.325652,-67.456680
"",0,45.320485,-67.453959
"",0,45.317162,-67.452209
"",0,45.311622,-67.456378
"",0,45.308882,-67.458439
"",0,45.300332,-67.460673
"",0,45.299778,-67.466765
"",0,45.298204,-67.468524
"",0,45.297109,-67.465747
"",0,45.294014,-67.466145
"",0,45.291887,-67.474343
"",0,45.288831,-67.476992
"",0,45.291406,-67.482324
"",0,45.291138,-67.486100
"",0,45.281321,-67.489339
"",0,45.279701,-67.484070
"",0,45.276073,-67.482111
"",0,45.275372,-67.476572
"",0,45.264292,-67.475402
"",0,45.261457,-67.471814
"",0,45.257202,-67.472507
"",0,45.243223,-67.462630
"",0,45.240616,-67.453287
"",0,45.226161,-67.439436
"",0,45.202706,-67.428263
"",0,45.193222,-67.428882
"",0,45.190068,-67.418000
"",0,45.180259,-67.408630
"",0,45.177034,-67.400182
"",0,45.169367,-67.399046
"",0,45.166654,-67.404878
"",0,45.159913,-67.404614
"",0,45.154108,-67.390585
"",0,45.151936,-67.380424
"",0,45.142093,-67.370573
"",0,45.129483,-67.353441
"",0,45.125594,-67.339856
"",0,45.131485,-67.330253
"",0,45.131809,-67.321021
"",0,45.137755,-67.317921
"",0,45.142447,-67.319905
"",0,45.147562,-67.296589
"",0,45.152280,-67.294321
"",0,45.154664,-67.295829
"",0,45.156936,-67.301395
"",0,45.157034,-67.301636
"",0,45.158643,-67.301906
"",0,45.161942,-67.302458
"",0,45.169162,-67.298980
"",0,45.170349,-67.294170
"",0,45.170994,-67.291557
"",0,45.174152,-67.291017
"",0,45.176195,-67.292470
"",0,45.177970,-67.293733
"",0,45.181099,-67.291045
"",0,45.183863,-67.290242
"",0,45.187879,-67.289074
"",0,45.194271,-67.287216
"",0,45.194551,-67.286193
"",0,45.198877,-67.275009
"",0,45.200000,-67.270148
"",0,45.200000,-67.255796
"",0,45.199434,-67.253067
"",0,45.193880,-67.236115
"",0,45.186937,-67.223328
"",0,45.184435,-67.215286
"",0,45.183878,-67.207230
"",0,45.183039,-67.206543
"",0,45.183989,-67.205244
"",0,45.174944,-67.162777
"",0,45.091410,-67.093685
"",0,44.964987,-67.023596
"",0,44.921373,-66.979475
"",0,44.857550,-66.977985
"",0,44.841333,-66.963364
"",0,44.819143,-66.914907
"",0,44.802134,-66.901022
"",0,44.777136,-66.903082
"",0,44.500067,-67.117014
"",0,44.800000,-66.883330
"",0,44.500067,-67.116615
"",0,44.500000,-67.116667
"",0,44.500000,-67.000000
"",0,41.866667,-67.000000
"",0,43.600000,-60.000000
"",0,43.851510,-58.827129
"",0,44.076481,-57.778011
"",0,44.446670,-56.051700
"",0,44.446676,-56.051669
"",0,45.000000,-53.000000
"",0,45.000000,-47.666667
"",0,51.830000,-47.666667
"",0,58.500000,-49.302890
"",0,58.500000,-50.000000