{
"type": "FeatureCollection",
"name": "MumbaiLand",
"crs": { "type": "name", "properties": { "name": "urn:ogc:def:crs:OGC:1.3:CRS84" } },
"features": [
{ "type": "Feature", "properties": { }, "geometry": { "type": "MultiPolygon", "coordinates": [ [ [ [ 68.368867874000102, 23.973051071000043 ], [ 68.753020000000106, 23.97145 ], [ 68.766082818738823, 24.296365168123657 ], [ 68.82616, 24.31736 ], [ 68.864468649411322, 24.212493350862189 ], [ 68.879900000000134, 24.21623 ], [ 68.90678, 24.27983 ], [ 68.943498915206362, 24.302478705609474 ], [ 68.984846, 24.227665 ], [ 69.003420000000119, 24.22306 ], [ 69.09482, 24.27444 ], [ 69.19416, 24.23639 ], [ 69.31276, 24.28143 ], [ 69.49398, 24.26782 ], [ 69.59429, 24.29238 ], [ 69.73152, 24.17104 ], [ 70.022204397302232, 24.171030095931883 ], [ 70.06654, 24.19897 ], [ 70.10992, 24.295 ], [ 70.36865, 24.35091 ], [ 70.57314, 24.42234 ], [ 70.6025, 24.40815 ], [ 70.56211, 24.354 ], [ 70.58466, 24.29041 ], [ 70.571300000000122, 24.25409 ], [ 70.583, 24.24417 ], [ 70.71862, 24.21573 ], [ 70.80537, 24.22083 ], [ 70.87658, 24.24583 ], [ 70.90866, 24.26326 ], [ 70.87519, 24.28069 ], [ 70.87825, 24.3018 ], [ 70.986, 24.36528 ], [ 71.04204, 24.3510500000001 ], [ 71.125770000000102, 24.42009 ], [ 71.10315, 24.435720000000117 ], [ 70.998500000000149, 24.44437 ], [ 71.00498, 24.52321 ], [ 70.98746, 24.543520000000115 ], [ 70.98629000000011, 24.595570000000123 ], [ 71.00888, 24.63541 ], [ 71.0746, 24.66205 ], [ 71.09618, 24.68863 ], [ 71.066049804971783, 24.716940918067621 ], [ 71.027740343166101, 24.807719184126995 ], [ 70.944410373547839, 24.925196940203875 ], [ 70.916540410238554, 25.01058507609315 ], [ 70.916964844091893, 25.010584564019567 ], [ 70.919435501003022, 25.002779007002971 ], [ 79.082336355026072, 25.000733156003669 ], [ 79.082336358000134, 25.000733156000081 ], [ 80.354444440000179, 22.480555560000141 ], [ 80.593611110000097, 21.5025 ], [ 82.0, 18.716666987000053 ], [ 77.166666670000154, 19.716666670000109 ], [ 76.000000000000171, 19.316666670000131 ], [ 76.000000000000171, 16.666666670000097 ], [ 73.370010845663799, 16.330612494435005 ], [ 73.326096, 16.485828 ], [ 73.360535, 16.512218 ], [ 73.269714, 16.853329 ], [ 73.274704, 17.08194 ], [ 72.853867, 18.660553 ], [ 72.857483, 18.795277 ], [ 72.933044000000109, 18.819717000000139 ], [ 72.987488, 18.727772 ], [ 72.993042, 18.790554 ], [ 72.911926, 18.917496 ], [ 73.055542000000116, 19.011944 ], [ 72.969711000000132, 19.078884 ], [ 72.823044, 18.912495 ], [ 72.769989000000123, 18.94305 ], [ 72.825546, 19.053051 ], [ 72.820831, 19.172771000000125 ], [ 72.783325000000104, 19.148052 ], [ 72.766663000000108, 19.22805 ], [ 72.780548, 19.312496 ], [ 72.856369, 19.317776 ], [ 73.047226, 19.217255000000137 ], [ 72.963882, 19.309162 ], [ 72.79776, 19.326107 ], [ 72.75444, 19.369717 ], [ 72.664154, 19.870831 ], [ 72.753601, 20.294998 ], [ 72.885269000000108, 20.513054 ], [ 72.934418000000107, 20.774719 ], [ 72.846939, 20.844162 ], [ 72.853043, 21.067776 ], [ 72.808029, 21.126385 ], [ 72.702774, 21.074165 ], [ 72.615814, 21.097218 ], [ 72.718048, 21.196106 ], [ 72.607483000000116, 21.258053000000132 ], [ 72.564148000000102, 21.378052000000139 ], [ 72.751938, 21.455273 ], [ 72.715271000000143, 21.474995 ], [ 72.585815000000139, 21.41333 ], [ 72.631363, 21.494438 ], [ 72.813309000000118, 21.632217 ], [ 73.130814, 21.753609 ], [ 72.936646, 21.681664 ], [ 72.541656, 21.663883 ], [ 72.56749, 21.848053 ], [ 72.734421000000111, 21.986382 ], [ 72.551651, 21.907219 ], [ 72.500824, 21.976662 ], [ 72.575546000000145, 22.195274 ], [ 72.746933, 22.164719 ], [ 72.817764000000125, 22.239716000000101 ], [ 72.914993, 22.216106 ], [ 72.919144, 22.267776 ], [ 72.581100000000106, 22.28611 ], [ 72.466385, 22.227219000000105 ], [ 72.389709, 22.249439 ], [ 72.375809, 22.299164000000133 ], [ 72.151932, 22.283886 ], [ 72.178864, 22.247494 ], [ 72.29693600000013, 22.232216 ], [ 72.325821, 22.156662 ], [ 72.265274, 22.016109 ], [ 72.031662, 21.942772 ], [ 72.152206, 21.928608000000111 ], [ 72.161926, 21.83527400000014 ], [ 71.994141, 21.847775 ], [ 72.019714, 21.773609 ], [ 72.172485, 21.785831000000144 ], [ 72.289154, 21.61082800000014 ], [ 72.242477000000122, 21.465271 ], [ 72.103867, 21.309719 ], [ 72.110535000000141, 21.201939 ], [ 71.568054, 20.974995 ], [ 71.466934, 20.881939 ], [ 70.966095000000109, 20.702774 ], [ 70.831375, 20.694439 ], [ 70.517761, 20.816666000000112 ], [ 70.060806000000127, 21.14444 ], [ 69.788589000000115, 21.466385 ], [ 69.11554, 22.062496000000124 ], [ 68.944427, 22.294163 ], [ 68.986374, 22.418327 ], [ 69.067215, 22.480827 ], [ 69.177475000000129, 22.360275 ], [ 69.171097, 22.302776 ], [ 69.238312, 22.273331 ], [ 69.870819, 22.465549000000124 ], [ 70.040543000000127, 22.558331 ], [ 70.165543, 22.54833200000013 ], [ 70.367477, 22.888607 ], [ 70.511383000000137, 22.985271 ], [ 70.51249700000011, 23.094162 ], [ 70.475266000000147, 23.127495 ], [ 70.410812, 23.085274 ], [ 70.389435, 22.935272 ], [ 70.227203, 22.957497000000103 ], [ 69.849426, 22.858608 ], [ 69.710266, 22.742771 ], [ 69.147491000000116, 22.869164 ], [ 68.65332, 23.152496 ], [ 68.433044000000109, 23.429996 ], [ 68.408325, 23.612774 ], [ 68.741364, 23.844162 ], [ 68.447479, 23.72694 ], [ 68.335266, 23.588051 ], [ 68.259155, 23.579163 ], [ 68.140274, 23.604717 ], [ 68.201096, 23.664162 ], [ 68.190472447826451, 23.722070116701417 ], [ 68.209718704000181, 23.857221604000131 ], [ 68.251665115000094, 23.896108627000046 ], [ 68.281938553000089, 23.897775650000028 ], [ 68.27083015400018, 23.918886185000133 ], [ 68.290544510000132, 23.944440842000063 ], [ 68.330553055000109, 23.914720535000072 ], [ 68.356370926000125, 23.940553665000039 ], [ 68.352479935000133, 23.969442368000102 ], [ 68.368867874000102, 23.973051071000043 ] ] ] ] } }
]
}
