{
"type": "FeatureCollection",
"name": "geojsonTemplate",
"features": [
{ "type": "Feature", "properties": { }, "geometry": { "type": "MultiPolygon", "coordinates": [ [ [
   [90.0000, -141.0000 ],
   [87.7389, -141.0000 ],
   [85.4778, -141.0000 ],
   [83.2167, -141.0000 ],
   [80.9556, -141.0000 ],
   [78.6944, -141.0000 ],
   [76.4333, -141.0000 ],
   [74.1722, -141.0000 ],
   [71.9111, -141.0000 ],
   [69.6500, -141.0000 ],
   [90.0000, -141.0000 ]
] ] ] } }
]
}