{
  "fileVersion": 1,
  "checksum": "51c68375ceae9e1a4077fd697b4e73a0",
  "fileFormatVersion": 1,
  "fileName": "enav.geojson",
  "fileGeneratedBy": "SVDD",
  "type": "FeatureCollection",
  "customerCollection": [
    {
      "type": "customer",
      "properties": {
        "customerID": "CUS-1000013",
        "customerName": "ENAV",
        "customerRegion": "Italy",
        "customerRecordVersion": 1,
        "customerEffectiveDate": "1999-12-31T23:59:59.999Z",
        "customerEndDate": "2099-12-31T23:59:59.999Z",
        "anspTargetReportBundleTimeMsecs": 50,
        "cat023StatusReportEnabled": true,
        "servicePredictionReportLookAheadHours": 24,
        "rateServicePredictionReportMins": 30,
        "rateServicePredictionDefinitionMins": 30,
        "rateVersionNumberReportMins": 5,
        "DDID": "0x0004",
        "anspTargetReportVersion": "2.4",
        "servicePredictionReportTimeIncrementMins": 1,
        "anspTargetReportTOA": false,
        "anspTargetReportFineTOMR": false,
        "trackNumberFieldEnabled": false,
        "anspTargetReportPosType": false,
        "anspTargetReportTOMRv": false,
        "anspTargetReportAGV": false,
        "anspTargetReportFTC0": false,
        "invalidMode3ACode": "0000",
        "duplicateType2SameSVol": false,
        "anspTargetReportValidation": false,
        "anspTargetReportFailedState": true,
        "sdpCollection": [
          {
            "sdpId": "0x000400",
            "sdpName": "Rome SDP",
            "sdpLocation": "Rome, Italy",
            "anspAssetIPAddress": "127.0.0.1",
            "anspAssetNetmask": "255.255.255.0",
            "anspInterfaceDuplexMode": "auto",
            "anspInterfaceDuplexSpeed": 100,
            "anspAssetDuplexType": "full",
            "serviceVolumeDelivery": [
              {
                "serviceVolumeId": "0x224e01",
                "singleOrDualStream": "single",
                "unicastOrMulticastStream1": "multicast",
                "unicastOrMulticastStream2": "multicast"
              },
              {
                "serviceVolumeId": "0x225c01",
                "singleOrDualStream": "single",
                "unicastOrMulticastStream1": "multicast",
                "unicastOrMulticastStream2": "multicast"
              }
            ]
          }
        ]
      }
    }
  ],
  "totalFeatures": 3,
  "features": [
    {
      "id": "22-4e-01-00",
      "type": "Feature",
      "bbox": [
        6.893480,
        35.662550,
        20.080440,
        44.561710
      ],
      "properties": {
        "featureVersion": 1,
        "featureEffectiveDate": "1999-12-31T23:59:59.999Z",
        "featureBirthDate": "1999-12-31T23:59:59.999Z",
        "featureEndDate": "2099-12-31T23:59:59.999Z",
        "customerID": "CUS-1000013",
        "volumeName": "Roma FIR",
        "icaoID": "LIRR",
        "sac": "0x22",
        "sic": "0x4e",
        "sid": "0x01",
        "featureID": "0x00",
        "featureType": "service",
        "serviceFeatureProperties": {
          "serviceType": "primary",
          "serviceDefaultMode": "active",
          "contractUpdateIntervalMsecs": 15000,
          "contractLatencyMsecs": 2000,
          "anspTargetReportUpdateMode": "update",
          "anspTargetReportMinWaitTimeMsecs": 700,
          "anspTargetReportPeriodicRateMsecs": 80,
          "anspTestTargetReportRateSecs": 1,
          "anspTestTargetReportICAO": "0xc1f900",
          "anspTestTargetReportPosition": [
            12.500000,
            41.900000
          ],
          "anspTestTargetReportAltFeet": 0,
          "anspTestTargetReportMode3AEnabled": false,
          "anspTestTargetReportTargetIDEnabled": false,
          "offlineStatusThresholdPercent": 85,
          "degradedStatusThresholdPercent": 0,
          "networkServicesAddress": "233.34.78.1",
          "portTargetReportsCAT021": 59980,
          "portVersionNumberCAT247": 59981,
          "portAPDKeepAlive": 65535,
          "portEquipmentStatusCAT023": 59982,
          "portServiceVolumeStatusCAT023": 59983,
          "portServiceVolumeStatisticsCAT023": 59984,
          "portServiceDefinitionReportCAT238": 59988,
          "portServicePredictionReportCAT238": 59990,
          "portServiceSystemStatusReportCAT025": 59992,
          "portServiceStatisticsReportCAT025": 59993,
          "portConstellationTLEReportCAT253": 59994,
          "portCat033": 59681,
          "portCat033BelowMinLV": 59682,
          "portCat033DupType1": 59683,
          "portCat033DupType1BelowMinLV": 59684,
          "portCat033InvMode3A": 59685,
          "portCat033InvMode3ABelowMinLV": 59686,
          "latencyTPM": true,
          "updateIntervalTPM": true,
          "probabilityUpdateTPM": true,
          "probabilityLongGapTPM": true,
          "serviceDesignator": "1090ADSB",
          "serviceMode": "operational",
          "expectedTargetLoad": 2000,
          "sendSurfaceTargets": true,
          "minLinkVersion": 0,
          "anspTargetReportRxID1": 0,
          "gracefulDegradation": false,
          "gracefulDegradationLoad": 1000,
          "gracefulDegradationRate": 0.005,
          "serviceVolumeId": "0x224e01",
          "rateTLESecs": 30,
          "rateEquipmentStatusSecs": 5,
          "rateServiceVolumeStatusSecs": 5,
          "rateServiceVolumeStatisticsSecs": 5,
          "anspTestTargetReportTargetsNIC": 11,
          "anspTestTargetReportNoTargetsNIC": 10,
          "anspTestTargetReportTargetsNACp": 11,
          "anspTestTargetReportNoTargetsNACp": 10
        },
        "geometryType": "polygon",
        "centerPoint": [
          13.168455,
          39.557563
        ],
        "floorFeet": 0,
        "ceilingFeet": 66000
      },
      "geometry": {
        "type": "Polygon",
        "coordinates": [
          [
            [
              6.937590,
              38.499550
            ],
            [
              10.458410,
              36.995120
            ],
            [
              10.476670,
              35.662550
            ],
            [
              20.022930,
              35.662550
            ],
            [
              20.080440,
              39.717450
            ],
            [
              17.270570,
              39.717450
            ],
            [
              17.134330,
              39.738420
            ],
            [
              15.961520,
              41.826540
            ],
            [
              15.129870,
              42.110730
            ],
            [
              14.329610,
              43.028810
            ],
            [
              14.846550,
              44.215840
            ],
            [
              11.122100,
              44.561710
            ],
            [
              9.719650,
              44.351220
            ],
            [
              8.603620,
              43.497020
            ],
            [
              8.627260,
              42.170780
            ],
            [
              7.780140,
              42.170780
            ],
            [
              6.893480,
              41.272120
            ],
            [
              6.937590,
              38.499550
            ]
          ]
        ]
      }
    },
    {
      "id": "22-5c-01-00",
      "type": "Feature",
      "bbox": [
        6.621668,
        19.500000,
        39.301111,
        47.088335
      ],
      "properties": {
        "featureVersion": 1,
        "featureEffectiveDate": "1999-12-31T23:59:59.999Z",
        "featureBirthDate": "1999-12-31T23:59:59.999Z",
        "featureEndDate": "2099-12-31T23:59:59.999Z",
        "customerID": "CUS-1000013",
        "volumeName": "BlueMed",
        "icaoID": "BLUE",
        "sac": "0x22",
        "sic": "0x5c",
        "sid": "0x01",
        "featureID": "0x00",
        "featureType": "service",
        "serviceFeatureProperties": {
          "serviceType": "primary",
          "serviceDefaultMode": "active",
          "contractUpdateIntervalMsecs": 15000,
          "contractLatencyMsecs": 2000,
          "anspTargetReportUpdateMode": "update",
          "anspTargetReportMinWaitTimeMsecs": 700,
          "anspTargetReportPeriodicRateMsecs": 80,
          "anspTestTargetReportRateSecs": 1,
          "anspTestTargetReportICAO": "0xc1f900",
          "anspTestTargetReportPosition": [
            29.000000,
            34.000000
          ],
          "anspTestTargetReportAltFeet": 0,
          "anspTestTargetReportMode3AEnabled": false,
          "anspTestTargetReportTargetIDEnabled": false,
          "offlineStatusThresholdPercent": 85,
          "degradedStatusThresholdPercent": 0,
          "networkServicesAddress": "233.34.92.1",
          "portTargetReportsCAT021": 59980,
          "portVersionNumberCAT247": 59981,
          "portAPDKeepAlive": 65535,
          "portEquipmentStatusCAT023": 59982,
          "portServiceVolumeStatusCAT023": 59983,
          "portServiceVolumeStatisticsCAT023": 59984,
          "portServiceDefinitionReportCAT238": 59988,
          "portServicePredictionReportCAT238": 59990,
          "portServiceSystemStatusReportCAT025": 59992,
          "portServiceStatisticsReportCAT025": 59993,
          "portConstellationTLEReportCAT253": 59994,
          "portCat033": 59681,
          "portCat033BelowMinLV": 59682,
          "portCat033DupType1": 59683,
          "portCat033DupType1BelowMinLV": 59684,
          "portCat033InvMode3A": 59685,
          "portCat033InvMode3ABelowMinLV": 59686,
          "latencyTPM": true,
          "updateIntervalTPM": true,
          "probabilityUpdateTPM": true,
          "probabilityLongGapTPM": true,
          "serviceDesignator": "1090ADSB",
          "serviceMode": "operational",
          "expectedTargetLoad": 2000,
          "sendSurfaceTargets": true,
          "minLinkVersion": 0,
          "anspTargetReportRxID1": 0,
          "gracefulDegradation": false,
          "gracefulDegradationLoad": 1000,
          "gracefulDegradationRate": 0.005,
          "serviceVolumeId": "0x225c01",
          "rateTLESecs": 30,
          "rateEquipmentStatusSecs": 5,
          "rateServiceVolumeStatusSecs": 5,
          "rateServiceVolumeStatisticsSecs": 5,
          "anspTestTargetReportTargetsNIC": 11,
          "anspTestTargetReportNoTargetsNIC": 10,
          "anspTestTargetReportTargetsNACp": 11,
          "anspTestTargetReportNoTargetsNACp": 10
        },
        "geometryType": "polygon",
        "centerPoint": [
          21.090908,
          31.800835
        ],
        "floorFeet": 18000,
        "ceilingFeet": 66000
      },
      "geometry": {
        "type": "Polygon",
        "coordinates": [
          [
            [
              30.000002,
              36.083334
            ],
            [
              28.339003,
              36.540930
            ],
            [
              28.063181,
              36.482431
            ],
            [
              27.843294,
              36.701216
            ],
            [
              27.509691,
              36.510351
            ],
            [
              27.275713,
              36.651617
            ],
            [
              27.430777,
              36.912836
            ],
            [
              27.209257,
              36.943827
            ],
            [
              26.974447,
              37.647799
            ],
            [
              27.147234,
              37.749628
            ],
            [
              26.199133,
              38.170240
            ],
            [
              26.309893,
              38.648405
            ],
            [
              26.690905,
              39.086725
            ],
            [
              26.451666,
              39.396669
            ],
            [
              25.750002,
              39.496668
            ],
            [
              25.583334,
              40.163336
            ],
            [
              25.833334,
              40.363337
            ],
            [
              25.866667,
              40.613337
            ],
            [
              26.359446,
              40.951937
            ],
            [
              26.321386,
              41.240557
            ],
            [
              26.631662,
              41.350824
            ],
            [
              26.452223,
              41.684443
            ],
            [
              26.074446,
              41.711939
            ],
            [
              26.198053,
              41.439440
            ],
            [
              25.979162,
              41.319445
            ],
            [
              25.279718,
              41.243052
            ],
            [
              24.245554,
              41.567774
            ],
            [
              22.813055,
              41.348612
            ],
            [
              22.714998,
              41.143053
            ],
            [
              22.066668,
              41.158335
            ],
            [
              21.570002,
              40.874994
            ],
            [
              20.983492,
              40.855890
            ],
            [
              20.733889,
              40.911943
            ],
            [
              20.517221,
              41.237497
            ],
            [
              20.458056,
              41.526384
            ],
            [
              20.623888,
              41.963335
            ],
            [
              20.524168,
              42.214441
            ],
            [
              20.077501,
              42.558329
            ],
            [
              19.793612,
              42.483889
            ],
            [
              19.722776,
              42.661943
            ],
            [
              19.282499,
              42.185556
            ],
            [
              19.367773,
              41.849001
            ],
            [
              18.866667,
              41.129999
            ],
            [
              16.191943,
              42.337587
            ],
            [
              14.500002,
              43.496668
            ],
            [
              13.333334,
              44.530001
            ],
            [
              13.000002,
              45.296667
            ],
            [
              13.500002,
              45.630003
            ],
            [
              13.918612,
              45.633890
            ],
            [
              13.598055,
              45.810831
            ],
            [
              13.632223,
              45.991106
            ],
            [
              13.479445,
              46.013330
            ],
            [
              13.666945,
              46.170275
            ],
            [
              13.386667,
              46.299166
            ],
            [
              13.718657,
              46.526613
            ],
            [
              12.440554,
              46.690828
            ],
            [
              12.150248,
              46.911364
            ],
            [
              12.221666,
              47.088335
            ],
            [
              11.171389,
              46.966661
            ],
            [
              11.014723,
              46.772501
            ],
            [
              10.471235,
              46.871355
            ],
            [
              10.465277,
              46.546389
            ],
            [
              10.055834,
              46.545275
            ],
            [
              10.124445,
              46.226389
            ],
            [
              9.949999,
              46.379168
            ],
            [
              9.581945,
              46.296946
            ],
            [
              9.296946,
              46.503885
            ],
            [
              9.031668,
              45.823885
            ],
            [
              8.445555,
              46.245829
            ],
            [
              8.430277,
              46.463053
            ],
            [
              7.868055,
              45.926668
            ],
            [
              6.808889,
              45.831385
            ],
            [
              7.181944,
              45.415834
            ],
            [
              7.076391,
              45.222223
            ],
            [
              6.621668,
              45.113886
            ],
            [
              7.031668,
              44.831385
            ],
            [
              7.072222,
              44.691668
            ],
            [
              6.852777,
              44.540834
            ],
            [
              6.990557,
              44.252222
            ],
            [
              7.668890,
              44.184717
            ],
            [
              7.531935,
              43.782045
            ],
            [
              9.750000,
              43.166667
            ],
            [
              9.750002,
              41.333334
            ],
            [
              8.333334,
              41.333334
            ],
            [
              8.000002,
              41.000002
            ],
            [
              7.995343,
              39.006520
            ],
            [
              8.645234,
              36.723096
            ],
            [
              8.362010,
              36.723187
            ],
            [
              8.362010,
              35.489853
            ],
            [
              7.645343,
              35.323187
            ],
            [
              9.062010,
              29.673187
            ],
            [
              9.656318,
              29.673187
            ],
            [
              9.875364,
              29.025934
            ],
            [
              9.968644,
              27.868376
            ],
            [
              9.782930,
              27.285275
            ],
            [
              9.912618,
              26.648153
            ],
            [
              9.396545,
              26.202212
            ],
            [
              10.024736,
              25.334401
            ],
            [
              10.054189,
              24.839822
            ],
            [
              10.256273,
              24.602788
            ],
            [
              11.008988,
              24.471237
            ],
            [
              11.425827,
              24.198152
            ],
            [
              11.609843,
              24.260281
            ],
            [
              11.997173,
              23.515023
            ],
            [
              11.503584,
              23.232068
            ],
            [
              11.495766,
              22.002804
            ],
            [
              18.924891,
              22.000002
            ],
            [
              24.000000,
              19.500000
            ],
            [
              24.000002,
              20.000002
            ],
            [
              25.000002,
              20.000002
            ],
            [
              25.000002,
              22.000002
            ],
            [
              38.000002,
              22.000002
            ],
            [
              34.583334,
              28.100000
            ],
            [
              34.961390,
              29.360834
            ],
            [
              36.070002,
              29.188890
            ],
            [
              36.743608,
              29.864721
            ],
            [
              37.502779,
              30.002222
            ],
            [
              37.667498,
              30.336390
            ],
            [
              38.001390,
              30.504168
            ],
            [
              37.005274,
              31.505556
            ],
            [
              39.004999,
              32.005556
            ],
            [
              39.301111,
              32.236383
            ],
            [
              39.260000,
              32.355543
            ],
            [
              39.043653,
              32.304052
            ],
            [
              38.986108,
              32.477694
            ],
            [
              39.086000,
              32.501506
            ],
            [
              38.794703,
              33.377596
            ],
            [
              36.837778,
              32.313608
            ],
            [
              36.400278,
              32.381945
            ],
            [
              35.779444,
              32.750277
            ],
            [
              35.556665,
              32.640551
            ],
            [
              35.540834,
              32.394442
            ],
            [
              35.222773,
              32.551943
            ],
            [
              35.077219,
              32.467218
            ],
            [
              34.965559,
              31.830557
            ],
            [
              35.226107,
              31.746946
            ],
            [
              34.884439,
              31.404722
            ],
            [
              35.478197,
              31.497324
            ],
            [
              35.462221,
              31.121111
            ],
            [
              34.919443,
              29.498610
            ],
            [
              34.267580,
              31.216543
            ],
            [
              34.559168,
              31.546946
            ],
            [
              33.964029,
              31.840200
            ],
            [
              33.988241,
              32.182379
            ],
            [
              34.536730,
              32.727877
            ],
            [
              34.603834,
              33.090071
            ],
            [
              35.504717,
              33.094164
            ],
            [
              36.059168,
              33.579439
            ],
            [
              35.933886,
              33.654718
            ],
            [
              36.070002,
              33.827219
            ],
            [
              36.369722,
              33.827501
            ],
            [
              36.283335,
              33.917772
            ],
            [
              36.624994,
              34.203890
            ],
            [
              36.351229,
              34.500750
            ],
            [
              36.460001,
              34.635279
            ],
            [
              35.708334,
              34.616659
            ],
            [
              35.686323,
              35.345484
            ],
            [
              35.524088,
              35.542154
            ],
            [
              33.103814,
              35.992048
            ],
            [
              30.000002,
              36.083334
            ]
          ]
        ]
      }
    },
    {
      "id": "22-4e-01-01",
      "type": "Feature",
      "bbox": [
        8.000000,
        36.500002,
        19.000002,
        43.713335
      ],
      "properties": {
        "featureVersion": 1,
        "featureEffectiveDate": "1999-12-31T23:59:59.999Z",
        "featureBirthDate": "1999-12-31T23:59:59.999Z",
        "featureEndDate": "2099-12-31T23:59:59.999Z",
        "customerID": "CUS-1000013",
        "volumeName": "Roma FIR",
        "icaoID": "LIRR",
        "sac": "0x22",
        "sic": "0x4e",
        "sid": "0x01",
        "featureID": "0x01",
        "featureType": "billing",
        "billingFeatureProperties": {
          "billingType": "usage",
          "billingPriority": 0,
          "billingEffectiveDate": "1999-12-31T23:59:59.999Z",
          "failedStateThresholdSecs": 86400
        },
        "geometryType": "polygon",
        "centerPoint": [
          13.054790,
          39.524700
        ],
        "floorFeet": 18000,
        "ceilingFeet": 66000
      },
      "geometry": {
        "type": "Polygon",
        "coordinates": [
          [
            [
              8.000000,
              39.000000
            ],
            [
              11.500002,
              37.500002
            ],
            [
              11.500002,
              36.500002
            ],
            [
              19.000002,
              36.500002
            ],
            [
              19.000002,
              38.879999
            ],
            [
              17.166670,
              38.879999
            ],
            [
              16.516668,
              38.980001
            ],
            [
              16.250002,
              39.230001
            ],
            [
              15.116667,
              41.196669
            ],
            [
              14.383333,
              41.446669
            ],
            [
              13.083334,
              42.913336
            ],
            [
              13.333334,
              43.512175
            ],
            [
              11.166670,
              43.713335
            ],
            [
              10.300000,
              43.583333
            ],
            [
              9.750000,
              43.166667
            ],
            [
              9.750002,
              41.333334
            ],
            [
              8.333334,
              41.333334
            ],
            [
              8.000002,
              41.000002
            ],
            [
              8.000000,
              39.000000
            ]
          ]
        ]
      }
    }
  ]
}
