lat,long
3.83679998370272,101.183078362077
4.22673556497409,101.203374230099
4.7499063454856,100.908527882465
4.75952731920399,100.903121424259
5.50641747445262,100.48418787472
5.94039270564729,100.291172175613
6.40345902607812,100.182557131621
6.8791630422653,100.1624828346
7.35053430266457,100.231993436071
7.8006779196062,100.388955603343
8.21337611880716,100.628079846217
8.57367933529827,100.94105303008
8.57381818888066,100.941198989088
8.75857390076244,101.158961499186
9.01022335281593,101.492775753627
9.28299255110014,101.948516469259
9.45404129648684,102.451773108096
9.51557543200656,102.979872064098
9.52148413603587,107.302911847616
12.67776219147,112.727423225497
12.8832374009078,113.200889105581
12.9901391646399,113.70794024266
12.9940374447121,114.227215617207
12.8948654393023,114.736828281769
12.6969071763078,115.215383884438
12.4085803325032,115.642959534355
10.3087763939787,118.14104988273
9.94409191125431,118.493214984635
9.51851903939129,118.764754220866
9.04927463323897,118.945193299362
8.55519861784916,119.027806882448
8.05599385691762,119.009796288561
7.57145495757006,118.892315381657
7.12071174165914,118.680359015485
6.72150957636021,118.38252749847
6.38954642789955,118.010678278683
3.99051659007925,114.78127148155
1.35890907876929,111.417637741934
1.15072397476546,111.456213218225
0.96440683409851,111.452387648434
0.502484616383312,111.595847448527
0.00668022548826863,111.649966981293
-0.489211276834421,111.608300900166
-0.966055107506948,111.472595778856
-1.4054958042499,111.248172459534
-1.79064334778005,110.943721006764
-2.10670361711222,110.570978939976
-2.34153272272677,110.144298550032
-2.48609572087616,109.680112778564
-2.53481194977969,109.196314831481
-2.5353880641101,108.499989661046
-3.18458526386268,106.942294173611
-3.32545895157247,106.484684662664
-3.37337787535636,106.008943875486
-3.32655261827433,105.532861548662
-3.18671362348996,105.074244221816
-2.95904859545975,104.650244275983
-2.81440800687926,104.474387081502
-2.81709057698563,104.454876308859
-2.82874540610832,104.341296047054
-2.84004304153153,104.17569651076
-2.84392068705626,104.061587280743
-2.8438916647132,103.895700926215
-2.83997367135203,103.781595691187
-2.82862807983011,103.61614318368
-2.81693364747081,103.502570860424
-2.79432162274814,103.338246635323
-2.77490660262483,103.225737002861
-2.74109322309081,103.063139466028
-2.71404512376925,102.952216102528
-2.66917018870139,102.792141860292
-2.63461711221776,102.683319089547
-2.57881774148796,102.526374895215
-2.53691939957872,102.420158736628
-2.47039102058265,102.267037001609
-2.42134169218984,102.163920160345
-2.34430887184529,102.015280482893
-2.28833538427252,101.915741354523
-2.20108569478893,101.77227676047
-2.13844839543764,101.676776473362
-2.04129607540569,101.539135819054
-1.97228482961991,101.448115299167
-1.86557002670134,101.316918146241
-1.79050420638672,101.230800201148
-1.67465704746873,101.106708959976
-1.59388254631805,101.025889419819
-1.46937204231841,100.909528045157
-1.38326428087484,100.83438089733
-1.25057047855364,100.726318140429
-1.15952646193091,100.657190686396
-1.01924596876088,100.558025255032
-0.923686335683076,100.495235303339
-0.776390775359336,100.405477330978
-0.67675686759265,100.349316354886
-0.523155728017498,100.26949562707
-0.419907696277847,100.220221966391
-0.260662765591101,100.150771311432
-0.154278662646331,100.108615312507
0.00981348207830574,100.049963133045
0.118844546771025,100.015119306626
0.28700179842753,99.9676134786212
0.398174548139198,99.9402456116809
0.569556443473724,99.9041828890655
0.682357267515272,99.8844201148832
0.856088573233776,99.8600315705931
0.969995378793434,99.847968405204
1.14525943277484,99.8354108203032
1.25974551278559,99.8311101290211
1.43551205023362,99.8304823636375
1.55004489090742,99.8339663294436
2.02721610723232,99.8932433298966
2.16293389806192,99.9231429284667
2.61188047594899,100.066182170314
3.02657788462432,100.288570054191
3.39251109758128,100.582759854878
3.69681454477281,100.938645499091
3.83679998370272,101.183078362077
