"shapeid","x","y"
"0.0","72.00006125117021","7.500001907000069"
"0.0","72.00000190800006","15.000001907000069"
"0.0","72.1709933746524","15.000001907000069"
"0.0","72.66339882290853","13.962939016168429"
"0.0","72.87348026286055","13.694715957179172"
"0.0","73.02784673097318","13.29450959331397"
"0.0","73.17811740741993","12.548183697869623"
"0.0","73.28849819490672","12.204163760835042"
"0.0","73.74377332398038","11.201338292173121"
"0.0","73.92232822975633","10.947960304567212"
"0.0","74.11155737892012","10.764418793616795"
"0.0","74.26310801138429","10.5120662087355"
"0.0","74.57486373017896","9.69211691611728"
"0.0","74.7226020525555","8.98762505891873"
"0.0","74.92416353295623","8.466807293888472"
"0.0","75.1978485616947","7.948687759558442"
"0.0","75.81450420329264","7.199742570628463"
"0.0","76.37891091010265","6.74965544942306"
"0.0","76.79771092799596","6.549365350470468"
"0.0","77.13234523652386","6.45456034829974"
"0.0","77.65941470822538","6.415224984410849"
"0.0","77.98048977938471","6.471113933394664"
"0.0","78.30579409646228","6.6115879001980495"
"0.0","78.50326655852635","6.696861100165929"
"0.0","78.98479836568968","6.984198357154696"
"0.0","79.21100193675466","7.165558128219589"
"0.0","79.47988060697222","7.500059178860269"
"0.0","79.68730942200365","7.51540250470127"
"0.0","80.5158427809866","9.1744113634773"
"0.0","81.11095991491574","9.1744113634773"
"0.0","81.27862377147503","9.425766764469573"
"0.0","81.41789011491382","9.710977109017586"
"0.0","81.47836772558435","10.000001907000069"
"0.0","81.41789011491382","9.710977109017586"
"0.0","81.27862377147503","9.425766764469573"
"0.0","81.11095991491574","9.1744113634773"
"0.0","80.5158427809866","9.1744113634773"
"0.0","79.68730942200365","7.51540250470127"
"0.0","79.47988060697222","7.500059178860269"
"0.0","79.21100193675466","7.165558128219589"
"0.0","78.98479836568968","6.984198357154696"
"0.0","78.50326655852635","6.696861100165929"
"0.0","78.30579409646228","6.6115879001980495"
"0.0","78.00000095400003","6.000001907000069"
"0.0","76.50000190800006","6.000001907000069"
"0.0","76.00000190800006","6.000001907000069"
"0.0","74.00000190700007","6.000001907000069"
"0.0","74.00000190700007","7.500001907000069"
"0.0","72.00006125117021","7.500001907000069"
"0.1","84.7509167247218","16.811815709553255"
"0.1","85.9","15.7"
"0.1","92.00000190700007","14.000001907000069"
"0.1","94.41666603100003","13.500001908000058"
"0.1","94.41666603100003","11.000001907000069"
"0.1","94.41666603100003","10.000001907000069"
"0.1","94.41666603100003","6.000001907000069"
"0.1","92.00000190700007","6.000001907000069"
"0.1","82.00000190700007","10.000001907000069"
"0.1","81.47836772558435","10.000001907000069"
"0.1","81.5212241677358","10.204814471480315"
"0.1","81.49141925577767","11.476555325826393"
"0.1","81.64170594595743","11.728038567213746"
"0.1","81.82797875316864","12.225767854009078"
"0.1","81.99413875574598","13.086876132798006"
"0.1","81.99721572692157","13.562936724765045"
"0.1","81.83728973237278","14.24452562156866"
"0.1","81.84960558709201","14.383789428336447"
"0.1","82.01189098521301","14.480088114579413"
"0.1","82.34286274180613","14.811557819688819"
"0.1","82.8579337951443","15.024537875912745"
"0.1","83.29601743318453","15.292515871208161"
"0.1","83.5373121710133","15.505762245064945"
"0.1","83.73104543848339","15.760317550418923"
"0.1","83.89300079590582","16.109628280399196"
"0.1","84.18926615334325","16.281380803323156"
"0.1","84.7000341425916","16.786083984778205"
"0.1","84.7509167247218","16.811815709553255"
