{
"type": "FeatureCollection",
"name": "London_BVol",
"crs": { "type": "name", "properties": { "name": "urn:ogc:def:crs:OGC:1.3:CRS84" } },
"features": [
{ "type": "Feature", "properties": { }, "geometry": { "type": "Polygon", "coordinates": [ [ [ -8.0, 48.833334 ], [ -2.0, 50.000002 ], [ -0.25, 50.000002 ], [ 1.466669, 50.666666 ], [ 1.466669, 51.000002 ], [ 2.000002, 51.116667 ], [ 2.000002, 51.500002 ], [ 5.000002, 55.000002 ], [ -5.5, 55.000002 ], [ -5.5, 53.916666 ], [ -5.5, 52.333334 ], [ -8.0, 51.000002 ], [ -8.0, 48.833334 ] ] ] } }
]
}
