<?xml version="1.0" encoding="UTF-8"?>
<kml xmlns="http://www.opengis.net/kml/2.2" xmlns:gx="http://www.google.com/kml/ext/2.2" xmlns:kml="http://www.opengis.net/kml/2.2" xmlns:atom="http://www.w3.org/2005/Atom">
<Document>
	<name>NATS_VolumeDefs.kml</name>
	<Schema name="NATS_VolumeDefs_SECorner_SVol" id="NATS_VolumeDefs_SECorner_SVol">
		<SimpleField type="int" name="FID"></SimpleField>
	</Schema>
	<Schema name="NATS_VolumeDefs_ShanwickOCA_SVol" id="NATS_VolumeDefs_ShanwickOCA_SVol">
		<SimpleField type="int" name="FID"></SimpleField>
	</Schema>
	<Style id="s_ylw-pushpin">
		<IconStyle>
			<scale>1.1</scale>
			<Icon>
				<href>http://maps.google.com/mapfiles/kml/pushpin/ylw-pushpin.png</href>
			</Icon>
			<hotSpot x="20" y="2" xunits="pixels" yunits="pixels"/>
		</IconStyle>
		<PolyStyle>
			<color>1affffff</color>
		</PolyStyle>
	</Style>
	<StyleMap id="m_ylw-pushpin">
		<Pair>
			<key>normal</key>
			<styleUrl>#s_ylw-pushpin</styleUrl>
		</Pair>
		<Pair>
			<key>highlight</key>
			<styleUrl>#s_ylw-pushpin_hl</styleUrl>
		</Pair>
	</StyleMap>
	<Style id="s_ylw-pushpin_hl">
		<IconStyle>
			<scale>1.3</scale>
			<Icon>
				<href>http://maps.google.com/mapfiles/kml/pushpin/ylw-pushpin.png</href>
			</Icon>
			<hotSpot x="20" y="2" xunits="pixels" yunits="pixels"/>
		</IconStyle>
		<PolyStyle>
			<color>1affffff</color>
		</PolyStyle>
	</Style>
	<Folder>
		<name>NATS_VolumeDefs_BVols</name>
		<open>1</open>
		<Placemark>
			<name>SE_Corner_BVol</name>
			<styleUrl>#m_ylw-pushpin</styleUrl>
			<Polygon>
				<outerBoundaryIs>
					<LinearRing>
						<coordinates>
							-11.16,48.47,0 -12,45,0 -8.449999999999999,45,0 -8.449999999999999,48.3,0 -11.16,48.47,0 
						</coordinates>
					</LinearRing>
				</outerBoundaryIs>
			</Polygon>
		</Placemark>
		<Placemark>
			<name>SE_Corner_SVol</name>
			<styleUrl>#m_ylw-pushpin</styleUrl>
			<ExtendedData>
				<SchemaData schemaUrl="#NATS_VolumeDefs_SECorner_SVol">
					<SimpleData name="FID">0</SimpleData>
				</SchemaData>
			</ExtendedData>
			<MultiGeometry>
				<Polygon>
					<outerBoundaryIs>
						<LinearRing>
							<coordinates>
								-12.742668,41.694869,0 -11.16,48.47,0 -9.681194,51.731577,0 -9.681194,51.731577,0 -7.853786,51.607246,0 -6.613492,51.40548799999999,0 -5.505633,51.009081,0 -4.604291,50.44627300000001,0 -3.962383,49.75580099999999,0 -3.609281,48.983131,0 -3.55197,48.176637,0 -3.886041,44.884992,0 -4.072266,44.138377,0 -4.472871,43.440734,0 -5.060309,42.825527,0 -5.801326,42.32119,0 -6.658884000000001,41.950317,0 -7.593582999999999,41.729134,0 -8.564704000000001,41.667165,0 -11.885296,41.667165,0 -12.580195,41.694869,0 -12.742668,41.694869,0 
							</coordinates>
						</LinearRing>
					</outerBoundaryIs>
				</Polygon>
			</MultiGeometry>
		</Placemark>
		<Placemark>
			<name>ShanwickOCA_SVol</name>
			<styleUrl>#m_ylw-pushpin</styleUrl>
			<ExtendedData>
				<SchemaData schemaUrl="#NATS_VolumeDefs_ShanwickOCA_SVol">
					<SimpleData name="FID">0</SimpleData>
				</SchemaData>
			</ExtendedData>
			<MultiGeometry>
				<Polygon>
					<outerBoundaryIs>
						<LinearRing>
							<coordinates>
								-9.681194,51.731577,0 -9.681194,51.731577,0 -9.681194,51.731577,0 -11.16,48.47,0 -12.742668,41.694869,0 -29.419805,41.694869,0 -30.330331,41.675363,0 -31.228616,41.797062,0 -32.081056,42.055412,0 -32.854683,42.440642,0 -33.517762,42.937934,0 -34.040605,43.527687,0 -34.396665,44.185943,0 -34.563959,44.884992,0 -36.820311,60.828507,0 -36.814802,61.53717,0 -36.487539,62.228706,0 -35.83326,62.86948399999999,0 -34.866143,63.426235,0 -33.623322,63.868245,0 -32.165903,64.169817,0 -30.576216,64.312707,0 -20,64.332795,0 -9.423784,64.312707,0 -7.834097000000001,64.169817,0 -6.376678,63.868245,0 -5.133857,63.426235,0 -4.16674,62.86948399999999,0 -3.512461,62.228706,0 -3.185198000000001,61.53717,0 -3.179689,60.828507,0 -3.930068,56.847309,0 -4.209485,56.100479,0 -4.769457,55.40646000000001,0 -5.56937,54.79796999999999,0 -6.563182000000001,54.302339,0 -7.701823,53.940964,0 -8.934710000000001,53.728987,0 -9.413892000000001,53.710493,0 -9.681194,51.731577,0 
							</coordinates>
						</LinearRing>
					</outerBoundaryIs>
				</Polygon>
			</MultiGeometry>
		</Placemark>
		<Placemark>
			<name>ShanwickOCA_BVol</name>
			<styleUrl>#m_ylw-pushpin</styleUrl>
			<Polygon>
				<outerBoundaryIs>
					<LinearRing>
						<coordinates>
							-30,61,0 -20,61,0 -10,61,0 -10,57,0 -15,57,0 -15,48.99999999999999,0 -11.16,48.47,0 -12,45,0 -30,45,0 -30,61,0 
						</coordinates>
					</LinearRing>
				</outerBoundaryIs>
			</Polygon>
		</Placemark>
	</Folder>
</Document>
</kml>
