{
  "fileVersion": 2,
  "checksum": "917175aee6c7229eeabcb02d4905c0e0",
  "fileFormatVersion": 1,
  "fileName": "nats.geojson",
  "fileGeneratedBy": "SVDD",
  "type": "FeatureCollection",
  "customerCollection": [
    {
      "type": "customer",
      "properties": {
        "customerID": "CUS-1000007",
        "customerName": "NATS",
        "customerRegion": "United Kingdom",
        "customerRecordVersion": 2,
        "customerEffectiveDate": "1999-12-31T23:59:59.999Z",
        "customerEndDate": "2099-12-31T23:59:59.999Z",
        "anspTargetReportBundleTimeMsecs": 50,
        "cat023StatusReportEnabled": false,
        "servicePredictionReportLookAheadHours": 24,
        "rateServicePredictionReportMins": 30,
        "rateServicePredictionDefinitionMins": 30,
        "rateVersionNumberReportMins": 5,
        "DDID": "0x0002",
        "anspTargetReportVersion": "2.4",
        "servicePredictionReportTimeIncrementMins": 1,
        "anspTargetReportTOA": true,
        "anspTargetReportFineTOMR": true,
        "trackNumberFieldEnabled": true,
        "anspTargetReportPosType": true,
        "anspTargetReportTOMRv": true,
        "anspTargetReportAGV": true,
        "anspTargetReportFTC0": true,
        "invalidMode3ACode": "0000",
        "duplicateType2SameSVol": false,
        "anspTargetReportValidation": false,
        "anspTargetReportFailedState": true,
        "sdpCollection": [
          {
            "sdpId": "0x000200",
            "sdpName": "Prestwick SDP",
            "sdpLocation": "Prestwick",
            "anspAssetIPAddress": "10.64.17.47",
            "anspAssetNetmask": "255.255.255.0",
            "anspInterfaceDuplexMode": "auto",
            "anspInterfaceDuplexSpeed": 100,
            "anspAssetDuplexType": "full",
            "serviceVolumeDelivery": [
              {
                "serviceVolumeId": "0x34a101",
                "singleOrDualStream": "single",
                "unicastOrMulticastStream1": "unicast",
                "reflectedSourceIPAddressStream1": "10.64.17.217",
                "reflectedDestinationIPAddressStream1": "10.68.0.217",
                "unicastOrMulticastStream2": "multicast",
                "reflectedPortCAT021": 8600,
                "reflectedPortCAT033": 8600,
                "reflectedPortCAT023EquipmentStatus": 8600,
                "reflectedPortCAT023ServiceVolumeStatus": 8600,
                "reflectedPortANSPCAT023ServiceVolumeStatus": 8600,
                "reflectedPortCAT025ServiceAndSystemStatus": 8600,
                "reflectedPortCAT025ServiceStatistics": 8600,
                "reflectedPortCAT238ServiceVolumeDefinition": 8600,
                "reflectedPortCAT238ServicePredictionReport": 8600,
                "reflectedPortCAT247VersionNumber": 8600,
                "reflectedPortCAT253TLE": 8600
              },
              {
                "serviceVolumeId": "0x34a501",
                "singleOrDualStream": "single",
                "unicastOrMulticastStream1": "unicast",
                "reflectedSourceIPAddressStream1": "10.64.17.214",
                "reflectedDestinationIPAddressStream1": "10.68.0.214",
                "unicastOrMulticastStream2": "multicast",
                "reflectedPortCAT021": 8600,
                "reflectedPortCAT033": 8600,
                "reflectedPortCAT023EquipmentStatus": 8600,
                "reflectedPortCAT023ServiceVolumeStatus": 8600,
                "reflectedPortANSPCAT023ServiceVolumeStatus": 8600,
                "reflectedPortCAT025ServiceAndSystemStatus": 8600,
                "reflectedPortCAT025ServiceStatistics": 8600,
                "reflectedPortCAT238ServiceVolumeDefinition": 8600,
                "reflectedPortCAT238ServicePredictionReport": 8600,
                "reflectedPortCAT247VersionNumber": 8600,
                "reflectedPortCAT253TLE": 8600
              },
              {
                "serviceVolumeId": "0x34a201",
                "singleOrDualStream": "single",
                "unicastOrMulticastStream1": "unicast",
                "reflectedSourceIPAddressStream1": "10.64.17.216",
                "reflectedDestinationIPAddressStream1": "10.68.0.216",
                "unicastOrMulticastStream2": "multicast",
                "reflectedPortCAT021": 8600,
                "reflectedPortCAT033": 8600,
                "reflectedPortCAT023EquipmentStatus": 8600,
                "reflectedPortCAT023ServiceVolumeStatus": 8600,
                "reflectedPortANSPCAT023ServiceVolumeStatus": 8600,
                "reflectedPortCAT025ServiceAndSystemStatus": 8600,
                "reflectedPortCAT025ServiceStatistics": 8600,
                "reflectedPortCAT238ServiceVolumeDefinition": 8600,
                "reflectedPortCAT238ServicePredictionReport": 8600,
                "reflectedPortCAT247VersionNumber": 8600,
                "reflectedPortCAT253TLE": 8600
              },
              {
                "serviceVolumeId": "0x34a301",
                "singleOrDualStream": "single",
                "unicastOrMulticastStream1": "unicast",
                "reflectedSourceIPAddressStream1": "10.64.17.215",
                "reflectedDestinationIPAddressStream1": "10.68.0.215",
                "unicastOrMulticastStream2": "multicast",
                "reflectedPortCAT021": 8600,
                "reflectedPortCAT033": 8600,
                "reflectedPortCAT023EquipmentStatus": 8600,
                "reflectedPortCAT023ServiceVolumeStatus": 8600,
                "reflectedPortANSPCAT023ServiceVolumeStatus": 8600,
                "reflectedPortCAT025ServiceAndSystemStatus": 8600,
                "reflectedPortCAT025ServiceStatistics": 8600,
                "reflectedPortCAT238ServiceVolumeDefinition": 8600,
                "reflectedPortCAT238ServicePredictionReport": 8600,
                "reflectedPortCAT247VersionNumber": 8600,
                "reflectedPortCAT253TLE": 8600
              }
            ]
          },
          {
            "sdpId": "0x000201",
            "sdpName": "Swanwick SDP",
            "sdpLocation": "Swanwick",
            "anspAssetIPAddress": "10.43.17.47",
            "anspAssetNetmask": "255.255.255.0",
            "anspInterfaceDuplexMode": "auto",
            "anspInterfaceDuplexSpeed": 100,
            "anspAssetDuplexType": "full",
            "serviceVolumeDelivery": [
              {
                "serviceVolumeId": "0x34a101",
                "singleOrDualStream": "single",
                "unicastOrMulticastStream1": "unicast",
                "reflectedSourceIPAddressStream1": "10.43.17.217",
                "reflectedDestinationIPAddressStream1": "10.48.1.217",
                "unicastOrMulticastStream2": "multicast",
                "reflectedPortCAT021": 8600,
                "reflectedPortCAT033": 8600,
                "reflectedPortCAT023EquipmentStatus": 8600,
                "reflectedPortCAT023ServiceVolumeStatus": 8600,
                "reflectedPortANSPCAT023ServiceVolumeStatus": 8600,
                "reflectedPortCAT025ServiceAndSystemStatus": 8600,
                "reflectedPortCAT025ServiceStatistics": 8600,
                "reflectedPortCAT238ServiceVolumeDefinition": 8600,
                "reflectedPortCAT238ServicePredictionReport": 8600,
                "reflectedPortCAT247VersionNumber": 8600,
                "reflectedPortCAT253TLE": 8600
              },
              {
                "serviceVolumeId": "0x34a501",
                "singleOrDualStream": "single",
                "unicastOrMulticastStream1": "unicast",
                "reflectedSourceIPAddressStream1": "10.43.17.214",
                "reflectedDestinationIPAddressStream1": "10.48.1.214",
                "unicastOrMulticastStream2": "multicast",
                "reflectedPortCAT021": 8600,
                "reflectedPortCAT033": 8600,
                "reflectedPortCAT023EquipmentStatus": 8600,
                "reflectedPortCAT023ServiceVolumeStatus": 8600,
                "reflectedPortANSPCAT023ServiceVolumeStatus": 8600,
                "reflectedPortCAT025ServiceAndSystemStatus": 8600,
                "reflectedPortCAT025ServiceStatistics": 8600,
                "reflectedPortCAT238ServiceVolumeDefinition": 8600,
                "reflectedPortCAT238ServicePredictionReport": 8600,
                "reflectedPortCAT247VersionNumber": 8600,
                "reflectedPortCAT253TLE": 8600
              },
              {
                "serviceVolumeId": "0x34a201",
                "singleOrDualStream": "single",
                "unicastOrMulticastStream1": "unicast",
                "reflectedSourceIPAddressStream1": "10.43.17.216",
                "reflectedDestinationIPAddressStream1": "10.48.1.216",
                "unicastOrMulticastStream2": "multicast",
                "reflectedPortCAT021": 8600,
                "reflectedPortCAT033": 8600,
                "reflectedPortCAT023EquipmentStatus": 8600,
                "reflectedPortCAT023ServiceVolumeStatus": 8600,
                "reflectedPortANSPCAT023ServiceVolumeStatus": 8600,
                "reflectedPortCAT025ServiceAndSystemStatus": 8600,
                "reflectedPortCAT025ServiceStatistics": 8600,
                "reflectedPortCAT238ServiceVolumeDefinition": 8600,
                "reflectedPortCAT238ServicePredictionReport": 8600,
                "reflectedPortCAT247VersionNumber": 8600,
                "reflectedPortCAT253TLE": 8600
              },
              {
                "serviceVolumeId": "0x34a301",
                "singleOrDualStream": "single",
                "unicastOrMulticastStream1": "unicast",
                "reflectedSourceIPAddressStream1": "10.43.17.215",
                "reflectedDestinationIPAddressStream1": "10.48.1.215",
                "unicastOrMulticastStream2": "multicast",
                "reflectedPortCAT021": 8600,
                "reflectedPortCAT033": 8600,
                "reflectedPortCAT023EquipmentStatus": 8600,
                "reflectedPortCAT023ServiceVolumeStatus": 8600,
                "reflectedPortANSPCAT023ServiceVolumeStatus": 8600,
                "reflectedPortCAT025ServiceAndSystemStatus": 8600,
                "reflectedPortCAT025ServiceStatistics": 8600,
                "reflectedPortCAT238ServiceVolumeDefinition": 8600,
                "reflectedPortCAT238ServicePredictionReport": 8600,
                "reflectedPortCAT247VersionNumber": 8600,
                "reflectedPortCAT253TLE": 8600
              }
            ]
          }
        ]
      }
    }
  ],
  "totalFeatures": 8,
  "features": [
    {
      "id": "34-a1-01-00",
      "type": "Feature",
      "bbox": [
        -36.820311,
        41.675363,
        -3.179689,
        64.332795
      ],
      "properties": {
        "featureVersion": 2,
        "featureEffectiveDate": "2019-01-08T23:59:59.999Z",
        "featureBirthDate": "1999-12-31T23:59:59.999Z",
        "featureEndDate": "2099-12-31T23:59:59.999Z",
        "customerID": "CUS-1000007",
        "volumeName": "Shanwick OCA",
        "icaoID": "EGGX",
        "sac": "0x34",
        "sic": "0xa1",
        "sid": "0x01",
        "featureID": "0x00",
        "featureType": "service",
        "serviceFeatureProperties": {
          "serviceType": "primary",
          "serviceDefaultMode": "active",
          "contractUpdateIntervalMsecs": 8000,
          "contractLatencyMsecs": 2000,
          "anspTargetReportUpdateMode": "update",
          "anspTargetReportMinWaitTimeMsecs": 700,
          "anspTargetReportPeriodicRateMsecs": 0,
          "anspTestTargetReportRateSecs": 5,
          "anspTestTargetReportICAO": "0xc1f901",
          "anspTestTargetReportPosition": [
            -21.000000,
            52.000000
          ],
          "anspTestTargetReportAltFeet": 0,
          "anspTestTargetReportMode3AEnabled": false,
          "anspTestTargetReportTargetIDEnabled": true,
          "anspTestTargetReportTargetID": "AIREON01",
          "offlineStatusThresholdPercent": 0,
          "degradedStatusThresholdPercent": 85,
          "networkServicesAddress": "233.52.161.1",
          "portTargetReportsCAT021": 59980,
          "portVersionNumberCAT247": 59981,
          "portAPDKeepAlive": 65535,
          "portEquipmentStatusCAT023": 59982,
          "portServiceVolumeStatusCAT023": 59983,
          "portServiceVolumeStatisticsCAT023": 59984,
          "portServiceDefinitionReportCAT238": 59988,
          "portServicePredictionReportCAT238": 59990,
          "portServiceSystemStatusReportCAT025": 59992,
          "portServiceStatisticsReportCAT025": 59993,
          "portConstellationTLEReportCAT253": 59994,
          "portCat033": 59681,
          "portCat033BelowMinLV": 59682,
          "portCat033DupType1": 59683,
          "portCat033DupType1BelowMinLV": 59684,
          "portCat033InvMode3A": 59685,
          "portCat033InvMode3ABelowMinLV": 59686,
          "latencyTPM": true,
          "updateIntervalTPM": true,
          "probabilityUpdateTPM": true,
          "probabilityLongGapTPM": true,
          "serviceDesignator": "1090ADSB",
          "serviceMode": "operational",
          "expectedTargetLoad": 2000,
          "sendSurfaceTargets": false,
          "minLinkVersion": 0,
          "anspTargetReportRxID1": 0,
          "gracefulDegradation": false,
          "gracefulDegradationLoad": 1000,
          "gracefulDegradationRate": 0.005,
          "serviceVolumeId": "0x34a101",
          "rateTLESecs": 30,
          "rateEquipmentStatusSecs": 5,
          "rateServiceVolumeStatusSecs": 5,
          "rateServiceVolumeStatisticsSecs": 5,
          "anspTestTargetReportTargetsNIC": 11,
          "anspTestTargetReportNoTargetsNIC": 10,
          "anspTestTargetReportTargetsNACp": 11,
          "anspTestTargetReportNoTargetsNACp": 10
        },
        "geometryType": "polygon",
        "centerPoint": [
          -21.459806,
          53.963731
        ],
        "floorFeet": 100,
        "ceilingFeet": 60000
      },
      "geometry": {
        "type": "Polygon",
        "coordinates": [
          [
            [
              -9.681194,
              51.731577
            ],
            [
              -9.413892,
              53.710493
            ],
            [
              -8.934710,
              53.728987
            ],
            [
              -7.701823,
              53.940964
            ],
            [
              -6.563182,
              54.302339
            ],
            [
              -5.569370,
              54.797970
            ],
            [
              -4.769457,
              55.406460
            ],
            [
              -4.209485,
              56.100479
            ],
            [
              -3.930068,
              56.847309
            ],
            [
              -3.179689,
              60.828507
            ],
            [
              -3.185198,
              61.537170
            ],
            [
              -3.512461,
              62.228706
            ],
            [
              -4.166740,
              62.869484
            ],
            [
              -5.133857,
              63.426235
            ],
            [
              -6.376678,
              63.868245
            ],
            [
              -7.834097,
              64.169817
            ],
            [
              -9.423784,
              64.312707
            ],
            [
              -20.000000,
              64.332795
            ],
            [
              -30.576216,
              64.312707
            ],
            [
              -32.165903,
              64.169817
            ],
            [
              -33.623322,
              63.868245
            ],
            [
              -34.866143,
              63.426235
            ],
            [
              -35.833260,
              62.869484
            ],
            [
              -36.487539,
              62.228706
            ],
            [
              -36.814802,
              61.537170
            ],
            [
              -36.820311,
              60.828507
            ],
            [
              -34.563959,
              44.884992
            ],
            [
              -34.396665,
              44.185943
            ],
            [
              -34.040605,
              43.527687
            ],
            [
              -33.517762,
              42.937934
            ],
            [
              -32.854683,
              42.440642
            ],
            [
              -32.081056,
              42.055412
            ],
            [
              -31.228616,
              41.797062
            ],
            [
              -30.330331,
              41.675363
            ],
            [
              -29.419805,
              41.694869
            ],
            [
              -12.742668,
              41.694869
            ],
            [
              -12.000000,
              45.000000
            ],
            [
              -11.160000,
              48.470000
            ],
            [
              -9.681194,
              51.731577
            ]
          ]
        ]
      }
    },
    {
      "id": "34-a5-01-00",
      "type": "Feature",
      "bbox": [
        -12.742668,
        41.667165,
        -3.551970,
        51.731577
      ],
      "properties": {
        "featureVersion": 2,
        "featureEffectiveDate": "2019-01-08T23:59:59.999Z",
        "featureBirthDate": "1999-12-31T23:59:59.999Z",
        "featureEndDate": "2099-12-31T23:59:59.999Z",
        "customerID": "CUS-1000007",
        "volumeName": "Shanwick SE Corner",
        "icaoID": "EGGX",
        "sac": "0x34",
        "sic": "0xa5",
        "sid": "0x01",
        "featureID": "0x00",
        "featureType": "service",
        "serviceFeatureProperties": {
          "serviceType": "primary",
          "serviceDefaultMode": "active",
          "contractUpdateIntervalMsecs": 8000,
          "contractLatencyMsecs": 2000,
          "anspTargetReportUpdateMode": "update",
          "anspTargetReportMinWaitTimeMsecs": 700,
          "anspTargetReportPeriodicRateMsecs": 0,
          "anspTestTargetReportRateSecs": 5,
          "anspTestTargetReportICAO": "0xc1f905",
          "anspTestTargetReportPosition": [
            -10.000000,
            46.500000
          ],
          "anspTestTargetReportAltFeet": 0,
          "anspTestTargetReportMode3AEnabled": false,
          "anspTestTargetReportTargetIDEnabled": true,
          "anspTestTargetReportTargetID": "AIREON05",
          "offlineStatusThresholdPercent": 0,
          "degradedStatusThresholdPercent": 85,
          "networkServicesAddress": "233.52.165.1",
          "portTargetReportsCAT021": 59980,
          "portVersionNumberCAT247": 59981,
          "portAPDKeepAlive": 65535,
          "portEquipmentStatusCAT023": 59982,
          "portServiceVolumeStatusCAT023": 59983,
          "portServiceVolumeStatisticsCAT023": 59984,
          "portServiceDefinitionReportCAT238": 59988,
          "portServicePredictionReportCAT238": 59990,
          "portServiceSystemStatusReportCAT025": 59992,
          "portServiceStatisticsReportCAT025": 59993,
          "portConstellationTLEReportCAT253": 59994,
          "portCat033": 59681,
          "portCat033BelowMinLV": 59682,
          "portCat033DupType1": 59683,
          "portCat033DupType1BelowMinLV": 59684,
          "portCat033InvMode3A": 59685,
          "portCat033InvMode3ABelowMinLV": 59686,
          "latencyTPM": true,
          "updateIntervalTPM": true,
          "probabilityUpdateTPM": true,
          "probabilityLongGapTPM": true,
          "serviceDesignator": "1090ADSB",
          "serviceMode": "operational",
          "expectedTargetLoad": 2000,
          "sendSurfaceTargets": false,
          "minLinkVersion": 0,
          "anspTargetReportRxID1": 0,
          "gracefulDegradation": false,
          "gracefulDegradationLoad": 1000,
          "gracefulDegradationRate": 0.005,
          "serviceVolumeId": "0x34a501",
          "rateTLESecs": 30,
          "rateEquipmentStatusSecs": 5,
          "rateServiceVolumeStatusSecs": 5,
          "rateServiceVolumeStatisticsSecs": 5,
          "anspTestTargetReportTargetsNIC": 11,
          "anspTestTargetReportNoTargetsNIC": 10,
          "anspTestTargetReportTargetsNACp": 11,
          "anspTestTargetReportNoTargetsNACp": 10
        },
        "geometryType": "polygon",
        "centerPoint": [
          -7.923005,
          46.379355
        ],
        "floorFeet": 100,
        "ceilingFeet": 60000
      },
      "geometry": {
        "type": "Polygon",
        "coordinates": [
          [
            [
              -12.742668,
              41.694869
            ],
            [
              -12.580195,
              41.694869
            ],
            [
              -11.885296,
              41.667165
            ],
            [
              -8.564704,
              41.667165
            ],
            [
              -7.593583,
              41.729134
            ],
            [
              -6.658884,
              41.950317
            ],
            [
              -5.801326,
              42.321190
            ],
            [
              -5.060309,
              42.825527
            ],
            [
              -4.472871,
              43.440734
            ],
            [
              -4.072266,
              44.138377
            ],
            [
              -3.886041,
              44.884992
            ],
            [
              -3.551970,
              48.176637
            ],
            [
              -3.609281,
              48.983131
            ],
            [
              -3.962383,
              49.755801
            ],
            [
              -4.604291,
              50.446273
            ],
            [
              -5.505633,
              51.009081
            ],
            [
              -6.613492,
              51.405488
            ],
            [
              -7.853786,
              51.607246
            ],
            [
              -9.681194,
              51.731577
            ],
            [
              -11.160000,
              48.470000
            ],
            [
              -12.000000,
              45.000000
            ],
            [
              -12.742668,
              41.694869
            ]
          ]
        ]
      }
    },
    {
      "id": "34-a2-01-00",
      "type": "Feature",
      "bbox": [
        -9.305067,
        48.003727,
        6.442129,
        55.000000
      ],
      "properties": {
        "featureVersion": 2,
        "featureEffectiveDate": "2019-01-08T23:59:59.999Z",
        "featureBirthDate": "1999-12-31T23:59:59.999Z",
        "featureEndDate": "2099-12-31T23:59:59.999Z",
        "customerID": "CUS-1000007",
        "volumeName": "London FIR",
        "icaoID": "EGTT",
        "sac": "0x34",
        "sic": "0xa2",
        "sid": "0x01",
        "featureID": "0x00",
        "featureType": "service",
        "serviceFeatureProperties": {
          "serviceType": "primary",
          "serviceDefaultMode": "active",
          "contractUpdateIntervalMsecs": 8000,
          "contractLatencyMsecs": 2000,
          "anspTargetReportUpdateMode": "update",
          "anspTargetReportMinWaitTimeMsecs": 700,
          "anspTargetReportPeriodicRateMsecs": 0,
          "anspTestTargetReportRateSecs": 5,
          "anspTestTargetReportICAO": "0xc1f902",
          "anspTestTargetReportPosition": [
            -4.000000,
            52.000000
          ],
          "anspTestTargetReportAltFeet": 0,
          "anspTestTargetReportMode3AEnabled": false,
          "anspTestTargetReportTargetIDEnabled": true,
          "anspTestTargetReportTargetID": "AIREON02",
          "offlineStatusThresholdPercent": 0,
          "degradedStatusThresholdPercent": 85,
          "networkServicesAddress": "233.52.162.1",
          "portTargetReportsCAT021": 59980,
          "portVersionNumberCAT247": 59981,
          "portAPDKeepAlive": 65535,
          "portEquipmentStatusCAT023": 59982,
          "portServiceVolumeStatusCAT023": 59983,
          "portServiceVolumeStatisticsCAT023": 59984,
          "portServiceDefinitionReportCAT238": 59988,
          "portServicePredictionReportCAT238": 59990,
          "portServiceSystemStatusReportCAT025": 59992,
          "portServiceStatisticsReportCAT025": 59993,
          "portConstellationTLEReportCAT253": 59994,
          "portCat033": 59681,
          "portCat033BelowMinLV": 59682,
          "portCat033DupType1": 59683,
          "portCat033DupType1BelowMinLV": 59684,
          "portCat033InvMode3A": 59685,
          "portCat033InvMode3ABelowMinLV": 59686,
          "latencyTPM": true,
          "updateIntervalTPM": true,
          "probabilityUpdateTPM": true,
          "probabilityLongGapTPM": true,
          "serviceDesignator": "1090ADSB",
          "serviceMode": "operational",
          "expectedTargetLoad": 2000,
          "sendSurfaceTargets": false,
          "minLinkVersion": 0,
          "anspTargetReportRxID1": 0,
          "gracefulDegradation": false,
          "gracefulDegradationLoad": 1000,
          "gracefulDegradationRate": 0.005,
          "serviceVolumeId": "0x34a201",
          "rateTLESecs": 30,
          "rateEquipmentStatusSecs": 5,
          "rateServiceVolumeStatusSecs": 5,
          "rateServiceVolumeStatisticsSecs": 5,
          "anspTestTargetReportTargetsNIC": 11,
          "anspTestTargetReportNoTargetsNIC": 10,
          "anspTestTargetReportTargetsNACp": 11,
          "anspTestTargetReportNoTargetsNACp": 10
        },
        "geometryType": "polygon",
        "centerPoint": [
          -2.194240,
          51.884273
        ],
        "floorFeet": 100,
        "ceilingFeet": 60000
      },
      "geometry": {
        "type": "Polygon",
        "coordinates": [
          [
            [
              -7.430436,
              48.083763
            ],
            [
              -7.249583,
              48.123947
            ],
            [
              -7.068455,
              48.163841
            ],
            [
              -6.887050,
              48.203444
            ],
            [
              -6.705354,
              48.242758
            ],
            [
              -6.523383,
              48.281781
            ],
            [
              -6.341145,
              48.320509
            ],
            [
              -6.158616,
              48.358947
            ],
            [
              -5.975833,
              48.397088
            ],
            [
              -5.792765,
              48.434935
            ],
            [
              -5.609422,
              48.472487
            ],
            [
              -5.425808,
              48.509743
            ],
            [
              -5.241937,
              48.546700
            ],
            [
              -5.057797,
              48.583358
            ],
            [
              -4.873381,
              48.619719
            ],
            [
              -4.688704,
              48.655781
            ],
            [
              -4.503770,
              48.691540
            ],
            [
              -4.318575,
              48.726998
            ],
            [
              -4.133114,
              48.762155
            ],
            [
              -3.947393,
              48.797009
            ],
            [
              -3.761418,
              48.831560
            ],
            [
              -3.575190,
              48.865805
            ],
            [
              -3.388702,
              48.899747
            ],
            [
              -3.201974,
              48.933381
            ],
            [
              -3.014993,
              48.966708
            ],
            [
              -2.827752,
              48.999729
            ],
            [
              -2.640273,
              49.032440
            ],
            [
              -2.452549,
              49.064843
            ],
            [
              -2.264578,
              49.096936
            ],
            [
              -2.076365,
              49.128719
            ],
            [
              -1.887919,
              49.160190
            ],
            [
              -1.836904,
              49.168654
            ],
            [
              -0.266544,
              49.167497
            ],
            [
              -0.031530,
              49.179975
            ],
            [
              0.196148,
              49.221045
            ],
            [
              0.408807,
              49.289325
            ],
            [
              2.107123,
              49.945116
            ],
            [
              2.323330,
              50.045923
            ],
            [
              2.503914,
              50.173447
            ],
            [
              2.640985,
              50.322361
            ],
            [
              2.689887,
              50.414401
            ],
            [
              2.871213,
              50.499094
            ],
            [
              3.051521,
              50.626291
            ],
            [
              3.188328,
              50.774465
            ],
            [
              3.275468,
              50.937455
            ],
            [
              3.308686,
              51.108408
            ],
            [
              3.314617,
              51.297915
            ],
            [
              3.353025,
              51.344874
            ],
            [
              3.442944,
              51.454401
            ],
            [
              3.533299,
              51.563856
            ],
            [
              3.624091,
              51.673238
            ],
            [
              3.715321,
              51.782545
            ],
            [
              3.806992,
              51.891773
            ],
            [
              3.899122,
              52.000938
            ],
            [
              3.991687,
              52.110011
            ],
            [
              4.084717,
              52.219016
            ],
            [
              4.178199,
              52.327938
            ],
            [
              4.272150,
              52.436790
            ],
            [
              4.366557,
              52.545553
            ],
            [
              4.461442,
              52.654245
            ],
            [
              4.556791,
              52.762848
            ],
            [
              4.652626,
              52.871378
            ],
            [
              4.748936,
              52.979821
            ],
            [
              4.845732,
              53.088183
            ],
            [
              4.943018,
              53.196462
            ],
            [
              5.040796,
              53.304658
            ],
            [
              5.139071,
              53.412769
            ],
            [
              5.237844,
              53.520791
            ],
            [
              5.337131,
              53.628735
            ],
            [
              5.436918,
              53.736585
            ],
            [
              5.537219,
              53.844347
            ],
            [
              5.638044,
              53.952026
            ],
            [
              5.739385,
              54.059611
            ],
            [
              5.841256,
              54.167111
            ],
            [
              5.943653,
              54.274514
            ],
            [
              6.046589,
              54.381830
            ],
            [
              6.150063,
              54.489051
            ],
            [
              6.253969,
              54.596065
            ],
            [
              6.256523,
              54.598697
            ],
            [
              6.271926,
              54.615060
            ],
            [
              6.394806,
              54.797196
            ],
            [
              6.438116,
              54.947155
            ],
            [
              6.442129,
              55.000000
            ],
            [
              -5.500000,
              55.000000
            ],
            [
              -5.500000,
              53.916666
            ],
            [
              -6.880933,
              53.304324
            ],
            [
              -6.860773,
              52.718242
            ],
            [
              -7.009940,
              52.639986
            ],
            [
              -7.168562,
              52.556260
            ],
            [
              -7.326582,
              52.472323
            ],
            [
              -7.484002,
              52.388180
            ],
            [
              -7.640826,
              52.303828
            ],
            [
              -7.797058,
              52.219271
            ],
            [
              -7.952697,
              52.134509
            ],
            [
              -8.107745,
              52.049546
            ],
            [
              -8.262208,
              51.964381
            ],
            [
              -8.416086,
              51.879016
            ],
            [
              -8.569384,
              51.793454
            ],
            [
              -8.722098,
              51.707696
            ],
            [
              -8.874398,
              51.621653
            ],
            [
              -9.061274,
              51.490007
            ],
            [
              -9.198757,
              51.336305
            ],
            [
              -9.281052,
              51.167662
            ],
            [
              -9.305067,
              50.991792
            ],
            [
              -9.241348,
              48.825522
            ],
            [
              -9.201388,
              48.630540
            ],
            [
              -9.095227,
              48.447225
            ],
            [
              -8.929439,
              48.285618
            ],
            [
              -8.713585,
              48.154475
            ],
            [
              -8.459619,
              48.060832
            ],
            [
              -8.181256,
              48.009678
            ],
            [
              -7.893304,
              48.003727
            ],
            [
              -7.610994,
              48.043293
            ],
            [
              -7.430436,
              48.083763
            ]
          ]
        ]
      }
    },
    {
      "id": "34-a3-01-00",
      "type": "Feature",
      "bbox": [
        -11.710762,
        53.304324,
        6.521489,
        61.828538
      ],
      "properties": {
        "featureVersion": 2,
        "featureEffectiveDate": "2019-01-08T23:59:59.999Z",
        "featureBirthDate": "1999-12-31T23:59:59.999Z",
        "featureEndDate": "2099-12-31T23:59:59.999Z",
        "customerID": "CUS-1000007",
        "volumeName": "Scottish FIR",
        "icaoID": "EGPX",
        "sac": "0x34",
        "sic": "0xa3",
        "sid": "0x01",
        "featureID": "0x00",
        "featureType": "service",
        "serviceFeatureProperties": {
          "serviceType": "primary",
          "serviceDefaultMode": "active",
          "contractUpdateIntervalMsecs": 8000,
          "contractLatencyMsecs": 2000,
          "anspTargetReportUpdateMode": "update",
          "anspTargetReportMinWaitTimeMsecs": 700,
          "anspTargetReportPeriodicRateMsecs": 0,
          "anspTestTargetReportRateSecs": 5,
          "anspTestTargetReportICAO": "0xc1f903",
          "anspTestTargetReportPosition": [
            -4.000000,
            57.000000
          ],
          "anspTestTargetReportAltFeet": 0,
          "anspTestTargetReportMode3AEnabled": false,
          "anspTestTargetReportTargetIDEnabled": true,
          "anspTestTargetReportTargetID": "AIREON03",
          "offlineStatusThresholdPercent": 0,
          "degradedStatusThresholdPercent": 85,
          "networkServicesAddress": "233.52.163.1",
          "portTargetReportsCAT021": 59980,
          "portVersionNumberCAT247": 59981,
          "portAPDKeepAlive": 65535,
          "portEquipmentStatusCAT023": 59982,
          "portServiceVolumeStatusCAT023": 59983,
          "portServiceVolumeStatisticsCAT023": 59984,
          "portServiceDefinitionReportCAT238": 59988,
          "portServicePredictionReportCAT238": 59990,
          "portServiceSystemStatusReportCAT025": 59992,
          "portServiceStatisticsReportCAT025": 59993,
          "portConstellationTLEReportCAT253": 59994,
          "portCat033": 59681,
          "portCat033BelowMinLV": 59682,
          "portCat033DupType1": 59683,
          "portCat033DupType1BelowMinLV": 59684,
          "portCat033InvMode3A": 59685,
          "portCat033InvMode3ABelowMinLV": 59686,
          "latencyTPM": true,
          "updateIntervalTPM": true,
          "probabilityUpdateTPM": true,
          "probabilityLongGapTPM": true,
          "serviceDesignator": "1090ADSB",
          "serviceMode": "operational",
          "expectedTargetLoad": 2000,
          "sendSurfaceTargets": false,
          "minLinkVersion": 0,
          "anspTargetReportRxID1": 0,
          "gracefulDegradation": false,
          "gracefulDegradationLoad": 1000,
          "gracefulDegradationRate": 0.005,
          "serviceVolumeId": "0x34a301",
          "rateTLESecs": 30,
          "rateEquipmentStatusSecs": 5,
          "rateServiceVolumeStatusSecs": 5,
          "rateServiceVolumeStatisticsSecs": 5,
          "anspTestTargetReportTargetsNIC": 11,
          "anspTestTargetReportNoTargetsNIC": 10,
          "anspTestTargetReportTargetsNACp": 11,
          "anspTestTargetReportNoTargetsNACp": 10
        },
        "geometryType": "polygon",
        "centerPoint": [
          -3.787769,
          57.911878
        ],
        "floorFeet": 100,
        "ceilingFeet": 60000
      },
      "geometry": {
        "type": "Polygon",
        "coordinates": [
          [
            [
              -9.180616,
              53.845455
            ],
            [
              -9.086382,
              53.786427
            ],
            [
              -8.838666,
              53.685719
            ],
            [
              -8.561619,
              53.618214
            ],
            [
              -6.880933,
              53.304324
            ],
            [
              -5.500000,
              53.916666
            ],
            [
              -5.500000,
              55.000000
            ],
            [
              6.442110,
              54.999756
            ],
            [
              6.521489,
              56.990438
            ],
            [
              6.488408,
              57.182602
            ],
            [
              6.373980,
              57.365355
            ],
            [
              6.187736,
              57.524881
            ],
            [
              6.188467,
              57.525195
            ],
            [
              5.218014,
              58.163096
            ],
            [
              4.889641,
              58.379022
            ],
            [
              4.555496,
              58.598817
            ],
            [
              4.539750,
              58.608922
            ],
            [
              4.393547,
              58.700883
            ],
            [
              3.832276,
              59.053963
            ],
            [
              3.824573,
              59.058705
            ],
            [
              3.031157,
              59.534188
            ],
            [
              2.291042,
              59.964418
            ],
            [
              2.285882,
              59.967350
            ],
            [
              2.234727,
              59.996244
            ],
            [
              1.675626,
              60.315386
            ],
            [
              1.710762,
              60.989257
            ],
            [
              1.681113,
              61.165843
            ],
            [
              1.573931,
              61.335314
            ],
            [
              1.393011,
              61.489793
            ],
            [
              1.145882,
              61.621992
            ],
            [
              0.843613,
              61.725589
            ],
            [
              0.500352,
              61.795576
            ],
            [
              0.132617,
              61.828538
            ],
            [
              -10.132617,
              61.828538
            ],
            [
              -10.500352,
              61.795576
            ],
            [
              -10.843613,
              61.725589
            ],
            [
              -11.145882,
              61.621992
            ],
            [
              -11.393011,
              61.489793
            ],
            [
              -11.573931,
              61.335314
            ],
            [
              -11.681113,
              61.165843
            ],
            [
              -11.710762,
              60.989257
            ],
            [
              -11.425584,
              54.557705
            ],
            [
              -11.379568,
              54.364704
            ],
            [
              -11.259043,
              54.183167
            ],
            [
              -11.071446,
              54.022831
            ],
            [
              -10.827457,
              53.892189
            ],
            [
              -10.540342,
              53.798086
            ],
            [
              -10.225264,
              53.745413
            ],
            [
              -9.898573,
              53.736893
            ],
            [
              -9.577108,
              53.772966
            ],
            [
              -9.180616,
              53.845455
            ]
          ]
        ]
      }
    },
    {
      "id": "34-a1-01-01",
      "type": "Feature",
      "bbox": [
        -30.000000,
        45.000000,
        -10.000000,
        61.000000
      ],
      "properties": {
        "featureVersion": 2,
        "featureEffectiveDate": "2019-01-08T23:59:59.999Z",
        "featureBirthDate": "1999-12-31T23:59:59.999Z",
        "featureEndDate": "2099-12-31T23:59:59.999Z",
        "customerID": "CUS-1000007",
        "volumeName": "Shanwick OCA",
        "icaoID": "EGGX",
        "sac": "0x34",
        "sic": "0xa1",
        "sid": "0x01",
        "featureID": "0x01",
        "featureType": "billing",
        "billingFeatureProperties": {
          "billingType": "usage",
          "billingPriority": 0,
          "billingEffectiveDate": "2019-01-08T23:59:59.999Z",
          "failedStateThresholdSecs": 86400
        },
        "geometryType": "polygon",
        "centerPoint": [
          -21.333445,
          53.154144
        ],
        "floorFeet": 100,
        "ceilingFeet": 60000
      },
      "geometry": {
        "type": "Polygon",
        "coordinates": [
          [
            [
              -30.000000,
              61.000000
            ],
            [
              -30.000000,
              45.000000
            ],
            [
              -12.000000,
              45.000000
            ],
            [
              -11.160000,
              48.470000
            ],
            [
              -15.000000,
              49.000000
            ],
            [
              -15.000000,
              57.000000
            ],
            [
              -10.000000,
              57.000000
            ],
            [
              -10.000000,
              61.000000
            ],
            [
              -20.000000,
              61.000000
            ],
            [
              -30.000000,
              61.000000
            ]
          ]
        ]
      }
    },
    {
      "id": "34-a5-01-01",
      "type": "Feature",
      "bbox": [
        -12.000000,
        45.000000,
        -8.450000,
        48.470000
      ],
      "properties": {
        "featureVersion": 2,
        "featureEffectiveDate": "2019-01-08T23:59:59.999Z",
        "featureBirthDate": "1999-12-31T23:59:59.999Z",
        "featureEndDate": "2099-12-31T23:59:59.999Z",
        "customerID": "CUS-1000007",
        "volumeName": "Shanwick SE Corner",
        "icaoID": "EGGX",
        "sac": "0x34",
        "sic": "0xa5",
        "sid": "0x01",
        "featureID": "0x01",
        "featureType": "billing",
        "billingFeatureProperties": {
          "billingType": "usage",
          "billingPriority": 0,
          "billingEffectiveDate": "2019-01-08T23:59:59.999Z",
          "failedStateThresholdSecs": 86400
        },
        "geometryType": "polygon",
        "centerPoint": [
          -10.038934,
          46.619348
        ],
        "floorFeet": 100,
        "ceilingFeet": 60000
      },
      "geometry": {
        "type": "Polygon",
        "coordinates": [
          [
            [
              -11.160000,
              48.470000
            ],
            [
              -12.000000,
              45.000000
            ],
            [
              -8.450000,
              45.000000
            ],
            [
              -8.450000,
              48.300000
            ],
            [
              -11.160000,
              48.470000
            ]
          ]
        ]
      }
    },
    {
      "id": "34-a2-01-01",
      "type": "Feature",
      "bbox": [
        -8.000000,
        48.833334,
        5.000000,
        55.000000
      ],
      "properties": {
        "featureVersion": 2,
        "featureEffectiveDate": "2019-01-08T23:59:59.999Z",
        "featureBirthDate": "1999-12-31T23:59:59.999Z",
        "featureEndDate": "2099-12-31T23:59:59.999Z",
        "customerID": "CUS-1000007",
        "volumeName": "London FIR",
        "icaoID": "EGTT",
        "sac": "0x34",
        "sic": "0xa2",
        "sid": "0x01",
        "featureID": "0x01",
        "featureType": "billing",
        "billingFeatureProperties": {
          "billingType": "usage",
          "billingPriority": 0,
          "billingEffectiveDate": "2019-01-08T23:59:59.999Z",
          "failedStateThresholdSecs": 86400
        },
        "geometryType": "polygon",
        "centerPoint": [
          -2.025132,
          52.348725
        ],
        "floorFeet": 100,
        "ceilingFeet": 60000
      },
      "geometry": {
        "type": "Polygon",
        "coordinates": [
          [
            [
              -2.000000,
              50.000000
            ],
            [
              -0.250000,
              50.000000
            ],
            [
              1.466669,
              50.666666
            ],
            [
              1.466669,
              51.000000
            ],
            [
              2.000000,
              51.116667
            ],
            [
              2.000000,
              51.500000
            ],
            [
              5.000000,
              55.000000
            ],
            [
              -5.500000,
              55.000000
            ],
            [
              -5.500000,
              52.333334
            ],
            [
              -8.000000,
              51.000000
            ],
            [
              -8.000000,
              48.833334
            ],
            [
              -2.000000,
              50.000000
            ]
          ]
        ]
      }
    },
    {
      "id": "34-a3-01-01",
      "type": "Feature",
      "bbox": [
        -10.000000,
        53.916666,
        5.000000,
        61.000000
      ],
      "properties": {
        "featureVersion": 2,
        "featureEffectiveDate": "2019-01-08T23:59:59.999Z",
        "featureBirthDate": "1999-12-31T23:59:59.999Z",
        "featureEndDate": "2099-12-31T23:59:59.999Z",
        "customerID": "CUS-1000007",
        "volumeName": "Scottish FIR",
        "icaoID": "EGPX",
        "sac": "0x34",
        "sic": "0xa3",
        "sid": "0x01",
        "featureID": "0x01",
        "featureType": "billing",
        "billingFeatureProperties": {
          "billingType": "usage",
          "billingPriority": 0,
          "billingEffectiveDate": "2019-01-08T23:59:59.999Z",
          "failedStateThresholdSecs": 86400
        },
        "geometryType": "polygon",
        "centerPoint": [
          -3.469115,
          57.663367
        ],
        "floorFeet": 100,
        "ceilingFeet": 60000
      },
      "geometry": {
        "type": "Polygon",
        "coordinates": [
          [
            [
              5.000000,
              57.000000
            ],
            [
              0.000000,
              60.000000
            ],
            [
              0.000000,
              61.000000
            ],
            [
              -10.000000,
              61.000000
            ],
            [
              -10.000000,
              54.566668
            ],
            [
              -9.000000,
              54.746702
            ],
            [
              -8.250000,
              55.333334
            ],
            [
              -7.333300,
              55.416670
            ],
            [
              -6.933329,
              55.330000
            ],
            [
              -8.166700,
              54.416662
            ],
            [
              -5.500000,
              53.916666
            ],
            [
              -5.500000,
              55.000000
            ],
            [
              5.000000,
              55.000002
            ],
            [
              5.000000,
              57.000000
            ]
          ]
        ]
      }
    }
  ]
}
