"shapeid","x","y"
"0.0","77.16666667000004","19.716666670000052"
"0.0","77.16666667000004","8.23541491006219"
"0.0","76.998596","8.365274"
"0.0","76.575821","8.876942"
"0.0","76.570831","8.939165"
"0.0","76.6586","8.964998"
"0.0","76.66748","9.003611"
"0.0","76.534149","8.964998"
"0.0","76.380264","9.281387"
"0.0","76.307755","9.496943"
"0.0","76.242752","9.966108"
"0.0","76.292206","9.913887"
"0.0","76.257767","9.906942"
"0.0","76.28627","9.831053"
"0.0","76.35693400000014","9.776665"
"0.0","76.382751","9.646666"
"0.0","76.352203","9.522499"
"0.0","76.46998600000012","9.495275"
"0.0","76.498596","9.532221"
"0.0","76.424423","9.594442000000129"
"0.0","76.38415500000013","9.860275"
"0.0","76.21638500000012","10.132219"
"0.0","76.23887600000012","9.983608"
"0.0","76.203049","10.037777"
"0.0","75.68887300000011","11.435276"
"0.0","75.613037","11.471664"
"0.0","75.528595","11.700275"
"0.0","75.274414","12.007776"
"0.0","75.192474","12.007776"
"0.0","74.810257","12.864719"
"0.0","74.619141","13.832499"
"0.0","74.497757","14.046387"
"0.0","74.375259","14.448332"
"0.0","74.411926","14.483332000000132"
"0.0","74.358032","14.568331"
"0.0","74.333603","14.515554"
"0.0","74.300812","14.521666"
"0.0","74.250824","14.718887"
"0.0","74.089706","14.797777"
"0.0","74.101364","14.867094"
"0.0","73.958328","15.065832"
"0.0","73.905823","15.301388"
"0.0","73.784424","15.403053000000114"
"0.0","73.912491","15.40111"
"0.0","73.96360800000014","15.363609"
"0.0","73.950272","15.4"
"0.0","73.791367","15.450554"
"0.0","73.697205","15.721939"
"0.0","73.641937","15.740274000000113"
"0.0","73.593872","15.892776"
"0.0","73.44775400000015","16.055832"
"0.0","73.37001084566383","16.330612494434906"
"0.0","76.0","16.66666667000004"
"0.0","76.00000190800006","18.00000190800006"
"0.0","76.0","19.316666670000075"
"0.0","77.16666667000004","19.716666670000052"
