{
"type": "FeatureCollection",
"name": "edmonton_BVol",
"crs": { "type": "name", "properties": { "name": "urn:ogc:def:crs:OGC:1.3:CRS84" } },
"features": [

{ "type": "Feature", "properties": { }, "geometry": { "type": "MultiPolygon", "coordinates": [ [ [ [ -60.0, 90.0 ], [ -60.0, 82.000002 ], [ -60.00064, 81.999896 ], [ -60.817254, 81.864325 ], [ -60.822938, 81.863381 ], [ -60.827227, 81.862636 ], [ -60.827228, 81.862636 ], [ -61.090637, 81.816885 ], [ -61.355951, 81.770802 ], [ -61.610646, 81.726564 ], [ -61.618726, 81.72516 ], [ -61.625762, 81.723883 ], [ -62.38031, 81.586886 ], [ -62.388408, 81.585415 ], [ -62.393032, 81.584524 ], [ -63.674517, 81.337618 ], [ -63.675565, 81.337416 ], [ -63.676534, 81.337217 ], [ -63.779201, 81.316034 ], [ -63.851653, 81.302001 ], [ -63.855317, 81.301258 ], [ -64.029189, 81.264456 ], [ -64.718862, 81.122161 ], [ -64.721612, 81.121593 ], [ -64.724859, 81.120881 ], [ -65.201342, 81.016354 ], [ -65.391046, 80.976201 ], [ -65.391549, 80.976089 ], [ -65.52216, 80.945976 ], [ -65.713615, 80.903976 ], [ -65.718099, 80.902993 ], [ -65.722049, 80.902068 ], [ -66.35544, 80.753859 ], [ -66.664936, 80.682503 ], [ -66.67042, 80.68119 ], [ -66.733828, 80.665319 ], [ -66.820249, 80.645097 ], [ -66.821915, 80.644707 ], [ -66.823292, 80.644363 ], [ -67.863504, 80.383961 ], [ -67.866587, 80.383189 ], [ -67.869894, 80.382305 ], [ -67.949163, 80.361118 ], [ -68.008483, 80.34627 ], [ -68.013925, 80.344849 ], [ -68.225517, 80.287254 ], [ -68.853773, 80.119333 ], [ -68.856162, 80.118694 ], [ -68.857986, 80.118173 ], [ -69.079432, 80.054818 ], [ -69.26188, 80.005156 ], [ -69.266603, 80.003816 ], [ -69.514092, 79.930465 ], [ -69.92171, 79.813848 ], [ -69.924443, 79.813066 ], [ -69.926903, 79.812308 ], [ -70.279925, 79.703488 ], [ -70.558231, 79.621003 ], [ -70.562511, 79.619678 ], [ -70.7853, 79.547704 ], [ -71.050554, 79.465939 ], [ -71.052508, 79.465336 ], [ -71.054584, 79.464646 ], [ -71.462401, 79.328961 ], [ -71.762374, 79.232052 ], [ -71.766286, 79.230735 ], [ -71.923932, 79.175405 ], [ -72.107661, 79.114277 ], [ -72.108918, 79.113859 ], [ -72.110321, 79.113356 ], [ -72.578543, 78.945655 ], [ -72.883178, 78.838736 ], [ -72.886592, 78.83749 ], [ -72.985325, 78.799959 ], [ -73.099328, 78.759128 ], [ -73.09973, 78.758983 ], [ -73.100202, 78.758802 ], [ -73.657722, 78.544368 ], [ -73.928359, 78.441494 ], [ -73.931053, 78.44043 ], [ -73.974518, 78.422522 ], [ -74.029839, 78.401244 ], [ -74.030418, 78.401021 ], [ -74.030866, 78.400836 ], [ -74.999869, 78.000056 ], [ -75.0, 78.000002 ], [ -75.000049, 77.999915 ], [ -75.22248, 77.605436 ], [ -75.228646, 77.594072 ], [ -75.229546, 77.592412 ], [ -75.432321, 77.209052 ], [ -75.440321, 77.193415 ], [ -75.457291, 77.158829 ], [ -75.480759, 77.114156 ], [ -75.48209, 77.111623 ], [ -75.484454, 77.106793 ], [ -75.686849, 76.693366 ], [ -75.690712, 76.685475 ], [ -75.693067, 76.680255 ], [ -75.703997, 76.656031 ], [ -75.720147, 76.623118 ], [ -75.720693, 76.621945 ], [ -75.999977, 76.000054 ], [ -76.0, 76.000002 ], [ -75.999999, 76.000002 ], [ -76.0, 76.0 ], [ -57.750003318179871, 65.00000199999883 ], [ -60.0, 65.0 ], [ -60.000005, 65.0 ], [ -60.000287, 65.000007 ], [ -61.235658, 65.023883 ], [ -61.678116, 65.035481 ], [ -61.693204, 65.035721 ], [ -61.747944, 65.036591 ], [ -61.997995, 65.040149 ], [ -62.224024, 65.042986 ], [ -62.227234, 65.043026 ], [ -62.248108, 65.043288 ], [ -62.498276, 65.046009 ], [ -62.748492, 65.048312 ], [ -62.998746, 65.050196 ], [ -63.249032, 65.051661 ], [ -63.499342, 65.052708 ], [ -63.601289, 65.052964 ], [ -63.616724, 65.053003 ], [ -63.749667, 65.053336 ], [ -64.0, 65.053546 ], [ -64.250333, 65.053336 ], [ -64.500658, 65.052708 ], [ -64.750968, 65.051661 ], [ -65.001254, 65.050196 ], [ -65.251508, 65.048312 ], [ -65.501724, 65.046009 ], [ -65.630527, 65.044608 ], [ -65.642259, 65.04448 ], [ -65.976886, 65.038168 ], [ -66.436375, 65.03366 ], [ -66.447587, 65.033482 ], [ -67.999567, 65.000011 ], [ -67.999732, 65.000007 ], [ -68.0, 65.0 ], [ -68.000468, 64.999937 ], [ -68.00052, 64.99993 ], [ -69.095502, 64.848326 ], [ -69.114567, 64.8456 ], [ -69.159367, 64.83901 ], [ -69.502531, 64.788534 ], [ -70.087798, 64.702446 ], [ -70.106654, 64.699594 ], [ -70.196164, 64.685644 ], [ -70.736658, 64.601409 ], [ -71.177524, 64.5327 ], [ -71.26082, 64.518837 ], [ -72.532241, 64.307231 ], [ -73.890754, 64.063547 ], [ -74.052848, 64.034472 ], [ -74.21356, 64.003662 ], [ -74.428302, 63.963824 ], [ -74.615317, 63.928137 ], [ -74.801856, 63.892209 ], [ -74.987917, 63.856041 ], [ -75.173498, 63.819634 ], [ -75.214562, 63.811339 ], [ -75.255801, 63.803341 ], [ -75.27534, 63.799472 ], [ -76.176432, 63.617026 ], [ -76.177262, 63.616854 ], [ -76.193178, 63.613559 ], [ -76.193871, 63.613416 ], [ -77.182998, 63.403679 ], [ -77.225892, 63.394107 ], [ -78.300219, 63.154365 ], [ -78.335823, 63.14642 ], [ -78.350661, 63.143018 ], [ -79.307613, 62.918642 ], [ -79.999343, 62.750162 ], [ -80.0, 62.750002 ], [ -80.0, 64.408335 ], [ -81.437429, 64.162389 ], [ -81.438528, 64.162194 ], [ -82.660242, 63.938332 ], [ -82.665278, 63.937382 ], [ -82.725154, 63.92567 ], [ -82.75485, 63.92041 ], [ -82.759768, 63.919476 ], [ -83.405863, 63.792519 ], [ -84.097719, 63.656569 ], [ -84.140464, 63.64817 ], [ -84.146237, 63.646996 ], [ -84.356174, 63.602516 ], [ -85.67493, 63.323108 ], [ -85.860389, 63.283814 ], [ -85.863858, 63.283047 ], [ -86.203307, 63.205299 ], [ -87.117297, 62.995958 ], [ -87.447324, 62.920368 ], [ -87.449341, 62.919906 ], [ -87.451267, 62.91943 ], [ -87.777165, 62.838884 ], [ -88.756225, 62.596909 ], [ -89.164373, 62.496035 ], [ -89.166386, 62.495537 ], [ -89.168882, 62.494878 ], [ -89.507432, 62.405403 ], [ -90.06668, 62.257599 ], [ -90.419451, 62.164366 ], [ -90.423288, 62.163325 ], [ -90.650668, 62.098895 ], [ -92.051741, 61.70189 ], [ -92.292327, 61.633718 ], [ -92.295452, 61.632794 ], [ -92.392949, 61.603457 ], [ -93.160392, 61.372533 ], [ -93.221209, 61.353885 ], [ -93.338265, 61.317807 ], [ -93.455053, 61.281628 ], [ -93.571572, 61.24535 ], [ -93.687822, 61.208971 ], [ -93.803803, 61.172492 ], [ -93.919517, 61.135914 ], [ -94.034963, 61.099237 ], [ -94.150142, 61.062461 ], [ -94.265054, 61.025588 ], [ -94.379699, 60.988616 ], [ -94.494078, 60.951547 ], [ -94.60819, 60.914382 ], [ -94.722037, 60.877119 ], [ -94.835618, 60.83976 ], [ -94.942497, 60.804433 ], [ -94.948935, 60.802305 ], [ -95.061986, 60.764755 ], [ -95.149575, 60.73552 ], [ -95.460321, 60.630955 ], [ -95.47215, 60.626949 ], [ -95.71592, 60.54193 ], [ -96.347002, 60.321829 ], [ -96.79965, 60.163961 ], [ -96.803383, 60.162622 ], [ -97.389238, 59.946132 ], [ -97.844041, 59.778069 ], [ -98.164431, 59.659675 ], [ -98.167253, 59.658601 ], [ -99.400556, 59.155414 ], [ -100.484722, 58.708319 ], [ -102.37044, 57.907188 ], [ -102.371667, 57.906667 ], [ -102.373925, 57.9056 ], [ -104.082702, 57.098679 ], [ -104.094033, 57.093328 ], [ -104.1242, 57.078355 ], [ -104.673015, 56.805959 ], [ -104.699986, 56.792572 ], [ -104.718591, 56.78304 ], [ -105.563251, 56.350278 ], [ -105.577489, 56.342983 ], [ -105.605745, 56.328081 ], [ -106.027202, 56.105811 ], [ -106.061236, 56.087697 ], [ -106.062968, 56.086776 ], [ -106.918696, 55.62221 ], [ -106.920416, 55.621261 ], [ -107.017399, 55.566719 ], [ -107.205088, 55.461166 ], [ -107.701985, 55.181721 ], [ -107.706076, 55.17938 ], [ -108.416497, 54.766765 ], [ -108.416498, 54.766765 ], [ -108.416667, 54.766667 ], [ -108.69444, 54.766667 ], [ -108.694444, 54.766667 ], [ -108.678514, 54.741027 ], [ -108.635843, 54.657389 ], [ -108.610525, 54.584729 ], [ -108.606057, 54.571906 ], [ -108.589303, 54.485237 ], [ -108.585628, 54.398047 ], [ -108.594977, 54.311001 ], [ -108.617198, 54.224758 ], [ -108.652042, 54.139966 ], [ -108.699175, 54.057261 ], [ -108.758173, 53.977258 ], [ -108.828533, 53.900547 ], [ -108.909679, 53.827694 ], [ -109.000962, 53.759231 ], [ -109.101672, 53.695657 ], [ -109.211037, 53.637433 ], [ -109.328236, 53.584979 ], [ -109.452398, 53.538671 ], [ -109.582615, 53.498843 ], [ -109.717941, 53.465779 ], [ -109.814792, 53.447677 ], [ -109.853808, 53.440385 ], [ -109.857402, 53.439714 ], [ -109.858768, 53.439533 ], [ -109.946815, 53.427875 ], [ -109.997563, 53.421156 ], [ -110.0, 53.42083 ], [ -109.999657, 49.000605 ], [ -110.101387, 48.999437 ], [ -110.134743, 49.000002 ], [ -110.201111, 48.999437 ], [ -110.301666, 49.000002 ], [ -110.334442, 48.999437 ], [ -110.367767, 49.000002 ], [ -110.467773, 48.999437 ], [ -110.501106, 49.000002 ], [ -110.601936, 48.999437 ], [ -110.66777, 49.000002 ], [ -110.768623, 48.999437 ], [ -111.334732, 49.000002 ], [ -111.368332, 48.999437 ], [ -111.801102, 48.999437 ], [ -111.867493, 49.000002 ], [ -112.034729, 48.999437 ], [ -112.068069, 49.000002 ], [ -112.168327, 48.999437 ], [ -112.234734, 49.000002 ], [ -112.301666, 48.999437 ], [ -112.335007, 49.000002 ], [ -112.401672, 48.999437 ], [ -112.434998, 49.000002 ], [ -112.5, 48.999453 ], [ -112.501678, 48.999437 ], [ -112.535004, 49.000002 ], [ -112.568336, 48.999437 ], [ -112.601669, 49.000002 ], [ -112.934723, 49.000002 ], [ -112.968063, 48.999437 ], [ -113.034439, 49.000002 ], [ -113.234161, 48.999437 ], [ -113.334732, 49.000002 ], [ -113.368332, 48.999437 ], [ -113.500839, 49.000002 ], [ -113.567497, 48.999437 ], [ -113.767776, 49.000002 ], [ -114.034439, 48.999437 ], [ -114.05986, 49.000605 ], [ -114.335007, 48.999437 ], [ -114.367767, 49.000002 ], [ -114.467499, 48.999437 ], [ -114.534729, 49.000002 ], [ -114.601097, 48.999437 ], [ -114.633904, 49.000002 ], [ -114.6667, 49.000002 ], [ -114.901108, 48.999437 ], [ -115.001106, 49.000002 ], [ -115.034157, 48.999437 ], [ -115.134453, 49.000002 ], [ -115.167503, 48.999437 ], [ -115.368057, 49.000002 ], [ -115.401108, 48.999437 ], [ -115.468063, 49.000002 ], [ -115.501404, 48.999437 ], [ -115.5, 49.000002 ], [ -115.137521, 49.499971 ], [ -115.1375, 49.5 ], [ -115.137499, 49.500002 ], [ -115.136944, 49.586668 ], [ -115.139375, 49.644998 ], [ -115.139444, 49.646669 ], [ -115.143023, 49.924775 ], [ -115.143056, 49.927222 ], [ -115.143055, 49.927224 ], [ -115.142854, 49.929127 ], [ -115.141583, 49.965747 ], [ -115.145267, 50.002298 ], [ -115.153889, 50.038503 ], [ -115.167393, 50.074084 ], [ -115.185688, 50.10877 ], [ -115.208642, 50.142293 ], [ -115.236089, 50.174397 ], [ -115.267827, 50.204834 ], [ -115.303617, 50.233368 ], [ -115.343191, 50.259779 ], [ -115.386248, 50.283863 ], [ -115.432458, 50.305432 ], [ -115.481466, 50.32432 ], [ -115.532895, 50.340378 ], [ -115.586345, 50.353482 ], [ -115.641401, 50.363529 ], [ -115.697634, 50.370442 ], [ -115.754607, 50.374166 ], [ -115.811873, 50.374672 ], [ -115.868986, 50.371956 ], [ -115.925499, 50.36604 ], [ -115.980971, 50.356969 ], [ -116.034971, 50.344815 ], [ -116.087078, 50.329672 ], [ -116.267778, 50.534445 ], [ -116.601667, 50.908056 ], [ -117.220278, 51.574724 ], [ -117.41361, 51.786943 ], [ -117.714443, 52.105001 ], [ -119.0, 53.4 ], [ -119.485832, 53.721392 ], [ -120.170555, 54.163336 ], [ -120.774721, 54.544443 ], [ -121.692499, 55.101946 ], [ -122.268055, 55.440557 ], [ -122.636667, 55.656668 ], [ -123.25, 56.000002 ], [ -123.250321, 56.000049 ], [ -124.63159, 56.201925 ], [ -124.668729, 56.207353 ], [ -124.670989, 56.207683 ], [ -124.673146, 56.20797 ], [ -126.14576, 56.403784 ], [ -126.148249, 56.404115 ], [ -126.150651, 56.404402 ], [ -126.287326, 56.420707 ], [ -126.959551, 56.500906 ], [ -127.743143, 56.59439 ], [ -127.745854, 56.594713 ], [ -127.748853, 56.595028 ], [ -127.934896, 56.61455 ], [ -128.115505, 56.635594 ], [ -128.126905, 56.63684 ], [ -129.426943, 56.771112 ], [ -130.53171, 56.873947 ], [ -130.550601, 56.875705 ], [ -130.572533, 56.877746 ], [ -130.587346, 56.878959 ], [ -132.065934, 56.999944 ], [ -132.066005, 56.99995 ], [ -132.045303, 57.045113 ], [ -132.366799, 57.091234 ], [ -132.248642, 57.210729 ], [ -132.254844, 57.219012 ], [ -132.369919, 57.349804 ], [ -132.553802, 57.496582 ], [ -132.660965, 57.616779 ], [ -132.751144, 57.69603 ], [ -132.869446, 57.839779 ], [ -133.07016, 58.000389 ], [ -133.172363, 58.153694 ], [ -133.200104, 58.17461 ], [ -133.209366, 58.181557 ], [ -133.220917, 58.19025 ], [ -133.270035, 58.227112 ], [ -133.345474, 58.276333 ], [ -133.345765, 58.276612 ], [ -133.361115, 58.28055 ], [ -133.41836, 58.346286 ], [ -133.461533, 58.387722 ], [ -133.395964, 58.42108 ], [ -133.377335, 58.430557 ], [ -133.427362, 58.456218 ], [ -133.429993, 58.459162 ], [ -133.558899, 58.528048 ], [ -133.578888, 58.539721 ], [ -133.601654, 58.550547 ], [ -133.627463, 58.564768 ], [ -133.683319, 58.595545 ], [ -133.690779, 58.602533 ], [ -133.707138, 58.612278 ], [ -133.84053, 58.729443 ], [ -133.972382, 58.767307 ], [ -134.221657, 58.849068 ], [ -134.243393, 58.856197 ], [ -134.258118, 58.861027 ], [ -134.308334, 58.901222 ], [ -134.336502, 58.923416 ], [ -134.332214, 58.930652 ], [ -134.31658, 58.957036 ], [ -134.313522, 58.962196 ], [ -134.407166, 58.979221 ], [ -134.381912, 59.038776 ], [ -134.447144, 59.089222 ], [ -134.483414, 59.131611 ], [ -134.55278, 59.131212 ], [ -134.566406, 59.130548 ], [ -134.575553, 59.136506 ], [ -134.679138, 59.192276 ], [ -134.699013, 59.244492 ], [ -134.714172, 59.246103 ], [ -134.738892, 59.250277 ], [ -134.948405, 59.279501 ], [ -134.959915, 59.280918 ], [ -135.030533, 59.346359 ], [ -134.995175, 59.38171 ], [ -134.990927, 59.387567 ], [ -135.101028, 59.427528 ], [ -135.077271, 59.451778 ], [ -135.027557, 59.474751 ], [ -135.028534, 59.539249 ], [ -135.02861, 59.544109 ], [ -135.028885, 59.563667 ], [ -135.11264, 59.61961 ], [ -135.117828, 59.623085 ], [ -135.138611, 59.624443 ], [ -135.157578, 59.625721 ], [ -135.16232, 59.628533 ], [ -135.164139, 59.629612 ], [ -135.219833, 59.662777 ], [ -135.233673, 59.69614 ], [ -135.252747, 59.698277 ], [ -135.346798, 59.732734 ], [ -135.3575, 59.738889 ], [ -135.483056, 59.8 ], [ -135.938889, 59.666944 ], [ -136.172222, 59.641944 ], [ -136.226043, 59.631776 ], [ -136.238754, 59.628613 ], [ -136.249725, 59.625862 ], [ -136.265335, 59.621971 ], [ -136.27356, 59.619915 ], [ -136.290802, 59.615612 ], [ -136.339302, 59.603487 ], [ -136.353912, 59.599834 ], [ -136.239807, 59.559418 ], [ -136.238626, 59.528191 ], [ -136.269682, 59.496278 ], [ -136.294444, 59.470833 ], [ -136.299725, 59.469252 ], [ -136.304977, 59.464527 ], [ -136.360687, 59.450806 ], [ -136.361313, 59.450668 ], [ -136.362473, 59.45039 ], [ -136.368195, 59.448971 ], [ -136.372421, 59.449612 ], [ -136.373749, 59.449833 ], [ -136.395512, 59.453202 ], [ -136.400833, 59.452778 ], [ -136.427389, 59.458136 ], [ -136.464106, 59.463819 ], [ -136.477112, 59.465832 ], [ -136.477341, 59.376251 ], [ -136.472672, 59.322029 ], [ -136.472275, 59.318027 ], [ -136.469223, 59.284084 ], [ -136.495728, 59.275139 ], [ -136.492195, 59.266197 ], [ -136.48967, 59.259804 ], [ -136.548303, 59.201664 ], [ -136.575833, 59.17 ], [ -136.580461, 59.169777 ], [ -136.584412, 59.165859 ], [ -136.738618, 59.162144 ], [ -136.82872, 59.159973 ], [ -136.854659, 59.147109 ], [ -136.876724, 59.136166 ], [ -136.969666, 59.10125 ], [ -137.036972, 59.078751 ], [ -137.063117, 59.069985 ], [ -137.08461, 59.062778 ], [ -137.175644, 59.032166 ], [ -137.207449, 59.022632 ], [ -137.23145, 59.015438 ], [ -137.254167, 59.0075 ], [ -137.445833, 58.910556 ], [ -137.447436, 58.910686 ], [ -137.451721, 58.90836 ], [ -137.526108, 58.906361 ], [ -137.500031, 58.98539 ], [ -137.54216, 59.106415 ], [ -137.607391, 59.243805 ], [ -137.946567, 59.421119 ], [ -138.09141, 59.49576 ], [ -138.626328, 59.768555 ], [ -138.668777, 59.809639 ], [ -138.679581, 59.845333 ], [ -138.707504, 59.906307 ], [ -138.79866, 59.924641 ], [ -139.053833, 59.994804 ], [ -139.06131, 59.999641 ], [ -139.199005, 60.088276 ], [ -139.07222, 60.319416 ], [ -139.074861, 60.352104 ], [ -139.108567, 60.351529 ], [ -139.686045, 60.335391 ], [ -139.698883, 60.328333 ], [ -139.771667, 60.292498 ], [ -139.793884, 60.280275 ], [ -139.812494, 60.2717 ], [ -139.981247, 60.181946 ], [ -140.45302, 60.306671 ], [ -140.459991, 60.296946 ], [ -140.471924, 60.283884 ], [ -140.493042, 60.257776 ], [ -140.501953, 60.244715 ], [ -140.507781, 60.237969 ], [ -140.521393, 60.222216 ], [ -140.786957, 60.269991 ], [ -140.946381, 60.297777 ], [ -140.988782, 60.305917 ], [ -140.995558, 60.307376 ], [ -141.00058, 60.366663 ], [ -141.001129, 60.399439 ], [ -141.00067, 65.120496 ], [ -141.000311, 68.808657 ], [ -141.000229125878832, 69.648812638214807 ], [ -141.0, 69.65 ], [ -60.0, 90.0 ] ] ] ] } }
]
}
